4.11292e-09	0	0	0
2.27126e-08	0	0	0
2.61593e-08	0	0	0
2.87886e-08	0	0	0
4.65459e-08	0	0	0
5.43937e-08	0	0	0
1.22917e-07	0	0	0
1.23395e-07	0	0	0
1.84861e-07	0	0	0
1.87945e-07	0	0	0
2.38665e-07	0	0	0
3.59374e-07	0	0	0
3.6431e-07	0	0	0
4.98903e-07	0	0	0
6.02399e-07	0	0	0
6.66353e-07	0	0	0
7.57725e-07	0	0	0
8.25588e-07	0	0	0
8.44653e-07	0	0	0
1.36949e-06	0	0	0
1.38356e-06	0	0	0
1.74936e-06	0	0	0
1.80995e-06	0	0	0
2.57109e-06	0	0	0
4.40454e-06	0	0	0
4.47665e-06	0	0	0
4.52384e-06	0	0	0
4.61512e-06	0	0	0
4.84083e-06	0	0	0
5.13269e-06	0	0	0
5.37582e-06	0	0	0
6.14893e-06	0	0	0
6.25264e-06	0	0	0
6.90907e-06	0	0	0
7.54338e-06	0	0	0
7.83697e-06	0	0	0
8.25023e-06	0	0	0
8.68531e-06	0	0	0
8.69427e-06	0	0	0
8.71668e-06	0	0	0
9.06587e-06	0	0	0
9.33103e-06	0	0	0
9.71674e-06	0	0	0
9.82353e-06	0	0	0
1.01716e-05	0	0	0
1.10018e-05	0	0	0
1.10861e-05	0	0	0
1.12645e-05	0	0	0
1.16155e-05	0	0	0
1.23914e-05	0	0	0
1.2978e-05	0	0	0
1.34759e-05	0	0	0
1.35627e-05	0	0	0
1.36214e-05	0	0	0
1.3729e-05	0	0	0
1.47983e-05	0	0	0
1.49243e-05	0	0	0
1.5126e-05	0	0	0
1.52119e-05	0	0	0
1.53836e-05	0	0	0
1.57142e-05	0	0	0
1.62162e-05	0	0	0
1.62854e-05	0	0	0
1.65651e-05	0	0	0
1.66315e-05	0	0	0
1.69146e-05	0	0	0
1.6959e-05	0	0	0
1.75587e-05	0	0	0
1.77395e-05	0	0	0
1.84108e-05	0	0	0
1.90656e-05	0	0	0
1.94568e-05	0	0	0
1.95831e-05	0	0	0
1.978e-05	0	0	0
1.9918e-05	0	0	0
2.06383e-05	0	0	0
2.1041e-05	0	0	0
2.11246e-05	0	0	0
2.15814e-05	0	0	0
2.19106e-05	0	0	0
2.25132e-05	0	0	0
2.31279e-05	0	0	0
2.34909e-05	0	0	0
2.45288e-05	0	0	0
2.51971e-05	0	0	0
2.54925e-05	0	0	0
2.67409e-05	0	0	0
2.67849e-05	0	0	0
2.69789e-05	0	0	0
2.71318e-05	0	0	0
2.79222e-05	0	0	0
2.90996e-05	0	0	0
2.94403e-05	0	0	0
2.94718e-05	0	0	0
2.9968e-05	0	0	0
3.05179e-05	0	0	0
3.1009e-05	0	0	0
3.11228e-05	0	0	0
3.12527e-05	0	0	0
3.20141e-05	0	0	0
3.32664e-05	0	0	0
3.41464e-05	0	0	0
3.47195e-05	0	0	0
3.49148e-05	0	0	0
3.60979e-05	0	0	0
3.66066e-05	0	0	0
3.70334e-05	0	0	0
3.73401e-05	0	0	0
3.81603e-05	0	0	0
3.83187e-05	0	0	0
3.86382e-05	0	0	0
3.88974e-05	0	0	0
4.08388e-05	0	0	0
4.12419e-05	0	0	0
4.39372e-05	0	0	0
4.46648e-05	0	0	0
4.50381e-05	0	0	0
4.54501e-05	0	0	0
4.56959e-05	0	0	0
4.60974e-05	0	0	0
4.64192e-05	0	0	0
4.65813e-05	0	0	0
4.68314e-05	0	0	0
4.72472e-05	0	0	0
4.74372e-05	0	0	0
4.79613e-05	0	0	0
4.80345e-05	0	0	0
4.87353e-05	0	0	0
4.89188e-05	0	0	0
4.90168e-05	0	0	0
4.93192e-05	0	0	0
4.93527e-05	0	0	0
4.94375e-05	0	0	0
4.98895e-05	0	0	0
5.0736e-05	0	0	0
5.12445e-05	0	0	0
5.13881e-05	0	0	0
5.22001e-05	0	0	0
5.32171e-05	0	0	0
5.33736e-05	0	0	0
5.39823e-05	0	0	0
5.43147e-05	0	0	0
5.43967e-05	0	0	0
5.48072e-05	0	0	0
5.48198e-05	0	0	0
5.51688e-05	0	0	0
5.53379e-05	0	0	0
5.60864e-05	0	0	0
5.65148e-05	0	0	0
5.74831e-05	0	0	0
5.7837e-05	0	0	0
5.89541e-05	0	0	0
5.91265e-05	0	0	0
5.95564e-05	0	0	0
5.96213e-05	0	0	0
6.00449e-05	0	0	0
6.02771e-05	0	0	0
6.04824e-05	0	0	0
6.05726e-05	0	0	0
6.12771e-05	0	0	0
6.13535e-05	0	0	0
6.15335e-05	0	0	0
6.16774e-05	0	0	0
6.21613e-05	0	0	0
6.2162e-05	0	0	0
6.39904e-05	0	0	0
6.44263e-05	0	0	0
6.53162e-05	0	0	0
6.58043e-05	0	0	0
6.6086e-05	0	0	0
6.81602e-05	0	0	0
7.05872e-05	0	0	0
7.07716e-05	0	0	0
7.12257e-05	0	0	0
7.2432e-05	0	0	0
7.26423e-05	0	0	0
7.31612e-05	0	0	0
7.41434e-05	0	0	0
7.43907e-05	0	0	0
7.47596e-05	0	0	0
7.51957e-05	0	0	0
7.56955e-05	0	0	0
7.62527e-05	0	0	0
7.63511e-05	0	0	0
7.72168e-05	0	0	0
7.81943e-05	0	0	0
7.82176e-05	0	0	0
7.99918e-05	0	0	0
8.01493e-05	0	0	0
8.01861e-05	0	0	0
8.14776e-05	0	0	0
8.20284e-05	0	0	0
8.20741e-05	0	0	0
8.33188e-05	0	0	0
8.44366e-05	0	0	0
8.44404e-05	0	0	0
8.58442e-05	0	0	0
8.61126e-05	0	0	0
8.64064e-05	0	0	0
8.65265e-05	0	0	0
8.74816e-05	0	0	0
8.891e-05	0	0	0
8.91702e-05	0	0	0
8.93824e-05	0	0	0
9.06872e-05	0	0	0
9.24075e-05	0	0	0
9.33037e-05	0	0	0
9.55562e-05	0	0	0
9.61793e-05	0	0	0
9.6716e-05	0	0	0
9.69052e-05	0	0	0
9.76022e-05	0	0	0
9.85343e-05	0	0	0
0.000100058	0	0	0
0.000100182	0	0	0
0.000102133	0	0	0
0.000102165	0	0	0
0.000103303	0	0	0
0.000104364	0	0	0
0.00010501	0	0	0
0.000105197	0	0	0
0.0001088	0	0	0
0.000111944	0	0	0
0.000111992	0	0	0
0.00011211	0	0	0
0.000112231	0	0	0
0.000112544	0	0	0
0.000113225	0	0	0
0.000113679	0	0	0
0.000114001	0	0	0
0.000114179	0	0	0
0.000116149	0	0	0
0.000117574	0	0	0
0.000119678	0	0	0
0.000119983	0	0	0
0.000120191	0	0	0
0.000120411	0	0	0
0.000121057	0	0	0
0.00012157	0	0	0
0.000121953	0	0	0
0.00012233	0	0	0
0.000123293	0	0	0
0.00012341	0	0	0
0.000124775	0	0	0
0.000126774	0	0	0
0.000127588	0	0	0
0.00012924	0	0	0
0.000130823	0	0	0
0.000132792	0	0	0
0.000133599	0	0	0
0.000135539	0	0	0
0.000136236	0	0	0
0.000136779	0	0	0
0.000136797	0	0	0
0.000137304	0	0	0
0.000137544	0	0	0
0.000137945	0	0	0
0.000138513	0	0	0
0.0001395	0	0	0
0.00014021	0	0	0
0.00014054	0	0	0
0.000141349	0	0	0
0.000142032	0	0	0
0.000142667	0	0	0
0.000143037	0	0	0
0.000143729	0	0	0
0.000145331	0	0	0
0.000145361	0	0	0
0.000147192	0	0	0
0.000147761	0	0	0
0.000147843	0	0	0
0.000148341	0	0	0
0.000148717	0	0	0
0.000149161	0	0	0
0.000149222	0	0	0
0.000150636	0	0	0
0.000151653	0	0	0
0.000153153	0	0	0
0.000154164	0	0	0
0.000161083	0	0	0
0.000163344	0	0	0
0.000164353	0	0	0
0.000164677	0	0	0
0.000165678	0	0	0
0.000167818	0	0	0
0.000168242	0	0	0
0.000170065	0	0	0
0.000171928	0	0	0
0.000172498	0	0	0
0.000172685	0	0	0
0.00017285	0	0	0
0.000173515	0	0	0
0.000174014	0	0	0
0.000174087	0	0	0
0.000174331	0	0	0
0.00017757	0	0	0
0.000178064	0	0	0
0.000178164	0	0	0
0.000179244	0	0	0
0.000179334	0	0	0
0.00017942	0	0	0
0.000179658	0	0	0
0.000180683	0	0	0
0.000181836	0	0	0
0.000182752	0	0	0
0.00018432	0	0	0
0.00018606	0	0	0
0.000188837	0	0	0
0.00018975	0	0	0
0.000189927	0	0	0
0.000190752	0	0	0
0.000191287	0	0	0
0.000195387	0	0	0
0.000196029	0	0	0
0.000199218	0	0	0
0.000200984	0	0	0
0.000202382	0	0	0
0.000202998	0	0	0
0.000203134	0	0	0
0.000203612	0	0	0
0.00020759	0	0	0
0.000208253	0	0	0
0.000208268	0	0	0
0.000208782	0	0	0
0.000209035	0	0	0
0.000213095	0	0	0
0.000214402	0	0	0
0.000214437	0	0	0
0.000220608	0	0	0
0.000220613	0	0	0
0.000220927	0	0	0
0.000221719	0	0	0
0.000222978	0	0	0
0.00022764	0	0	0
0.000233486	0	0	0
0.000235764	0	0	0
0.000237141	0	0	0
0.000246926	0	0	0
0.000261445	0	0	0
0.00026488	0	0	0
0.000267857	0	0	0
0.00026901	0	0	0
0.000270111	0	0	0
0.000271973	0	0	0
0.000275333	0	0	0
0.000279669	0	0	0
0.000283175	0	0	0
0.000283693	0	0	0
0.000288937	0	0	0
0.000291832	0	0	0
0.000292806	0	0	0
0.000299406	0	0	0
0.000299685	0	0	0
0.000300517	0	0	0
0.000305847	0	0	0
0.000306193	0	0	0
0.000308693	0	0	0
0.00030987	0	0	0
0.000311509	0	0	0
0.000312176	0	0	0
0.000317167	0	0	0
0.00031869	0	0	0
0.000324399	0	0	0
0.000327499	0	0	0
0.00033418	0	0	0
0.00034067	0	0	0
0.000343637	0	0	0
0.000343848	0	0	0
0.000344062	0	0	0
0.000344892	0	0	0
0.000346411	0	0	0
0.000346524	0	0	0
0.000351362	0	0	0
0.000352833	0	0	0
0.000358987	0	0	0
0.000360428	0	0	0
0.00036121	0	0	0
0.000364865	0	0	0
0.000365718	0	0	0
0.000367295	0	0	0
0.000369536	0	0	0
0.000370791	0	0	0
0.000372866	0	0	0
0.000378123	0	0	0
0.000383449	0	0	0
0.000384891	0	0	0
0.000389541	0	0	0
0.000394323	0	0	0
0.000397877	0	0	0
0.000399311	0	0	0
0.000400966	0	0	0
0.000401762	0	0	0
0.000406422	0	0	0
0.000409566	0	0	0
0.000411253	0	0	0
0.000413647	0	0	0
0.00041977	0	0	0
0.000424495	0	0	0
0.000427016	0	0	0
0.000432459	0	0	0
0.000435304	0	0	0
0.000437482	0	0	0
0.000439033	0	0	0
0.000443202	0	0	0
0.000446794	0	0	0
0.000446896	0	0	0
0.000447195	0	0	0
0.00044905	0	0	0
0.000449765	0	0	0
0.000462656	0	0	0
0.000470244	0	0	0
0.000472388	0	0	0
0.000472494	0	0	0
0.000480945	0	0	0
0.000484381	0	0	0
0.000490056	0	0	0
0.000494371	0	0	0
0.000497384	0	0	0
0.000502036	0	0	0
0.000508486	0	0	0
0.000510973	0	0	0
0.00052065	0	0	0
0.000529339	0	0	0
0.000537365	0	0	0
0.000545444	0	0	0
0.00054677	0	0	0
0.000549798	0	0	0
0.000552202	0	0	0
0.00056603	0	0	0
0.000569722	0	0	0
0.00057435	0	0	0
0.000578922	0	0	0
0.000580885	0	0	0
0.00058121	0	0	0
0.000589191	0	0	0
0.000610095	0	0	0
0.000614985	0	0	0
0.000640735	0	0	0
0.000644837	0	0	0
0.000654017	0	0	0
0.000654439	0	0	0
0.000658072	0	0	0
0.000658075	0	0	0
0.000659387	0	0	0
0.00066001	0	0	0
0.000666281	0	0	0
0.000678923	0	0	0
0.000683798	0	0	0
0.000684221	0	0	0
0.000695611	0	0	0
0.00069621	0	0	0
0.000699443	0	0	0
0.000701568	0	0	0
0.000703839	0	0	0
0.000722631	0	0	0
0.000736299	0	0	0
0.000742353	0	0	0
0.000766172	0	0	0
0.000779979	0	0	0
0.000786588	0	0	0
0.000791283	0	0	0
0.000820191	0	0	0
0.00083316	0	0	0
0.000840429	0	0	0
0.000841815	0	0	0
0.000844927	0	0	0
0.000852795	0	0	0
0.000860411	0	0	0
0.000863783	0	0	0
0.000875674	0	0	0
0.000887357	0	0	0
0.000932448	0	0	0
0.000949873	0	0	0
0.000961813	0	0	0
0.000970872	0	0	0
0.000988832	0	0	0
0.000997347	0	0	0
0.00100303	0	0	0
0.0010122	0	0	0
0.00104417	0	0	0
0.00105005	0	0	0
0.00105039	1	1	0
0.00105321	1	1	0
0.00106354	1	1	0
0.00107066	1	1	0
0.0010758	1	1	0
0.00107709	1	1	0
0.00107748	1	1	0
0.00108474	1	1	0
0.00108592	1	1	0
0.00108814	1	1	0
0.00109156	1	1	0
0.00112141	3	0	0
0.00112487	3	0	0
0.00112608	3	0	0
0.00112672	3	0	0
0.00112974	3	0	0
0.00114603	3	0	0
0.00115355	3	0	0
0.00115754	3	0	0
0.00116373	3	0	0
0.00116842	3	0	0
0.00117912	3	0	0
0.00119059	3	0	0
0.00119208	3	0	0
0.00119771	3	0	0
0.00120532	3	0	0
0.00121238	3	0	0
0.00122597	3	0	0
0.00123553	3	0	0
0.00124153	3	0	0
0.00125234	3	0	0
0.00125981	3	0	0
0.00127056	3	0	0
0.0012726	3	0	0
0.00128363	3	0	0
0.00128523	3	0	0
0.00129329	3	0	0
0.00130352	3	0	0
0.00134466	3	0	0
0.00135746	3	0	0
0.0013793	3	0	0
0.00138096	3	0	0
0.00138151	3	0	0
0.00138862	3	0	0
0.00140908	3	0	0
0.00144163	3	0	0
0.00145345	3	0	0
0.00146385	3	0	0
0.00146963	3	0	0
0.00147984	3	0	0
0.00148037	3	0	0
0.0015554	3	0	0
0.0015823	3	0	0
0.00158456	3	0	0
0.00160977	3	0	0
0.00162563	3	0	0
0.00165281	3	0	0
0.00167015	3	0	0
0.00178512	3	0	0
0.00178648	3	0	0
0.00181378	3	0	0
0.00181528	3	0	0
0.00190486	3	0	0
0.00197384	3	0	0
0.00198356	3	0	0
0.00201362	3	0	0
0.00202054	3	0	0
0.00218362	3	0	0
0.00220847	3	0	0
0.00223628	3	0	0
0.002331	3	0	0
0.00234925	4	1	0
0.00236518	4	1	0
0.00238027	4	1	0
0.00238839	4	1	0
0.00240877	4	1	0
0.00242558	4	1	0
0.00242829	4	1	0
0.00259348	6	0	0
0.00259865	6	0	0
0.00260272	6	0	0
0.00262777	6	0	0
0.00263701	6	0	0
0.00282526	6	0	0
0.00288232	6	0	0
0.00290794	6	0	0
0.00300569	6	0	0
0.00304114	6	0	0
0.00311418	6	0	0
0.00313309	6	0	0
0.00330193	6	0	0
0.00350026	6	0	0
0.00355663	6	0	0
0.00419045	6	0	0
0.00464193	6	0	0
0.00464426	6	0	0
0.00510458	6	0	0
0.00551797	6	0	0
0.00555711	6	0	0
0.00575829	6	0	0
0.00592575	6	0	0
0.00604501	6	0	0
0.00604604	6	0	0
0.00605971	6	0	0
0.0061135	6	0	0
0.00617973	6	0	0
0.00620904	6	0	0
0.00695681	6	0	0
0.00800147	6	0	0
0.00844453	6	0	0
0.00876739	6	0	0
0.00883492	6	0	0
0.00901083	6	0	0
0.00912545	6	0	0
0.00924959	6	0	0
0.00934718	6	0	0
0.0101378	6	0	0
0.0101868	6	0	0
0.0102318	6	0	0
0.010487	6	0	0
0.0107723	6	0	0
0.0108311	7	0	0
0.0113851	7	0	0
0.0116406	7	0	0
0.0120274	7	0	0
0.0121286	8	1	0
0.0121627	8	1	0
0.0124112	8	1	0
0.0126818	10	0	0
0.013186	10	0	0
0.0134558	10	0	0
0.0142471	10	0	0
0.0143701	10	0	0
0.0145261	10	0	0
0.0146653	10	0	0
0.0148809	10	0	0
0.0151012	10	0	0
0.0154567	10	0	0
0.0158095	10	0	0
0.0158235	10	0	0
0.0163084	10	0	0
0.0183101	10	0	0
0.0186364	10	0	0
0.0187001	10	0	0
0.0189346	11	1	0
0.0195793	11	1	0
0.0196548	11	1	0
0.0196926	11	1	0
0.0198953	11	1	0
0.020145	11	2	0
0.0203206	11	2	0
0.0205481	13	1	0
0.0205767	13	1	0
0.0207736	13	1	0
0.0211455	13	1	0
0.0211939	14	2	0
0.0212092	16	1	0
0.0217869	18	0	0
0.0222593	18	0	0
0.0226711	18	0	0
0.0227255	18	0	0
0.022868	18	0	0
0.0228782	18	0	0
0.0239603	18	1	0
0.023973	19	1	0
0.0239878	20	2	0
0.0240448	22	1	0
0.0243107	22	1	0
0.0245988	24	0	0
0.0249674	24	0	0
0.0250391	24	0	0
0.0253228	24	1	0
0.0254187	25	2	0
0.0255277	27	1	0
0.0274251	29	0	0
0.0287521	29	0	0
0.0291178	29	0	0
0.0293834	29	0	0
0.0295253	29	0	0
0.0295374	29	0	0
0.0297937	29	0	0
0.0301026	29	0	0
0.0304885	29	0	0
0.0305239	30	1	0
0.0305632	30	1	0
0.0309767	30	1	0
0.0316642	32	0	0
0.0324365	32	0	0
0.0327008	32	0	0
0.0329351	32	0	0
0.0336126	32	0	0
0.0338909	32	0	0
0.0340238	32	0	0
0.0342569	32	0	0
0.0343224	32	0	0
0.0344086	32	1	0
0.0346964	32	1	0
0.0350853	33	2	0
0.0350938	33	2	0
0.0353503	35	1	0
0.0353634	35	1	0
0.0354964	35	1	0
0.0362488	35	1	0
0.0377797	37	0	0
0.0378083	37	0	0
0.038038	37	0	0
0.0386079	37	0	0
0.0387131	37	0	0
0.0389282	37	0	0
0.0389588	38	1	0
0.0390221	38	1	0
0.0394219	40	0	0
0.0399767	40	0	0
0.040345	41	1	0
0.0405544	43	0	0
0.0412738	43	0	0
0.0418631	43	0	0
0.0423094	43	0	0
0.0426621	43	0	0
0.043273	43	0	0
0.0437216	43	0	0
0.0440199	43	0	0
0.0442395	43	0	0
0.0447486	43	0	0
0.0451962	44	1	0
0.0455436	46	0	0
0.0456377	46	0	0
0.0456472	46	0	0
0.0464033	46	0	0
0.0471368	46	0	0
0.0480167	46	0	0
0.0485681	46	0	0
0.0489708	46	0	0
0.0490915	46	0	0
0.0491922	46	0	0
0.0493195	46	0	0
0.0499226	46	0	0
0.0500358	46	0	0
0.0501092	46	0	0
0.05011	47	1	0
0.0502176	47	1	0
0.0502329	47	1	0
0.0504521	47	1	0
0.0509912	49	0	0
0.0510857	50	1	0
0.0515914	50	1	0
0.0516033	52	0	0
0.0522071	52	0	0
0.0527798	52	0	0
0.0530392	52	0	0
0.053044	53	0	0
0.0537266	53	0	0
0.0538442	53	0	0
0.0545363	53	0	0
0.0561356	53	0	0
0.0567276	53	0	0
0.0570647	53	0	0
0.0572229	54	1	0
0.0576101	56	0	0
0.0586188	56	0	0
0.0586197	56	0	0
0.0590818	56	0	0
0.060056	56	0	0
0.0619476	56	0	0
0.0629792	56	0	0
0.0635041	57	0	0
0.0636555	57	0	0
0.0645574	57	0	0
0.0649497	57	1	0
0.0649922	58	2	0
0.0651341	60	1	0
0.0652453	60	1	0
0.0664858	62	0	0
0.066597	62	0	0
0.0666304	62	0	0
0.0666761	63	0	0
0.0670338	63	0	0
0.0673227	63	0	0
0.0674098	63	0	0
0.0679465	63	0	0
0.0681224	64	0	0
0.0686834	64	0	0
0.0695421	64	0	0
0.0698162	64	0	0
0.0699851	64	0	0
0.0717388	64	0	0
0.0719752	65	1	0
0.0721385	65	1	0
0.0725448	67	0	0
0.0725795	67	0	0
0.0730545	67	0	0
0.0731882	67	0	0
0.0733284	67	0	0
0.0734742	67	0	0
0.0737763	67	0	0
0.0745896	67	0	0
0.0745901	67	0	0
0.0747566	67	0	0
0.0749925	67	0	0
0.0750081	68	1	0
0.0750801	69	1	0
0.0758067	71	0	0
0.0760311	71	0	0
0.076057	71	0	0
0.0761603	71	0	0
0.0765315	71	0	0
0.0765511	71	0	0
0.0768305	71	0	0
0.0773274	71	0	0
0.0776299	71	0	0
0.0782496	71	0	0
0.079944	71	0	0
0.0800166	72	1	0
0.0808576	74	0	0
0.0810667	74	0	0
0.0819155	74	0	0
0.0835031	74	0	0
0.0836212	74	0	0
0.0837663	74	0	0
0.0839815	76	0	0
0.0843564	76	0	0
0.0848442	76	0	0
0.0855481	76	0	0
0.086726	77	0	0
0.0879737	77	0	0
0.0885294	77	0	0
0.0889535	77	0	0
0.089019	77	0	0
0.089479	77	0	0
0.0901673	77	0	0
0.0903223	78	1	0
0.0909788	78	1	0
0.0915024	80	0	0
0.0918498	80	0	0
0.0919773	80	0	0
0.0926101	80	0	0
0.092738	80	0	0
0.093613	80	0	0
0.093706	80	0	0
0.093764	81	0	0
0.0938858	82	1	0
0.0943301	84	0	0
0.0944814	84	0	0
0.0945181	84	0	0
0.0945343	84	0	0
0.0946324	84	0	0
0.0951036	84	0	0
0.0953258	85	0	0
0.0954026	85	0	0
0.0956053	85	0	0
0.0958438	85	0	0
0.0960979	85	0	0
0.0964684	85	0	0
0.096527	86	0	0
0.0969497	86	0	0
0.0972443	86	0	0
0.0987564	86	0	0
0.0993913	86	0	0
0.0998218	86	0	0
0.0999001	86	0	0
0.101021	86	0	0
0.10121	86	0	0
0.101571	86	0	0
0.104024	86	0	0
0.104035	86	0	0
0.104063	86	0	0
0.104795	86	0	0
0.104808	86	0	0
0.1049	86	0	0
0.105003	86	0	0
0.105387	86	0	0
0.105443	87	1	0
0.106102	89	0	0
0.10654	89	0	0
0.107014	89	0	0
0.107459	89	0	0
0.108046	89	0	0
0.110181	89	0	0
0.110727	89	0	0
0.110862	89	0	0
0.111105	89	0	0
0.112017	89	0	0
0.112444	89	0	0
0.113654	89	0	0
0.113688	89	0	0
0.11422	89	0	0
0.114654	89	0	0
0.116016	89	0	0
0.116798	89	0	0
0.117439	89	0	0
0.118198	89	0	0
0.11836	89	0	0
0.118708	89	0	0
0.118919	89	0	0
0.118927	89	0	0
0.118968	89	0	0
0.119272	89	1	0
0.119408	90	2	0
0.119787	92	1	0
0.119844	94	0	0
0.120002	94	0	0
0.120308	94	0	0
0.120372	94	0	0
0.12103	94	0	0
0.121214	94	0	0
0.121542	94	0	0
0.122218	94	0	0
0.122512	94	0	0
0.123001	94	0	0
0.123887	94	0	0
0.123917	94	0	0
0.124528	94	0	0
0.124681	94	0	0
0.125841	94	0	0
0.126173	94	0	0
0.126348	94	0	0
0.126474	94	0	0
0.126793	94	0	0
0.126883	94	0	0
0.127322	94	0	0
0.127747	94	0	0
0.128214	94	0	0
0.129724	94	0	0
0.130031	94	0	0
0.130596	94	0	0
0.130646	94	0	0
0.131857	94	0	0
0.132319	94	0	0
0.132797	94	0	0
0.132809	94	0	0
0.132827	94	0	0
0.133013	94	0	0
0.133208	95	1	0
0.135019	97	0	0
0.135145	97	0	0
0.135195	97	0	0
0.135685	97	0	0
0.136352	97	0	0
0.136843	97	0	0
0.136952	97	0	0
0.137049	98	0	0
0.137256	99	1	0
0.137256	101	0	0
0.137342	102	0	0
0.137391	102	0	0
0.137392	102	0	0
0.137422	103	0	0
0.13745	103	0	0
0.137452	103	0	0
0.13763	103	0	0
0.1379	103	0	0
0.137991	104	1	0
0.138076	104	1	0
0.138999	106	0	0
0.139177	106	0	0
0.139592	106	0	0
0.140532	106	0	0
0.140614	106	0	0
0.141022	106	0	0
0.141041	107	0	0
0.141878	107	0	0
0.143795	107	0	0
0.144668	107	0	0
0.145293	107	0	0
0.145321	107	0	0
0.145427	107	0	0
0.145727	107	0	0
0.146089	107	0	0
0.14636	107	0	0
0.146884	107	0	0
0.147161	107	0	0
0.147349	107	0	0
0.14736	107	0	0
0.147454	107	1	0
0.147793	107	1	0
0.147873	107	1	0
0.14817	108	1	0
0.148204	109	2	0
0.148204	111	1	0
0.148213	113	0	0
0.15049	113	0	0
0.150655	113	0	0
0.150689	113	0	0
0.151019	113	0	0
0.151339	114	0	0
0.152091	115	0	0
0.152211	115	0	0
0.152691	115	0	0
0.152748	116	0	0
0.152994	116	0	0
0.153261	116	1	0
0.153544	116	1	0
0.154831	116	1	0
0.15499	116	1	0
0.15553	118	0	0
0.155725	118	0	0
0.155749	118	0	0
0.156724	118	0	0
0.156767	118	0	0
0.157943	118	0	0
0.157945	118	0	0
0.158174	119	0	0
0.15849	119	0	0
0.158733	119	0	0
0.158896	119	0	0
0.158954	119	0	0
0.160504	119	0	0
0.160558	119	0	0
0.160685	120	1	0
0.160777	122	0	0
0.161741	122	0	0
0.161837	122	0	0
0.161941	123	1	0
0.162004	123	1	0
0.162021	123	1	0
0.162198	123	1	0
0.162417	123	1	0
0.162813	125	0	0
0.162861	125	0	0
0.163662	125	0	0
0.163719	125	0	0
0.163918	126	0	0
0.164037	126	0	0
0.164098	126	0	0
0.16462	126	0	0
0.16488	126	0	0
0.164982	127	0	0
0.165057	128	0	0
0.165268	128	0	0
0.165454	128	0	0
0.165565	128	0	0
0.165691	128	0	0
0.16579	128	0	0
0.16606	129	0	0
0.166874	129	0	0
0.170425	129	0	0
0.170753	129	0	0
0.170767	129	0	0
0.171431	129	0	0
0.172089	129	0	0
0.173728	130	0	0
0.174115	130	0	0
0.174801	130	0	0
0.174905	131	1	0
0.175554	132	1	0
0.175966	134	0	0
0.176322	134	0	0
0.176854	134	0	0
0.1776	135	0	0
0.178502	135	0	0
0.178629	136	1	0
0.17887	136	1	0
0.179106	136	1	0
0.179319	138	0	0
0.180141	138	0	0
0.180205	138	0	0
0.18037	138	0	0
0.181409	138	0	0
0.182023	138	0	0
0.183815	138	0	0
0.184947	138	0	0
0.185035	139	1	0
0.185215	139	1	0
0.18532	141	0	0
0.185736	141	0	0
0.18602	141	0	0
0.186364	141	0	0
0.186505	142	0	0
0.186505	142	0	0
0.186798	142	0	0
0.187021	142	2	0
0.187044	142	2	0
0.187297	144	1	0
0.187549	145	2	0
0.187698	145	2	0
0.187721	145	2	0
0.187734	147	1	0
0.188049	149	0	0
0.188408	149	0	0
0.189236	150	0	0
0.18943	151	0	0
0.189493	151	0	0
0.189598	151	0	0
0.189692	151	0	0
0.190645	151	0	0
0.190664	152	0	0
0.190891	152	0	0
0.190956	152	0	0
0.191181	153	1	0
0.191187	155	0	0
0.191332	155	0	0
0.191623	155	0	0
0.191844	155	0	0
0.192387	155	0	0
0.192414	155	0	0
0.192434	155	2	0
0.192908	157	1	0
0.193196	157	1	0
0.193387	157	1	0
0.193589	159	0	0
0.193726	159	0	0
0.193867	159	0	0
0.193889	160	0	0
0.194117	160	0	0
0.19446	160	0	0
0.194491	160	0	0
0.194541	161	1	0
0.194552	161	2	0
0.194589	161	2	0
0.194879	162	2	0
0.194936	163	3	0
0.195218	165	2	0
0.19522	167	1	0
0.195425	169	0	0
0.196167	169	0	0
0.196503	169	0	0
0.196779	169	0	0
0.196789	171	0	0
0.196944	171	0	0
0.197024	171	0	0
0.197788	171	0	0
0.198228	171	0	0
0.198694	172	1	0
0.198776	174	0	0
0.199014	174	0	0
0.199098	174	0	0
0.199849	174	0	0
0.200044	174	0	0
0.200279	174	0	0
0.201138	175	0	0
0.201491	175	0	0
0.202018	175	0	0
0.202348	175	0	0
0.202548	175	0	0
0.203023	175	0	0
0.203245	175	0	0
0.203384	175	0	0
0.203906	175	0	0
0.20395	176	0	0
0.204699	176	0	0
0.204715	177	0	0
0.205146	177	0	0
0.205944	177	0	0
0.206232	177	0	0
0.206281	177	0	0
0.206687	177	0	0
0.206936	177	0	0
0.207071	177	0	0
0.207217	177	0	0
0.207925	177	0	0
0.208608	177	0	0
0.209418	177	0	0
0.209574	177	0	0
0.210108	177	0	0
0.210678	177	0	0
0.210697	177	0	0
0.210787	177	0	0
0.211076	177	0	0
0.212386	177	0	0
0.212448	177	0	0
0.213236	177	0	0
0.213939	177	0	0
0.214074	177	0	0
0.215051	177	0	0
0.215589	177	0	0
0.21587	177	0	0
0.216032	177	0	0
0.216841	177	0	0
0.217146	177	0	0
0.218129	177	0	0
0.218388	177	0	0
0.219426	177	0	0
0.220816	177	0	0
0.22174	177	0	0
0.222082	177	0	0
0.222735	177	0	0
0.223124	177	0	0
0.223611	178	0	0
0.224729	178	0	0
0.225041	178	0	0
0.226062	178	0	0
0.227405	179	0	0
0.227469	180	0	0
0.22794	180	0	0
0.228261	180	0	0
0.229096	180	0	0
0.229253	181	0	0
0.229329	181	0	0
0.229613	182	1	0
0.230813	182	1	0
0.231839	184	0	0
0.232138	184	0	0
0.232869	184	0	0
0.234167	184	0	0
0.234553	184	0	0
0.235283	184	0	0
0.235352	184	0	0
0.235572	185	0	0
0.236387	185	0	0
0.237159	186	0	0
0.237374	186	0	0
0.238317	186	0	0
0.238477	186	0	0
0.238533	186	0	0
0.238596	186	0	0
0.239185	186	0	0
0.239374	186	0	0
0.239744	186	0	0
0.239961	186	0	0
0.240021	186	0	0
0.240066	186	0	0
0.240148	187	1	0
0.240353	187	1	0
0.240796	189	0	0
0.241903	189	0	0
0.242617	190	0	0
0.242973	190	0	0
0.24419	190	0	0
0.244833	190	0	0
0.244874	190	0	0
0.245305	191	0	0
0.245668	191	0	0
0.24587	191	0	0
0.246643	191	0	0
0.24703	192	0	0
0.247062	193	0	0
0.247145	193	0	0
0.247438	193	0	0
0.247748	193	0	0
0.248113	193	0	0
0.248571	193	0	0
0.250111	193	0	0
0.250378	193	0	0
0.250674	193	0	0
0.250743	193	0	0
0.250959	194	0	0
0.251616	194	0	0
0.25188	194	0	0
0.253471	194	0	0
0.255153	194	0	0
0.256216	194	0	0
0.256366	194	0	0
0.25672	194	0	0
0.256927	194	2	0
0.257099	194	2	0
0.25764	196	1	0
0.257706	196	1	0
0.257721	196	1	0
0.258471	198	0	0
0.258914	198	0	0
0.259328	198	0	0
0.260872	198	0	0
0.262061	198	0	0
0.262259	198	0	0
0.262359	198	0	0
0.262479	198	0	0
0.263544	198	0	0
0.264019	198	0	0
0.264389	199	0	0
0.264425	199	0	0
0.264981	199	0	0
0.265055	199	0	0
0.265517	199	0	0
0.266686	199	0	0
0.267119	199	0	0
0.267205	199	0	0
0.267914	199	0	0
0.268113	199	0	0
0.268484	199	0	0
0.26852	199	0	0
0.26982	199	0	0
0.2702	199	0	0
0.270505	199	0	0
0.272299	200	0	0
0.273963	200	0	0
0.274122	200	0	0
0.27434	200	0	0
0.274445	200	0	0
0.274759	200	0	0
0.275299	201	0	0
0.275814	201	0	0
0.276303	201	0	0
0.276304	201	0	0
0.2764	201	0	0
0.276921	201	0	0
0.277179	201	0	0
0.277237	201	0	0
0.27745	202	0	0
0.278249	202	0	0
0.281374	202	0	0
0.282095	203	0	0
0.282195	203	0	0
0.282321	203	0	0
0.282644	203	0	0
0.282784	203	0	0
0.283875	204	0	0
0.283912	204	0	0
0.284435	205	0	0
0.284596	205	0	0
0.285688	205	0	0
0.285851	205	0	0
0.287215	205	0	0
0.287233	205	0	0
0.287355	205	0	0
0.287607	205	0	0
0.28764	205	0	0
0.287831	205	0	0
0.288063	205	0	0
0.288507	205	2	0
0.288773	207	1	0
0.288832	207	1	0
0.289716	209	0	0
0.290302	209	0	0
0.290313	209	0	0
0.290406	209	0	0
0.291234	209	0	0
0.291286	209	0	0
0.291476	209	0	0
0.292058	209	0	0
0.292725	209	0	0
0.292915	209	0	0
0.293037	209	0	0
0.293329	210	0	0
0.293416	210	0	0
0.293761	210	0	0
0.293856	211	0	0
0.293864	212	0	0
0.294244	213	0	0
0.29449	213	0	0
0.296602	213	0	0
0.297488	213	0	0
0.297584	213	0	0
0.298773	213	0	0
0.298879	213	0	0
0.29904	213	0	0
0.300658	213	0	0
0.3009	213	0	0
0.301847	213	0	0
0.301879	213	0	0
0.302269	213	0	0
0.303295	213	0	0
0.303444	213	0	0
0.303615	214	1	0
0.304039	214	1	0
0.304158	214	1	0
0.30421	214	1	0
0.304354	215	1	0
0.304774	215	1	0
0.305012	216	2	0
0.305067	218	1	0
0.305145	220	0	0
0.305226	220	0	0
0.306636	220	0	0
0.306784	220	0	0
0.3071	220	0	0
0.308942	221	0	0
0.309615	221	0	0
0.31204	221	0	0
0.312182	222	0	0
0.31249	222	0	0
0.313287	222	0	0
0.31396	222	0	0
0.315084	222	0	0
0.31536	222	0	0
0.315538	223	1	0
0.316098	223	1	0
0.316386	223	1	0
0.316682	225	0	0
0.31679	225	0	0
0.316879	225	0	0
0.317348	226	0	0
0.318515	226	0	0
0.318516	227	0	0
0.320759	227	0	0
0.32076	227	0	0
0.321103	228	0	0
0.321355	229	0	0
0.321357	229	0	0
0.32161	230	0	0
0.322515	230	0	0
0.323162	230	0	0
0.324691	230	0	0
0.324715	230	0	0
0.325054	230	0	0
0.32548	230	0	0
0.325535	230	0	0
0.326254	230	0	0
0.326386	230	0	0
0.326726	231	0	0
0.327521	231	0	0
0.327824	231	0	0
0.327991	232	0	0
0.328005	232	0	0
0.328181	232	0	0
0.328547	232	0	0
0.328865	232	0	0
0.330042	232	0	0
0.330775	232	0	0
0.330901	232	0	0
0.331089	232	0	0
0.331735	232	0	0
0.331922	232	0	0
0.332333	233	1	0
0.332734	235	0	0
0.334019	235	0	0
0.335224	235	0	0
0.335757	235	0	0
0.336083	236	0	0
0.33689	236	0	0
0.337073	236	0	0
0.337498	236	0	0
0.339127	237	0	0
0.339899	238	0	0
0.340015	239	0	0
0.340291	239	0	0
0.34091	239	0	0
0.341022	239	0	0
0.341101	240	1	0
0.341396	242	0	0
0.34329	242	0	0
0.344363	242	0	0
0.344564	242	0	0
0.346657	242	0	0
0.346798	244	0	0
0.349274	244	0	0
0.349504	245	0	0
0.350458	245	0	0
0.350634	245	0	0
0.350691	245	0	0
0.351503	245	0	0
0.351743	245	0	0
0.352855	245	0	0
0.35326	245	0	0
0.353354	245	0	0
0.353935	245	0	0
0.353981	245	0	0
0.354996	246	0	0
0.355482	246	1	0
0.355817	246	1	0
0.35659	247	1	0
0.356631	247	1	0
0.356873	247	1	0
0.357019	248	2	0
0.357069	248	2	0
0.357165	250	1	0
0.35855	252	0	0
0.359058	252	0	0
0.35935	253	0	0
0.359694	253	0	0
0.359965	253	0	0
0.360838	253	0	0
0.362312	253	0	0
0.362795	253	0	0
0.363323	253	0	0
0.363431	254	1	0
0.363906	256	0	0
0.364316	257	0	0
0.365115	258	0	0
0.366658	258	0	0
0.367357	258	0	0
0.368057	258	0	0
0.368364	258	0	0
0.368391	258	0	0
0.368455	258	0	0
0.369759	258	0	0
0.36986	258	2	0
0.370753	260	1	0
0.371093	262	0	0
0.372909	263	0	0
0.373124	263	0	0
0.373237	264	0	0
0.373369	264	0	0
0.373787	264	0	0
0.373994	264	0	0
0.374496	264	0	0
0.374539	264	0	0
0.375172	264	0	0
0.376308	265	0	0
0.376534	266	0	0
0.377184	266	0	0
0.377453	266	0	0
0.378714	266	0	0
0.379048	266	0	0
0.379643	266	0	0
0.379858	266	0	0
0.380192	266	0	0
0.380442	266	0	0
0.38045	266	0	0
0.380469	266	0	0
0.381453	268	0	0
0.383258	268	0	0
0.385799	268	0	0
0.38605	268	0	0
0.386504	268	0	0
0.387096	269	0	0
0.387639	269	1	0
0.388806	269	1	0
0.389385	269	1	0
0.389485	270	1	0
0.390095	270	1	0
0.390453	271	2	0
0.390496	273	1	0
0.390764	273	1	0
0.391001	275	0	0
0.391886	276	0	0
0.392737	276	0	0
0.393386	276	0	0
0.393559	277	1	0
0.3939	279	0	0
0.393921	279	0	0
0.39466	279	0	0
0.394774	279	0	0
0.395696	279	0	0
0.396157	279	0	0
0.396423	279	0	0
0.396497	279	0	0
0.397261	279	0	0
0.39752	279	0	0
0.397641	281	0	0
0.39768	281	1	0
0.39808	281	1	0
0.398128	282	2	0
0.398367	282	2	0
0.398886	284	1	0
0.398923	286	0	0
0.40055	287	0	0
0.400718	289	0	0
0.401464	289	0	0
0.401796	289	0	0
0.402292	289	0	0
0.402704	289	0	0
0.404327	290	0	0
0.404539	290	0	0
0.404663	290	0	0
0.404703	291	0	0
0.404872	292	0	0
0.405602	293	0	0
0.405662	293	0	0
0.405762	293	0	0
0.406205	293	0	0
0.406327	293	0	0
0.406344	293	0	0
0.406408	293	0	0
0.406507	294	1	0
0.406585	296	0	0
0.407826	296	0	0
0.408033	296	1	0
0.408051	296	1	0
0.408752	296	1	0
0.408901	297	1	0
0.409548	297	2	0
0.409616	298	3	0
0.409698	300	2	0
0.409933	302	1	0
0.409987	302	1	0
0.41029	302	1	0
0.410344	303	2	0
0.410363	305	2	0
0.410514	305	2	0
0.4112	307	1	0
0.411473	309	0	0
0.411928	309	0	0
0.412322	309	0	0
0.412395	309	0	0
0.412465	309	0	0
0.414508	309	0	0
0.414738	309	0	0
0.4148	309	0	0
0.415522	309	0	0
0.415703	309	0	0
0.418118	309	0	0
0.418227	309	0	0
0.41947	309	0	0
0.419482	309	0	0
0.41953	309	0	0
0.419856	310	0	0
0.42017	310	0	0
0.421301	310	0	0
0.422184	311	0	0
0.422594	311	0	0
0.423204	311	0	0
0.423441	311	0	0
0.424274	312	1	0
0.426724	312	1	0
0.426783	312	1	0
0.42706	312	1	0
0.427178	312	1	0
0.427797	313	2	0
0.427865	313	2	0
0.42788	314	2	0
0.428937	316	1	0
0.429089	316	1	0
0.429575	316	1	0
0.430137	316	1	0
0.430219	316	1	0
0.430603	316	1	0
0.43105	316	1	0
0.431499	316	1	0
0.431582	318	1	0
0.432347	318	1	0
0.432445	318	1	0
0.432494	318	1	0
0.4331	319	1	0
0.433105	319	1	0
0.433419	319	1	0
0.433479	319	2	0
0.433763	320	2	0
0.433881	321	3	0
0.433922	323	2	0
0.434075	323	2	0
0.434324	324	2	0
0.434519	324	2	0
0.435313	326	1	0
0.435341	326	3	0
0.43582	328	2	0
0.436646	330	1	0
0.437318	330	1	0
0.4398	330	1	0
0.440602	330	1	0
0.441076	330	1	0
0.441461	330	2	0
0.442785	330	2	0
0.443117	330	2	0
0.443209	330	2	0
0.443883	331	2	0
0.444002	331	2	0
0.44435	331	2	0
0.445418	331	2	0
0.445448	332	2	0
0.445505	333	3	0
0.445806	335	2	0
0.445932	337	1	0
0.446872	339	1	0
0.447116	340	1	0
0.447268	340	1	0
0.447538	340	3	0
0.447858	342	2	0
0.448824	344	1	0
0.449415	344	1	0
0.450116	344	1	0
0.450145	345	1	0
0.450925	346	1	0
0.450944	346	1	0
0.45115	347	1	0
0.451221	348	1	0
0.452967	348	1	0
0.453018	348	1	0
0.454046	348	1	0
0.454351	349	1	0
0.454749	349	1	0
0.455448	349	1	0
0.455598	349	1	0
0.456538	349	1	0
0.458585	349	1	0
0.460819	349	1	0
0.463632	349	1	0
0.463802	350	1	0
0.466529	350	1	0
0.469269	350	1	0
0.470348	350	1	0
0.470783	350	1	0
0.471189	351	2	0
0.471247	353	1	0
0.47233	354	1	0
0.473319	354	1	0
0.473359	354	1	0
0.4769	354	1	0
0.477847	354	1	0
0.479344	354	1	0
0.479381	356	1	0
0.480023	356	1	0
0.480196	356	1	0
0.480996	356	1	0
0.481071	356	1	0
0.481556	356	1	0
0.482768	357	1	0
0.48436	358	1	0
0.484534	358	1	0
0.485019	358	1	0
0.486938	358	1	0
0.487039	358	1	0
0.487226	358	1	0
0.487828	358	1	0
0.488093	358	1	0
0.488376	358	1	0
0.488814	358	1	0
0.489067	359	1	0
0.49093	360	1	0
0.491279	360	1	0
0.491357	361	2	0
0.492541	363	1	0
0.492801	363	1	0
0.493487	363	1	0
0.494734	363	1	0
0.495042	363	1	0
0.495364	363	1	0
0.495841	363	1	0
0.497645	364	1	0
0.498326	364	1	0
0.498824	365	1	0
0.498971	365	1	0
0.499382	366	1	0
0.499774	366	1	0
0.499866	367	1	0
0.500713	368	1	0
0.50199	368	1	0
0.502448	368	1	0
0.504945	368	1	0
0.505564	368	1	0
0.506086	368	1	0
0.50647	368	1	0
0.507011	368	1	0
0.507126	369	1	0
0.507758	371	1	0
0.508132	372	1	0
0.508281	372	1	0
0.509078	373	2	0
0.509556	373	2	0
0.509869	374	2	0
0.510024	376	1	0
0.511403	376	1	0
0.511575	378	1	0
0.511782	378	1	0
0.51197	378	1	0
0.512403	378	1	0
0.514828	379	1	0
0.515618	379	1	0
0.515728	380	1	0
0.516203	381	1	0
0.516733	381	1	0
0.518792	381	1	0
0.518822	381	1	0
0.51893	381	1	0
0.519089	381	1	0
0.519979	381	1	0
0.52014	381	1	0
0.520161	382	1	0
0.520278	383	2	0
0.520316	385	1	0
0.520468	386	1	0
0.520909	386	1	0
0.520983	387	1	0
0.52153	388	1	0
0.521874	388	1	0
0.52503	388	1	0
0.525042	388	1	0
0.526594	388	1	0
0.526636	388	1	0
0.527176	389	1	0
0.528623	390	1	0
0.52911	390	1	0
0.530324	390	1	0
0.530595	390	1	0
0.5323	390	1	0
0.532388	390	1	0
0.535732	390	1	0
0.537342	391	1	0
0.538888	392	1	0
0.539484	392	1	0
0.541369	392	1	0
0.542549	392	1	0
0.542949	392	1	0
0.544513	393	1	0
0.544697	393	1	0
0.546652	393	1	0
0.547329	393	1	0
0.547734	394	1	0
0.547845	394	1	0
0.548095	394	1	0
0.548279	396	1	0
0.550072	396	1	0
0.550755	396	1	0
0.551433	396	1	0
0.552163	396	1	0
0.55224	397	2	0
0.553231	399	1	0
0.553285	399	1	0
0.55331	399	1	0
0.553726	399	1	0
0.553729	399	1	0
0.553832	399	1	0
0.554329	400	1	0
0.55456	400	1	0
0.554588	400	1	0
0.554677	400	1	0
0.555277	400	2	0
0.555457	400	2	0
0.555928	401	3	0
0.556379	403	2	0
0.556639	403	2	0
0.556974	404	2	0
0.55727	406	1	0
0.558375	406	1	0
0.558518	406	1	0
0.560876	406	1	0
0.560975	406	1	0
0.561038	406	1	0
0.561094	406	1	0
0.562049	406	1	0
0.562118	407	2	0
0.562139	407	2	0
0.562282	409	2	0
0.562417	411	1	0
0.563197	411	2	0
0.563783	411	2	0
0.563893	411	2	0
0.564231	411	2	0
0.56432	412	3	0
0.564368	414	2	0
0.564486	415	2	0
0.564501	416	3	0
0.564622	418	2	0
0.564761	418	2	0
0.564852	420	1	0
0.565476	420	1	0
0.566297	420	1	0
0.566496	421	1	0
0.567128	421	1	0
0.568479	421	2	0
0.568488	422	3	0
0.568501	424	2	0
0.568745	426	1	0
0.568933	426	1	0
0.568986	426	1	0
0.569097	426	1	0
0.5692	426	1	0
0.569678	426	1	0
0.570044	426	3	0
0.570247	426	3	0
0.570361	428	2	0
0.570483	430	1	0
0.571155	430	1	0
0.573624	430	1	0
0.57369	430	1	0
0.574259	430	1	0
0.574895	430	1	0
0.575318	430	1	0
0.575847	431	1	0
0.576637	431	1	0
0.578373	431	1	0
0.578554	431	1	0
0.578631	432	1	0
0.579283	432	1	0
0.581622	432	1	0
0.583148	432	1	0
0.583764	433	1	0
0.583958	434	1	0
0.584415	434	1	0
0.584675	434	1	0
0.584745	434	1	0
0.586192	435	1	0
0.586268	436	1	0
0.586403	436	1	0
0.586452	437	1	0
0.586488	437	1	0
0.588137	437	1	0
0.588203	437	1	0
0.588481	437	1	0
0.589848	437	1	0
0.589949	438	2	0
0.590166	438	2	0
0.590657	438	2	0
0.593157	440	1	0
0.593329	440	1	0
0.593871	440	1	0
0.594069	441	1	0
0.595098	441	1	0
0.595498	441	1	0
0.595758	441	1	0
0.595786	441	1	0
0.596082	442	1	0
0.596947	442	1	0
0.597251	442	1	0
0.601498	442	1	0
0.602172	442	1	0
0.602885	443	1	0
0.603018	443	1	0
0.604613	443	1	0
0.604699	443	1	0
0.605001	443	1	0
0.605885	443	1	0
0.606821	444	1	0
0.608025	444	1	0
0.608044	446	1	0
0.608246	447	1	0
0.613203	448	1	0
0.61395	449	1	0
0.614327	449	1	0
0.616225	449	1	0
0.616409	449	1	0
0.618643	449	1	0
0.619648	450	1	0
0.61989	450	1	0
0.620682	450	1	0
0.620995	450	1	0
0.62114	450	3	0
0.621156	452	2	0
0.621921	454	1	0
0.62303	455	1	0
0.623551	455	1	0
0.623751	456	1	0
0.626033	458	1	0
0.626784	458	1	0
0.627366	458	1	0
0.627631	458	1	0
0.628187	458	1	0
0.628312	459	1	0
0.628364	460	1	0
0.630731	460	1	0
0.630825	460	1	0
0.630973	460	1	0
0.632029	460	1	0
0.632868	460	1	0
0.633088	460	1	0
0.634045	460	1	0
0.634845	460	1	0
0.63541	461	1	0
0.636613	462	1	0
0.637983	462	1	0
0.638256	463	1	0
0.639735	464	1	0
0.640038	464	1	0
0.640398	464	1	0
0.641289	464	1	0
0.641758	464	1	0
0.642771	464	1	0
0.643016	464	1	0
0.643083	464	1	0
0.644217	464	1	0
0.644688	464	1	0
0.646048	464	1	0
0.646285	464	1	0
0.647595	465	1	0
0.648086	465	1	0
0.649015	465	1	0
0.650102	465	1	0
0.650488	466	2	0
0.651256	468	1	0
0.65133	468	1	0
0.651545	468	1	0
0.652575	468	1	0
0.652844	469	1	0
0.653972	469	1	0
0.654046	470	1	0
0.655063	470	1	0
0.655165	470	1	0
0.656362	470	1	0
0.656681	470	1	0
0.658349	471	1	0
0.661063	471	1	0
0.661562	472	1	0
0.661954	472	1	0
0.663486	473	1	0
0.664326	473	1	0
0.664521	473	1	0
0.664806	473	1	0
0.666954	473	1	0
0.667022	473	1	0
0.667452	473	1	0
0.667567	473	1	0
0.668795	473	1	0
0.669573	474	1	0
0.67016	475	1	0
0.670905	475	1	0
0.671162	475	1	0
0.672014	475	1	0
0.672051	475	1	0
0.67212	475	1	0
0.672769	475	1	0
0.67347	475	1	0
0.67722	475	1	0
0.677973	475	1	0
0.678022	475	3	0
0.678796	477	2	0
0.67945	477	2	0
0.681722	479	1	0
0.683471	479	1	0
0.685304	479	1	0
0.687324	481	1	0
0.6877	482	1	0
0.688773	482	1	0
0.689431	482	1	0
0.689494	483	1	0
0.690231	483	1	0
0.690755	484	1	0
0.693347	484	1	0
0.693392	484	1	0
0.693718	484	1	0
0.694038	484	1	0
0.694424	485	1	0
0.696366	486	1	0
0.696385	486	1	0
0.697635	486	1	0
0.69924	487	1	0
0.699261	487	1	0
0.699742	487	1	0
0.700669	487	1	0
0.700767	487	1	0
0.701094	487	1	0
0.702941	487	1	0
0.703493	487	1	0
0.703944	488	1	0
0.704047	488	1	0
0.704067	488	1	0
0.704541	488	1	0
0.705111	488	1	0
0.705791	488	1	0
0.706211	488	1	0
0.707624	489	1	0
0.707923	490	1	0
0.708957	490	1	0
0.709173	490	1	0
0.709727	490	1	0
0.713353	491	1	0
0.713649	491	1	0
0.713784	492	2	0
0.71398	492	2	0
0.714005	492	2	0
0.714249	494	1	0
0.714478	494	1	0
0.715055	495	1	0
0.715058	495	1	0
0.717622	495	1	0
0.717656	495	1	0
0.717878	495	1	0
0.718982	496	1	0
0.720374	497	1	0
0.720781	498	1	0
0.72159	498	1	0
0.721767	498	1	0
0.721841	498	1	0
0.723134	498	1	0
0.723807	498	1	0
0.724773	498	1	0
0.725799	498	1	0
0.726827	499	1	0
0.728965	500	1	0
0.729039	501	2	0
0.729869	503	1	0
0.730021	503	1	0
0.731211	503	1	0
0.731269	504	1	0
0.731542	504	1	0
0.732191	504	1	0
0.73465	504	1	0
0.73475	504	1	0
0.735287	505	1	0
0.735842	506	1	0
0.736256	506	1	0
0.736436	506	1	0
0.736652	507	1	0
0.74025	507	1	0
0.740346	507	1	0
0.741712	507	1	0
0.742041	507	1	0
0.74223	508	1	0
0.742297	509	2	0
0.742309	510	2	0
0.74266	512	1	0
0.743409	512	1	0
0.744155	512	1	0
0.744349	512	1	0
0.746196	512	1	0
0.750027	512	1	0
0.750134	513	1	0
0.755423	513	1	0
0.756971	513	1	0
0.757555	513	1	0
0.758221	513	1	0
0.760852	514	1	0
0.761133	514	1	0
0.761181	514	1	0
0.761677	514	1	0
0.762817	514	1	0
0.763789	514	1	0
0.764043	515	1	0
0.766225	517	1	0
0.767171	517	1	0
0.76817	517	1	0
0.768348	518	1	0
0.768568	519	1	0
0.769961	519	1	0
0.770101	520	1	0
0.770904	520	1	0
0.770919	522	1	0
0.772598	522	1	0
0.773283	522	1	0
0.773571	522	1	0
0.77358	523	2	0
0.773932	523	2	0
0.774334	525	1	0
0.774732	526	1	0
0.775618	526	1	0
0.775817	526	1	0
0.776072	527	1	0
0.776506	528	1	0
0.77688	528	1	0
0.777059	528	1	0
0.77793	528	1	0
0.778247	528	1	0
0.779869	528	1	0
0.781183	528	1	0
0.783976	529	1	0
0.78681	529	1	0
0.7873	529	1	0
0.789046	529	1	0
0.789728	529	1	0
0.789833	530	1	0
0.789946	531	2	0
0.79107	533	1	0
0.791498	533	1	0
0.793452	533	1	0
0.794365	533	1	0
0.795382	533	1	0
0.797393	533	1	0
0.799056	534	1	0
0.799096	534	1	0
0.800565	535	1	0
0.801343	535	1	0
0.803365	535	1	0
0.803728	535	1	0
0.808152	535	1	0
0.810612	535	1	0
0.810738	536	1	0
0.81114	537	1	0
0.812188	538	1	0
0.812334	538	1	0
0.814489	538	1	0
0.816501	538	1	0
0.817343	538	1	0
0.81843	538	1	0
0.819326	538	1	0
0.822853	538	1	0
0.822964	538	1	0
0.823155	539	2	0
0.823584	541	1	0
0.825079	541	1	0
0.82523	541	1	0
0.828115	541	1	0
0.828417	541	1	0
0.829095	541	1	0
0.829468	542	1	0
0.829744	543	1	0
0.830167	544	2	0
0.832177	546	1	0
0.832446	546	1	0
0.832957	547	2	0
0.835634	549	1	0
0.836177	551	1	0
0.836443	551	1	0
0.838756	551	1	0
0.839581	551	1	0
0.840383	552	1	0
0.841409	552	1	0
0.841938	552	1	0
0.842485	552	1	0
0.844107	552	1	0
0.844238	553	2	0
0.844653	553	2	0
0.844742	554	2	0
0.845001	556	1	0
0.846253	556	1	0
0.846925	557	1	0
0.848318	558	1	0
0.848807	558	1	0
0.849212	558	1	0
0.850617	558	1	0
0.85307	558	1	0
0.853085	558	1	0
0.856456	559	1	0
0.857088	559	1	0
0.857184	559	1	0
0.858618	561	1	0
0.859744	561	1	0
0.860717	562	1	0
0.860977	562	1	0
0.861094	562	1	0
0.862531	563	1	0
0.864133	563	1	0
0.865188	563	1	0
0.865748	563	1	0
0.865915	563	1	0
0.866036	563	1	0
0.866848	564	1	0
0.867252	564	3	0
0.867333	566	2	0
0.867339	567	2	0
0.867929	569	1	0
0.868506	570	1	0
0.869426	571	1	0
0.869486	572	1	0
0.871201	573	1	0
0.872167	574	1	0
0.872778	574	1	0
0.875665	574	1	0
0.876448	574	1	0
0.876673	574	1	0
0.877321	574	1	0
0.878041	574	1	0
0.878202	575	1	0
0.878447	575	1	0
0.878668	576	1	0
0.87895	576	1	0
0.879357	576	1	0
0.881335	577	1	0
0.881649	578	1	0
0.882709	578	1	0
0.88351	578	1	0
0.883928	578	1	0
0.884212	578	1	0
0.884713	578	1	0
0.886801	578	1	0
0.887021	579	1	0
0.887248	579	1	0
0.888681	579	1	0
0.891933	579	1	0
0.892712	579	1	0
0.892858	579	1	0
0.892911	579	1	0
0.896761	579	1	0
0.89752	579	1	0
0.898287	579	1	0
0.898581	580	1	0
0.900034	580	1	0
0.900977	581	1	0
0.902163	581	1	0
0.902678	581	1	0
0.9028	581	1	0
0.903249	582	2	0
0.905357	584	1	0
0.905981	584	1	0
0.906283	584	1	0
0.907025	584	1	0
0.907465	584	1	0
0.907548	584	1	0
0.909137	584	1	0
0.909633	585	1	0
0.911488	585	1	0
0.912871	585	1	0
0.914557	586	1	0
0.915757	586	1	0
0.91644	587	1	0
0.91687	587	1	0
0.917147	587	1	0
0.917193	587	3	0
0.917239	589	2	0
0.917351	591	1	0
0.918647	592	1	0
0.918722	593	2	0
0.92332	595	1	0
0.924117	596	1	0
0.924649	597	1	0
0.924722	597	1	0
0.92495	597	1	0
0.927322	597	1	0
0.927449	597	1	0
0.928773	597	1	0
0.92896	597	1	0
0.931115	597	1	0
0.932555	597	1	0
0.933542	597	1	0
0.935289	597	1	0
0.939999	597	1	0
0.943309	597	1	0
0.94389	597	1	0
0.944201	597	1	0
0.945091	597	1	0
0.945393	597	1	0
0.947189	597	1	0
0.947349	597	1	0
0.948654	598	1	0
0.94869	598	1	0
0.949001	599	1	0
0.949409	599	1	0
0.951581	599	1	0
0.954557	599	1	0
0.955547	599	1	0
0.958062	600	1	0
0.958112	600	1	0
0.960099	600	1	0
0.960376	600	1	0
0.961489	600	1	0
0.962227	600	1	0
0.963319	601	1	0
0.9644	602	2	0
0.964999	604	1	0
0.96777	606	1	0
0.967944	606	1	0
0.968129	606	1	0
0.96835	607	2	0
0.968976	609	1	0
0.969767	609	1	0
0.972268	609	1	0
0.97352	609	1	0
0.973577	611	1	0
0.973767	611	1	0
0.974118	612	1	0
0.974825	613	1	0
0.976566	615	1	0
0.977203	615	1	0
0.978546	615	1	0
0.979094	615	1	0
0.97949	617	1	0
0.979573	619	1	0
0.980184	619	1	0
0.98185	619	1	0
0.98416	619	1	0
0.985884	619	1	0
0.987309	619	1	0
0.989127	619	1	0
0.992196	619	1	0
0.993528	619	1	0
0.994506	619	1	0
0.994774	619	1	0
0.994838	619	3	0
0.995362	621	2	0
0.995832	622	2	0
0.996398	624	1	0
0.998593	624	1	0
0.999472	624	1	0
0.999832	625	1	0
1.00114	626	1	0
1.00301	626	1	0
1.00656	626	1	0
1.00756	626	1	0
1.01043	627	1	0
1.01165	627	1	0
1.01218	628	1	0
1.01355	630	1	0
1.01521	631	1	0
1.01549	631	1	0
1.01561	631	1	0
1.01577	631	1	0
1.01579	631	3	0
1.01579	632	4	0
1.01581	634	3	0
1.01584	634	3	0
1.01605	636	2	0
1.01625	638	1	0
1.01805	638	1	0
1.01849	640	1	0
1.02322	640	1	0
1.02602	640	1	0
1.02641	641	1	0
1.02707	641	1	0
1.02772	642	1	0
1.02805	643	2	0
1.02847	645	1	0
1.0299	646	1	0
1.03053	646	1	0
1.03129	646	1	0
1.03224	646	2	0
1.03264	647	3	0
1.03415	649	2	0
1.0343	651	1	0
1.03456	651	1	0
1.03682	651	1	0
1.0373	653	1	0
1.03751	653	1	0
1.03753	653	1	0
1.03763	654	2	0
1.03766	654	2	0
1.03785	654	2	0
1.03932	656	1	0
1.04033	657	1	0
1.04088	657	1	0
1.04448	659	1	0
1.04565	660	1	0
1.04623	660	1	0
1.04816	660	1	0
1.04822	660	1	0
1.04875	661	1	0
1.04974	662	1	0
1.05245	662	1	0
1.05325	662	1	0
1.0549	662	1	0
1.05613	662	1	0
1.05685	664	1	0
1.05817	664	1	0
1.05882	664	1	0
1.05979	665	1	0
1.06012	667	1	0
1.062	667	1	0
1.0625	667	1	0
1.06447	669	1	0
1.06525	669	1	0
1.06631	669	1	0
1.0701	669	1	0
1.07086	669	1	0
1.07172	670	2	0
1.07185	670	2	0
1.07282	670	2	0
1.0731	670	2	0
1.07317	670	2	0
1.07353	670	2	0
1.07395	672	2	0
1.0779	673	2	0
1.07979	673	2	0
1.08118	673	2	0
1.08584	673	2	0
1.08725	673	2	0
1.08818	673	2	0
1.0884	673	2	0
1.08904	673	2	0
1.08944	674	2	0
1.09368	674	2	0
1.09516	675	2	0
1.09647	675	2	0
1.10017	676	2	0
1.10453	676	2	0
1.10464	676	2	0
1.10481	676	2	0
1.10534	676	2	0
1.10712	677	2	0
1.10745	677	2	0
1.11003	677	2	0
1.11067	677	2	0
1.11105	677	2	0
1.11123	677	2	0
1.11173	677	3	0
1.11179	678	4	0
1.11185	678	4	0
1.11206	680	3	0
1.11256	682	2	0
1.11388	682	2	0
1.11454	683	3	0
1.11473	683	3	0
1.11598	685	2	0
1.11603	685	2	0
1.12206	685	2	0
1.12217	685	2	0
1.12288	685	2	0
1.12289	687	2	0
1.12377	687	2	0
1.12389	688	3	0
1.12426	688	3	0
1.12431	688	3	0
1.12437	688	3	0
1.12502	690	2	0
1.12602	691	2	0
1.12687	691	2	0
1.12697	691	2	0
1.12754	691	4	0
1.12787	693	3	0
1.12808	693	3	0
1.12812	695	2	0
1.12822	695	2	0
1.12883	696	2	0
1.1323	696	2	0
1.13405	696	2	0
1.13475	696	2	0
1.13511	697	3	0
1.13654	699	2	0
1.13684	699	2	0
1.1369	699	4	0
1.13692	701	3	0
1.13876	703	2	0
1.14081	704	2	0
1.14407	704	2	0
1.14934	704	2	0
1.15153	704	2	0
1.15264	705	3	0
1.15369	707	2	0
1.15718	707	2	0
1.15722	707	2	0
1.15997	707	2	0
1.16019	707	2	0
1.16061	708	3	0
1.16702	710	2	0
1.1684	710	2	0
1.16907	710	2	0
1.1697	711	2	0
1.17054	713	2	0
1.17077	713	2	0
1.17314	713	2	0
1.17345	713	4	0
1.17381	715	3	0
1.17388	717	2	0
1.17609	717	2	0
1.17967	717	2	0
1.18026	717	2	0
1.18076	717	2	0
1.18227	719	2	0
1.1827	719	2	0
1.18416	721	2	0
1.18504	721	2	0
1.18582	721	2	0
1.18865	721	2	0
1.18971	721	2	0
1.18988	722	3	0
1.19386	724	2	0
1.19888	725	2	0
1.19916	725	2	0
1.2007	726	2	0
1.20076	726	2	0
1.20117	726	2	0
1.20125	727	3	0
1.20236	729	2	0
1.20605	729	2	0
1.2073	729	2	0
1.20741	729	4	0
1.20765	729	4	0
1.20822	731	3	0
1.20891	733	2	0
1.20906	733	2	0
1.20982	734	3	0
1.21392	736	2	0
1.21589	736	2	0
1.21809	736	2	0
1.2183	737	2	0
1.21893	737	2	0
1.21995	738	2	0
1.22864	738	2	0
1.22947	739	2	0
1.23299	739	2	0
1.23382	741	2	0
1.2359	742	2	0
1.23649	743	2	0
1.23749	743	2	0
1.23806	744	2	0
1.23901	745	2	0
1.23905	745	2	0
1.24041	745	2	0
1.24056	745	2	0
1.24165	745	2	0
1.24183	745	4	0
1.2421	747	3	0
1.24524	749	2	0
1.24659	749	2	0
1.24694	749	2	0
1.24753	749	2	0
1.24784	750	2	0
1.25085	750	2	0
1.25148	750	2	0
1.25251	750	2	0
1.2529	751	2	0
1.25441	751	2	0
1.25833	751	2	0
1.25835	751	2	0
1.25972	751	3	0
1.2599	752	4	0
1.26036	754	3	0
1.26264	756	2	0
1.26276	756	2	0
1.2628	756	2	0
1.26334	757	2	0
1.26633	759	2	0
1.26675	759	2	0
1.26737	759	2	0
1.26819	759	2	0
1.26872	759	2	0
1.27267	759	2	0
1.27365	759	2	0
1.27473	761	2	0
1.27499	761	2	0
1.2754	761	3	0
1.27542	762	4	0
1.27564	764	3	0
1.28254	766	2	0
1.28337	766	2	0
1.28344	766	3	0
1.28354	767	4	0
1.28388	769	3	0
1.28404	769	3	0
1.28443	769	3	0
1.28448	769	5	0
1.28493	771	4	0
1.28495	773	3	0
1.28787	775	2	0
1.29148	775	2	0
1.29256	776	2	0
1.29363	776	2	0
1.29559	776	2	0
1.29737	776	2	0
1.2985	776	2	0
1.30028	776	2	0
1.30127	777	2	0
1.30193	777	2	0
1.30215	777	4	0
1.30242	779	3	0
1.30272	779	3	0
1.30316	781	2	0
1.30363	783	2	0
1.30379	783	2	0
1.30508	783	2	0
1.30537	784	2	0
1.30893	784	2	0
1.30922	786	2	0
1.30968	786	2	0
1.31263	786	2	0
1.31712	786	2	0
1.3175	786	2	0
1.31939	787	3	0
1.32179	787	3	0
1.32235	789	3	0
1.32259	789	3	0
1.32288	789	3	0
1.32436	790	3	0
1.3258	790	3	0
1.32591	790	3	0
1.33091	791	3	0
1.33507	792	3	0
1.33558	793	3	0
1.33573	793	3	0
1.33815	793	3	0
1.34056	793	3	0
1.3417	794	3	0
1.34264	794	3	0
1.3451	794	3	0
1.34634	794	3	0
1.34813	794	3	0
1.34881	794	3	0
1.35267	794	3	0
1.35496	794	3	0
1.35544	794	3	0
1.35778	794	3	0
1.35845	794	3	0
1.35875	794	3	0
1.35919	795	3	0
1.36637	796	3	0
1.36675	797	3	0
1.36876	797	3	0
1.36898	797	3	0
1.37028	797	3	0
1.37037	798	4	0
1.37136	800	3	0
1.3732	800	3	0
1.37696	800	3	0
1.38287	801	3	0
1.38738	801	3	0
1.38916	801	3	0
1.39034	801	3	0
1.39432	802	3	0
1.39473	802	3	0
1.39585	802	3	0
1.39733	803	3	0
1.39813	803	3	0
1.40108	803	3	0
1.40193	803	3	0
1.40555	803	3	0
1.40833	803	3	0
1.40929	803	3	0
1.41175	804	3	0
1.41184	804	3	0
1.4122	805	4	0
1.41378	807	3	0
1.41447	808	3	0
1.41584	809	3	0
1.41616	810	3	0
1.41967	810	3	0
1.42485	810	3	0
1.42939	810	3	0
1.42968	811	3	0
1.43035	811	3	0
1.43126	812	4	0
1.43163	813	4	0
1.43298	815	3	0
1.43417	815	3	0
1.43507	816	3	0
1.43661	816	3	0
1.43885	816	3	0
1.43954	816	3	0
1.43965	817	4	0
1.44659	819	3	0
1.44669	819	3	0
1.45049	819	3	0
1.45167	819	3	0
1.45266	819	3	0
1.45296	819	5	0
1.45333	821	4	0
1.4564	823	3	0
1.45704	823	3	0
1.45713	823	5	0
1.45723	825	4	0
1.45939	827	3	0
1.46679	827	3	0
1.4711	828	3	0
1.47172	828	3	0
1.47269	828	3	0
1.47557	829	3	0
1.47617	829	3	0
1.47638	829	3	0
1.47769	830	3	0
1.48455	830	3	0
1.4857	830	3	0
1.4887	831	3	0
1.49481	833	3	0
1.49539	834	3	0
1.49611	835	3	0
1.49738	837	3	0
1.4981	838	3	0
1.49933	839	3	0
1.50039	839	3	0
1.50105	840	3	0
1.50267	840	3	0
1.50386	840	4	0
1.5039	841	5	0
1.50399	843	4	0
1.50806	845	3	0
1.5089	845	3	0
1.51022	846	3	0
1.51511	846	3	0
1.51812	846	3	0
1.51812	846	3	0
1.51825	847	4	0
1.52062	849	3	0
1.52246	849	3	0
1.5383	849	3	0
1.53897	849	3	0
1.5426	849	3	0
1.54343	850	3	0
1.54417	850	3	0
1.54425	851	3	0
1.54673	852	3	0
1.54839	853	3	0
1.56436	854	3	0
1.56514	855	3	0
1.56544	856	3	0
1.56619	856	3	0
1.57442	856	3	0
1.57488	856	3	0
1.57514	856	3	0
1.57522	856	3	0
1.5758	856	3	0
1.57633	856	3	0
1.57636	857	4	0
1.57646	858	4	0
1.57933	860	3	0
1.58366	862	3	0
1.5844	862	3	0
1.58674	863	3	0
1.58711	864	3	0
1.58756	864	3	0
1.58837	865	4	0
1.58921	867	3	0
1.59381	867	3	0
1.59952	868	3	0
1.60251	869	3	0
1.60334	869	3	0
1.60957	870	3	0
1.60972	870	3	0
1.61106	870	3	0
1.61312	872	3	0
1.61702	872	3	0
1.61858	872	3	0
1.61954	872	3	0
1.62067	872	3	0
1.62198	872	3	0
1.62653	872	3	0
1.62872	872	3	0
1.63216	872	3	0
1.63311	872	3	0
1.63401	872	3	0
1.63421	872	3	0
1.63502	873	4	0
1.64023	875	3	0
1.6448	875	3	0
1.64542	875	3	0
1.64645	875	3	0
1.64658	875	5	0
1.64664	877	4	0
1.64939	879	3	0
1.65089	879	3	0
1.65393	879	3	0
1.65495	879	3	0
1.65604	879	3	0
1.65754	881	3	0
1.66056	882	3	0
1.66137	882	3	0
1.66148	882	3	0
1.66152	882	5	0
1.66178	884	4	0
1.66734	886	3	0
1.66891	886	3	0
1.66962	886	3	0
1.67066	886	3	0
1.67097	886	3	0
1.67129	886	3	0
1.67152	886	4	0
1.67227	887	5	0
1.67257	889	4	0
1.67456	891	3	0
1.68166	893	3	0
1.6821	893	3	0
1.68226	893	3	0
1.6828	893	3	0
1.68462	894	3	0
1.68559	895	3	0
1.68657	895	3	0
1.68774	896	4	0
1.68821	896	4	0
1.68897	898	3	0
1.68901	898	3	0
1.69156	899	3	0
1.69211	899	3	0
1.6935	899	3	0
1.69369	899	3	0
1.69623	899	3	0
1.69736	899	3	0
1.69983	900	3	0
1.70445	900	3	0
1.70774	900	3	0
1.70783	900	3	0
1.70875	901	3	0
1.71084	902	3	0
1.7109	902	3	0
1.71133	903	4	0
1.71273	903	4	0
1.71326	905	3	0
1.71738	905	3	0
1.72647	906	3	0
1.72735	906	3	0
1.7349	906	3	0
1.73857	906	3	0
1.73989	906	3	0
1.74143	906	3	0
1.74247	906	3	0
1.74615	907	3	0
1.74753	907	3	0
1.75627	907	3	0
1.75728	907	3	0
1.75841	908	4	0
1.7588	910	3	0
1.75882	910	3	0
1.76074	912	3	0
1.76109	912	3	0
1.76187	912	3	0
1.76269	913	4	0
1.76276	913	4	0
1.76455	915	3	0
1.76465	915	3	0
1.7649	915	3	0
1.76513	916	3	0
1.76546	917	4	0
1.76559	919	3	0
1.7709	919	3	0
1.77219	919	3	0
1.77255	919	3	0
1.77563	919	3	0
1.77683	919	3	0
1.78191	921	3	0
1.79278	921	3	0
1.80118	921	3	0
1.80266	921	3	0
1.80663	921	3	0
1.80704	921	3	0
1.80836	921	3	0
1.80919	921	5	0
1.80922	923	4	0
1.8118	925	3	0
1.81689	925	3	0
1.81808	926	3	0
1.81933	926	3	0
1.82029	926	3	0
1.82316	926	3	0
1.8261	926	3	0
1.82869	928	3	0
1.83029	928	3	0
1.83243	928	3	0
1.83257	928	3	0
1.8344	929	3	0
1.8408	929	3	0
1.84236	929	3	0
1.84311	929	3	0
1.84758	929	3	0
1.84924	929	3	0
1.85487	930	3	0
1.85585	931	3	0
1.85694	931	3	0
1.85766	931	3	0
1.86193	932	3	0
1.86259	934	3	0
1.86422	935	3	0
1.86544	935	3	0
1.86549	936	4	0
1.86622	938	3	0
1.8683	938	3	0
1.86842	939	4	0
1.87261	941	3	0
1.87489	941	3	0
1.87846	942	3	0
1.87876	942	3	0
1.87934	942	3	0
1.88163	942	3	0
1.88172	942	3	0
1.88189	943	4	0
1.88334	945	3	0
1.88363	945	3	0
1.88905	945	3	0
1.88951	945	3	0
1.89073	945	4	0
1.89081	946	5	0
1.89119	948	4	0
1.89156	950	3	0
1.89228	951	3	0
1.89292	951	3	0
1.89349	951	3	0
1.89432	951	4	0
1.90082	953	4	0
1.90177	953	4	0
1.90341	953	4	0
1.90527	954	4	0
1.90731	954	4	0
1.91059	954	4	0
1.9123	954	4	0
1.91489	954	4	0
1.91585	954	4	0
1.91591	955	5	0
1.91796	957	4	0
1.92047	957	4	0
1.92268	957	4	0
1.92275	957	4	0
1.92326	958	5	0
1.92449	960	4	0
1.9252	960	4	0
1.92539	961	5	0
1.9276	963	4	0
1.93295	964	4	0
1.93319	964	4	0
1.93537	966	3	0
1.94007	966	3	0
1.94091	966	3	0
1.94645	967	3	0
1.94865	967	3	0
1.95077	967	3	0
1.95102	968	4	0
1.9512	970	3	0
1.95297	971	3	0
1.95471	971	3	0
1.95525	971	3	0
1.95638	971	3	0
1.96114	971	3	0
1.96131	971	3	0
1.96182	972	4	0
1.96328	974	3	0
1.96522	974	3	0
1.96537	974	5	0
1.96574	976	4	0
1.97075	978	3	0
1.97635	978	3	0
1.98197	979	3	0
1.98483	979	3	0
1.98496	979	3	0
1.98521	980	4	0
1.98688	982	3	0
1.9871	982	3	0
1.98729	983	4	0
1.99256	985	3	0
2.00011	986	3	0
2.00264	986	3	0
2.0045	986	3	0
2.00477	986	3	0
2.00506	986	3	0
2.00519	987	4	0
2.00603	989	3	0
2.0061	989	5	0
2.00612	991	4	0
2.00658	993	3	0
2.00891	993	3	0
2.01016	993	3	0
2.01761	993	3	0
2.02383	994	3	0
2.0273	994	3	0
2.03488	994	3	0
2.03608	994	3	0
2.03674	994	3	0
2.03684	995	4	0
2.03774	997	3	0
2.03796	997	3	0
2.03873	998	4	0
2.03874	998	4	0
2.03927	1000	3	0
2.03934	1001	3	0
2.03941	1001	5	0
2.03974	1003	4	0
2.05344	1005	3	0
2.05552	1005	3	0
2.0581	1005	3	0
2.05877	1005	3	0
2.05902	1006	4	0
2.06767	1008	3	0
2.07121	1008	3	0
2.07128	1008	3	0
2.07134	1009	4	0
2.07632	1011	3	0
2.0784	1011	3	0
2.07909	1011	3	0
2.07964	1011	3	0
2.08157	1011	3	0
2.0817	1012	4	0
2.08219	1014	3	0
2.08313	1014	3	0
2.08336	1014	5	0
2.08379	1016	4	0
2.0857	1018	3	0
2.08575	1019	3	0
2.08838	1019	3	0
2.09186	1019	3	0
2.09666	1019	3	0
2.09673	1020	4	0
2.09828	1022	3	0
2.09908	1022	3	0
2.09957	1022	3	0
2.10026	1023	4	0
2.10099	1023	4	0
2.10169	1025	3	0
2.10169	1025	5	0
2.10192	1027	4	0
2.10393	1029	3	0
2.10545	1029	3	0
2.10589	1030	3	0
2.10961	1031	3	0
2.11162	1032	3	0
2.1122	1032	3	0
2.11304	1032	3	0
2.11364	1032	3	0
2.11453	1032	3	0
2.11811	1032	3	0
2.12525	1032	3	0
2.12528	1032	3	0
2.12534	1032	3	0
2.12549	1032	5	0
2.12567	1034	4	0
2.13165	1036	3	0
2.13196	1036	3	0
2.13197	1037	4	0
2.13291	1039	3	0
2.13865	1040	3	0
2.14164	1040	3	0
2.15377	1040	3	0
2.15662	1041	3	0
2.16274	1041	3	0
2.16489	1041	3	0
2.16505	1041	3	0
2.16525	1042	4	0
2.16898	1044	3	0
2.17462	1044	3	0
2.18373	1044	3	0
2.18511	1044	3	0
2.18543	1045	3	0
2.18595	1046	3	0
2.18785	1046	3	0
2.18831	1046	3	0
2.18841	1046	4	0
2.18844	1047	5	0
2.18845	1049	4	0
2.19014	1051	3	0
2.19164	1051	3	0
2.19555	1051	3	0
2.20536	1051	3	0
2.20607	1051	3	0
2.20806	1051	3	0
2.21102	1051	3	0
2.21109	1051	3	0
2.2115	1052	4	0
2.21642	1054	3	0
2.21654	1054	3	0
2.22567	1055	3	0
2.22708	1055	3	0
2.22858	1055	3	0
2.22957	1055	4	0
2.23171	1055	4	0
2.23238	1056	5	0
2.23281	1058	4	0
2.23646	1060	3	0
2.23865	1060	3	0
2.24317	1060	3	0
2.25063	1060	3	0
2.25107	1060	3	0
2.25138	1060	5	0
2.25183	1062	4	0
2.25514	1064	3	0
2.25561	1064	3	0
2.25563	1064	3	0
2.25598	1064	3	0
2.25604	1065	4	0
2.25628	1067	3	0
2.25674	1067	3	0
2.25963	1067	3	0
2.26043	1067	3	0
2.26093	1068	3	0
2.26152	1068	4	0
2.26155	1069	5	0
2.26246	1071	4	0
2.27234	1073	3	0
2.27498	1073	3	0
2.27985	1074	3	0
2.28296	1074	3	0
2.28298	1074	4	0
2.283	1075	5	0
2.28358	1077	4	0
2.28433	1079	3	0
2.28578	1079	3	0
2.28643	1079	3	0
2.28802	1079	3	0
2.29019	1079	3	0
2.2902	1079	5	0
2.2903	1081	4	0
2.29142	1083	3	0
2.29306	1083	3	0
2.29485	1084	3	0
2.29765	1084	3	0
2.31059	1084	3	0
2.3117	1084	3	0
2.3207	1085	3	0
2.32858	1087	3	0
2.32883	1088	3	0
2.3307	1088	3	0
2.33109	1089	4	0
2.33638	1091	3	0
2.33837	1091	3	0
2.33967	1091	3	0
2.34798	1092	3	0
2.36199	1092	3	0
2.36271	1092	3	0
2.36489	1093	3	0
2.36492	1093	3	0
2.3654	1094	4	0
2.37148	1096	3	0
2.37163	1096	3	0
2.37194	1097	4	0
2.37648	1099	3	0
2.39102	1099	3	0
2.39454	1100	3	0
2.39473	1102	3	0
2.39503	1103	3	0
2.40926	1104	3	0
2.40949	1104	3	0
2.40999	1104	3	0
2.41005	1105	4	0
2.41284	1107	3	0
2.41324	1108	4	0
2.41366	1108	4	0
2.41505	1110	3	0
2.41524	1111	4	0
2.4171	1113	3	0
2.41805	1113	3	0
2.42999	1113	3	0
2.43533	1115	3	0
2.43664	1115	3	0
2.4406	1116	3	0
2.44332	1116	3	0
2.44343	1116	3	0
2.44344	1116	4	0
2.44352	1117	5	0
2.44364	1117	5	0
2.44375	1119	4	0
2.44506	1121	3	0
2.44578	1121	3	0
2.4458	1121	3	0
2.44613	1121	5	0
2.44616	1123	4	0
2.44761	1125	3	0
2.44774	1125	5	0
2.45028	1127	4	0
2.45695	1129	3	0
2.47097	1129	3	0
2.47101	1129	3	0
2.47105	1130	4	0
2.47488	1132	3	0
2.48328	1132	3	0
2.48933	1132	3	0
2.48944	1132	3	0
2.4902	1132	3	0
2.49047	1133	4	0
2.49224	1133	4	0
2.50277	1135	3	0
2.50298	1135	3	0
2.50319	1136	4	0
2.51658	1138	3	0
2.51752	1139	3	0
2.521	1141	3	0
2.52466	1141	3	0
2.52648	1141	3	0
2.53613	1141	3	0
2.53615	1141	3	0
2.53631	1142	4	0
2.54101	1144	3	0
2.54206	1144	3	0
2.54217	1144	5	0
2.54254	1146	4	0
2.54358	1148	3	0
2.54436	1148	3	0
2.54444	1148	3	0
2.54466	1149	4	0
2.55401	1151	3	0
2.55427	1151	3	0
2.55516	1151	4	0
2.55527	1151	4	0
2.5556	1152	5	0
2.55577	1154	4	0
2.5696	1156	3	0
2.5762	1156	3	0
2.57863	1158	3	0
2.57964	1158	3	0
2.58012	1158	4	0
2.58038	1159	5	0
2.58086	1161	4	0
2.58094	1161	4	0
2.58128	1163	3	0
2.58144	1163	3	0
2.58251	1163	3	0
2.58331	1163	3	0
2.58347	1163	3	0
2.58457	1163	3	0
2.58986	1163	3	0
2.59051	1163	3	0
2.59095	1164	4	0
2.5913	1166	3	0
2.59197	1166	3	0
2.59413	1166	3	0
2.59458	1167	4	0
2.59537	1169	3	0
2.59572	1169	3	0
2.59622	1169	3	0
2.59905	1169	4	0
2.5995	1169	4	0
2.59988	1169	5	0
2.60149	1169	5	0
2.60159	1170	6	0
2.60249	1172	5	0
2.60262	1174	4	0
2.60276	1174	5	0
2.60276	1175	6	0
2.6031	1177	5	0
2.60929	1179	4	0
2.61317	1179	4	0
2.61513	1180	4	0
2.6224	1180	4	0
2.64257	1182	4	0
2.64329	1182	4	0
2.66172	1184	3	0
2.66757	1185	3	0
2.67845	1185	3	0
2.67946	1185	3	0
2.68159	1186	3	0
2.68734	1186	3	0
2.68899	1186	3	0
2.68935	1186	3	0
2.68935	1186	3	0
2.6899	1186	3	0
2.6924	1186	3	0
2.70352	1186	3	0
2.70374	1186	3	0
2.70376	1187	4	0
2.70473	1189	3	0
2.71481	1189	3	0
2.73871	1189	3	0
2.7461	1190	3	0
2.75354	1190	3	0
2.75834	1190	3	0
2.76017	1190	3	0
2.76611	1190	3	0
2.76644	1190	3	0
2.7666	1191	4	0
2.76713	1193	3	0
2.77145	1193	3	0
2.77336	1194	3	0
2.77375	1194	3	0
2.77424	1195	4	0
2.78609	1197	3	0
2.78995	1197	3	0
2.79193	1197	3	0
2.79312	1197	3	0
2.79477	1198	3	0
2.7962	1198	3	0
2.80456	1200	2	0
2.80467	1200	2	0
2.80467	1200	4	0
2.80513	1202	3	0
2.83098	1204	2	0
2.84228	1204	2	0
2.84519	1204	2	0
2.84608	1204	2	0
2.84614	1204	4	0
2.84642	1206	3	0
2.8487	1208	2	0
2.86679	1208	2	0
2.86841	1208	2	0
2.8685	1209	3	0
2.87708	1211	2	0
2.8806	1211	2	0
2.89242	1211	2	0
2.89433	1211	2	0
2.89511	1211	2	0
2.89522	1211	2	0
2.90595	1211	3	0
2.906	1211	3	0
2.91253	1213	2	0
2.913	1213	2	0
2.91302	1213	2	0
2.91326	1214	3	0
2.91484	1216	2	0
2.91974	1216	2	0
2.93607	1216	2	0
2.95902	1216	2	0
2.96134	1216	2	0
2.97339	1216	2	0
2.97748	1216	2	0
2.98042	1216	2	0
2.98286	1216	2	0
2.98297	1217	3	0
2.99195	1219	2	0
3.008	1219	2	0
3.0095	1219	2	0
3.00995	1219	4	0
3.0102	1221	3	0
3.01176	1223	2	0
3.01288	1223	2	0
3.01496	1223	3	0
3.01508	1224	4	0
3.01509	1226	3	0
3.01764	1228	2	0
3.02077	1229	2	0
3.02423	1229	2	0
3.02574	1229	2	0
3.02632	1229	2	0
3.03834	1229	2	0
3.03887	1229	2	0
3.03918	1230	3	0
3.05577	1232	2	0
3.05753	1232	2	0
3.05769	1232	4	0
3.05888	1234	3	0
3.05902	1236	2	0
3.05966	1236	2	0
3.06035	1236	2	0
3.06041	1236	3	0
3.06047	1237	4	0
3.06095	1239	3	0
3.07656	1241	2	0
3.07814	1242	2	0
3.08415	1242	2	0
3.08422	1242	2	0
3.0864	1242	2	0
3.08784	1242	2	0
3.08808	1243	3	0
3.0884	1245	2	0
3.09036	1245	2	0
3.09153	1246	3	0
3.09157	1248	2	0
3.09263	1248	2	0
3.09284	1249	3	0
3.09772	1251	2	0
3.1002	1251	2	0
3.10055	1251	2	0
3.10073	1252	3	0
3.10774	1254	2	0
3.13108	1254	2	0
3.13479	1254	2	0
3.1391	1254	2	0
3.14058	1254	2	0
3.14062	1255	3	0
3.14157	1257	2	0
3.14334	1257	2	0
3.14356	1258	3	0
3.14665	1260	2	0
3.14872	1261	2	0
3.14899	1261	2	0
3.15049	1261	2	0
3.15139	1262	3	0
3.16389	1262	3	0
3.16574	1263	3	0
3.16625	1263	3	0
3.16656	1263	4	0
3.1673	1264	5	0
3.168	1266	4	0
3.17082	1268	3	0
3.17089	1268	3	0
3.17091	1269	4	0
3.17636	1271	3	0
3.18145	1271	3	0
3.18666	1272	3	0
3.19727	1274	3	0
3.21055	1274	3	0
3.21134	1274	3	0
3.21148	1274	3	0
3.21154	1274	5	0
3.2116	1276	4	0
3.21779	1278	3	0
3.21897	1278	3	0
3.22051	1278	3	0
3.22731	1278	3	0
3.22771	1278	3	0
3.22796	1279	4	0
3.2299	1281	3	0
3.23153	1281	3	0
3.23188	1281	5	0
3.23211	1283	4	0
3.23748	1285	3	0
3.23972	1285	3	0
3.25886	1285	3	0
3.27185	1286	3	0
3.27307	1286	3	0
3.27397	1286	3	0
3.27837	1287	3	0
3.28842	1287	3	0
3.28883	1287	3	0
3.28955	1288	4	0
3.29129	1290	3	0
3.29425	1290	3	0
3.2947	1291	4	0
3.29647	1293	3	0
3.32202	1293	3	0
3.36589	1293	3	0
3.36731	1293	3	0
3.36805	1294	4	0
3.37039	1296	3	0
3.37331	1296	3	0
3.38155	1296	3	0
3.39199	1296	3	0
3.39449	1296	3	0
3.40096	1296	3	0
3.40971	1296	3	0
3.41194	1296	3	0
3.41249	1296	3	0
3.4133	1296	3	0
3.4133	1297	4	0
3.41951	1299	3	0
3.42113	1300	3	0
3.42244	1300	3	0
3.42268	1300	4	0
3.42283	1300	4	0
3.42363	1300	4	0
3.42395	1300	4	0
3.42413	1301	5	0
3.42503	1303	4	0
3.42694	1305	3	0
3.44842	1306	3	0
3.44941	1306	3	0
3.45048	1306	5	0
3.45066	1308	4	0
3.45335	1310	3	0
3.46115	1310	3	0
3.46154	1310	3	0
3.46157	1311	4	0
3.47867	1313	3	0
3.48188	1313	3	0
3.48214	1313	3	0
3.48217	1313	5	0
3.4824	1315	4	0
3.48633	1317	3	0
3.48739	1317	3	0
3.48873	1317	3	0
3.48888	1318	4	0
3.4937	1320	3	0
3.5064	1320	3	0
3.50746	1321	3	0
3.51448	1321	3	0
3.52727	1321	3	0
3.53187	1321	3	0
3.532	1321	3	0
3.53229	1322	4	0
3.53965	1324	3	0
3.54292	1324	3	0
3.54352	1325	4	0
3.54361	1325	4	0
3.55656	1327	3	0
3.5583	1327	3	0
3.5592	1327	3	0
3.55932	1328	4	0
3.58864	1330	3	0
3.5899	1330	3	0
3.62896	1330	3	0
3.63019	1330	3	0
3.63128	1330	3	0
3.63162	1331	4	0
3.63521	1333	3	0
3.6353	1333	3	0
3.63553	1333	5	0
3.63572	1335	4	0
3.64021	1337	3	0
3.64075	1337	3	0
3.64124	1337	3	0
3.64125	1337	3	0
3.64135	1338	4	0
3.64383	1340	3	0
3.64393	1340	3	0
3.64405	1341	4	0
3.64472	1343	3	0
3.66775	1343	3	0
3.67203	1343	3	0
3.67465	1343	3	0
3.67543	1343	3	0
3.67552	1344	4	0
3.71728	1346	3	0
3.71808	1346	3	0
3.73077	1346	3	0
3.74848	1346	3	0
3.74868	1346	3	0
3.74898	1347	4	0
3.75259	1349	3	0
3.75282	1349	3	0
3.75317	1350	4	0
3.75882	1352	3	0
3.77897	1352	3	0
3.78887	1354	3	0
3.79533	1354	3	0
3.79596	1354	3	0
3.79648	1354	3	0
3.7965	1354	4	0
3.7969	1355	5	0
3.797	1357	4	0
3.80628	1359	3	0
3.8288	1360	3	0
3.83379	1360	3	0
3.83808	1360	3	0
3.84026	1360	3	0
3.84073	1360	3	0
3.84086	1360	4	0
3.84108	1361	5	0
3.84127	1363	4	0
3.84672	1365	3	0
3.84683	1365	3	0
3.84722	1366	4	0
3.85307	1368	3	0
3.90773	1368	3	0
3.92695	1368	3	0
3.93077	1368	3	0
3.93119	1368	3	0
3.93603	1368	3	0
3.95155	1368	3	0
3.95289	1368	3	0
3.95289	1369	4	0
3.96207	1371	3	0
3.96276	1371	3	0
3.9629	1371	3	0
3.96373	1372	4	0
3.97469	1374	3	0
3.97613	1374	3	0
4.00873	1374	3	0
4.00982	1374	3	0
4.01003	1375	4	0
4.01825	1377	3	0
4.03193	1377	3	0
4.04688	1377	3	0
4.04748	1377	3	0
4.04761	1377	5	0
4.04765	1377	5	0
4.04818	1378	6	0
4.04847	1380	5	0
4.0502	1382	4	0
4.06951	1384	3	0
4.07326	1384	3	0
4.07394	1384	3	0
4.07456	1385	4	0
4.08702	1387	3	0
4.09556	1387	3	0
4.09639	1387	3	0
4.1104	1387	3	0
4.11195	1387	3	0
4.1179	1387	4	0
4.11879	1387	4	0
4.12116	1387	5	0
4.12136	1388	6	0
4.12169	1390	5	0
4.12973	1392	4	0
4.13531	1392	4	0
4.13543	1392	4	0
4.136	1394	3	0
4.13629	1394	4	0
4.13649	1395	5	0
4.13656	1397	4	0
4.14176	1399	3	0
4.14189	1399	3	0
4.14194	1400	4	0
4.14509	1402	3	0
4.14723	1402	3	0
4.15037	1402	3	0
4.15044	1403	4	0
4.16022	1405	3	0
4.16964	1405	3	0
4.2408	1405	3	0
4.24195	1405	3	0
4.24246	1406	4	0
4.25467	1408	3	0
4.2567	1408	3	0
4.25757	1408	3	0
4.25773	1409	4	0
4.27178	1411	3	0
4.27389	1411	3	0
4.27409	1412	4	0
4.27557	1414	3	0
4.27583	1414	3	0
4.27607	1414	5	0
4.27615	1416	4	0
4.29157	1418	3	0
4.29269	1418	3	0
4.29274	1419	4	0
4.29909	1421	3	0
4.29996	1421	3	0
4.3	1421	4	0
4.30045	1422	5	0
4.30138	1424	4	0
4.3077	1426	3	0
4.30813	1426	3	0
4.30817	1427	4	0
4.32807	1429	3	0
4.32836	1429	3	0
4.32872	1429	4	0
4.32924	1430	5	0
4.32968	1432	4	0
4.33516	1434	3	0
4.3352	1434	3	0
4.33565	1435	4	0
4.3371	1437	3	0
4.35228	1437	3	0
4.35331	1437	3	0
4.35331	1437	5	0
4.35432	1439	4	0
4.36166	1441	3	0
4.3658	1441	3	0
4.36588	1441	3	0
4.36638	1442	4	0
4.37153	1444	3	0
4.40204	1446	3	0
4.41498	1446	3	0
4.4165	1446	3	0
4.41653	1447	4	0
4.45697	1449	3	0
4.51408	1449	3	0
4.5472	1449	3	0
4.55845	1449	3	0
4.56276	1449	3	0
4.58247	1449	3	0
4.60844	1449	3	0
4.61127	1449	3	0
4.61171	1449	5	0
4.61183	1451	4	0
4.61529	1453	3	0
4.63375	1455	2	0
4.64211	1455	2	0
4.64216	1455	2	0
4.64223	1455	4	0
4.64263	1457	3	0
4.6489	1459	2	0
4.6499	1459	2	0
4.66127	1459	2	0
4.67587	1459	2	0
4.69161	1459	2	0
4.69364	1459	2	0
4.74652	1459	2	0
4.74941	1459	2	0
4.75006	1459	2	0
4.75012	1459	4	0
4.75022	1461	3	0
4.7547	1463	2	0
4.75922	1463	2	0
4.7599	1464	3	0
4.78025	1466	2	0
4.78183	1466	2	0
4.78186	1467	3	0
4.78911	1469	2	0
4.79052	1469	2	0
4.79122	1470	3	0
4.80773	1472	2	0
4.82904	1472	2	0
4.83443	1472	2	0
4.83572	1472	2	0
4.83578	1473	3	0
4.83603	1473	3	0
4.83686	1475	2	0
4.8373	1475	3	0
4.83734	1476	4	0
4.83835	1478	3	0
4.85352	1480	2	0
4.85412	1480	2	0
4.85454	1481	3	0
4.86285	1483	2	0
4.8794	1483	2	0
4.8794	1483	2	0
4.88019	1483	3	0
4.88086	1484	4	0
4.88095	1486	3	0
4.89147	1488	2	0
4.91018	1488	2	0
4.91299	1488	2	0
4.94808	1488	2	0
4.96997	1488	2	0
4.99514	1488	2	0
4.99705	1488	2	0
4.99716	1489	3	0
5.01957	1491	2	0
5.04285	1491	2	0
5.0431	1491	2	0
5.04315	1491	4	0
5.0443	1493	3	0
5.06682	1495	2	0
5.07225	1495	2	0
5.07275	1495	2	0
5.0728	1496	3	0
5.07285	1498	2	0
5.07287	1498	2	0
5.07297	1499	3	0
5.09415	1501	2	0
5.11329	1501	2	0
5.11477	1501	2	0
5.11548	1502	3	0
5.11614	1504	2	0
5.13203	1504	2	0
5.13321	1504	2	0
5.13357	1504	3	0
5.13381	1505	4	0
5.134	1507	3	0
5.13854	1509	2	0
5.1398	1509	2	0
5.14024	1510	3	0
5.18087	1512	2	0
5.1814	1512	2	0
5.18143	1513	3	0
5.18503	1515	2	0
5.18759	1515	2	0
5.18787	1515	4	0
5.18787	1517	3	0
5.19291	1519	2	0
5.19325	1519	2	0
5.19339	1519	2	0
5.19449	1520	3	0
5.19544	1522	2	0
5.24044	1522	2	0
5.24066	1522	2	0
5.2412	1523	3	0
5.24727	1525	2	0
5.24752	1525	2	0
5.25048	1525	2	0
5.25172	1525	2	0
5.25201	1525	4	0
5.2531	1527	3	0
5.35279	1529	2	0
5.35387	1529	2	0
5.3541	1529	2	0
5.35413	1530	3	0
5.35458	1532	2	0
5.35466	1533	3	0
5.36231	1535	2	0
5.36454	1537	1	0
5.36487	1537	1	0
5.36588	1538	2	0
5.40489	1540	1	0
5.45151	1540	1	0
5.46331	1540	1	0
5.46354	1540	1	0
5.46362	1541	2	0
5.46972	1543	1	0
5.47078	1543	1	0
5.47144	1543	3	0
5.47236	1545	2	0
5.4776	1547	1	0
5.47762	1547	1	0
5.47774	1547	3	0
5.47796	1549	2	0
5.49879	1551	1	0
5.49891	1551	1	0
5.49927	1551	3	0
5.49947	1553	2	0
5.5112	1555	1	0
5.51201	1555	1	0
5.51212	1555	3	0
5.51238	1557	2	0
5.56597	1559	1	0
5.58232	1559	1	0
5.58464	1559	1	0
5.5848	1559	3	0
5.58489	1561	2	0
5.6268	1563	1	0
5.6271	1563	1	0
5.62766	1564	2	0
5.64089	1566	1	0
5.65139	1566	1	0
5.65288	1566	1	0
5.6538	1567	2	0
5.65766	1569	1	0
5.66855	1569	1	0
5.66867	1569	1	0
5.66869	1569	3	0
5.66959	1571	2	0
5.6905	1573	1	0
5.69109	1573	1	0
5.69316	1574	2	0
5.69438	1576	1	0
5.69479	1576	1	0
5.69483	1576	3	0
5.69551	1578	2	0
5.72641	1580	1	0
5.72849	1580	1	0
5.7289	1580	3	0
5.72897	1582	2	0
5.74029	1584	1	0
5.74036	1584	1	0
5.7405	1584	3	0
5.74105	1586	2	0
5.75319	1588	1	0
5.75324	1588	1	0
5.75371	1589	2	0
5.76593	1591	1	0
5.76671	1591	1	0
5.76692	1591	1	0
5.76725	1592	2	0
5.79431	1594	1	0
5.80499	1594	1	0
5.80559	1594	1	0
5.80696	1595	2	0
5.82589	1597	1	0
5.8264	1597	1	0
5.82655	1598	2	0
5.84117	1600	1	0
5.84162	1600	1	0
5.84183	1601	2	0
5.85433	1603	1	0
5.85688	1603	1	0
5.85688	1603	3	0
5.8569	1605	2	0
5.90634	1607	1	0
5.9064	1607	1	0
5.90665	1608	2	0
5.91531	1610	1	0
5.94998	1610	1	0
5.95086	1610	1	0
5.95099	1611	2	0
6.03076	1613	1	0
6.05938	1613	1	0
6.06098	1613	1	0
6.06103	1614	2	0
6.06553	1616	1	0
6.06718	1616	1	0
6.06721	1617	2	0
6.09295	1619	1	0
6.09307	1619	1	0
6.09322	1619	3	0
6.09322	1621	2	0
6.124	1623	1	0
6.16379	1623	1	0
6.16429	1623	1	0
6.27058	1624	2	0
6.27119	1624	2	0
6.27192	1624	4	0
6.27193	1626	3	0
6.27529	1628	2	0
6.30808	1628	2	0
6.32405	1628	2	0
6.33484	1630	1	0
6.33644	1630	1	0
6.3368	1630	2	0
6.33683	1631	3	0
6.33715	1633	2	0
6.3404	1635	1	0
6.3728	1635	1	0
6.37281	1635	1	0
6.37292	1635	3	0
6.37363	1637	2	0
6.40835	1639	1	0
6.4092	1639	1	0
6.40922	1640	2	0
6.41538	1642	1	0
6.42723	1642	1	0
6.42838	1642	1	0
6.42931	1643	2	0
6.42938	1645	1	0
6.43221	1645	1	0
6.4332	1645	1	0
6.43326	1645	3	0
6.43327	1645	3	0
6.43348	1647	2	0
6.43362	1648	3	0
6.43497	1650	2	0
6.44292	1652	1	0
6.4439	1652	1	0
6.44437	1652	2	0
6.44452	1653	3	0
6.4453	1655	2	0
6.4667	1657	1	0
6.46753	1657	1	0
6.46758	1657	3	0
6.46822	1659	2	0
6.52712	1661	1	0
6.52919	1661	1	0
6.52937	1662	2	0
6.55694	1664	1	0
6.55747	1664	1	0
6.55856	1665	2	0
6.63957	1667	1	0
6.65945	1669	0	0
6.66083	1669	0	0
6.66359	1669	1	0
6.66385	1670	2	0
6.66589	1672	1	0
6.67727	1674	0	0
6.67824	1674	0	0
6.67953	1675	1	0
6.68637	1677	0	0
6.68719	1677	0	0
6.68739	1678	1	0
6.69082	1680	0	0
6.69112	1680	0	0
6.69123	1680	2	0
6.69138	1682	1	0
6.70239	1684	0	0
6.77071	1684	0	0
6.7713	1684	0	0
6.77148	1684	2	0
6.77173	1686	1	0
6.82554	1688	0	0
6.85891	1688	0	0
6.86285	1688	0	0
6.8644	1688	0	0
6.86451	1689	1	0
6.87554	1691	0	0
6.87568	1691	0	0
6.87574	1692	1	0
6.88631	1694	0	0
6.89076	1694	0	0
6.89237	1694	0	0
6.89351	1695	1	0
6.90353	1697	0	0
6.95159	1697	0	0
6.95223	1697	0	0
6.95231	1697	2	0
6.95236	1699	1	0
6.98055	1701	0	0
6.98101	1701	0	0
6.98109	1702	1	0
7.02099	1704	0	0
7.0314	1704	0	0
7.03195	1704	0	0
7.03211	1704	2	0
7.03232	1706	1	0
7.07016	1708	0	0
7.09561	1708	0	0
7.1066	1708	0	0
7.10816	1708	0	0
7.10865	1709	1	0
7.13777	1711	0	0
7.13908	1711	0	0
7.13975	1712	1	0
7.14713	1714	0	0
7.14736	1714	0	0
7.14741	1715	1	0
7.26369	1717	0	0
7.26639	1717	0	0
7.26667	1718	1	0
7.34198	1720	0	0
7.40333	1720	0	0
7.40337	1720	0	0
7.4036	1720	1	0
7.40366	1721	2	0
7.40406	1723	1	0
7.4093	1725	0	0
7.40948	1725	0	0
7.40989	1726	1	0
7.51383	1728	0	0
7.51729	1728	0	0
7.51743	1728	2	0
7.51793	1730	1	0
7.53022	1732	0	0
7.53765	1732	0	0
7.5383	1732	0	0
7.53846	1733	1	0
7.54901	1735	0	0
7.54927	1735	0	0
7.5496	1736	1	0
7.57412	1738	0	0
7.57429	1738	0	0
7.57505	1739	1	0
7.57523	1739	1	0
7.57541	1740	2	0
7.57598	1742	1	0
7.61436	1744	0	0
7.61568	1744	0	0
7.61575	1744	2	0
7.61593	1746	1	0
7.62852	1748	0	0
7.63423	1748	0	0
7.6345	1748	0	0
7.63576	1748	1	0
7.63599	1749	2	0
7.63629	1751	1	0
7.72523	1753	0	0
7.72626	1753	0	0
7.72652	1753	2	0
7.72683	1755	1	0
7.73377	1757	0	0
7.73379	1757	0	0
7.734	1758	1	0
7.74825	1760	0	0
7.74913	1760	0	0
7.74932	1760	2	0
7.74999	1762	1	0
7.75941	1764	0	0
7.77038	1764	0	0
7.77061	1764	0	0
7.77125	1764	1	0
7.77137	1765	2	0
7.77163	1767	1	0
7.80476	1769	0	0
7.80493	1769	0	0
7.80535	1769	1	0
7.80548	1770	2	0
7.80575	1772	1	0
7.81082	1774	0	0
7.86048	1774	0	0
7.86107	1774	0	0
7.86132	1775	1	0
7.91125	1777	0	0
7.91186	1777	0	0
7.91252	1778	1	0
7.92324	1780	0	0
7.92472	1780	0	0
7.925	1781	1	0
7.94278	1783	0	0
8.07232	1783	0	0
8.07307	1783	0	0
8.07397	1783	1	0
8.10205	1785	0	0
8.10209	1785	0	0
8.10222	1785	2	0
8.10404	1787	1	0
8.11383	1789	0	0
8.11504	1789	0	0
8.11708	1789	1	0
8.11756	1790	2	0
8.11758	1792	1	0
8.14501	1794	0	0
8.14633	1794	0	0
8.14683	1795	1	0
8.15417	1797	0	0
8.15418	1797	0	0
8.15579	1797	1	0
8.15617	1798	2	0
8.15649	1800	1	0
8.15967	1802	0	0
8.16205	1802	0	0
8.18944	1802	0	0
8.18984	1802	0	0
8.21467	1803	1	0
8.21487	1803	1	0
8.21487	1804	2	0
8.23526	1806	1	0
8.24211	1806	1	0
8.24315	1806	1	0
8.24327	1806	3	0
8.24345	1808	2	0
8.2655	1810	1	0
8.29832	1810	1	0
8.29902	1810	1	0
8.29905	1810	2	0
8.29955	1811	3	0
8.29965	1813	2	0
8.33991	1815	1	0
8.342	1815	1	0
8.34251	1816	2	0
8.39122	1818	1	0
8.40484	1818	1	0
8.44688	1818	1	0
8.46214	1818	1	0
8.46294	1818	1	0
8.46296	1818	3	0
8.46333	1820	2	0
8.46724	1822	1	0
8.5952	1822	1	0
8.59592	1822	1	0
8.59612	1823	2	0
8.60719	1825	1	0
8.60797	1825	1	0
8.61128	1825	2	0
8.61139	1826	3	0
8.6122	1828	2	0
8.629	1830	1	0
8.65949	1830	1	0
8.70716	1830	1	0
8.7157	1830	1	0
8.71595	1830	1	0
8.71596	1831	2	0
8.73166	1833	1	0
8.75389	1833	1	0
8.75415	1833	1	0
8.75515	1834	2	0
8.75829	1836	1	0
8.7731	1836	1	0
8.7756	1836	1	0
8.77568	1836	3	0
8.77593	1838	2	0
8.80159	1840	1	0
8.80176	1840	1	0
8.8022	1840	2	0
8.80248	1841	3	0
8.80314	1843	2	0
8.89125	1845	1	0
8.90881	1845	1	0
8.92698	1845	1	0
8.93245	1845	1	0
8.93258	1846	2	0
8.96865	1848	1	0
8.96895	1848	1	0
8.96897	1848	3	0
8.96965	1850	2	0
9.01611	1852	1	0
9.01696	1852	1	0
9.01742	1853	2	0
9.06339	1855	1	0
9.06345	1855	1	0
9.06358	1855	3	0
9.06412	1857	2	0
9.06529	1857	2	0
9.06635	1859	1	0
9.06774	1859	1	0
9.06778	1859	2	0
9.06785	1860	3	0
9.06807	1862	2	0
9.2028	1864	1	0
9.20476	1864	1	0
9.20494	1865	2	0
9.22762	1867	1	0
9.22884	1867	1	0
9.22885	1867	3	0
9.22889	1869	2	0
9.24305	1871	1	0
9.24322	1871	1	0
9.24342	1871	2	0
9.24369	1872	3	0
9.2437	1874	2	0
9.28739	1876	1	0
9.28926	1876	1	0
9.28937	1876	3	0
9.28984	1878	2	0
9.31199	1880	1	0
9.39963	1880	1	0
9.40006	1880	1	0
9.40046	1881	2	0
9.41854	1883	1	0
9.42064	1883	1	0
9.42077	1883	3	0
9.42198	1885	2	0
9.57816	1887	1	0
9.58692	1887	1	0
9.58835	1887	1	0
9.5894	1887	1	0
9.58953	1887	3	0
9.58996	1889	2	0
9.61533	1891	1	0
9.61958	1891	1	0
9.61968	1892	2	0
9.61999	1894	1	0
9.62035	1894	1	0
9.66628	1895	2	0
9.66649	1895	2	0
9.66757	1895	3	0
9.66794	1896	4	0
9.66801	1898	3	0
9.67309	1900	2	0
9.72589	1900	2	0
9.72603	1900	2	0
9.72654	1901	3	0
9.73024	1903	2	0
9.78808	1905	1	0
9.78843	1905	1	0
9.78858	1905	3	0
9.78869	1907	2	0
9.80523	1909	1	0
9.80729	1909	1	0
9.80737	1910	2	0
9.85473	1912	1	0
9.85544	1912	1	0
9.85552	1912	2	0
9.85556	1913	3	0
9.8583	1915	2	0
9.89054	1917	1	0
9.89183	1917	1	0
9.89277	1918	2	0
9.90625	1920	1	0
9.90672	1920	1	0
9.90696	1921	2	0
9.93285	1923	1	0
9.93319	1923	1	0
9.93322	1923	1	0
9.93397	1923	2	0
9.93404	1924	3	0
9.93415	1926	2	0
9.9377	1928	1	0
9.93978	1928	2	0
9.93995	1929	3	0
9.94116	1931	2	0
9.94322	1933	1	0
9.94338	1933	1	0
9.94346	1933	3	0
9.94365	1935	2	0
9.96512	1937	1	0
9.96698	1937	1	0
9.96729	1938	2	0
10.075	1940	1	0
10.1031	1940	1	0
10.1036	1940	1	0
10.1038	1940	3	0
10.1038	1942	2	0
10.1439	1944	1	0
10.1457	1944	1	0
10.1458	1944	3	0
10.1459	1946	2	0
10.1502	1948	1	0
10.1507	1948	1	0
10.1515	1949	2	0
10.1535	1951	1	0
10.1565	1951	1	0
10.1567	1951	1	0
10.1568	1952	2	0
10.1758	1954	1	0
10.1764	1954	1	0
10.1769	1955	2	0
10.1907	1957	1	0
10.1914	1957	1	0
10.1919	1958	2	0
10.2008	1960	1	0
10.2012	1960	1	0
10.2017	1961	2	0
10.3345	1963	1	0
10.3345	1963	1	0
10.3345	1964	2	0
10.4373	1966	1	0
10.4419	1966	1	0
10.442	1966	1	0
10.4435	1967	2	0
10.6512	1969	1	0
10.6518	1969	1	0
10.6519	1970	2	0
10.6675	1972	1	0
10.6678	1972	1	0
10.6696	1972	2	0
10.6703	1973	3	0
10.6715	1975	2	0
10.6771	1977	1	0
10.7704	1977	1	0
10.7712	1977	1	0
10.7737	1978	2	0
10.7931	1980	1	0
10.7943	1980	1	0
10.7943	1980	3	0
10.7944	1982	2	0
10.8225	1984	1	0
10.8243	1984	1	0
10.825	1985	2	0
10.924	1987	1	0
10.9241	1987	1	0
10.9244	1987	3	0
10.925	1989	2	0
10.9673	1991	1	0
10.9674	1991	1	0
10.9676	1992	2	0
10.9752	1994	1	0
10.9756	1994	1	0
10.9764	1995	2	0
10.9978	1997	1	0
11.0375	1997	1	0
11.0376	1997	1	0
11.0377	1997	3	0
11.038	1999	2	0
11.0763	2001	1	0
11.0961	2001	1	0
11.1295	2001	1	0
11.13	2001	1	0
11.13	2002	2	0
11.1618	2004	1	0
11.1929	2006	0	0
11.193	2006	0	0
11.194	2006	1	0
11.1951	2006	2	0
11.1954	2006	3	0
11.1955	2006	4	0
11.1957	2008	3	0
11.1957	2010	2	0
11.196	2010	3	0
11.1965	2010	4	0
11.1972	2012	3	0
11.1973	2014	2	0
11.1978	2014	3	0
11.1979	2016	2	0
11.1981	2016	3	0
11.1983	2016	4	0
11.1983	2016	5	0
11.1985	2018	4	0
11.199	2020	3	0
11.1994	2022	2	0
11.1995	2022	3	0
11.1995	2024	2	0
11.1998	2024	3	0
11.1999	2026	2	0
11.201	2026	3	0
11.2366	2028	2	0
11.2373	2028	2	0
11.2382	2030	1	0
11.2383	2031	2	0
11.2385	2033	1	0
11.3694	2035	0	0
11.3701	2035	0	0
11.3701	2035	2	0
11.3705	2037	1	0
11.3999	2039	0	0
11.446	2039	0	0
11.4473	2039	0	0
11.4475	2039	2	0
11.4476	2041	1	0
11.5244	2043	0	0
11.5247	2043	0	0
11.5251	2043	2	0
11.5254	2045	1	0
11.5272	2047	0	0
11.5445	2047	0	0
11.5453	2047	0	0
11.5457	2048	1	0
11.6653	2050	0	0
11.6665	2050	0	0
11.6675	2051	1	0
11.6865	2053	0	0
11.6869	2053	0	0
11.687	2053	2	0
11.6874	2055	1	0
11.7261	2057	0	0
11.7289	2057	0	0
11.7295	2057	1	0
11.7297	2058	2	0
11.73	2060	1	0
11.8067	2062	0	0
11.849	2062	0	0
11.8492	2062	0	0
11.8496	2062	1	0
11.8497	2063	2	0
11.8505	2065	1	0
12.0146	2067	0	0
12.0152	2067	0	0
12.0152	2068	1	0
12.0415	2070	0	0
12.0491	2070	0	0
12.0497	2070	0	0
12.0499	2071	1	0
12.204	2073	0	0
12.3092	2073	0	0
12.3094	2073	0	0
12.3096	2073	2	0
12.3097	2075	1	0
12.4005	2077	0	0
12.4009	2077	0	0
12.4009	2077	2	0
12.4022	2079	1	0
12.4938	2081	0	0
12.495	2081	0	0
12.4956	2082	1	0
12.5994	2084	0	0
12.5997	2084	0	0
12.5998	2084	2	0
12.6001	2086	1	0
12.6208	2088	0	0
12.6403	2088	0	0
12.6408	2088	0	0
12.6417	2088	2	0
12.6417	2090	1	0
12.6824	2092	0	0
12.6826	2092	0	0
12.6826	2093	1	0
12.7844	2095	0	0
12.7869	2095	0	0
12.7871	2095	2	0
12.7879	2097	1	0
12.9185	2099	0	0
12.9196	2099	0	0
12.9201	2099	2	0
12.9214	2101	1	0
13.0051	2103	0	0
13.0062	2103	0	0
13.0066	2104	1	0
13.0391	2106	0	0
13.1068	2106	0	0
13.1105	2106	0	0
13.2123	2106	0	0
13.2124	2106	0	0
13.2125	2107	1	0
13.3561	2109	0	0
13.3563	2109	0	0
13.3565	2110	1	0
13.3597	2112	0	0
13.5913	2112	0	0
13.5918	2112	0	0
13.5918	2113	1	0
13.7457	2115	0	0
13.7463	2115	0	0
13.7465	2115	1	0
13.7469	2116	2	0
13.7475	2118	1	0
14.0183	2120	0	0
14.0191	2120	0	0
14.0192	2120	2	0
14.0194	2122	1	0
14.0923	2124	0	0
14.0926	2124	0	0
14.0929	2124	2	0
14.0937	2126	1	0
14.1626	2128	0	0
14.2185	2128	0	0
14.2209	2128	0	0
14.2213	2129	1	0
14.3955	2131	0	0
14.3984	2131	0	0
14.3986	2131	0	0
14.3992	2132	1	0
14.4005	2134	0	0
14.4009	2134	1	0
14.4017	2134	2	0
14.4029	2134	3	0
14.404	2136	2	0
14.404	2136	4	0
14.4041	2138	3	0
14.4042	2140	2	0
14.4042	2142	1	0
14.4306	2144	0	0
14.4319	2144	0	0
14.4322	2144	2	0
14.4323	2146	1	0
14.5241	2148	0	0
14.5241	2148	0	0
14.5246	2148	2	0
14.5253	2150	1	0
14.628	2152	0	0
14.628	2152	0	0
14.628	2152	2	0
14.6286	2154	1	0
14.6375	2156	0	0
14.6388	2156	0	0
14.6388	2157	1	0
14.6691	2159	0	0
14.8163	2159	0	0
14.8166	2159	0	0
14.8169	2159	1	0
14.8172	2160	2	0
14.8179	2162	1	0
14.9114	2164	0	0
14.9118	2164	0	0
14.9478	2165	1	0
14.9479	2165	1	0
14.9481	2165	3	0
14.9487	2167	2	0
15.0311	2169	1	0
15.0321	2169	1	0
15.1702	2169	2	0
15.1715	2169	2	0
15.1715	2169	4	0
15.1715	2171	3	0
15.1716	2173	2	0
15.1873	2175	1	0
15.4362	2177	0	0
15.4364	2177	0	0
15.4365	2177	2	0
15.4365	2179	1	0
15.5348	2181	0	0
15.5369	2181	0	0
15.5567	2182	1	0
15.5593	2182	1	0
15.5595	2183	2	0
15.6702	2185	1	0
15.6714	2185	1	0
15.6719	2186	2	0
15.6736	2188	1	0
15.6741	2188	1	0
15.6742	2188	3	0
15.6751	2190	2	0
15.8525	2192	1	0
15.8528	2192	1	0
15.853	2192	3	0
15.8539	2194	2	0
16.0165	2196	1	0
16.0165	2196	1	0
16.0166	2196	3	0
16.0167	2198	2	0
16.1062	2200	1	0
16.1066	2200	1	0
16.1068	2201	2	0
16.3842	2203	1	0
16.3849	2203	1	0
16.385	2203	3	0
16.3853	2205	2	0
16.3875	2207	1	0
16.4265	2209	0	0
16.7577	2209	0	0
16.7577	2209	0	0
16.7578	2209	1	0
16.7581	2210	2	0
16.7585	2212	1	0
16.8322	2214	0	0
16.8326	2214	0	0
16.8327	2214	2	0
16.8329	2216	1	0
16.8986	2218	0	0
16.9312	2218	0	0
16.9332	2218	0	0
16.9338	2219	1	0
17.0735	2221	0	0
17.0738	2221	0	0
17.0739	2221	2	0
17.074	2223	1	0
17.1434	2225	0	0
17.1443	2225	0	0
17.2098	2226	1	0
17.2102	2226	1	0
17.2107	2226	3	0
17.7385	2228	2	0
17.7385	2228	2	0
17.7386	2229	3	0
17.8965	2231	2	0
17.8969	2231	2	0
17.9043	2232	3	0
17.9071	2232	3	0
17.9753	2232	5	0
17.9756	2232	5	0
17.9766	2233	6	0
18.1127	2235	5	0
18.2799	2237	4	0
18.2807	2237	4	0
18.2808	2237	6	0
18.281	2239	5	0
18.3061	2241	4	0
18.3069	2241	4	0
18.3097	2241	5	0
18.3097	2242	6	0
18.3102	2244	5	0
18.3242	2246	4	0
18.3269	2246	4	0
18.3273	2247	5	0
18.4553	2249	4	0
18.4579	2249	4	0
18.4581	2249	6	0
18.4588	2251	5	0
18.6022	2253	4	0
18.6027	2253	4	0
18.6028	2253	6	0
18.6033	2255	5	0
18.7879	2257	4	0
18.7889	2257	4	0
18.9327	2258	5	0
19.3361	2258	5	0
19.3368	2258	5	0
19.3369	2259	6	0
19.5793	2261	5	0
19.5794	2261	5	0
19.5798	2261	7	0
19.5799	2263	6	0
19.6528	2265	5	0
19.6534	2265	5	0
19.6539	2266	6	0
19.68	2268	5	0
19.6829	2268	5	0
19.6831	2268	7	0
19.6835	2270	6	0
19.9121	2272	5	0
19.9141	2272	5	0
19.9144	2273	6	0
19.981	2275	5	0
19.9813	2275	5	0
19.9814	2276	6	0
19.9901	2278	5	0
20.0843	2280	4	0
20.086	2280	4	0
20.0861	2281	5	0
20.4587	2283	4	0
20.46	2283	4	0
20.4601	2283	6	0
20.4607	2285	5	0
20.5161	2287	4	0
20.5168	2287	4	0
20.5168	2288	5	0
20.5932	2290	4	0
20.5933	2290	4	0
20.5933	2290	5	0
20.5935	2291	6	0
20.5935	2293	5	0
20.8567	2295	4	0
20.8568	2295	4	0
20.8568	2296	5	0
20.8904	2298	4	0
20.8906	2298	4	0
20.8909	2298	6	0
20.8916	2300	5	0
20.9531	2302	4	0
20.969	2304	3	0
20.9711	2304	3	0
20.9712	2304	5	0
20.9734	2306	4	0
21.0902	2308	3	0
21.0917	2308	3	0
21.0922	2309	4	0
21.3396	2311	3	0
22.2805	2313	2	0
22.2846	2313	2	0
22.2848	2313	4	0
22.2853	2315	3	0
22.3687	2317	2	0
22.3696	2317	2	0
22.3697	2317	4	0
22.37	2319	3	0
22.5655	2321	2	0
22.6507	2323	1	0
22.651	2323	1	0
22.6512	2323	3	0
22.6514	2325	2	0
22.8638	2327	1	0
22.8641	2327	1	0
22.8642	2327	3	0
22.8643	2329	2	0
22.936	2331	1	0
22.936	2331	1	0
22.936	2331	3	0
22.9361	2333	2	0
23.0517	2335	1	0
23.3816	2337	0	0
23.3816	2337	0	0
23.3826	2337	1	0
23.3827	2338	2	0
23.383	2340	1	0
23.4035	2342	0	0
23.4043	2342	0	0
23.4043	2342	2	0
23.4044	2344	1	0
23.579	2346	0	0
23.579	2346	0	0
23.5791	2347	1	0
23.6076	2349	0	0
23.6092	2349	0	0
23.6099	2350	1	0
24.2573	2352	0	0
24.2574	2352	0	0
24.2575	2352	2	0
24.2578	2354	1	0
24.7048	2356	0	0
24.705	2356	0	0
24.7051	2356	2	0
24.7065	2358	1	0
24.9315	2360	0	0
24.9316	2360	0	0
24.932	2360	2	0
24.9322	2362	1	0
25.1984	2364	0	0
25.2003	2364	0	0
25.2008	2365	1	0
25.5163	2367	0	0
25.5167	2367	0	0
25.517	2367	2	0
25.5171	2369	1	0
27.6952	2371	0	0
27.6955	2371	0	0
27.6955	2371	2	0
27.6963	2373	1	0
28.1266	2375	0	0
28.1282	2375	0	0
28.1286	2375	2	0
28.1289	2377	1	0
28.5906	2379	0	0
28.5917	2379	0	0
29.8527	2380	1	0
