4.48053e-09	0	0	0
5.30637e-09	0	0	0
1.88241e-08	0	0	0
4.40444e-08	0	0	0
1.02944e-07	0	0	0
1.50303e-07	0	0	0
1.69655e-07	0	0	0
1.70882e-07	0	0	0
3.12387e-07	0	0	0
5.03972e-07	0	0	0
5.18166e-07	0	0	0
5.68091e-07	0	0	0
6.96516e-07	0	0	0
1.49503e-06	0	0	0
2.22963e-06	0	0	0
2.25416e-06	0	0	0
2.32381e-06	0	0	0
3.61361e-06	0	0	0
4.52523e-06	0	0	0
4.66232e-06	0	0	0
4.78565e-06	0	0	0
5.0804e-06	0	0	0
5.37943e-06	0	0	0
6.23805e-06	0	0	0
7.81612e-06	0	0	0
8.5937e-06	0	0	0
9.75413e-06	0	0	0
9.76978e-06	0	0	0
1.00713e-05	0	0	0
1.04309e-05	0	0	0
1.11013e-05	0	0	0
1.30452e-05	0	0	0
1.30763e-05	0	0	0
1.38212e-05	0	0	0
1.4439e-05	0	0	0
1.45482e-05	0	0	0
1.48209e-05	0	0	0
1.70626e-05	0	0	0
1.7115e-05	0	0	0
1.78904e-05	0	0	0
1.81859e-05	0	0	0
1.84004e-05	0	0	0
1.94506e-05	0	0	0
1.98983e-05	0	0	0
1.99924e-05	0	0	0
2.12203e-05	0	0	0
2.16612e-05	0	0	0
2.24778e-05	0	0	0
2.29801e-05	0	0	0
2.36515e-05	0	0	0
2.39361e-05	0	0	0
2.51616e-05	0	0	0
2.59398e-05	0	0	0
2.59657e-05	0	0	0
2.60996e-05	0	0	0
2.67958e-05	0	0	0
2.69754e-05	0	0	0
2.70501e-05	0	0	0
2.82878e-05	0	0	0
2.96502e-05	0	0	0
3.02206e-05	0	0	0
3.04977e-05	0	0	0
3.14797e-05	0	0	0
3.18178e-05	0	0	0
3.24717e-05	0	0	0
3.25414e-05	0	0	0
3.285e-05	0	0	0
3.32785e-05	0	0	0
3.33429e-05	0	0	0
3.40887e-05	0	0	0
3.41519e-05	0	0	0
3.5445e-05	0	0	0
3.76271e-05	0	0	0
3.76563e-05	0	0	0
3.81862e-05	0	0	0
3.87184e-05	0	0	0
3.92017e-05	0	0	0
3.9717e-05	0	0	0
4.00294e-05	0	0	0
4.10121e-05	0	0	0
4.1232e-05	0	0	0
4.17308e-05	0	0	0
4.20088e-05	0	0	0
4.24373e-05	0	0	0
4.26964e-05	0	0	0
4.35392e-05	0	0	0
4.39785e-05	0	0	0
4.43279e-05	0	0	0
4.56051e-05	0	0	0
4.57331e-05	0	0	0
4.57908e-05	0	0	0
4.5875e-05	0	0	0
4.77491e-05	0	0	0
4.81531e-05	0	0	0
4.88891e-05	0	0	0
4.9845e-05	0	0	0
5.03815e-05	0	0	0
5.09395e-05	0	0	0
5.098e-05	0	0	0
5.30946e-05	0	0	0
5.32958e-05	0	0	0
5.42066e-05	0	0	0
5.46973e-05	0	0	0
5.57334e-05	0	0	0
5.57637e-05	0	0	0
5.64711e-05	0	0	0
5.68849e-05	0	0	0
5.72988e-05	0	0	0
5.87486e-05	0	0	0
6.04351e-05	0	0	0
6.11949e-05	0	0	0
6.23139e-05	0	0	0
6.23866e-05	0	0	0
6.36646e-05	0	0	0
6.39852e-05	0	0	0
6.54612e-05	0	0	0
6.58884e-05	0	0	0
6.67391e-05	0	0	0
6.83826e-05	0	0	0
7.11779e-05	0	0	0
7.19125e-05	0	0	0
7.25738e-05	0	0	0
7.34522e-05	0	0	0
7.39571e-05	0	0	0
7.60384e-05	0	0	0
7.61019e-05	0	0	0
7.61514e-05	0	0	0
7.71975e-05	0	0	0
7.82166e-05	0	0	0
8.10082e-05	0	0	0
8.16469e-05	0	0	0
8.19615e-05	0	0	0
8.25871e-05	0	0	0
8.27544e-05	0	0	0
8.4024e-05	0	0	0
8.4085e-05	0	0	0
8.41586e-05	0	0	0
8.64062e-05	0	0	0
8.74158e-05	0	0	0
8.76316e-05	0	0	0
8.81287e-05	0	0	0
8.86744e-05	0	0	0
8.99969e-05	0	0	0
9.10624e-05	0	0	0
9.28306e-05	0	0	0
9.49836e-05	0	0	0
9.5338e-05	0	0	0
9.76158e-05	0	0	0
9.97967e-05	0	0	0
9.99052e-05	0	0	0
0.000100815	0	0	0
0.000101013	0	0	0
0.000101233	0	0	0
0.000101395	0	0	0
0.000103888	0	0	0
0.000104047	0	0	0
0.000104405	0	0	0
0.000106287	0	0	0
0.000106303	0	0	0
0.000106723	0	0	0
0.000107049	0	0	0
0.000107066	0	0	0
0.000107389	0	0	0
0.000107739	0	0	0
0.000109836	0	0	0
0.000111916	0	0	0
0.000113142	0	0	0
0.000116301	0	0	0
0.000116441	0	0	0
0.000117727	0	0	0
0.000118706	0	0	0
0.000120404	0	0	0
0.000121253	0	0	0
0.00012485	0	0	0
0.000124931	0	0	0
0.00012512	0	0	0
0.000126797	0	0	0
0.000128265	0	0	0
0.00012942	0	0	0
0.000130325	0	0	0
0.000130493	0	0	0
0.000130606	0	0	0
0.000132215	0	0	0
0.000133016	0	0	0
0.00013428	0	0	0
0.000135596	0	0	0
0.000140026	0	0	0
0.000143203	0	0	0
0.000144144	0	0	0
0.000147494	0	0	0
0.000149449	0	0	0
0.000149651	0	0	0
0.000152391	0	0	0
0.000152563	0	0	0
0.00015571	0	0	0
0.000155811	0	0	0
0.000159027	0	0	0
0.000159037	0	0	0
0.000159522	0	0	0
0.000161714	0	0	0
0.000162036	0	0	0
0.000162104	0	0	0
0.000162113	0	0	0
0.000164212	0	0	0
0.000167219	0	0	0
0.000168192	0	0	0
0.000169303	0	0	0
0.00017061	0	0	0
0.000172623	0	0	0
0.000174374	0	0	0
0.000175541	0	0	0
0.000175657	0	0	0
0.000176158	0	0	0
0.000176361	0	0	0
0.000176432	0	0	0
0.000178037	0	0	0
0.000179402	0	0	0
0.000179591	0	0	0
0.000179806	0	0	0
0.000186045	0	0	0
0.00018618	0	0	0
0.000186411	0	0	0
0.00019013	0	0	0
0.000190597	0	0	0
0.00019649	0	0	0
0.000197183	0	0	0
0.000198688	0	0	0
0.000200169	0	0	0
0.000200482	0	0	0
0.000202699	0	0	0
0.000205158	0	0	0
0.000208503	0	0	0
0.000209978	0	0	0
0.000211505	0	0	0
0.00021265	0	0	0
0.000213352	0	0	0
0.000215254	0	0	0
0.000216906	0	0	0
0.000219914	0	0	0
0.000220681	0	0	0
0.000221975	0	0	0
0.000223026	0	0	0
0.00022405	0	0	0
0.000224874	0	0	0
0.000226075	0	0	0
0.000227958	0	0	0
0.000230099	0	0	0
0.000230445	0	0	0
0.000231277	0	0	0
0.000234769	0	0	0
0.000235005	0	0	0
0.000236418	0	0	0
0.000237317	0	0	0
0.000240682	0	0	0
0.000242708	0	0	0
0.000243414	0	0	0
0.000246137	0	0	0
0.000257759	0	0	0
0.000258206	0	0	0
0.000260963	0	0	0
0.000261026	0	0	0
0.000262858	0	0	0
0.000270799	0	0	0
0.000271878	0	0	0
0.000273919	0	0	0
0.00027644	0	0	0
0.000278517	0	0	0
0.000280482	0	0	0
0.000282239	0	0	0
0.000287368	0	0	0
0.000288918	0	0	0
0.000289458	0	0	0
0.000290886	0	0	0
0.000291368	0	0	0
0.000294338	0	0	0
0.000299421	0	0	0
0.000301308	0	0	0
0.000301699	0	0	0
0.000305678	0	0	0
0.000306722	0	0	0
0.000309985	0	0	0
0.000311894	0	0	0
0.000318662	0	0	0
0.000319286	0	0	0
0.000322357	0	0	0
0.000324246	0	0	0
0.000326252	0	0	0
0.000333613	0	0	0
0.000342206	0	0	0
0.000346916	0	0	0
0.000354447	0	0	0
0.000362554	0	0	0
0.000364176	0	0	0
0.000365145	0	0	0
0.000369486	0	0	0
0.000374166	0	0	0
0.000375848	0	0	0
0.000386756	0	0	0
0.000389027	0	0	0
0.000399162	0	0	0
0.000400076	0	0	0
0.000402892	0	0	0
0.000405145	0	0	0
0.000405177	0	0	0
0.000406263	0	0	0
0.000406348	0	0	0
0.000410148	0	0	0
0.000411239	0	0	0
0.000414751	0	0	0
0.000415203	0	0	0
0.000417894	0	0	0
0.00041922	0	0	0
0.000422095	0	0	0
0.000427031	0	0	0
0.00042987	0	0	0
0.000430817	0	0	0
0.000434094	0	0	0
0.000434764	0	0	0
0.000436621	0	0	0
0.000437616	0	0	0
0.000439481	0	0	0
0.00044042	0	0	0
0.000441254	0	0	0
0.00045189	0	0	0
0.000453666	0	0	0
0.000459473	0	0	0
0.000459793	0	0	0
0.000461425	0	0	0
0.000463725	0	0	0
0.000463841	0	0	0
0.000467975	0	0	0
0.00046862	0	0	0
0.000487198	0	0	0
0.000493964	0	0	0
0.000494135	0	0	0
0.0005048	0	0	0
0.000507216	0	0	0
0.0005197	0	0	0
0.000530802	0	0	0
0.000542995	0	0	0
0.00054847	0	0	0
0.000557154	0	0	0
0.000557436	0	0	0
0.000563625	0	0	0
0.000589059	0	0	0
0.000591982	0	0	0
0.000593751	0	0	0
0.000594822	0	0	0
0.000595837	0	0	0
0.000599712	0	0	0
0.000601676	0	0	0
0.000611824	0	0	0
0.000633969	0	0	0
0.000665902	0	0	0
0.000677596	0	0	0
0.000695254	0	0	0
0.000719477	0	0	0
0.000724516	0	0	0
0.000738772	0	0	0
0.000747815	0	0	0
0.000750472	0	0	0
0.000760571	0	0	0
0.000769499	0	0	0
0.000786518	0	0	0
0.000796655	0	0	0
0.000798487	0	0	0
0.000806474	0	0	0
0.000847109	0	0	0
0.000871785	0	0	0
0.000873878	0	0	0
0.000879959	0	0	0
0.000909591	0	0	0
0.000970871	0	0	0
0.000976326	0	0	0
0.000983548	0	0	0
0.00100586	0	0	0
0.00103081	0	0	0
0.00106132	0	0	0
0.00112143	0	0	0
0.00114853	0	0	0
0.00115437	0	0	0
0.00116553	0	0	0
0.00116658	0	0	0
0.00117865	0	0	0
0.00129363	0	0	0
0.00129402	0	0	0
0.00141541	0	0	0
0.00146268	0	0	0
0.0015155	0	0	0
0.00163534	0	0	0
0.00164532	0	0	0
0.00165037	0	0	0
0.00165918	0	0	0
0.00173154	0	0	0
0.00192626	0	0	0
0.00193398	0	0	0
0.00198914	0	0	0
0.00204665	0	0	0
0.00219165	0	0	0
0.00236225	0	0	0
0.00251178	0	0	0
0.00257328	0	0	0
0.00298876	0	0	0
0.0030256	0	0	0
0.00436827	0	0	0
0.00443826	0	0	0
0.00457736	0	0	0
0.00517549	0	0	0
0.00535199	0	0	0
0.0056646	0	0	0
0.00657492	0	0	0
0.00719576	0	0	0
0.00793529	0	0	0
0.00796148	0	0	0
0.00909962	0	0	0
0.00989609	0	0	0
0.0104041	0	0	0
0.0106617	0	0	0
0.0109909	0	0	0
0.0113077	0	0	0
0.011665	0	0	0
0.0117617	1	1	0
0.0126286	3	0	0
0.0127055	3	0	0
0.0138767	3	0	0
0.0140163	3	0	0
0.0140374	3	0	0
0.0156133	4	0	0
0.0162141	4	0	0
0.0162638	4	0	0
0.016311	4	0	0
0.0165228	4	0	0
0.0167695	4	0	0
0.0172124	4	0	0
0.0172688	4	0	0
0.0183344	4	0	0
0.0184224	4	0	0
0.0187104	4	0	0
0.0188793	4	0	0
0.0192959	4	0	0
0.019581	4	0	0
0.0199748	4	0	0
0.0200637	4	0	0
0.0201316	4	0	0
0.0202417	4	0	0
0.0204355	4	0	0
0.0212523	4	0	0
0.0223915	4	0	0
0.0224958	4	0	0
0.0229103	4	0	0
0.0229865	4	0	0
0.0230234	4	0	0
0.0231222	5	1	0
0.0233186	5	1	0
0.0244389	7	0	0
0.0253927	7	0	0
0.0255119	7	0	0
0.0256898	7	0	0
0.025754	7	1	0
0.0258908	8	2	0
0.0263986	10	1	0
0.0265755	12	0	0
0.0270581	12	0	0
0.0277829	12	0	0
0.0279056	12	0	0
0.028376	12	0	0
0.0292664	12	0	0
0.0296824	12	0	0
0.0297474	12	0	0
0.0297999	12	0	0
0.0302079	12	0	0
0.0302229	12	0	0
0.0310644	12	0	0
0.0312176	12	0	0
0.0327105	12	0	0
0.0328718	12	0	0
0.0332687	12	0	0
0.0333918	12	0	0
0.0334575	12	0	0
0.0346515	12	0	0
0.0350048	12	1	0
0.035294	13	2	0
0.0361381	15	1	0
0.0363994	15	1	0
0.036632	15	1	0
0.0366976	16	2	0
0.0367607	18	1	0
0.0369121	18	1	0
0.0371265	20	0	0
0.0372023	20	0	0
0.0374827	20	0	0
0.0375564	20	0	0
0.0377212	20	0	0
0.0384583	20	0	0
0.0388019	20	0	0
0.0388157	21	1	0
0.0389193	21	1	0
0.0398503	21	1	0
0.0401362	23	0	0
0.040405	24	0	0
0.0409911	24	0	0
0.0418792	24	0	0
0.0424248	24	0	0
0.0430831	24	0	0
0.0431689	24	0	0
0.0446378	24	0	0
0.0447144	24	0	0
0.0451397	24	0	0
0.045252	25	1	0
0.0461814	27	0	0
0.0472704	28	0	0
0.0474762	28	0	0
0.0478998	28	0	0
0.0486567	28	0	0
0.0490747	28	0	0
0.0491099	28	0	0
0.0499104	28	0	0
0.0506042	28	1	0
0.0506727	28	1	0
0.0508082	28	1	0
0.0511141	28	1	0
0.0521315	28	1	0
0.0521671	28	1	0
0.0523971	28	1	0
0.0528166	28	1	0
0.0533818	29	2	0
0.0539214	31	1	0
0.0545343	33	0	0
0.0547736	33	0	0
0.0547742	33	0	0
0.0547954	33	0	0
0.0552955	33	0	0
0.0559523	33	0	0
0.05608	33	0	0
0.0571581	33	0	0
0.0606042	33	0	0
0.0606669	33	0	0
0.0609027	34	0	0
0.061498	34	0	0
0.0620328	34	0	0
0.0621398	34	0	0
0.0626439	34	0	0
0.0626738	34	0	0
0.0630176	34	0	0
0.0634579	34	0	0
0.0637267	34	0	0
0.0644496	34	0	0
0.0645465	34	0	0
0.064575	34	0	0
0.0649805	34	0	0
0.0650056	34	0	0
0.0656655	34	0	0
0.0658456	34	0	0
0.0666929	35	0	0
0.0669339	35	0	0
0.0670889	35	0	0
0.0677207	35	0	0
0.0678568	35	0	0
0.0678607	35	0	0
0.0680994	35	0	0
0.0681174	35	0	0
0.0682012	35	0	0
0.0684122	35	0	0
0.0685829	35	0	0
0.0687701	35	0	0
0.0689089	35	0	0
0.0690154	35	0	0
0.0701419	36	1	0
0.0705808	36	1	0
0.0706784	36	1	0
0.070826	36	1	0
0.0709272	36	1	0
0.0711677	38	0	0
0.0715958	38	0	0
0.0720074	38	0	0
0.0721921	38	0	0
0.072247	38	0	0
0.0724449	38	0	0
0.0726512	38	0	0
0.0735929	38	0	0
0.0742101	38	0	0
0.0747205	38	0	0
0.075341	39	0	0
0.0757263	39	0	0
0.0760611	39	0	0
0.076408	39	0	0
0.0778472	39	0	0
0.0782478	39	0	0
0.0803861	39	0	0
0.0807465	39	0	0
0.0808382	39	0	0
0.0810911	39	0	0
0.0827495	39	0	0
0.0828451	39	0	0
0.0828716	39	0	0
0.0829876	39	0	0
0.0835328	39	0	0
0.0845461	39	0	0
0.084554	39	0	0
0.0845774	40	1	0
0.0847982	42	0	0
0.0850259	42	0	0
0.0850727	43	1	0
0.0851409	45	0	0
0.0852301	45	0	0
0.0860571	45	0	0
0.0865517	45	0	0
0.0865702	45	0	0
0.0868172	45	0	0
0.0868878	45	2	0
0.087191	47	1	0
0.0873382	47	1	0
0.08775	47	1	0
0.0877846	47	1	0
0.0880033	47	1	0
0.0886325	47	1	0
0.0889272	47	1	0
0.0894172	47	1	0
0.0899438	47	1	0
0.0903825	47	1	0
0.0904996	47	1	0
0.0911105	47	1	0
0.0911869	47	1	0
0.0912453	47	3	0
0.0913746	49	2	0
0.0913987	51	1	0
0.0915287	51	1	0
0.0922148	53	0	0
0.0928775	53	0	0
0.0939229	53	0	0
0.0951289	53	0	0
0.0951927	54	0	0
0.0955339	54	0	0
0.0963708	54	0	0
0.0966184	54	0	0
0.0968562	54	0	0
0.0981304	54	0	0
0.0989929	54	0	0
0.0994643	54	0	0
0.0999106	54	0	0
0.100833	54	0	0
0.101266	54	0	0
0.101442	54	0	0
0.101659	55	1	0
0.101808	55	1	0
0.102785	57	0	0
0.102908	57	0	0
0.103372	57	0	0
0.103861	57	0	0
0.104362	57	0	0
0.105255	57	0	0
0.105304	57	0	0
0.106053	57	0	0
0.107172	57	0	0
0.107801	57	0	0
0.108158	57	0	0
0.108171	57	0	0
0.108607	57	0	0
0.108663	57	0	0
0.108945	57	0	0
0.109512	57	0	0
0.109865	57	0	0
0.110294	57	0	0
0.110401	57	0	0
0.111144	57	0	0
0.111403	57	0	0
0.111502	57	0	0
0.112474	58	1	0
0.112531	60	0	0
0.113494	60	0	0
0.114582	60	0	0
0.115648	60	0	0
0.115714	60	0	0
0.116756	60	0	0
0.11747	60	0	0
0.117528	60	0	0
0.117752	60	0	0
0.118384	60	0	0
0.119214	60	0	0
0.11966	60	0	0
0.120288	60	0	0
0.120498	60	0	0
0.120516	61	1	0
0.121065	63	0	0
0.121317	63	0	0
0.121699	63	0	0
0.121955	63	0	0
0.122598	63	0	0
0.122747	63	0	0
0.123416	63	0	0
0.123577	63	0	0
0.123781	63	0	0
0.123988	63	0	0
0.124015	63	0	0
0.124516	63	0	0
0.12521	63	0	0
0.125554	63	0	0
0.125555	63	0	0
0.125676	63	0	0
0.125804	63	0	0
0.125913	63	0	0
0.12704	63	0	0
0.127072	63	0	0
0.127432	63	0	0
0.12757	63	0	0
0.127763	64	0	0
0.127805	64	0	0
0.12787	65	1	0
0.127979	67	0	0
0.128545	67	0	0
0.128571	67	0	0
0.129201	67	0	0
0.13014	67	0	0
0.130155	67	0	0
0.130175	68	0	0
0.130269	68	0	0
0.130666	68	0	0
0.131651	68	0	0
0.13178	68	0	0
0.131918	68	0	0
0.131989	68	0	0
0.132529	69	0	0
0.133782	69	0	0
0.134034	70	0	0
0.134183	70	0	0
0.134383	70	0	0
0.134491	70	0	0
0.134914	70	0	0
0.134923	70	0	0
0.13507	70	0	0
0.135197	70	0	0
0.135206	70	1	0
0.13533	71	2	0
0.135659	73	1	0
0.135757	74	2	0
0.135993	76	1	0
0.13626	76	1	0
0.137035	78	0	0
0.137219	78	0	0
0.13762	78	0	0
0.138024	78	0	0
0.138104	78	0	0
0.138133	78	0	0
0.138308	78	0	0
0.138487	78	0	0
0.138535	78	0	0
0.138631	79	1	0
0.139199	81	0	0
0.140072	81	0	0
0.140204	82	0	0
0.141656	82	0	0
0.142098	83	0	0
0.142326	83	0	0
0.14267	83	0	0
0.14303	83	0	0
0.143736	83	0	0
0.143747	84	0	0
0.144944	84	0	0
0.145412	84	0	0
0.145844	84	0	0
0.145952	84	2	0
0.146103	86	1	0
0.147397	88	0	0
0.147505	88	0	0
0.147905	88	0	0
0.148511	88	0	0
0.149301	88	0	0
0.150114	88	0	0
0.150167	88	0	0
0.150425	88	0	0
0.150563	88	0	0
0.150801	88	0	0
0.152601	88	0	0
0.152892	88	0	0
0.15303	88	0	0
0.153154	88	0	0
0.153248	88	0	0
0.153704	88	0	0
0.154642	88	0	0
0.154965	88	0	0
0.155512	88	0	0
0.155615	90	0	0
0.156618	90	0	0
0.156909	90	0	0
0.156928	90	0	0
0.157086	90	0	0
0.157199	90	0	0
0.157885	90	0	0
0.158259	90	0	0
0.158885	90	0	0
0.159305	90	1	0
0.159457	91	2	0
0.159486	93	1	0
0.159736	95	0	0
0.159738	95	0	0
0.160132	95	0	0
0.160323	95	0	0
0.160464	95	0	0
0.162076	95	0	0
0.162289	95	0	0
0.162554	95	0	0
0.162644	95	0	0
0.162704	96	1	0
0.162762	96	1	0
0.164994	96	1	0
0.165436	96	1	0
0.165603	96	1	0
0.165743	98	0	0
0.165809	98	0	0
0.166752	98	0	0
0.167037	98	0	0
0.167257	98	0	0
0.167499	98	0	0
0.167608	98	0	0
0.168889	98	0	0
0.169822	98	0	0
0.17039	98	0	0
0.170476	98	0	0
0.171234	98	0	0
0.171438	98	0	0
0.171688	99	0	0
0.172393	99	0	0
0.172874	99	0	0
0.172929	99	0	0
0.173783	99	0	0
0.173949	99	0	0
0.174279	99	0	0
0.174699	99	0	0
0.17724	99	0	0
0.178088	99	0	0
0.178149	99	0	0
0.179567	99	0	0
0.180771	99	0	0
0.18166	99	0	0
0.181912	100	0	0
0.182553	100	0	0
0.182572	100	0	0
0.183181	100	0	0
0.18343	100	0	0
0.183462	100	0	0
0.183916	100	1	0
0.184383	100	1	0
0.184399	101	2	0
0.184816	101	2	0
0.184937	101	3	0
0.185167	101	3	0
0.185208	102	4	0
0.185305	104	3	0
0.185354	104	3	0
0.185366	106	2	0
0.185721	106	2	0
0.186434	108	1	0
0.186549	108	1	0
0.186606	108	1	0
0.186649	108	1	0
0.186992	110	0	0
0.187243	110	0	0
0.188048	110	0	0
0.188239	110	0	0
0.188758	110	0	0
0.188805	110	0	0
0.190544	110	0	0
0.192127	110	0	0
0.192234	110	0	0
0.192603	111	1	0
0.192861	112	1	0
0.192867	114	0	0
0.194206	114	0	0
0.195895	115	0	0
0.195909	116	0	0
0.196794	116	0	0
0.197266	116	0	0
0.197726	116	0	0
0.198045	116	0	0
0.198083	117	1	0
0.198663	119	0	0
0.19878	119	0	0
0.198839	119	0	0
0.199604	119	0	0
0.200464	119	0	0
0.200926	119	0	0
0.201455	119	0	0
0.201545	119	0	0
0.202226	119	0	0
0.202596	119	0	0
0.203139	119	0	0
0.203758	119	0	0
0.204449	119	0	0
0.205354	119	0	0
0.205541	119	0	0
0.205633	119	0	0
0.205862	119	0	0
0.206268	119	0	0
0.206413	119	0	0
0.206458	119	0	0
0.206474	120	1	0
0.206888	122	0	0
0.207571	122	0	0
0.208235	122	0	0
0.20824	122	0	0
0.208595	122	0	0
0.208854	122	0	0
0.208878	122	0	0
0.20943	122	0	0
0.209665	122	0	0
0.209726	122	0	0
0.210203	122	0	0
0.210745	122	0	0
0.210994	122	0	0
0.211381	122	0	0
0.211462	122	0	0
0.212464	122	0	0
0.213706	122	0	0
0.213921	122	0	0
0.21447	122	0	0
0.214919	122	0	0
0.215135	123	0	0
0.215346	123	0	0
0.215427	123	0	0
0.215702	123	0	0
0.215832	123	0	0
0.216158	123	0	0
0.216186	123	0	0
0.216239	124	0	0
0.216268	124	0	0
0.216467	124	0	0
0.216507	124	0	0
0.216687	124	1	0
0.2168	125	1	0
0.217198	125	2	0
0.217411	126	3	0
0.217704	128	2	0
0.218338	130	1	0
0.219477	130	1	0
0.219603	131	2	0
0.219614	133	1	0
0.219817	135	0	0
0.220187	135	0	0
0.222355	137	0	0
0.222385	137	0	0
0.223738	137	0	0
0.22386	137	0	0
0.22425	137	0	0
0.224432	137	0	0
0.225261	138	0	0
0.225961	138	0	0
0.226631	138	0	0
0.226984	138	0	0
0.227016	138	0	0
0.227721	138	0	0
0.227841	138	0	0
0.22884	138	0	0
0.22914	138	0	0
0.229428	138	0	0
0.229573	138	0	0
0.23012	138	0	0
0.230553	138	0	0
0.230681	138	0	0
0.23174	138	0	0
0.231974	138	0	0
0.232119	138	0	0
0.232251	138	0	0
0.233579	138	0	0
0.233971	138	0	0
0.234325	138	0	0
0.235377	138	0	0
0.235631	138	0	0
0.236024	138	0	0
0.236475	138	0	0
0.236488	139	0	0
0.236722	140	0	0
0.238099	140	0	0
0.238365	140	0	0
0.239879	140	0	0
0.241426	141	0	0
0.241692	141	0	0
0.241833	141	0	0
0.242255	141	0	0
0.242431	142	0	0
0.242581	142	0	0
0.243504	142	0	0
0.243655	142	0	0
0.244697	142	0	0
0.244863	143	0	0
0.245018	143	0	0
0.245055	143	0	0
0.245097	143	0	0
0.245135	144	1	0
0.245298	144	1	0
0.245301	144	1	0
0.245478	144	1	0
0.245543	146	0	0
0.245743	147	0	0
0.246219	148	0	0
0.247313	148	0	0
0.247421	148	0	0
0.247516	148	0	0
0.247742	148	0	0
0.247991	148	0	0
0.248452	148	0	0
0.248826	148	0	0
0.249653	148	0	0
0.250185	148	0	0
0.250721	148	0	0
0.25103	148	0	0
0.251719	149	1	0
0.251891	151	0	0
0.252023	151	0	0
0.252539	151	0	0
0.252637	151	0	0
0.252829	151	0	0
0.252941	152	0	0
0.254024	152	0	0
0.254784	152	0	0
0.255585	152	0	0
0.255844	152	0	0
0.255904	152	0	0
0.256307	152	0	0
0.2571	153	0	0
0.257163	153	0	0
0.257281	153	0	0
0.257353	153	0	0
0.258221	153	0	0
0.25876	153	0	0
0.258766	153	0	0
0.259529	153	0	0
0.260854	153	0	0
0.261534	154	0	0
0.262324	154	0	0
0.26425	154	0	0
0.265084	154	0	0
0.26632	154	0	0
0.267002	154	0	0
0.267258	154	0	0
0.267518	154	0	0
0.267808	154	0	0
0.26805	155	0	0
0.268647	156	1	0
0.268734	157	1	0
0.268869	157	1	0
0.269321	159	0	0
0.270316	160	0	0
0.270719	160	0	0
0.27177	160	0	0
0.271899	161	0	0
0.272244	162	0	0
0.272483	163	0	0
0.273411	164	0	0
0.273664	164	0	0
0.275658	164	0	0
0.276059	164	0	0
0.276472	164	0	0
0.277139	164	0	0
0.278145	164	0	0
0.279103	164	0	0
0.279564	165	0	0
0.280644	165	0	0
0.280841	165	0	0
0.282112	165	0	0
0.282237	165	0	0
0.283185	165	0	0
0.2844	166	0	0
0.284706	166	0	0
0.284862	167	1	0
0.28526	169	0	0
0.28556	169	0	0
0.286129	169	0	0
0.286278	169	0	0
0.286323	169	0	0
0.286416	169	0	0
0.28655	170	1	0
0.28725	171	1	0
0.287679	171	1	0
0.287707	172	1	0
0.288617	174	0	0
0.288736	174	0	0
0.28972	174	0	0
0.292154	174	0	0
0.292528	174	0	0
0.292541	174	0	0
0.292732	175	0	0
0.293006	175	0	0
0.293716	175	0	0
0.29457	175	0	0
0.295527	175	0	0
0.295838	175	0	0
0.296145	175	0	0
0.296209	175	0	0
0.297081	175	0	0
0.297799	176	0	0
0.298765	176	0	0
0.299245	176	0	0
0.299546	176	0	0
0.299645	176	0	0
0.300358	176	0	0
0.30043	176	0	0
0.300656	177	0	0
0.302925	177	0	0
0.303215	177	0	0
0.305206	177	0	0
0.305874	178	0	0
0.306443	178	0	0
0.306547	178	0	0
0.307262	178	0	0
0.307581	178	0	0
0.308362	179	0	0
0.308469	179	0	0
0.309474	179	0	0
0.310632	179	0	0
0.311147	179	0	0
0.311674	181	0	0
0.311677	181	0	0
0.311683	181	0	0
0.311995	181	0	0
0.312064	182	1	0
0.312927	184	0	0
0.313846	184	0	0
0.314824	184	0	0
0.315241	184	0	0
0.316185	184	0	0
0.316322	184	0	0
0.316325	184	0	0
0.317035	184	0	0
0.317133	184	1	0
0.317243	185	2	0
0.317634	187	1	0
0.318054	189	0	0
0.318464	189	0	0
0.318477	190	0	0
0.318959	190	0	0
0.319712	190	0	0
0.320873	190	0	0
0.321506	191	1	0
0.32154	193	0	0
0.321989	193	0	0
0.322195	194	0	0
0.322799	194	0	0
0.323146	194	0	0
0.323843	194	0	0
0.324147	194	0	0
0.324244	194	0	0
0.324269	194	0	0
0.325374	194	0	0
0.325704	194	0	0
0.326541	194	0	0
0.327523	194	0	0
0.327528	194	0	0
0.328755	194	0	0
0.32886	194	0	0
0.329653	194	0	0
0.330345	194	0	0
0.33141	194	0	0
0.331472	195	0	0
0.331738	195	0	0
0.33183	195	0	0
0.332318	195	0	0
0.332957	195	0	0
0.333183	195	0	0
0.333294	195	0	0
0.334325	195	0	0
0.335274	195	0	0
0.335353	195	0	0
0.336106	195	0	0
0.336114	195	0	0
0.336413	195	0	0
0.336645	196	1	0
0.336699	196	1	0
0.337043	198	0	0
0.340014	198	0	0
0.340217	198	0	0
0.340393	198	0	0
0.341122	199	0	0
0.341141	199	0	0
0.342097	199	0	0
0.342215	199	0	0
0.342356	200	1	0
0.342543	202	0	0
0.344311	202	0	0
0.345857	202	0	0
0.346296	203	0	0
0.347109	203	0	0
0.347909	203	0	0
0.348311	203	0	0
0.35037	204	0	0
0.350465	204	0	0
0.35086	204	0	0
0.351403	204	0	0
0.3518	205	0	0
0.353061	205	0	0
0.353654	205	0	0
0.35445	206	0	0
0.354686	206	0	0
0.356907	206	0	0
0.357375	206	0	0
0.358069	206	0	0
0.358103	206	0	0
0.359195	206	0	0
0.35944	207	0	0
0.359739	207	0	0
0.360338	207	0	0
0.361758	208	0	0
0.36217	208	0	0
0.362588	208	0	0
0.362598	208	0	0
0.362779	208	0	0
0.363032	208	0	0
0.363684	208	0	0
0.363797	208	0	0
0.364104	208	2	0
0.364448	210	1	0
0.364472	210	1	0
0.365625	210	1	0
0.365917	210	1	0
0.36614	210	1	0
0.367684	210	1	0
0.367932	211	1	0
0.368639	211	1	0
0.368872	211	1	0
0.369094	211	1	0
0.369232	211	1	0
0.369764	211	1	0
0.369764	211	1	0
0.370074	211	1	0
0.370135	211	1	0
0.370412	211	1	0
0.370482	211	1	0
0.37136	211	1	0
0.371896	211	1	0
0.372073	211	3	0
0.372135	213	2	0
0.372199	213	2	0
0.372306	213	2	0
0.37233	215	1	0
0.374299	216	1	0
0.374906	216	1	0
0.377626	216	1	0
0.379285	216	1	0
0.379886	217	1	0
0.380156	217	1	0
0.381137	217	1	0
0.381418	218	1	0
0.382231	218	1	0
0.382333	218	1	0
0.382755	218	1	0
0.383002	219	2	0
0.383307	221	1	0
0.384452	221	1	0
0.384479	221	1	0
0.38488	222	1	0
0.385994	222	1	0
0.38609	222	1	0
0.386927	223	1	0
0.388227	224	1	0
0.388417	224	1	0
0.388473	224	1	0
0.38888	224	1	0
0.388999	224	1	0
0.389002	224	1	0
0.390047	224	1	0
0.390116	225	1	0
0.390454	225	1	0
0.390735	225	1	0
0.39155	225	2	0
0.391639	226	3	0
0.392104	228	2	0
0.39281	230	1	0
0.393803	232	1	0
0.395125	232	1	0
0.396051	232	1	0
0.40011	233	1	0
0.400517	233	1	0
0.401173	233	1	0
0.401555	233	1	0
0.402088	234	2	0
0.402349	236	1	0
0.402394	236	1	0
0.402488	236	1	0
0.404855	236	1	0
0.405636	236	1	0
0.406581	238	1	0
0.407642	238	1	0
0.407849	238	1	0
0.408116	238	1	0
0.408203	238	1	0
0.410301	238	1	0
0.41038	238	1	0
0.410403	238	1	0
0.411375	238	1	0
0.41266	238	1	0
0.412806	238	1	0
0.41397	238	1	0
0.414115	238	1	0
0.414231	238	1	0
0.415795	238	1	0
0.41594	238	1	0
0.416116	238	1	0
0.416336	238	1	0
0.416497	238	1	0
0.416627	238	1	0
0.416878	238	1	0
0.417067	238	1	0
0.417319	239	2	0
0.41894	241	1	0
0.419174	241	1	0
0.419717	241	1	0
0.420089	241	1	0
0.42046	241	1	0
0.420686	241	1	0
0.421157	242	1	0
0.421232	242	1	0
0.421468	242	1	0
0.422056	242	1	0
0.422625	242	1	0
0.423572	242	1	0
0.423996	242	1	0
0.42439	242	1	0
0.425058	242	1	0
0.426903	242	1	0
0.42697	242	1	0
0.427664	242	1	0
0.435802	243	1	0
0.438093	244	1	0
0.438503	244	1	0
0.441207	245	1	0
0.441712	245	1	0
0.442905	246	1	0
0.443078	247	1	0
0.443965	247	1	0
0.444709	247	1	0
0.44546	247	1	0
0.446436	247	1	0
0.446813	247	1	0
0.446849	247	1	0
0.447843	247	1	0
0.448751	247	1	0
0.449661	247	1	0
0.449856	247	1	0
0.450642	248	1	0
0.451874	248	1	0
0.45212	249	1	0
0.452292	249	1	0
0.452514	249	1	0
0.452624	249	1	0
0.452765	250	2	0
0.453343	252	1	0
0.454057	252	1	0
0.454302	252	1	0
0.45577	253	1	0
0.455823	253	1	0
0.456791	253	1	0
0.457205	253	1	0
0.458347	253	1	0
0.458949	253	1	0
0.459652	253	1	0
0.460431	253	1	0
0.46149	253	1	0
0.462061	253	1	0
0.462693	253	2	0
0.46581	253	2	0
0.466371	254	2	0
0.466989	254	2	0
0.468301	255	2	0
0.468433	255	2	0
0.468551	256	2	0
0.468616	256	2	0
0.470361	256	3	0
0.47038	257	4	0
0.470548	257	4	0
0.471475	259	3	0
0.472051	261	2	0
0.472208	261	2	0
0.472761	261	2	0
0.472905	261	2	0
0.473211	261	2	0
0.473731	261	2	0
0.474669	261	2	0
0.474931	261	2	0
0.474933	261	2	0
0.474995	261	2	0
0.475108	261	2	0
0.475138	261	2	0
0.475685	261	2	0
0.476976	262	2	0
0.477595	262	2	0
0.478013	262	2	0
0.47814	262	2	0
0.479083	262	2	0
0.47959	263	2	0
0.479997	263	2	0
0.480123	263	2	0
0.480282	264	2	0
0.48081	264	2	0
0.481549	264	2	0
0.481613	264	2	0
0.482264	264	2	0
0.482922	264	2	0
0.483101	264	2	0
0.483621	265	2	0
0.48426	265	2	0
0.485314	265	2	0
0.485413	266	2	0
0.485686	267	2	0
0.486933	267	2	0
0.487121	267	2	0
0.487421	267	2	0
0.487699	267	2	0
0.487879	267	2	0
0.488299	267	2	0
0.489585	268	2	0
0.493197	268	2	0
0.493219	268	2	0
0.493267	270	1	0
0.493732	270	1	0
0.493996	270	1	0
0.493998	270	1	0
0.494001	270	3	0
0.494134	270	3	0
0.494496	272	2	0
0.494733	272	2	0
0.495328	272	2	0
0.496143	272	3	0
0.496891	274	2	0
0.49825	274	2	0
0.498964	275	2	0
0.499032	276	2	0
0.49912	276	2	0
0.500223	276	2	0
0.500532	277	2	0
0.5008	277	2	0
0.501932	277	2	0
0.502739	278	2	0
0.504192	278	2	0
0.504647	278	2	0
0.505319	278	2	0
0.505834	278	2	0
0.505978	278	2	0
0.506527	278	2	0
0.507767	278	2	0
0.508773	280	2	0
0.509142	280	2	0
0.51152	280	2	0
0.51157	280	2	0
0.511814	281	2	0
0.512561	283	1	0
0.51265	283	1	0
0.513421	283	1	0
0.514134	283	1	0
0.515172	283	1	0
0.516367	283	1	0
0.516535	283	1	0
0.516705	283	1	0
0.51697	283	1	0
0.517239	283	3	0
0.517355	285	2	0
0.517606	285	2	0
0.518369	285	2	0
0.518797	285	2	0
0.518916	285	2	0
0.51925	286	3	0
0.519263	288	2	0
0.519353	288	2	0
0.519434	290	1	0
0.521047	291	1	0
0.522262	291	1	0
0.522959	291	1	0
0.524275	292	1	0
0.524928	292	1	0
0.525672	293	1	0
0.525783	293	1	0
0.526575	293	1	0
0.527012	293	1	0
0.527101	294	1	0
0.527235	294	1	0
0.527895	294	1	0
0.52822	294	1	0
0.528347	294	1	0
0.529001	294	1	0
0.529185	295	1	0
0.529764	295	1	0
0.530323	295	1	0
0.530327	295	1	0
0.531035	295	1	0
0.531706	296	1	0
0.531742	296	1	0
0.532372	296	1	0
0.532543	297	1	0
0.533607	297	1	0
0.534784	297	1	0
0.535075	298	1	0
0.536047	299	1	0
0.536279	299	1	0
0.536605	299	1	0
0.536631	299	1	0
0.536808	299	1	0
0.537	299	1	0
0.53807	299	1	0
0.539073	299	1	0
0.539241	299	1	0
0.540211	300	1	0
0.540928	300	1	0
0.541113	300	1	0
0.542201	300	1	0
0.542418	301	1	0
0.542942	301	1	0
0.543306	301	1	0
0.543397	301	3	0
0.543639	303	2	0
0.544535	305	1	0
0.546259	305	1	0
0.546413	305	1	0
0.547347	305	1	0
0.547472	305	1	0
0.547586	305	1	0
0.547858	306	1	0
0.548128	307	2	0
0.54939	309	1	0
0.549436	309	1	0
0.549548	310	1	0
0.550215	310	1	0
0.5506	311	1	0
0.55098	311	1	0
0.551416	311	1	0
0.551924	311	1	0
0.551971	311	1	0
0.552546	311	1	0
0.552789	311	1	0
0.553899	311	1	0
0.555443	311	1	0
0.557802	311	1	0
0.558046	312	1	0
0.558243	312	1	0
0.560872	313	1	0
0.562714	313	1	0
0.562724	313	1	0
0.562927	314	1	0
0.563118	314	1	0
0.564471	314	1	0
0.566458	316	1	0
0.566796	316	1	0
0.566848	316	1	0
0.566865	317	1	0
0.567732	317	1	0
0.567909	317	1	0
0.568217	317	1	0
0.569011	317	1	0
0.569133	317	1	0
0.569828	317	1	0
0.570444	317	1	0
0.570672	317	1	0
0.570767	317	1	0
0.571237	318	2	0
0.571899	320	1	0
0.572073	320	1	0
0.573461	320	1	0
0.573975	320	1	0
0.574127	320	1	0
0.574173	321	1	0
0.576067	321	1	0
0.576693	321	1	0
0.57706	321	1	0
0.577881	321	1	0
0.579716	321	1	0
0.580694	321	1	0
0.58121	321	1	0
0.58165	321	1	0
0.581813	322	2	0
0.586002	324	1	0
0.586487	324	1	0
0.586611	324	1	0
0.586742	324	1	0
0.587419	324	1	0
0.588378	324	1	0
0.591269	325	1	0
0.592377	327	1	0
0.593321	327	1	0
0.593405	327	1	0
0.594999	327	1	0
0.595254	327	1	0
0.59692	327	1	0
0.59765	328	1	0
0.598052	328	1	0
0.598617	328	1	0
0.599019	328	1	0
0.599123	328	2	0
0.600872	328	3	0
0.601122	328	3	0
0.602313	328	3	0
0.602457	328	3	0
0.602509	328	4	0
0.603059	330	3	0
0.603301	330	4	0
0.604023	332	3	0
0.604138	332	3	0
0.60414	332	4	0
0.604165	332	4	0
0.604944	334	3	0
0.605276	334	4	0
0.605424	334	4	0
0.605428	334	5	0
0.60563	336	4	0
0.606015	338	3	0
0.60623	338	3	0
0.606713	338	3	0
0.606916	339	3	0
0.606935	339	4	0
0.607238	341	3	0
0.607292	341	3	0
0.607461	341	4	0
0.607601	341	5	0
0.607882	343	4	0
0.608188	345	3	0
0.610341	347	3	0
0.611887	347	3	0
0.61397	347	3	0
0.614074	347	3	0
0.614828	347	3	0
0.614867	347	3	0
0.615902	347	3	0
0.615973	347	3	0
0.616271	347	3	0
0.617355	347	3	0
0.61746	347	3	0
0.617585	349	2	0
0.61786	349	2	0
0.617928	351	1	0
0.618125	351	1	0
0.618548	351	1	0
0.618772	351	1	0
0.619418	351	1	0
0.620047	351	1	0
0.620786	351	1	0
0.621494	351	1	0
0.623376	351	1	0
0.623397	351	1	0
0.624519	351	1	0
0.625113	352	1	0
0.625631	353	1	0
0.625686	353	1	0
0.625701	353	2	0
0.626374	353	2	0
0.626549	354	2	0
0.626717	355	3	0
0.627705	357	2	0
0.627903	357	2	0
0.628032	359	1	0
0.629896	359	1	0
0.629978	360	1	0
0.63041	361	1	0
0.630993	361	1	0
0.631834	361	1	0
0.632134	362	2	0
0.632194	364	1	0
0.634307	366	1	0
0.635638	366	1	0
0.637651	366	1	0
0.640415	367	1	0
0.640574	367	1	0
0.642026	368	1	0
0.642269	368	1	0
0.644909	368	1	0
0.64522	369	1	0
0.645343	369	1	0
0.647321	369	1	0
0.651341	369	1	0
0.652302	369	1	0
0.654357	369	1	0
0.654502	369	1	0
0.654626	369	1	0
0.654648	369	1	0
0.654978	370	1	0
0.655316	370	1	0
0.655426	371	2	0
0.656925	373	1	0
0.657465	374	1	0
0.657801	374	1	0
0.65838	374	1	0
0.658936	374	1	0
0.659314	374	1	0
0.660081	374	1	0
0.660819	375	1	0
0.661327	375	1	0
0.662571	375	1	0
0.662793	375	1	0
0.663149	375	1	0
0.663844	375	1	0
0.665107	375	1	0
0.666051	375	1	0
0.666107	375	1	0
0.66789	375	1	0
0.668512	375	1	0
0.669139	375	1	0
0.670843	375	1	0
0.671392	375	1	0
0.672487	376	1	0
0.672536	377	1	0
0.673178	377	1	0
0.673779	377	1	0
0.67382	378	2	0
0.673857	380	1	0
0.674591	380	1	0
0.674844	381	1	0
0.675038	381	1	0
0.676166	381	1	0
0.676391	381	1	0
0.676477	381	1	0
0.679796	381	1	0
0.680181	381	1	0
0.681542	381	1	0
0.682367	382	1	0
0.68255	382	1	0
0.682694	383	1	0
0.683009	384	2	0
0.684532	386	1	0
0.684995	386	1	0
0.685424	386	1	0
0.688774	386	1	0
0.69028	387	1	0
0.692602	387	1	0
0.693673	388	1	0
0.693692	389	1	0
0.694721	389	1	0
0.694791	389	1	0
0.695763	389	1	0
0.697317	390	1	0
0.698088	390	1	0
0.698138	390	1	0
0.698434	391	2	0
0.698958	391	2	0
0.699095	393	1	0
0.699185	393	1	0
0.699334	393	1	0
0.700274	393	1	0
0.702234	393	1	0
0.704176	393	1	0
0.704531	393	1	0
0.707147	393	1	0
0.707177	393	1	0
0.707239	393	1	0
0.707872	393	1	0
0.707981	393	1	0
0.709025	393	2	0
0.710371	393	2	0
0.713869	393	2	0
0.713888	394	3	0
0.713902	394	3	0
0.714628	396	2	0
0.715292	396	2	0
0.716515	398	1	0
0.720208	398	1	0
0.720595	398	1	0
0.720913	398	1	0
0.721272	399	1	0
0.721633	399	1	0
0.723225	399	1	0
0.723804	399	1	0
0.724185	399	1	0
0.724504	399	1	0
0.724775	399	1	0
0.725371	399	2	0
0.726513	400	2	0
0.727754	401	2	0
0.727992	402	2	0
0.728438	402	2	0
0.729704	402	2	0
0.729781	402	2	0
0.731713	404	1	0
0.733058	404	1	0
0.734579	404	1	0
0.735849	404	1	0
0.736301	404	1	0
0.739371	405	1	0
0.739478	406	1	0
0.740014	406	1	0
0.740129	406	1	0
0.741953	406	1	0
0.743013	406	1	0
0.743934	406	1	0
0.744082	406	1	0
0.745254	406	2	0
0.745539	406	2	0
0.746569	407	2	0
0.747068	407	2	0
0.747482	408	3	0
0.748142	410	2	0
0.751505	412	1	0
0.753732	412	1	0
0.755793	412	1	0
0.756305	413	1	0
0.756508	415	1	0
0.756918	415	1	0
0.758319	415	1	0
0.758652	415	1	0
0.760687	415	1	0
0.762036	416	1	0
0.764422	416	1	0
0.76506	416	1	0
0.765646	417	1	0
0.767418	417	1	0
0.767646	419	1	0
0.768458	420	1	0
0.769695	420	1	0
0.770289	421	1	0
0.7707	422	1	0
0.772489	423	1	0
0.772964	423	1	0
0.773428	423	1	0
0.773504	424	1	0
0.773506	425	1	0
0.773993	425	1	0
0.77457	425	1	0
0.774585	427	1	0
0.776919	428	1	0
0.778336	428	1	0
0.779174	428	1	0
0.781043	428	1	0
0.781138	428	1	0
0.782667	428	1	0
0.783366	428	1	0
0.783961	429	1	0
0.78403	429	1	0
0.78449	430	1	0
0.784952	430	1	0
0.785834	430	1	0
0.78601	431	1	0
0.786629	431	1	0
0.787047	431	1	0
0.787567	432	2	0
0.788081	432	2	0
0.788088	432	2	0
0.788211	432	2	0
0.788267	433	2	0
0.788303	433	2	0
0.790532	433	2	0
0.792146	434	2	0
0.793172	435	2	0
0.793577	436	2	0
0.793917	436	2	0
0.795686	437	2	0
0.795803	437	2	0
0.796323	437	2	0
0.797354	438	2	0
0.79739	440	2	0
0.798604	441	3	0
0.801013	443	2	0
0.801406	444	2	0
0.801678	444	2	0
0.801682	444	2	0
0.802447	444	2	0
0.802537	444	2	0
0.802864	445	2	0
0.803266	446	2	0
0.805606	446	2	0
0.806479	446	2	0
0.807284	446	2	0
0.808453	447	2	0
0.808593	447	2	0
0.80884	448	2	0
0.812025	448	2	0
0.812233	448	2	0
0.813259	448	2	0
0.814607	449	2	0
0.814776	449	2	0
0.815577	449	2	0
0.815732	450	3	0
0.819744	452	2	0
0.822423	452	2	0
0.822972	452	2	0
0.823785	452	2	0
0.824031	453	2	0
0.825786	453	2	0
0.826343	453	2	0
0.826814	453	2	0
0.827973	453	2	0
0.829795	453	2	0
0.830234	453	2	0
0.831516	454	3	0
0.833764	456	2	0
0.834782	456	2	0
0.835338	456	2	0
0.835754	456	2	0
0.836049	456	2	0
0.838377	456	2	0
0.839754	457	2	0
0.839976	457	2	0
0.840392	457	2	0
0.84113	457	2	0
0.841436	457	2	0
0.841539	457	2	0
0.842426	457	2	0
0.842738	457	2	0
0.84401	457	2	0
0.844881	457	2	0
0.845192	457	2	0
0.845987	457	2	0
0.846166	457	2	0
0.846486	457	2	0
0.847992	457	2	0
0.848296	457	2	0
0.848727	457	2	0
0.851541	458	2	0
0.852195	458	2	0
0.852458	459	2	0
0.853707	459	2	0
0.856615	459	2	0
0.856761	459	2	0
0.85705	459	2	0
0.857073	459	2	0
0.857459	459	2	0
0.85767	459	2	0
0.859596	459	2	0
0.860544	459	2	0
0.861113	459	2	0
0.861207	459	2	0
0.862245	460	2	0
0.86395	460	2	0
0.864667	460	2	0
0.865169	460	2	0
0.865617	460	2	0
0.865723	461	3	0
0.866302	461	3	0
0.867316	463	2	0
0.868756	463	2	0
0.869429	463	2	0
0.870073	463	2	0
0.870962	464	2	0
0.871334	464	2	0
0.872446	464	2	0
0.872787	464	2	0
0.873778	464	2	0
0.874132	465	2	0
0.874583	465	2	0
0.875183	466	2	0
0.877196	466	2	0
0.878601	466	2	0
0.879393	466	2	0
0.879547	467	2	0
0.880826	468	2	0
0.881557	468	2	0
0.882103	468	2	0
0.882218	469	2	0
0.882297	469	2	0
0.882393	469	2	0
0.884669	469	2	0
0.884757	469	2	0
0.88655	470	2	0
0.886999	470	2	0
0.8879	471	2	0
0.889356	471	2	0
0.892616	472	2	0
0.892854	473	2	0
0.893596	473	2	0
0.895595	473	2	0
0.896301	474	2	0
0.89775	475	2	0
0.898307	475	2	0
0.898553	475	2	0
0.901164	477	2	0
0.9026	477	2	0
0.902704	478	2	0
0.902818	478	2	0
0.903003	480	2	0
0.904215	480	2	0
0.904718	480	2	0
0.906692	480	2	0
0.910587	480	2	0
0.912565	480	2	0
0.913216	480	2	0
0.91528	480	2	0
0.917087	481	2	0
0.918868	482	2	0
0.919063	482	2	0
0.919279	482	3	0
0.920198	482	3	0
0.920754	482	3	0
0.922861	482	3	0
0.92382	482	3	0
0.924554	482	3	0
0.924984	482	3	0
0.925089	482	3	0
0.925284	483	4	0
0.926845	485	3	0
0.930259	485	3	0
0.930568	485	3	0
0.931697	485	3	0
0.933007	485	3	0
0.933132	485	3	0
0.933657	485	3	0
0.933686	486	4	0
0.934179	488	3	0
0.934606	488	3	0
0.936638	488	3	0
0.936698	488	3	0
0.936953	490	3	0
0.937182	490	5	0
0.937303	492	4	0
0.937451	494	3	0
0.940193	494	3	0
0.9415	495	3	0
0.94211	497	3	0
0.942663	497	3	0
0.946895	497	3	0
0.9469	497	3	0
0.949665	499	2	0
0.950065	499	2	0
0.951574	500	2	0
0.954509	500	2	0
0.954564	500	2	0
0.956543	500	2	0
0.956873	500	2	0
0.957403	500	2	0
0.957516	501	3	0
0.957604	502	3	0
0.95764	504	2	0
0.957718	504	2	0
0.958081	504	2	0
0.958207	505	2	0
0.959441	505	2	0
0.959651	505	2	0
0.960061	505	2	0
0.960229	505	2	0
0.960598	505	2	0
0.962381	505	2	0
0.962714	505	2	0
0.962757	505	2	0
0.962848	506	3	0
0.963037	508	2	0
0.963855	508	2	0
0.964069	508	2	0
0.964966	508	2	0
0.965491	508	2	0
0.965928	510	2	0
0.966513	511	3	0
0.966715	511	3	0
0.96762	513	2	0
0.969035	514	2	0
0.969164	514	2	0
0.969403	514	2	0
0.971523	514	2	0
0.97276	514	2	0
0.974431	514	2	0
0.979878	514	2	0
0.981635	514	2	0
0.983185	514	2	0
0.983288	514	2	0
0.984926	515	2	0
0.985248	515	2	0
0.987126	515	2	0
0.988127	515	2	0
0.988578	515	2	0
0.989711	515	2	0
0.991558	516	2	0
0.994776	516	2	0
0.995279	517	2	0
0.997012	519	1	0
0.998895	519	1	0
0.998899	519	1	0
0.999116	519	1	0
0.999531	520	1	0
1.00014	520	2	0
1.00022	521	3	0
1.00111	523	2	0
1.00176	525	1	0
1.00401	525	1	0
1.0057	525	1	0
1.00669	525	1	0
1.00981	525	1	0
1.01007	525	1	0
1.01368	526	1	0
1.0156	526	1	0
1.01581	527	1	0
1.01713	528	1	0
1.0174	529	1	0
1.01949	530	1	0
1.0237	530	1	0
1.02635	530	1	0
1.02727	530	1	0
1.02853	531	1	0
1.02872	531	1	0
1.03193	531	1	0
1.03541	531	1	0
1.03736	531	1	0
1.03862	531	1	0
1.03865	532	1	0
1.03944	532	1	0
1.03973	533	1	0
1.04128	533	1	0
1.04294	533	1	0
1.04419	534	1	0
1.04465	534	1	0
1.04563	535	1	0
1.04567	535	1	0
1.04623	535	1	0
1.04662	536	1	0
1.04712	536	1	0
1.04894	536	1	0
1.04944	538	1	0
1.04971	539	1	0
1.0524	539	1	0
1.05302	539	1	0
1.05305	540	1	0
1.05676	540	1	0
1.06031	540	1	0
1.06032	540	1	0
1.06103	540	1	0
1.06231	541	1	0
1.06289	541	1	0
1.0668	541	1	0
1.06716	541	1	0
1.06739	542	2	0
1.06743	543	2	0
1.06813	544	2	0
1.06874	546	1	0
1.06895	546	1	0
1.06948	546	1	0
1.06963	546	1	0
1.07021	546	1	0
1.0726	547	1	0
1.07264	547	1	0
1.07528	547	1	0
1.0759	548	1	0
1.0766	548	1	0
1.07843	548	1	0
1.07976	549	1	0
1.08054	551	1	0
1.0813	553	1	0
1.08241	553	1	0
1.08287	553	1	0
1.08341	553	1	0
1.08437	553	1	0
1.08463	553	1	0
1.08488	553	1	0
1.08512	554	2	0
1.08565	556	1	0
1.08704	557	1	0
1.08744	557	1	0
1.08802	557	1	0
1.08993	558	1	0
1.09002	558	1	0
1.09015	559	2	0
1.09275	561	1	0
1.09458	561	1	0
1.09503	561	1	0
1.09532	561	1	0
1.0956	562	1	0
1.09598	562	1	0
1.09633	562	1	0
1.09671	563	2	0
1.09676	565	1	0
1.09796	565	2	0
1.098	566	3	0
1.09815	568	2	0
1.09833	570	1	0
1.09839	570	1	0
1.09986	570	1	0
1.10464	571	1	0
1.10689	572	1	0
1.10779	572	1	0
1.11137	573	1	0
1.11266	573	1	0
1.11306	573	1	0
1.11361	573	1	0
1.11387	573	1	0
1.1143	573	1	0
1.11444	573	1	0
1.11631	573	1	0
1.11674	573	1	0
1.11695	573	1	0
1.11699	573	3	0
1.1174	575	2	0
1.11759	577	1	0
1.11771	579	1	0
1.12133	580	1	0
1.12216	580	1	0
1.12281	580	1	0
1.12376	580	1	0
1.12393	580	1	0
1.12648	580	1	0
1.12755	581	2	0
1.12825	583	1	0
1.12846	583	1	0
1.13109	583	1	0
1.13226	584	1	0
1.13268	584	1	0
1.13274	584	1	0
1.13317	584	1	0
1.13493	584	1	0
1.13818	584	1	0
1.142	584	1	0
1.14222	584	1	0
1.14529	584	1	0
1.14612	584	1	0
1.14696	584	1	0
1.14965	584	1	0
1.14981	584	1	0
1.1546	584	1	0
1.15614	584	1	0
1.15717	584	1	0
1.15784	584	1	0
1.15848	584	1	0
1.15857	585	1	0
1.1587	585	2	0
1.15915	585	2	0
1.15945	585	2	0
1.15977	585	2	0
1.15995	586	3	0
1.15997	588	2	0
1.16002	590	1	0
1.16066	590	1	0
1.16081	590	1	0
1.16232	591	2	0
1.16281	591	2	0
1.16287	591	2	0
1.16312	591	2	0
1.16366	591	2	0
1.16403	591	2	0
1.16516	592	2	0
1.16545	592	3	0
1.16577	593	4	0
1.16666	595	3	0
1.16763	597	2	0
1.16804	597	2	0
1.16888	597	2	0
1.16988	597	2	0
1.16989	598	3	0
1.17438	600	2	0
1.1746	601	2	0
1.17507	601	2	0
1.17564	601	2	0
1.17567	602	2	0
1.17785	603	2	0
1.17894	603	2	0
1.17977	603	2	0
1.18266	603	2	0
1.18377	603	2	0
1.18383	604	3	0
1.18419	606	2	0
1.18565	606	2	0
1.18647	606	2	0
1.1866	607	3	0
1.18676	608	3	0
1.18721	608	3	0
1.18782	610	2	0
1.18966	611	2	0
1.19103	611	2	0
1.19237	611	2	0
1.1973	612	2	0
1.20723	612	2	0
1.21099	612	2	0
1.2202	614	2	0
1.22333	614	2	0
1.22353	615	2	0
1.22562	616	2	0
1.22612	617	2	0
1.22627	617	2	0
1.22801	617	2	0
1.2322	617	2	0
1.23288	617	2	0
1.23818	617	2	0
1.24226	617	2	0
1.24276	617	2	0
1.24424	617	2	0
1.24537	617	2	0
1.24718	618	2	0
1.24736	618	2	0
1.24976	618	2	0
1.24978	619	3	0
1.25377	621	2	0
1.25445	621	2	0
1.25602	621	2	0
1.25607	622	3	0
1.25628	623	3	0
1.25634	623	3	0
1.25675	625	2	0
1.25815	625	2	0
1.25887	625	2	0
1.26102	625	2	0
1.26335	626	3	0
1.26484	627	3	0
1.26567	627	3	0
1.26691	627	3	0
1.2725	627	3	0
1.2777	627	3	0
1.27777	627	3	0
1.27892	628	3	0
1.28353	628	3	0
1.28368	628	3	0
1.28373	628	4	0
1.28376	628	4	0
1.28381	628	4	0
1.28396	629	5	0
1.284	631	4	0
1.28421	633	3	0
1.28633	633	3	0
1.28814	633	3	0
1.28824	633	3	0
1.28855	633	3	0
1.28862	634	4	0
1.28914	636	3	0
1.28918	637	4	0
1.29157	639	3	0
1.29256	639	3	0
1.29305	639	3	0
1.29321	639	3	0
1.29515	639	3	0
1.29806	639	3	0
1.29833	639	3	0
1.29848	640	4	0
1.2998	642	3	0
1.30037	644	3	0
1.30434	644	3	0
1.30559	645	3	0
1.30809	645	3	0
1.30811	646	3	0
1.30836	646	3	0
1.31009	646	3	0
1.31132	647	3	0
1.312	647	3	0
1.3125	647	3	0
1.31404	647	3	0
1.31523	647	3	0
1.32029	649	3	0
1.32081	650	3	0
1.32097	650	3	0
1.3216	651	3	0
1.32175	651	3	0
1.32285	651	3	0
1.32347	652	4	0
1.32354	653	5	0
1.32362	655	4	0
1.3242	657	3	0
1.32535	657	3	0
1.33121	659	3	0
1.33193	659	3	0
1.33227	659	3	0
1.33274	659	3	0
1.33321	659	3	0
1.33339	659	3	0
1.33358	659	3	0
1.33376	659	3	0
1.33417	660	4	0
1.33467	662	3	0
1.33586	664	3	0
1.34288	664	3	0
1.34341	664	3	0
1.34583	666	3	0
1.34679	666	3	0
1.34708	666	3	0
1.34737	666	3	0
1.3474	668	3	0
1.34902	668	3	0
1.3492	669	4	0
1.35227	671	3	0
1.3525	671	3	0
1.35302	671	3	0
1.35405	671	3	0
1.35667	672	3	0
1.36013	672	3	0
1.36201	672	3	0
1.36255	672	3	0
1.36385	673	3	0
1.36701	674	3	0
1.36737	674	3	0
1.37228	675	3	0
1.37231	676	3	0
1.37461	676	3	0
1.37485	677	3	0
1.37655	677	3	0
1.37702	677	3	0
1.37871	677	3	0
1.38255	678	3	0
1.38354	678	3	0
1.38405	678	3	0
1.38419	678	3	0
1.38781	678	3	0
1.38831	678	3	0
1.38853	679	4	0
1.38983	681	3	0
1.39253	681	3	0
1.39463	681	3	0
1.40072	681	3	0
1.40526	681	3	0
1.4065	681	3	0
1.40758	681	3	0
1.40823	681	3	0
1.40837	682	4	0
1.4114	684	3	0
1.4123	684	3	0
1.41348	684	3	0
1.41952	684	3	0
1.41991	684	3	0
1.42138	685	3	0
1.43076	687	3	0
1.43678	687	3	0
1.43856	687	3	0
1.44031	687	3	0
1.44032	687	3	0
1.44075	687	3	0
1.44111	688	4	0
1.44134	690	3	0
1.44433	690	3	0
1.44437	690	3	0
1.44936	692	3	0
1.44994	694	3	0
1.45153	694	3	0
1.45173	694	3	0
1.45185	694	3	0
1.45195	696	3	0
1.45248	696	3	0
1.45316	696	3	0
1.45464	697	4	0
1.46211	699	3	0
1.46369	699	3	0
1.4644	700	3	0
1.46441	700	3	0
1.46489	701	3	0
1.46638	701	3	0
1.46695	702	3	0
1.4671	702	3	0
1.47325	702	3	0
1.47446	702	3	0
1.4745	703	4	0
1.47493	705	3	0
1.48159	705	3	0
1.48438	705	3	0
1.48487	705	3	0
1.49199	705	3	0
1.49276	705	3	0
1.49337	705	3	0
1.49352	706	4	0
1.49475	708	3	0
1.50001	708	3	0
1.50203	708	3	0
1.50431	709	3	0
1.50709	709	3	0
1.50743	710	3	0
1.50803	710	3	0
1.50908	710	3	0
1.50939	711	4	0
1.51095	713	3	0
1.51156	713	3	0
1.51432	713	3	0
1.51502	713	3	0
1.51509	713	3	0
1.51566	713	3	0
1.51587	714	4	0
1.5159	716	3	0
1.51602	716	3	0
1.51998	716	3	0
1.52029	716	3	0
1.52795	716	3	0
1.53001	716	3	0
1.5303	716	3	0
1.53309	716	3	0
1.53382	716	3	0
1.5388	716	3	0
1.54032	717	3	0
1.54064	717	3	0
1.54676	717	3	0
1.54754	717	3	0
1.54919	717	3	0
1.54935	717	3	0
1.55029	717	3	0
1.55051	717	4	0
1.55144	717	4	0
1.55165	718	5	0
1.55173	720	4	0
1.55282	722	3	0
1.5535	722	3	0
1.55636	722	3	0
1.55963	722	3	0
1.56059	722	3	0
1.56117	723	3	0
1.56436	724	3	0
1.56715	724	3	0
1.56723	724	3	0
1.56773	725	3	0
1.57007	725	3	0
1.57045	725	3	0
1.57696	726	3	0
1.57719	726	3	0
1.57923	726	3	0
1.58079	726	3	0
1.58097	726	3	0
1.5838	726	3	0
1.58665	726	3	0
1.58933	726	3	0
1.58947	726	3	0
1.5927	726	3	0
1.59501	726	3	0
1.59511	726	3	0
1.59631	726	3	0
1.60491	726	3	0
1.60501	726	3	0
1.60589	726	3	0
1.60591	727	3	0
1.61137	727	3	0
1.61261	727	3	0
1.6127	727	3	0
1.61328	728	3	0
1.61366	728	3	0
1.61375	728	5	0
1.61424	728	5	0
1.61527	730	4	0
1.62118	732	3	0
1.62341	732	3	0
1.62551	732	3	0
1.62825	732	3	0
1.63192	732	3	0
1.63271	732	3	0
1.63394	733	4	0
1.63626	735	3	0
1.63689	736	3	0
1.63997	736	3	0
1.64185	738	3	0
1.64281	738	3	0
1.64607	738	3	0
1.64623	738	3	0
1.64723	739	3	0
1.64738	740	3	0
1.66058	740	3	0
1.66468	740	3	0
1.66533	740	3	0
1.6654	740	3	0
1.66577	741	4	0
1.67238	743	3	0
1.67619	743	3	0
1.67785	744	3	0
1.67841	744	3	0
1.67856	745	4	0
1.68106	747	3	0
1.68839	748	3	0
1.69072	749	3	0
1.69123	749	3	0
1.69259	750	3	0
1.69295	750	3	0
1.69341	750	4	0
1.69384	751	5	0
1.69495	753	4	0
1.69571	755	3	0
1.69676	755	3	0
1.70082	756	3	0
1.70547	757	3	0
1.70615	757	3	0
1.70634	757	3	0
1.70717	758	4	0
1.71043	760	3	0
1.71047	760	3	0
1.7114	760	3	0
1.71326	760	3	0
1.71378	760	3	0
1.71614	760	3	0
1.71625	761	3	0
1.72128	761	3	0
1.72219	762	3	0
1.72376	762	3	0
1.72413	762	3	0
1.72559	762	3	0
1.72807	762	3	0
1.73457	762	3	0
1.7389	762	3	0
1.74535	763	3	0
1.74835	763	3	0
1.75028	763	3	0
1.75109	763	3	0
1.75364	763	3	0
1.7557	763	3	0
1.75581	763	5	0
1.75592	765	4	0
1.75851	767	3	0
1.75984	767	3	0
1.76055	767	3	0
1.76495	767	3	0
1.76952	767	3	0
1.77018	769	3	0
1.77029	769	3	0
1.77085	769	3	0
1.77252	769	3	0
1.77804	769	3	0
1.77885	769	3	0
1.78052	769	3	0
1.78181	769	3	0
1.78397	769	3	0
1.78491	769	3	0
1.78751	770	3	0
1.78955	770	3	0
1.78966	771	4	0
1.79124	773	3	0
1.7915	775	3	0
1.79276	776	3	0
1.79792	776	3	0
1.79846	776	3	0
1.80159	776	3	0
1.80266	776	3	0
1.80291	778	3	0
1.80634	778	3	0
1.80656	779	4	0
1.80911	781	3	0
1.81256	781	3	0
1.81443	781	3	0
1.81528	781	3	0
1.8215	782	3	0
1.82167	782	3	0
1.83021	782	3	0
1.83025	782	3	0
1.83261	782	3	0
1.834	782	3	0
1.83449	782	3	0
1.83501	782	3	0
1.8352	782	5	0
1.83647	784	4	0
1.84002	786	3	0
1.84539	786	3	0
1.84677	786	3	0
1.84952	786	3	0
1.84954	787	4	0
1.85444	789	3	0
1.85513	789	3	0
1.86219	791	3	0
1.86271	791	3	0
1.86301	792	4	0
1.86506	794	3	0
1.86601	794	3	0
1.87546	794	3	0
1.87655	794	3	0
1.87661	794	3	0
1.87663	795	4	0
1.87852	797	3	0
1.88058	797	3	0
1.88234	797	3	0
1.88347	798	3	0
1.8845	798	3	0
1.88456	798	3	0
1.88471	799	4	0
1.89258	801	3	0
1.8976	801	3	0
1.89766	801	3	0
1.89927	801	4	0
1.90224	801	4	0
1.90303	802	5	0
1.90305	804	4	0
1.90648	806	3	0
1.90814	806	3	0
1.90875	806	3	0
1.90996	807	3	0
1.91257	807	3	0
1.91285	807	3	0
1.91287	807	5	0
1.91313	809	4	0
1.91606	811	3	0
1.91632	811	3	0
1.91665	812	4	0
1.91868	814	3	0
1.92115	814	3	0
1.92221	814	3	0
1.92262	815	4	0
1.92502	817	3	0
1.92798	817	3	0
1.93582	817	3	0
1.93604	817	3	0
1.93763	817	3	0
1.93862	817	3	0
1.94074	817	3	0
1.9427	818	3	0
1.94929	818	3	0
1.95362	819	3	0
1.954	819	3	0
1.95404	819	5	0
1.95464	821	4	0
1.95611	823	3	0
1.95897	823	3	0
1.95908	823	3	0
1.96534	824	3	0
1.96979	824	3	0
1.97437	824	3	0
1.98048	824	3	0
1.9829	826	3	0
1.98358	826	3	0
1.9866	826	3	0
1.9903	827	3	0
1.99358	828	3	0
1.99393	828	3	0
1.9941	829	4	0
2.00157	831	3	0
2.00307	831	3	0
2.01349	831	3	0
2.01723	833	3	0
2.02112	833	3	0
2.02123	833	3	0
2.02163	833	4	0
2.02165	834	5	0
2.02232	836	4	0
2.0244	838	3	0
2.04313	838	3	0
2.04984	838	3	0
2.06286	838	3	0
2.0632	839	3	0
2.0638	841	3	0
2.07743	841	3	0
2.07809	841	3	0
2.0813	841	3	0
2.08277	842	3	0
2.08299	842	3	0
2.08541	842	3	0
2.08661	843	4	0
2.08998	845	3	0
2.09191	845	3	0
2.09543	845	3	0
2.09562	845	3	0
2.09663	845	3	0
2.09762	845	3	0
2.10538	845	3	0
2.10545	845	3	0
2.10569	846	4	0
2.10601	848	3	0
2.11322	848	3	0
2.12062	848	3	0
2.12483	848	3	0
2.1259	848	3	0
2.12754	848	3	0
2.13526	849	4	0
2.13801	849	4	0
2.14145	849	4	0
2.14473	849	4	0
2.14541	849	4	0
2.14752	849	4	0
2.15393	849	4	0
2.15567	849	4	0
2.15737	849	4	0
2.15792	849	4	0
2.15925	849	4	0
2.15942	850	5	0
2.16264	852	4	0
2.17139	852	4	0
2.17455	852	4	0
2.17468	852	6	0
2.1765	854	5	0
2.17967	856	4	0
2.18288	856	4	0
2.18289	856	6	0
2.18296	856	6	0
2.18352	858	5	0
2.18591	860	4	0
2.18618	862	4	0
2.18968	862	4	0
2.19272	862	4	0
2.193	862	4	0
2.20119	864	4	0
2.20231	864	4	0
2.20767	866	4	0
2.20847	866	4	0
2.20849	867	5	0
2.20849	869	4	0
2.2087	871	4	0
2.21195	871	4	0
2.21259	871	4	0
2.21264	871	6	0
2.21265	873	5	0
2.21627	875	4	0
2.21692	876	4	0
2.22786	876	4	0
2.23736	876	4	0
2.23913	876	4	0
2.24203	876	4	0
2.24428	876	4	0
2.24829	877	4	0
2.24833	877	4	0
2.24976	879	3	0
2.24978	879	3	0
2.2503	880	4	0
2.25244	880	4	0
2.2542	880	5	0
2.25527	880	5	0
2.25907	882	5	0
2.2591	882	5	0
2.25919	882	7	0
2.25924	884	6	0
2.25975	886	5	0
2.25979	887	5	0
2.26082	887	5	0
2.26626	887	6	0
2.26644	887	6	0
2.26661	887	8	0
2.26662	889	7	0
2.27487	891	6	0
2.27566	891	6	0
2.27578	892	7	0
2.28588	894	6	0
2.28593	894	6	0
2.29657	894	6	0
2.29714	895	6	0
2.30576	897	5	0
2.30698	897	5	0
2.30734	899	4	0
2.30884	899	4	0
2.30994	899	5	0
2.31214	899	5	0
2.31229	900	6	0
2.31254	902	5	0
2.31493	904	4	0
2.317	904	4	0
2.31802	905	4	0
2.31954	905	4	0
2.32485	905	4	0
2.32842	905	4	0
2.33067	905	4	0
2.33207	905	4	0
2.35498	906	4	0
2.36164	906	4	0
2.362	906	4	0
2.3654	906	4	0
2.3661	906	4	0
2.38077	906	4	0
2.38632	906	4	0
2.38711	906	4	0
2.38719	907	5	0
2.38827	909	4	0
2.38982	911	4	0
2.39263	912	4	0
2.39529	912	4	0
2.39869	912	4	0
2.39883	912	4	0
2.39916	913	4	0
2.39924	914	5	0
2.39982	916	4	0
2.40127	916	4	0
2.40185	916	4	0
2.40312	916	4	0
2.40362	916	4	0
2.40379	917	5	0
2.42262	919	4	0
2.42373	919	4	0
2.42381	919	6	0
2.42457	921	5	0
2.42512	923	4	0
2.42855	923	4	0
2.42866	923	5	0
2.42907	923	5	0
2.4291	924	6	0
2.42918	926	5	0
2.42968	928	4	0
2.43401	928	4	0
2.43765	928	4	0
2.4381	928	4	0
2.44085	928	4	0
2.44085	928	6	0
2.44107	930	5	0
2.44383	932	4	0
2.45011	932	4	0
2.4573	932	4	0
2.45742	932	4	0
2.45854	932	4	0
2.45891	932	4	0
2.4595	933	5	0
2.47001	935	4	0
2.47013	935	4	0
2.47132	935	5	0
2.47134	936	6	0
2.47153	938	5	0
2.47594	940	4	0
2.47947	940	4	0
2.48147	940	4	0
2.48154	940	6	0
2.48203	942	5	0
2.48814	944	4	0
2.49618	944	4	0
2.49971	944	4	0
2.50031	944	4	0
2.50076	945	5	0
2.50586	947	4	0
2.52059	947	4	0
2.52627	947	4	0
2.52639	947	4	0
2.53089	947	4	0
2.53099	947	4	0
2.53313	947	5	0
2.53358	948	6	0
2.53366	950	5	0
2.53545	952	4	0
2.54005	952	4	0
2.5465	952	4	0
2.54875	952	4	0
2.54944	952	4	0
2.55172	954	4	0
2.55924	955	4	0
2.56184	955	4	0
2.57624	955	4	0
2.57732	955	4	0
2.58629	955	4	0
2.58878	955	4	0
2.58969	956	5	0
2.59547	958	4	0
2.60549	959	4	0
2.60555	959	4	0
2.60555	960	4	0
2.60591	960	6	0
2.60602	962	5	0
2.60987	964	4	0
2.61382	964	4	0
2.61998	964	4	0
2.62613	964	4	0
2.62663	964	4	0
2.62689	964	4	0
2.62713	964	6	0
2.62727	964	6	0
2.62741	964	7	0
2.62811	966	6	0
2.63121	968	5	0
2.63446	968	5	0
2.63795	968	5	0
2.645	968	5	0
2.64515	968	5	0
2.65176	969	5	0
2.65206	969	5	0
2.66018	969	5	0
2.66157	969	5	0
2.66383	969	5	0
2.66695	969	5	0
2.66957	969	5	0
2.66973	970	6	0
2.66981	972	5	0
2.67102	974	4	0
2.67217	974	4	0
2.6724	975	5	0
2.67457	977	4	0
2.68634	977	4	0
2.68723	977	4	0
2.68782	977	4	0
2.68869	978	4	0
2.68872	978	6	0
2.68914	980	5	0
2.69207	982	4	0
2.69384	982	4	0
2.69414	983	5	0
2.69622	985	4	0
2.69707	985	4	0
2.69737	986	5	0
2.69895	988	4	0
2.70316	988	4	0
2.7054	990	4	0
2.71746	990	4	0
2.72007	990	4	0
2.72087	990	4	0
2.72151	991	5	0
2.72437	993	4	0
2.74188	993	4	0
2.74743	993	4	0
2.7545	993	4	0
2.75771	995	4	0
2.75983	995	4	0
2.76319	995	4	0
2.76696	997	4	0
2.77321	998	4	0
2.77428	998	4	0
2.77438	998	6	0
2.77483	1000	5	0
2.77542	1002	4	0
2.77946	1002	4	0
2.78258	1002	4	0
2.78495	1002	4	0
2.79934	1002	4	0
2.80704	1003	4	0
2.80754	1003	4	0
2.80839	1003	5	0
2.80846	1004	6	0
2.80905	1006	5	0
2.81645	1008	4	0
2.82157	1008	4	0
2.8272	1008	4	0
2.87593	1008	4	0
2.90591	1008	4	0
2.90618	1008	4	0
2.90643	1009	5	0
2.91179	1011	4	0
2.91772	1011	4	0
2.92082	1011	4	0
2.92191	1012	5	0
2.92724	1014	4	0
2.92742	1014	4	0
2.92779	1014	5	0
2.92793	1015	6	0
2.92827	1017	5	0
2.92851	1017	5	0
2.93581	1019	4	0
2.9434	1019	4	0
2.94694	1021	4	0
2.95273	1022	4	0
2.97436	1022	4	0
2.98192	1022	4	0
2.98364	1022	4	0
2.98367	1022	6	0
2.98468	1024	5	0
2.999	1026	4	0
3.00266	1028	4	0
3.00641	1029	4	0
3.0076	1029	4	0
3.00796	1030	5	0
3.02458	1032	4	0
3.03518	1032	4	0
3.0393	1032	4	0
3.04311	1033	4	0
3.05592	1033	4	0
3.05858	1033	4	0
3.05862	1033	4	0
3.05874	1033	6	0
3.05898	1035	5	0
3.05907	1037	4	0
3.06044	1037	4	0
3.06206	1037	4	0
3.06405	1037	4	0
3.06791	1037	4	0
3.06808	1037	4	0
3.06859	1037	4	0
3.06872	1038	5	0
3.0714	1040	4	0
3.07416	1040	4	0
3.07509	1040	4	0
3.0751	1041	5	0
3.07648	1041	5	0
3.07668	1041	5	0
3.07745	1043	4	0
3.07749	1043	5	0
3.07751	1044	6	0
3.07823	1046	5	0
3.08413	1048	4	0
3.08482	1048	4	0
3.08663	1048	4	0
3.08665	1049	5	0
3.09329	1051	4	0
3.09363	1051	4	0
3.09416	1052	5	0
3.10234	1054	4	0
3.10671	1054	4	0
3.10971	1054	4	0
3.11417	1054	4	0
3.11755	1054	4	0
3.1183	1054	4	0
3.12523	1054	4	0
3.12555	1054	4	0
3.12607	1054	6	0
3.13113	1056	5	0
3.15258	1056	5	0
3.15306	1056	5	0
3.15337	1057	6	0
3.15554	1059	5	0
3.16084	1059	5	0
3.18277	1059	5	0
3.19796	1059	5	0
3.19953	1059	5	0
3.19972	1060	6	0
3.20618	1062	5	0
3.21086	1062	5	0
3.21525	1062	5	0
3.22382	1062	5	0
3.22853	1062	5	0
3.22856	1062	5	0
3.22882	1063	6	0
3.24203	1065	5	0
3.24395	1065	5	0
3.24494	1065	5	0
3.253	1065	5	0
3.28535	1065	5	0
3.29384	1065	5	0
3.31435	1065	5	0
3.31905	1065	5	0
3.31917	1065	5	0
3.31954	1066	6	0
3.32728	1068	5	0
3.33499	1068	5	0
3.35346	1068	5	0
3.35369	1068	5	0
3.35419	1070	4	0
3.35791	1071	4	0
3.36453	1071	4	0
3.36894	1071	4	0
3.38436	1071	4	0
3.38972	1071	4	0
3.39145	1071	4	0
3.39953	1071	4	0
3.40452	1071	4	0
3.43207	1071	4	0
3.43228	1071	4	0
3.43333	1071	4	0
3.4335	1072	5	0
3.43424	1074	4	0
3.43707	1074	4	0
3.44763	1074	4	0
3.45292	1074	4	0
3.45914	1074	4	0
3.461	1074	4	0
3.4614	1074	4	0
3.46175	1075	5	0
3.46189	1077	4	0
3.46547	1079	3	0
3.46729	1079	3	0
3.47162	1079	3	0
3.47242	1079	3	0
3.47281	1080	4	0
3.47346	1082	3	0
3.47598	1082	3	0
3.49319	1082	3	0
3.49321	1082	3	0
3.49331	1083	4	0
3.50706	1085	3	0
3.52393	1085	3	0
3.52496	1085	3	0
3.53342	1085	3	0
3.53727	1085	3	0
3.57627	1085	3	0
3.58835	1085	3	0
3.59411	1085	3	0
3.60384	1085	3	0
3.61757	1085	3	0
3.61807	1085	3	0
3.61987	1085	3	0
3.62021	1086	4	0
3.63368	1088	3	0
3.63369	1088	3	0
3.63377	1088	5	0
3.63386	1090	4	0
3.63829	1092	3	0
3.64085	1092	3	0
3.64214	1092	3	0
3.65798	1093	4	0
3.65977	1093	4	0
3.66546	1093	4	0
3.67916	1093	4	0
3.68085	1093	4	0
3.69543	1093	4	0
3.69576	1093	4	0
3.69665	1094	5	0
3.69742	1096	4	0
3.70445	1097	4	0
3.71037	1097	4	0
3.71403	1097	4	0
3.71411	1097	4	0
3.71635	1097	4	0
3.73663	1098	4	0
3.74093	1098	4	0
3.74693	1098	4	0
3.74745	1098	4	0
3.74756	1098	6	0
3.74758	1100	5	0
3.77708	1102	4	0
3.78679	1102	4	0
3.78798	1102	4	0
3.78889	1102	4	0
3.78969	1103	5	0
3.7898	1104	6	0
3.79052	1106	5	0
3.8022	1108	4	0
3.80363	1108	4	0
3.80502	1108	4	0
3.80611	1109	5	0
3.8065	1111	4	0
3.81386	1111	4	0
3.81558	1111	4	0
3.82005	1111	4	0
3.82496	1111	4	0
3.82911	1111	4	0
3.82957	1111	4	0
3.83015	1112	5	0
3.83921	1114	4	0
3.83985	1114	4	0
3.84046	1114	6	0
3.84052	1116	5	0
3.84088	1118	4	0
3.85093	1118	4	0
3.8519	1118	4	0
3.85361	1119	5	0
3.8766	1121	4	0
3.87988	1121	4	0
3.88135	1121	4	0
3.8816	1121	5	0
3.88172	1121	5	0
3.88176	1122	6	0
3.88197	1124	5	0
3.88255	1126	4	0
3.88266	1127	5	0
3.89016	1129	4	0
3.89062	1129	4	0
3.89084	1130	5	0
3.89428	1132	4	0
3.89467	1132	4	0
3.895	1132	4	0
3.89541	1132	4	0
3.89542	1133	5	0
3.92233	1135	4	0
3.92437	1135	4	0
3.94736	1135	4	0
3.96811	1135	4	0
3.97629	1135	4	0
3.98399	1135	4	0
3.99669	1135	4	0
4.00471	1135	4	0
4.00708	1135	4	0
4.00975	1135	4	0
4.02366	1135	4	0
4.02427	1135	4	0
4.02605	1135	4	0
4.02701	1135	5	0
4.02725	1136	6	0
4.0273	1138	5	0
4.0542	1140	4	0
4.07474	1140	4	0
4.09959	1140	4	0
4.1024	1140	4	0
4.10379	1140	5	0
4.1039	1141	6	0
4.10413	1143	5	0
4.11314	1145	4	0
4.1141	1145	4	0
4.11494	1145	4	0
4.1153	1145	4	0
4.11694	1145	4	0
4.11706	1146	5	0
4.12703	1148	4	0
4.12731	1148	4	0
4.12743	1149	5	0
4.13031	1151	4	0
4.13112	1151	4	0
4.13145	1151	4	0
4.133	1151	5	0
4.13313	1152	6	0
4.13341	1154	5	0
4.13824	1156	4	0
4.1386	1156	4	0
4.13876	1157	5	0
4.16145	1159	4	0
4.16215	1159	4	0
4.16338	1160	5	0
4.16367	1162	4	0
4.21036	1162	4	0
4.21472	1162	4	0
4.21485	1162	4	0
4.223	1163	5	0
4.22319	1163	5	0
4.2233	1163	7	0
4.22405	1165	6	0
4.23836	1167	5	0
4.26389	1169	4	0
4.28091	1169	4	0
4.29282	1169	4	0
4.30489	1169	4	0
4.31467	1170	4	0
4.32009	1170	4	0
4.32077	1170	4	0
4.35515	1171	5	0
4.36152	1171	5	0
4.37097	1171	5	0
4.3823	1171	5	0
4.38427	1171	5	0
4.38495	1171	6	0
4.38511	1172	7	0
4.38516	1174	6	0
4.39734	1176	5	0
4.40595	1176	5	0
4.40609	1176	5	0
4.40663	1177	6	0
4.40691	1177	6	0
4.45303	1179	5	0
4.45351	1179	5	0
4.4536	1180	6	0
4.48785	1182	5	0
4.50153	1182	5	0
4.5022	1182	5	0
4.50236	1183	6	0
4.51629	1185	5	0
4.51663	1185	5	0
4.51676	1185	7	0
4.51679	1187	6	0
4.52858	1189	5	0
4.53008	1189	5	0
4.56443	1189	5	0
4.57473	1189	5	0
4.60207	1189	5	0
4.603	1189	5	0
4.6031	1190	6	0
4.62951	1192	5	0
4.63852	1192	5	0
4.64033	1192	5	0
4.64099	1193	6	0
4.6413	1193	6	0
4.64284	1195	5	0
4.65222	1195	5	0
4.65754	1195	5	0
4.65936	1195	5	0
4.65963	1195	5	0
4.66374	1196	6	0
4.66394	1196	6	0
4.66453	1197	7	0
4.68652	1199	6	0
4.68744	1199	6	0
4.68785	1200	7	0
4.69471	1202	6	0
4.69552	1204	5	0
4.74871	1204	5	0
4.74875	1204	5	0
4.74886	1205	6	0
4.75954	1207	5	0
4.76039	1207	5	0
4.76051	1207	7	0
4.76081	1209	6	0
4.79279	1211	5	0
4.7937	1211	5	0
4.79386	1212	6	0
4.80065	1214	5	0
4.81911	1214	5	0
4.81964	1214	5	0
4.82299	1214	5	0
4.82322	1214	7	0
4.82542	1216	6	0
4.8262	1216	6	0
4.82917	1216	6	0
4.84399	1216	6	0
4.84647	1216	6	0
4.85876	1216	6	0
4.88044	1216	6	0
4.88049	1216	6	0
4.88099	1217	7	0
4.90102	1219	6	0
4.90105	1219	6	0
4.90111	1220	7	0
4.90301	1222	6	0
4.90485	1222	6	0
4.90544	1222	8	0
4.90555	1224	7	0
4.94997	1226	6	0
4.95361	1226	6	0
4.96733	1226	6	0
4.97264	1227	6	0
4.97589	1229	6	0
4.97684	1229	6	0
4.97687	1229	8	0
4.97717	1231	7	0
4.99004	1233	6	0
4.9915	1233	6	0
4.9988	1233	6	0
4.99892	1233	8	0
4.99921	1235	7	0
5.01392	1237	6	0
5.01504	1239	5	0
5.02468	1239	5	0
5.02806	1239	5	0
5.02941	1239	7	0
5.0434	1241	6	0
5.06443	1241	6	0
5.06504	1241	6	0
5.0698	1241	6	0
5.07016	1241	7	0
5.07034	1242	8	0
5.07072	1244	7	0
5.07664	1246	6	0
5.09423	1246	6	0
5.09904	1246	6	0
5.13502	1246	6	0
5.14183	1248	5	0
5.14431	1248	5	0
5.1455	1248	5	0
5.15321	1248	5	0
5.15347	1248	5	0
5.15356	1248	6	0
5.1536	1249	7	0
5.15376	1251	6	0
5.17963	1253	5	0
5.19386	1253	5	0
5.24128	1254	5	0
5.26738	1256	4	0
5.26993	1257	4	0
5.27057	1257	4	0
5.27064	1258	5	0
5.28564	1260	4	0
5.29727	1260	4	0
5.29732	1260	4	0
5.29744	1260	5	0
5.2975	1261	6	0
5.29764	1263	5	0
5.30306	1265	4	0
5.34316	1267	3	0
5.34896	1269	2	0
5.42526	1269	2	0
5.42694	1269	2	0
5.43864	1269	2	0
5.43887	1269	2	0
5.43962	1269	3	0
5.43979	1269	3	0
5.44032	1270	4	0
5.44044	1272	3	0
5.4686	1274	2	0
5.47547	1274	2	0
5.47582	1274	2	0
5.47605	1275	3	0
5.47684	1277	2	0
5.5486	1277	2	0
5.54971	1277	2	0
5.54982	1277	4	0
5.54992	1279	3	0
5.55487	1281	2	0
5.57217	1281	2	0
5.57305	1281	2	0
5.57335	1281	4	0
5.57342	1283	3	0
5.59347	1285	2	0
5.59348	1285	2	0
5.59361	1286	3	0
5.67918	1288	2	0
5.67964	1288	2	0
5.67997	1289	3	0
5.6853	1291	2	0
5.68754	1291	2	0
5.71201	1291	2	0
5.73412	1291	2	0
5.73653	1291	2	0
5.73727	1291	2	0
5.73795	1292	3	0
5.74272	1294	2	0
5.77683	1294	2	0
5.78119	1294	2	0
5.78175	1294	4	0
5.78229	1296	3	0
5.80938	1298	2	0
5.80987	1298	2	0
5.81008	1298	3	0
5.81034	1299	4	0
5.81085	1301	3	0
5.83653	1303	2	0
5.84317	1303	2	0
5.87367	1303	2	0
5.87495	1303	2	0
5.98765	1303	3	0
5.98781	1303	3	0
6.03703	1305	2	0
6.04526	1305	2	0
6.06956	1305	2	0
6.06997	1305	2	0
6.07007	1305	2	0
6.07044	1306	3	0
6.08034	1308	2	0
6.0806	1308	2	0
6.08088	1309	3	0
6.11657	1311	2	0
6.1167	1311	2	0
6.11695	1312	3	0
6.12121	1314	2	0
6.12223	1314	2	0
6.17686	1315	2	0
6.1769	1315	2	0
6.17731	1315	4	0
6.17736	1317	3	0
6.1779	1319	2	0
6.17842	1319	2	0
6.17848	1320	3	0
6.22545	1322	2	0
6.23723	1322	2	0
6.23727	1322	2	0
6.238	1323	3	0
6.27644	1325	2	0
6.27681	1325	2	0
6.27779	1325	4	0
6.278	1327	3	0
6.28466	1329	2	0
6.34095	1329	2	0
6.36918	1329	2	0
6.38044	1329	2	0
6.39248	1329	2	0
6.40317	1331	1	0
6.40408	1331	1	0
6.40413	1331	2	0
6.40426	1331	2	0
6.40481	1332	3	0
6.40588	1334	2	0
6.40592	1335	3	0
6.40631	1337	2	0
6.40707	1339	1	0
6.40797	1339	1	0
6.40852	1340	2	0
6.41509	1342	1	0
6.41535	1342	1	0
6.41551	1343	2	0
6.44549	1345	1	0
6.46037	1345	1	0
6.4606	1345	1	0
6.4611	1345	2	0
6.46129	1346	3	0
6.46156	1348	2	0
6.47799	1350	1	0
6.47977	1350	1	0
6.48002	1350	3	0
6.48012	1350	3	0
6.48052	1352	2	0
6.48064	1354	1	0
6.48086	1355	2	0
6.52994	1357	1	0
6.53081	1357	1	0
6.53169	1357	2	0
6.53189	1358	3	0
6.53252	1360	2	0
6.55178	1362	1	0
6.56252	1362	1	0
6.56475	1362	1	0
6.56486	1362	3	0
6.56549	1364	2	0
6.56633	1366	1	0
6.56704	1366	1	0
6.56709	1367	2	0
6.66275	1369	1	0
6.6674	1369	1	0
6.70064	1369	1	0
6.70259	1369	1	0
6.70388	1369	1	0
6.70418	1369	1	0
6.7048	1369	2	0
6.70491	1369	4	0
6.70524	1371	3	0
6.70771	1373	2	0
6.70859	1373	2	0
6.71047	1373	3	0
6.7111	1374	4	0
6.71125	1376	3	0
6.72709	1378	2	0
6.73209	1378	2	0
6.73272	1378	2	0
6.75534	1380	1	0
6.757	1380	1	0
6.75714	1381	2	0
6.77035	1383	1	0
6.77258	1383	1	0
6.77285	1384	2	0
6.78948	1386	1	0
6.7895	1386	1	0
6.78954	1386	3	0
6.81181	1388	2	0
6.83019	1388	2	0
6.85147	1388	2	0
6.85238	1388	2	0
6.85251	1389	3	0
6.86987	1391	2	0
6.91768	1391	2	0
6.92007	1391	2	0
6.92052	1392	3	0
7.02589	1394	2	0
7.02597	1394	2	0
7.02607	1394	4	0
7.02678	1396	3	0
7.05588	1398	2	0
7.09102	1398	2	0
7.11633	1398	2	0
7.11739	1398	2	0
7.1174	1399	3	0
7.12008	1401	2	0
7.12132	1401	2	0
7.12133	1401	4	0
7.12141	1403	3	0
7.13177	1405	2	0
7.13307	1405	2	0
7.13368	1406	3	0
7.18098	1408	2	0
7.18351	1408	2	0
7.18392	1408	4	0
7.18427	1410	3	0
7.19027	1412	2	0
7.22159	1412	2	0
7.25694	1412	2	0
7.2864	1412	2	0
7.30795	1414	1	0
7.31295	1414	1	0
7.35057	1414	1	0
7.35157	1414	1	0
7.35194	1414	2	0
7.3522	1415	3	0
7.35238	1417	2	0
7.39003	1419	1	0
7.39052	1419	1	0
7.39138	1419	3	0
7.43385	1421	2	0
7.51133	1421	2	0
7.53334	1421	2	0
7.5334	1421	2	0
7.53353	1421	4	0
7.53363	1423	3	0
7.53701	1425	2	0
7.5373	1425	2	0
7.53751	1425	4	0
7.53763	1427	3	0
7.55064	1429	2	0
7.56683	1429	2	0
7.59283	1429	2	0
7.59549	1429	2	0
7.59562	1429	4	0
7.59579	1431	3	0
7.6235	1433	2	0
7.67508	1433	2	0
7.679	1433	2	0
7.68059	1433	2	0
7.68066	1434	3	0
7.71443	1436	2	0
7.71453	1436	2	0
7.71465	1436	3	0
7.71471	1437	4	0
7.71474	1439	3	0
7.75149	1441	2	0
7.84792	1441	2	0
7.84798	1441	2	0
7.84883	1441	4	0
7.85084	1443	3	0
7.85094	1443	3	0
7.85122	1445	2	0
7.85136	1445	4	0
7.85434	1447	3	0
7.85611	1449	2	0
7.8878	1449	2	0
7.88797	1449	2	0
7.88816	1450	3	0
7.89299	1452	2	0
7.95235	1452	2	0
7.95304	1452	2	0
7.9535	1453	3	0
7.97772	1455	2	0
8.02563	1455	2	0
8.03432	1455	2	0
8.04156	1455	2	0
8.04601	1455	2	0
8.07674	1457	1	0
8.07692	1457	1	0
8.07709	1457	3	0
8.07783	1459	2	0
8.07813	1461	1	0
8.0802	1461	1	0
8.08047	1462	2	0
8.08833	1464	1	0
8.08845	1464	1	0
8.08879	1465	2	0
8.1152	1467	1	0
8.11628	1467	1	0
8.11631	1468	2	0
8.14837	1470	1	0
8.14974	1470	1	0
8.14974	1471	2	0
8.2013	1473	1	0
8.32405	1473	1	0
8.3269	1473	1	0
8.32703	1473	3	0
8.32726	1475	2	0
8.3429	1477	1	0
8.34413	1477	1	0
8.3447	1477	3	0
8.3448	1479	2	0
8.36391	1481	1	0
8.38689	1481	1	0
8.41786	1481	1	0
8.418	1481	1	0
8.41932	1482	2	0
8.47309	1484	1	0
8.47342	1484	1	0
8.47455	1485	2	0
8.49549	1487	1	0
8.49561	1487	1	0
8.49566	1487	3	0
8.49576	1489	2	0
8.49897	1491	1	0
8.49898	1491	1	0
8.49953	1491	2	0
8.49976	1492	3	0
8.50018	1494	2	0
8.51194	1496	1	0
8.51695	1496	1	0
8.51785	1496	1	0
8.51815	1497	2	0
8.54906	1499	1	0
8.5491	1499	1	0
8.54943	1499	3	0
8.54947	1501	2	0
8.56322	1503	1	0
8.56458	1503	1	0
8.56574	1504	2	0
8.59677	1506	1	0
8.59689	1506	1	0
8.5982	1506	2	0
8.59882	1507	3	0
8.59939	1509	2	0
8.60949	1511	1	0
8.61238	1511	1	0
8.61281	1511	1	0
8.61369	1511	2	0
8.61392	1512	3	0
8.61397	1514	2	0
8.63854	1516	1	0
8.64236	1516	1	0
8.64308	1516	1	0
8.6431	1516	3	0
8.64347	1518	2	0
8.67863	1520	1	0
8.68057	1520	1	0
8.68061	1520	3	0
8.68063	1522	2	0
8.69978	1524	1	0
8.70002	1524	1	0
8.70354	1524	2	0
8.70393	1525	3	0
8.70407	1527	2	0
8.72663	1529	1	0
8.72685	1529	1	0
8.72696	1529	2	0
8.72707	1530	3	0
8.7273	1532	2	0
8.78692	1534	1	0
8.79799	1534	1	0
8.79876	1534	1	0
8.79903	1534	3	0
8.79949	1536	2	0
8.86271	1538	1	0
8.99749	1538	1	0
9.02588	1538	1	0
9.02845	1538	1	0
9.03192	1538	1	0
9.03216	1538	3	0
9.03276	1540	2	0
9.06847	1542	1	0
9.09579	1542	1	0
9.09588	1542	1	0
9.0959	1543	2	0
9.13652	1545	1	0
9.13662	1545	1	0
9.13672	1546	2	0
9.14529	1548	1	0
9.29352	1548	1	0
9.38563	1548	1	0
9.44494	1548	1	0
9.58216	1548	1	0
9.58292	1548	1	0
9.58306	1548	3	0
9.5839	1550	2	0
9.611	1552	1	0
9.6594	1552	1	0
9.75129	1552	1	0
9.86546	1554	0	0
9.87347	1554	0	0
9.87458	1554	0	0
9.87505	1554	0	0
9.87514	1554	2	0
9.87572	1556	1	0
9.87584	1557	2	0
9.87602	1559	1	0
10.0041	1561	0	0
10.0075	1561	0	0
10.0081	1561	1	0
10.0084	1562	2	0
10.0085	1564	1	0
10.0773	1566	0	0
10.0821	1566	0	0
10.0827	1566	2	0
10.0841	1568	1	0
10.1045	1570	0	0
10.1047	1570	0	0
10.1049	1570	0	0
10.1051	1571	1	0
10.1075	1573	0	0
10.1077	1574	1	0
10.179	1576	0	0
10.1793	1576	0	0
10.1793	1576	2	0
10.1801	1578	1	0
10.1926	1580	0	0
10.1928	1580	0	0
10.1929	1581	1	0
10.31	1583	0	0
10.3104	1583	0	0
10.3109	1584	1	0
10.3167	1586	0	0
10.4751	1586	0	0
10.5038	1586	0	0
10.6357	1586	0	0
10.7075	1586	0	0
10.7376	1586	0	0
10.7393	1586	0	0
10.8052	1587	1	0
10.8057	1587	1	0
10.8059	1588	2	0
10.8086	1590	1	0
10.8087	1590	1	0
10.8099	1590	2	0
10.81	1591	3	0
10.81	1593	2	0
10.9036	1595	1	0
10.9982	1597	0	0
10.9985	1597	0	0
10.9985	1597	2	0
10.9986	1599	1	0
11.0027	1601	0	0
11.0028	1601	0	0
11.0032	1601	2	0
11.0034	1603	1	0
11.1506	1605	0	0
11.1518	1605	0	0
11.152	1606	1	0
11.1526	1608	0	0
11.1528	1608	0	0
11.1529	1608	0	0
11.153	1609	1	0
11.1534	1611	0	0
11.1539	1611	2	0
11.1539	1613	1	0
11.1896	1615	0	0
11.1908	1615	0	0
11.1908	1615	2	0
11.1909	1617	1	0
11.2448	1619	0	0
11.246	1619	0	0
11.2463	1619	2	0
11.2464	1621	1	0
11.3658	1623	0	0
11.3686	1623	0	0
11.3687	1624	1	0
11.4075	1626	0	0
11.5105	1626	0	0
11.5436	1626	0	0
11.5685	1626	0	0
11.5688	1626	0	0
11.57	1626	1	0
11.57	1627	2	0
11.5703	1629	1	0
11.5716	1631	0	0
11.5717	1631	0	0
11.5721	1632	1	0
11.691	1634	0	0
11.6937	1634	0	0
11.6938	1635	1	0
11.8121	1637	0	0
11.8127	1637	0	0
11.8127	1637	2	0
11.8135	1639	1	0
11.8209	1641	0	0
11.8219	1641	0	0
11.8221	1641	2	0
11.8223	1643	1	0
11.8275	1645	0	0
11.828	1645	0	0
11.8282	1645	2	0
11.8295	1647	1	0
11.8987	1649	0	0
11.899	1649	0	0
11.8993	1649	2	0
11.8995	1651	1	0
11.9054	1653	0	0
11.9083	1653	0	0
11.9087	1654	1	0
11.9612	1656	0	0
11.9619	1656	0	0
11.9619	1656	2	0
11.9626	1658	1	0
11.9669	1660	0	0
11.9694	1660	0	0
11.9697	1660	2	0
11.9705	1662	1	0
12.0889	1664	0	0
12.216	1664	0	0
12.2166	1664	0	0
12.2168	1664	2	0
12.2171	1666	1	0
12.4093	1668	0	0
12.4094	1668	0	0
12.4096	1669	1	0
12.4255	1671	0	0
12.4264	1671	0	0
12.4266	1671	2	0
12.4267	1673	1	0
12.5348	1675	0	0
12.5351	1675	0	0
12.5351	1675	2	0
12.5354	1677	1	0
12.5451	1679	0	0
12.5456	1679	0	0
12.546	1680	1	0
12.6231	1682	0	0
12.6235	1682	0	0
12.6239	1683	1	0
12.6405	1685	0	0
12.6413	1685	0	0
12.6415	1686	1	0
12.7929	1688	0	0
12.8262	1688	0	0
13.1042	1688	0	0
13.1055	1688	0	0
13.1057	1689	1	0
13.1726	1691	0	0
13.1733	1691	0	0
13.1734	1692	1	0
13.4092	1694	0	0
13.4096	1694	0	0
13.4097	1694	2	0
13.41	1696	1	0
13.4782	1698	0	0
13.4783	1698	0	0
13.4787	1699	1	0
13.6226	1701	0	0
13.6229	1701	0	0
13.623	1701	2	0
13.6234	1703	1	0
13.7983	1705	0	0
13.7997	1705	0	0
13.7999	1705	1	0
13.8	1706	2	0
13.8005	1708	1	0
13.9366	1710	0	0
13.9369	1710	0	0
13.9377	1711	1	0
13.939	1711	1	0
13.9391	1711	3	0
13.9394	1713	2	0
14.2508	1715	1	0
14.2512	1715	1	0
14.2516	1715	3	0
14.2518	1717	2	0
14.3182	1719	1	0
14.3185	1719	1	0
14.3186	1719	3	0
14.3187	1721	2	0
14.4927	1723	1	0
14.5068	1723	1	0
14.5108	1723	1	0
14.5112	1724	2	0
14.7463	1726	1	0
14.7475	1726	1	0
14.7475	1727	2	0
14.933	1729	1	0
15.1225	1729	1	0
15.1722	1729	1	0
15.2573	1729	1	0
15.6021	1729	1	0
15.6028	1729	1	0
15.6034	1730	2	0
15.8186	1732	1	0
15.8189	1732	1	0
15.819	1733	2	0
16.2178	1735	1	0
16.2205	1735	1	0
16.2206	1736	2	0
16.4088	1738	1	0
16.4098	1738	1	0
16.41	1738	3	0
16.618	1740	2	0
16.6184	1740	2	0
16.6195	1741	3	0
17.1903	1743	2	0
17.1905	1743	2	0
17.1906	1743	4	0
17.1912	1745	3	0
17.4308	1747	2	0
17.4331	1747	2	0
17.4332	1747	4	0
17.4339	1749	3	0
17.4963	1751	2	0
17.4969	1751	2	0
17.4971	1751	4	0
17.498	1753	3	0
17.5194	1755	2	0
17.5195	1755	2	0
17.5201	1755	4	0
17.5202	1757	3	0
17.5267	1759	2	0
17.5662	1759	2	0
17.5688	1759	2	0
17.5689	1759	4	0
17.569	1761	3	0
17.6346	1763	2	0
17.6358	1763	2	0
17.7471	1764	3	0
17.8816	1766	2	0
17.8819	1766	2	0
17.8825	1766	3	0
17.8828	1767	4	0
17.8829	1769	3	0
18.0611	1771	2	0
18.062	1771	2	0
18.0624	1771	4	0
18.0625	1773	3	0
18.1668	1775	2	0
18.1683	1775	2	0
18.1685	1776	3	0
18.493	1778	2	0
18.4953	1778	2	0
18.4959	1779	3	0
18.5141	1781	2	0
18.7754	1783	1	0
18.7762	1783	1	0
18.7765	1783	3	0
18.7774	1785	2	0
18.8491	1787	1	0
18.8502	1787	1	0
18.8508	1788	2	0
19.299	1790	1	0
19.3003	1790	1	0
19.3005	1790	3	0
19.3006	1792	2	0
19.3322	1794	1	0
19.3324	1794	1	0
19.3326	1794	3	0
19.3329	1796	2	0
19.4943	1798	1	0
19.496	1798	1	0
19.4968	1798	2	0
19.497	1799	3	0
19.4979	1801	2	0
19.5521	1803	1	0
20.0787	1805	0	0
20.0794	1805	0	0
20.0799	1806	1	0
20.2345	1808	0	0
20.2379	1808	0	0
20.2382	1808	2	0
20.2387	1810	1	0
20.2832	1812	0	0
20.2867	1812	0	0
20.2868	1812	2	0
20.287	1814	1	0
20.9851	1816	0	0
20.9853	1816	0	0
20.9858	1816	2	0
20.9869	1818	1	0
20.9978	1820	0	0
21	1820	0	0
21.2011	1821	1	0
21.2017	1821	1	0
21.2018	1821	3	0
21.2023	1823	2	0
21.8541	1825	1	0
21.8554	1825	1	0
21.8555	1825	3	0
21.8556	1827	2	0
21.9186	1829	1	0
21.9216	1829	1	0
21.9219	1829	3	0
21.9227	1831	2	0
22.1118	1833	1	0
22.1141	1833	1	0
22.1146	1834	2	0
22.831	1836	1	0
22.8914	1836	1	0
23.299	1838	0	0
23.2999	1838	0	0
23.2999	1838	2	0
23.3	1840	1	0
24.8063	1842	0	0
24.8065	1842	0	0
24.8072	1842	1	0
24.8075	1842	1	0
24.8076	1842	3	0
24.8079	1843	4	0
24.8084	1845	3	0
24.8085	1847	2	0
24.8087	1849	1	0
25.0564	1851	0	0
25.0571	1851	0	0
25.0573	1852	1	0
25.0912	1854	0	0
25.0929	1854	0	0
25.093	1854	2	0
25.0933	1856	1	0
25.8705	1858	0	0
25.8709	1858	0	0
25.8711	1858	2	0
25.8712	1860	1	0
25.8801	1862	0	0
25.8804	1862	0	0
25.8808	1862	2	0
25.882	1864	1	0
26.4449	1866	0	0
26.4452	1866	0	0
26.7906	1867	1	0
26.7926	1867	1	0
26.7929	1867	3	0
26.7933	1869	2	0
26.8802	1871	1	0
27.6142	1873	0	0
27.6144	1873	0	0
27.6145	1873	2	0
27.6145	1875	1	0
27.6643	1877	0	0
27.6645	1877	0	0
27.665	1878	1	0
29.2484	1880	0	0
29.2488	1880	0	0
29.249	1880	2	0
