8.3326e-09	0	0	0
1.45354e-08	0	0	0
2.65309e-08	0	0	0
6.79403e-08	0	0	0
7.5495e-08	0	0	0
7.83351e-08	0	0	0
9.38636e-08	0	0	0
1.05234e-07	0	0	0
1.14248e-07	0	0	0
1.36039e-07	0	0	0
2.05059e-07	0	0	0
2.54084e-07	0	0	0
3.9793e-07	0	0	0
5.13253e-07	0	0	0
7.53121e-07	0	0	0
8.87933e-07	0	0	0
1.08171e-06	0	0	0
2.22861e-06	0	0	0
3.40776e-06	0	0	0
3.52482e-06	0	0	0
4.11764e-06	0	0	0
4.17914e-06	0	0	0
4.59944e-06	0	0	0
6.89341e-06	0	0	0
6.9605e-06	0	0	0
7.45582e-06	0	0	0
7.5062e-06	0	0	0
9.09728e-06	0	0	0
9.6631e-06	0	0	0
1.00769e-05	0	0	0
1.10497e-05	0	0	0
1.12729e-05	0	0	0
1.20743e-05	0	0	0
1.2732e-05	0	0	0
1.28817e-05	0	0	0
1.42097e-05	0	0	0
1.46592e-05	0	0	0
1.54586e-05	0	0	0
1.57391e-05	0	0	0
1.63407e-05	0	0	0
1.63706e-05	0	0	0
1.66754e-05	0	0	0
1.74448e-05	0	0	0
1.77755e-05	0	0	0
2.05099e-05	0	0	0
2.06938e-05	0	0	0
2.09074e-05	0	0	0
2.1047e-05	0	0	0
2.11638e-05	0	0	0
2.12784e-05	0	0	0
2.19108e-05	0	0	0
2.19762e-05	0	0	0
2.19863e-05	0	0	0
2.26252e-05	0	0	0
2.29719e-05	0	0	0
2.38242e-05	0	0	0
2.44313e-05	0	0	0
2.46352e-05	0	0	0
2.49341e-05	0	0	0
2.53654e-05	0	0	0
2.60558e-05	0	0	0
2.62926e-05	0	0	0
2.63476e-05	0	0	0
2.65008e-05	0	0	0
2.80065e-05	0	0	0
2.84661e-05	0	0	0
2.85743e-05	0	0	0
2.85864e-05	0	0	0
2.86947e-05	0	0	0
2.881e-05	0	0	0
2.94387e-05	0	0	0
3.08443e-05	0	0	0
3.22788e-05	0	0	0
3.30333e-05	0	0	0
3.32882e-05	0	0	0
3.38886e-05	0	0	0
3.43566e-05	0	0	0
3.43674e-05	0	0	0
3.44575e-05	0	0	0
3.453e-05	0	0	0
3.45992e-05	0	0	0
3.73277e-05	0	0	0
3.8482e-05	0	0	0
3.94339e-05	0	0	0
4.03193e-05	0	0	0
4.20931e-05	0	0	0
4.47104e-05	0	0	0
4.5627e-05	0	0	0
4.57011e-05	0	0	0
4.77134e-05	0	0	0
4.82705e-05	0	0	0
4.84985e-05	0	0	0
4.95544e-05	0	0	0
5.00238e-05	0	0	0
5.25472e-05	0	0	0
5.40537e-05	0	0	0
5.43595e-05	0	0	0
5.5318e-05	0	0	0
5.54236e-05	0	0	0
5.5458e-05	0	0	0
5.74657e-05	0	0	0
5.88715e-05	0	0	0
6.00617e-05	0	0	0
6.02972e-05	0	0	0
6.16677e-05	0	0	0
6.1955e-05	0	0	0
6.20279e-05	0	0	0
6.26018e-05	0	0	0
6.33502e-05	0	0	0
6.42754e-05	0	0	0
6.47519e-05	0	0	0
6.60574e-05	0	0	0
6.62101e-05	0	0	0
6.66503e-05	0	0	0
6.71007e-05	0	0	0
6.76119e-05	0	0	0
6.96059e-05	0	0	0
7.02254e-05	0	0	0
7.03922e-05	0	0	0
7.07641e-05	0	0	0
7.07881e-05	0	0	0
7.08646e-05	0	0	0
7.15985e-05	0	0	0
7.29864e-05	0	0	0
7.42649e-05	0	0	0
7.57783e-05	0	0	0
7.61039e-05	0	0	0
7.70858e-05	0	0	0
7.78232e-05	0	0	0
7.80762e-05	0	0	0
7.98868e-05	0	0	0
8.02134e-05	0	0	0
8.03074e-05	0	0	0
8.03741e-05	0	0	0
8.05919e-05	0	0	0
8.10145e-05	0	0	0
8.30865e-05	0	0	0
8.31862e-05	0	0	0
8.34935e-05	0	0	0
8.3743e-05	0	0	0
8.38203e-05	0	0	0
8.42081e-05	0	0	0
8.48751e-05	0	0	0
8.54084e-05	0	0	0
8.80913e-05	0	0	0
8.82167e-05	0	0	0
8.86891e-05	0	0	0
8.89337e-05	0	0	0
8.96139e-05	0	0	0
8.96809e-05	0	0	0
9.05414e-05	0	0	0
9.07604e-05	0	0	0
9.10138e-05	0	0	0
9.14494e-05	0	0	0
9.19369e-05	0	0	0
9.26466e-05	0	0	0
9.31313e-05	0	0	0
9.36112e-05	0	0	0
9.48509e-05	0	0	0
9.52417e-05	0	0	0
9.59807e-05	0	0	0
9.64577e-05	0	0	0
9.67697e-05	0	0	0
9.69192e-05	0	0	0
9.7117e-05	0	0	0
9.83289e-05	0	0	0
9.99819e-05	0	0	0
0.000101401	0	0	0
0.000101521	0	0	0
0.000102972	0	0	0
0.00010301	0	0	0
0.000103897	0	0	0
0.000104221	0	0	0
0.000104246	0	0	0
0.000105431	0	0	0
0.000105728	0	0	0
0.000108392	0	0	0
0.000108642	0	0	0
0.000110107	0	0	0
0.000110179	0	0	0
0.000110265	0	0	0
0.000110349	0	0	0
0.000110907	0	0	0
0.000112294	0	0	0
0.000112616	0	0	0
0.000113766	0	0	0
0.000115648	0	0	0
0.000115882	0	0	0
0.000117931	0	0	0
0.000118909	0	0	0
0.000119306	0	0	0
0.000120702	0	0	0
0.00012153	0	0	0
0.000121661	0	0	0
0.00012181	0	0	0
0.000121979	0	0	0
0.000122696	0	0	0
0.000122792	0	0	0
0.000125342	0	0	0
0.000125584	0	0	0
0.000125893	0	0	0
0.000126768	0	0	0
0.000126941	0	0	0
0.000127653	0	0	0
0.000129474	0	0	0
0.000129748	0	0	0
0.000129792	0	0	0
0.000129973	0	0	0
0.00013024	0	0	0
0.000130863	0	0	0
0.000134605	0	0	0
0.000134866	0	0	0
0.000136057	0	0	0
0.000136448	0	0	0
0.000136905	0	0	0
0.00013738	0	0	0
0.000137597	0	0	0
0.000138238	0	0	0
0.000139217	0	0	0
0.000139319	0	0	0
0.000139704	0	0	0
0.000143621	0	0	0
0.000144437	0	0	0
0.000144713	0	0	0
0.000144978	0	0	0
0.000145895	0	0	0
0.000147176	0	0	0
0.000147425	0	0	0
0.000147798	0	0	0
0.000147935	0	0	0
0.000148563	0	0	0
0.000150515	0	0	0
0.000151189	0	0	0
0.00015377	0	0	0
0.00015388	0	0	0
0.000154271	0	0	0
0.00015644	0	0	0
0.000157207	0	0	0
0.000157527	0	0	0
0.000157698	0	0	0
0.000158668	0	0	0
0.000158726	0	0	0
0.000160129	0	0	0
0.000160369	0	0	0
0.000160665	0	0	0
0.000162193	0	0	0
0.000163272	0	0	0
0.000164122	0	0	0
0.000165026	0	0	0
0.000165359	0	0	0
0.000168439	0	0	0
0.000168797	0	0	0
0.000168837	0	0	0
0.000169509	0	0	0
0.000171009	0	0	0
0.000174976	0	0	0
0.000177271	0	0	0
0.000177299	0	0	0
0.000177505	0	0	0
0.000178341	0	0	0
0.000178973	0	0	0
0.000180281	0	0	0
0.000180696	0	0	0
0.000180783	0	0	0
0.000181066	0	0	0
0.000181447	0	0	0
0.000182503	0	0	0
0.00018318	0	0	0
0.000185372	0	0	0
0.000187305	0	0	0
0.000189662	0	0	0
0.000190154	0	0	0
0.000190594	0	0	0
0.000192624	0	0	0
0.000195282	0	0	0
0.000195483	0	0	0
0.000195726	0	0	0
0.000196853	0	0	0
0.000197716	0	0	0
0.000198006	0	0	0
0.000198047	0	0	0
0.000201841	0	0	0
0.000206146	0	0	0
0.000206753	0	0	0
0.000207799	0	0	0
0.000210727	0	0	0
0.000211179	0	0	0
0.000212662	0	0	0
0.000216107	0	0	0
0.000222012	0	0	0
0.000223518	0	0	0
0.000224734	0	0	0
0.000224998	0	0	0
0.000226264	0	0	0
0.000226527	0	0	0
0.000226929	0	0	0
0.000227976	0	0	0
0.000230928	0	0	0
0.000231739	0	0	0
0.000232894	0	0	0
0.000235222	0	0	0
0.00023566	0	0	0
0.000236628	0	0	0
0.000238297	0	0	0
0.000242126	0	0	0
0.000243919	0	0	0
0.000246279	0	0	0
0.000247257	0	0	0
0.00024974	0	0	0
0.000249877	0	0	0
0.000251089	0	0	0
0.000254249	0	0	0
0.000258129	0	0	0
0.000259676	0	0	0
0.000263915	0	0	0
0.000263923	0	0	0
0.000268252	0	0	0
0.000273134	0	0	0
0.000275661	0	0	0
0.000276527	0	0	0
0.000281094	0	0	0
0.000281995	0	0	0
0.000287436	0	0	0
0.000287453	0	0	0
0.000289953	0	0	0
0.000306408	0	0	0
0.000307193	0	0	0
0.000310506	0	0	0
0.000311604	0	0	0
0.000314313	0	0	0
0.000314549	0	0	0
0.000315827	0	0	0
0.000316972	0	0	0
0.000319848	0	0	0
0.000320828	0	0	0
0.000322207	0	0	0
0.0003246	0	0	0
0.00032589	0	0	0
0.00032721	0	0	0
0.000329973	0	0	0
0.000332946	0	0	0
0.000334278	0	0	0
0.000337181	0	0	0
0.000346332	0	0	0
0.000350057	0	0	0
0.000359499	0	0	0
0.000365589	0	0	0
0.000367447	0	0	0
0.000370518	0	0	0
0.000375523	0	0	0
0.000376979	0	0	0
0.000382181	0	0	0
0.000383135	0	0	0
0.000384096	0	0	0
0.000385438	0	0	0
0.000386447	0	0	0
0.000395428	0	0	0
0.000397689	0	0	0
0.000404404	0	0	0
0.000407037	0	0	0
0.000411702	0	0	0
0.00041877	0	0	0
0.00041946	0	0	0
0.000428846	0	0	0
0.000439313	0	0	0
0.000443352	0	0	0
0.000446338	0	0	0
0.000453675	0	0	0
0.000456165	0	0	0
0.000461637	0	0	0
0.000465365	0	0	0
0.000469665	0	0	0
0.000474471	0	0	0
0.000477203	0	0	0
0.000477805	0	0	0
0.000489268	0	0	0
0.000496349	0	0	0
0.000498088	0	0	0
0.000504014	0	0	0
0.000506329	0	0	0
0.000511735	0	0	0
0.000520458	0	0	0
0.000533285	0	0	0
0.000542411	0	0	0
0.000552754	0	0	0
0.00055951	0	0	0
0.000568529	0	0	0
0.000571397	0	0	0
0.000572213	0	0	0
0.000577653	0	0	0
0.000578827	0	0	0
0.000579278	0	0	0
0.000613817	0	0	0
0.000614299	0	0	0
0.000624813	0	0	0
0.000626882	0	0	0
0.000636572	0	0	0
0.000649512	0	0	0
0.000651456	0	0	0
0.00065451	0	0	0
0.000661257	0	0	0
0.000661446	0	0	0
0.000677105	0	0	0
0.000682695	0	0	0
0.000703125	0	0	0
0.000725271	0	0	0
0.000727022	0	0	0
0.000727149	0	0	0
0.00072815	0	0	0
0.000750044	0	0	0
0.000752039	0	0	0
0.000763476	0	0	0
0.000775938	0	0	0
0.000798332	0	0	0
0.000802107	0	0	0
0.00083393	0	0	0
0.000886267	0	0	0
0.000922745	0	0	0
0.000924311	0	0	0
0.000928302	0	0	0
0.000938982	0	0	0
0.000953156	0	0	0
0.00095388	0	0	0
0.000962921	0	0	0
0.00100197	0	0	0
0.00102534	0	0	0
0.00103363	0	0	0
0.00107868	0	0	0
0.00110188	0	0	0
0.00113686	0	0	0
0.0012958	0	0	0
0.00130255	0	0	0
0.00154191	0	0	0
0.00160189	0	1	0
0.00186765	0	1	0
0.00207579	0	1	0
0.00213212	0	1	0
0.00221664	0	1	0
0.00224684	0	1	0
0.00264542	0	1	0
0.00301365	0	1	0
0.00302497	1	2	0
0.00303322	1	2	0
0.0030585	1	2	0
0.00309642	1	2	0
0.00311681	1	2	0
0.00314569	1	2	0
0.00321648	3	1	0
0.00334356	3	1	0
0.00346977	3	1	0
0.00382243	3	1	0
0.00384073	3	1	0
0.00389477	3	1	0
0.00389912	3	1	0
0.00397647	5	0	0
0.00404803	5	0	0
0.00530896	5	0	0
0.00540381	5	0	0
0.00561269	5	0	0
0.00635334	5	1	0
0.0064376	5	1	0
0.00655334	5	1	0
0.00676084	5	1	0
0.00699586	6	2	0
0.00711564	8	1	0
0.00754393	10	0	0
0.00779291	10	0	0
0.00780622	10	0	0
0.00826179	10	0	0
0.00925726	10	0	0
0.0095507	10	0	0
0.0102905	10	0	0
0.0102998	11	1	0
0.0107918	13	0	0
0.0114427	13	0	0
0.0115133	13	0	0
0.0116385	13	0	0
0.0121872	13	0	0
0.0123134	13	0	0
0.01234	13	2	0
0.0125707	15	1	0
0.0128542	17	0	0
0.0130192	17	0	0
0.0138143	17	0	0
0.0139332	17	0	0
0.0139829	17	0	0
0.0147413	17	0	0
0.0156648	17	0	0
0.0160238	17	0	0
0.0162294	17	0	0
0.0164856	17	0	0
0.0179906	17	0	0
0.0181488	17	0	0
0.0192523	17	0	0
0.0194266	17	0	0
0.0203241	17	0	0
0.020626	17	0	0
0.0213493	17	0	0
0.0215903	17	0	0
0.0225585	17	0	0
0.023077	17	0	0
0.0235239	17	0	0
0.0237735	17	0	0
0.0239045	17	0	0
0.0250857	17	0	0
0.0255757	17	0	0
0.0257264	17	0	0
0.0258064	17	0	0
0.0258154	17	0	0
0.0269944	17	0	0
0.0276306	17	0	0
0.0277548	17	0	0
0.0278456	18	1	0
0.0284022	18	1	0
0.0287715	20	0	0
0.0289856	20	0	0
0.0293664	20	0	0
0.0295169	20	0	0
0.0297262	20	0	0
0.0300385	20	0	0
0.0306392	20	0	0
0.0315125	20	0	0
0.0317146	20	0	0
0.0332062	20	0	0
0.0333202	20	0	0
0.0336994	20	0	0
0.0352335	20	0	0
0.0364549	20	0	0
0.0374925	21	0	0
0.0382598	21	0	0
0.0389409	21	0	0
0.0389743	21	1	0
0.0395815	21	1	0
0.0397091	21	1	0
0.0398021	21	1	0
0.0403245	21	1	0
0.0405238	22	2	0
0.0407369	22	2	0
0.0408639	22	2	0
0.0408694	24	1	0
0.0421194	26	0	0
0.042618	26	0	0
0.0426626	26	0	0
0.0449453	26	0	0
0.0449798	26	0	0
0.0451855	26	0	0
0.0462403	26	0	0
0.046261	26	0	0
0.0464082	26	0	0
0.046611	26	0	0
0.0472319	26	0	0
0.0476849	26	0	0
0.0478216	26	0	0
0.0481983	26	1	0
0.0484183	27	2	0
0.0485601	29	1	0
0.0486002	31	0	0
0.0488376	31	0	0
0.0488934	31	0	0
0.0491141	31	0	0
0.0493621	31	0	0
0.0495304	31	0	0
0.0497315	31	0	0
0.0501506	31	0	0
0.05027	31	0	0
0.0504494	31	0	0
0.0512644	31	0	0
0.0516609	31	0	0
0.0518055	31	0	0
0.052994	32	0	0
0.0531241	32	0	0
0.0531303	32	0	0
0.0536697	33	0	0
0.0540668	33	0	0
0.0541484	33	0	0
0.0549439	33	0	0
0.0553849	33	0	0
0.0555495	34	1	0
0.0557122	35	2	0
0.0559235	37	1	0
0.0566514	37	1	0
0.0567077	37	1	0
0.0567669	39	0	0
0.0569382	39	0	0
0.0574861	39	0	0
0.0578712	39	0	0
0.0581584	39	1	0
0.058322	40	2	0
0.0586138	42	1	0
0.0586867	42	1	0
0.0590491	42	1	0
0.059233	42	1	0
0.0598264	44	0	0
0.0600699	44	0	0
0.0603885	44	0	0
0.0604106	44	0	0
0.0606308	44	0	0
0.0614088	44	0	0
0.0629275	44	0	0
0.0630794	44	0	0
0.063566	44	0	0
0.0637297	45	1	0
0.0637522	45	1	0
0.0637704	45	1	0
0.0637794	47	0	0
0.0653611	47	0	0
0.065429	47	0	0
0.0655315	47	0	0
0.0656149	47	2	0
0.0657466	49	1	0
0.0657977	50	2	0
0.0658137	50	2	0
0.0658526	50	2	0
0.0660692	52	1	0
0.0668828	54	0	0
0.0670051	54	0	0
0.0675931	54	0	0
0.0675978	54	0	0
0.0676478	54	0	0
0.0677438	54	0	0
0.0678088	55	1	0
0.0679958	57	0	0
0.0682809	57	0	0
0.0687108	57	0	0
0.0687206	57	0	0
0.0708237	57	0	0
0.0709496	57	0	0
0.0710036	57	0	0
0.0711722	57	0	0
0.0714445	58	1	0
0.0723094	60	0	0
0.0723537	60	0	0
0.0725693	60	0	0
0.0727702	60	0	0
0.0736978	60	0	0
0.0741973	60	0	0
0.0753445	60	0	0
0.0754967	60	0	0
0.0760609	60	0	0
0.0772476	60	0	0
0.0774198	60	0	0
0.078549	60	0	0
0.079304	60	0	0
0.0794786	60	0	0
0.07982	60	0	0
0.0798901	61	0	0
0.0806913	61	0	0
0.0807808	61	0	0
0.0815292	61	0	0
0.0818019	61	0	0
0.0819077	62	0	0
0.0823281	62	0	0
0.0833439	62	0	0
0.0838919	62	0	0
0.0842906	62	0	0
0.084764	62	0	0
0.0854275	62	0	0
0.0863045	62	0	0
0.0870051	62	0	0
0.0881015	62	0	0
0.0900794	63	0	0
0.0901986	64	1	0
0.0905255	64	1	0
0.0906925	66	0	0
0.0913322	66	0	0
0.0915558	66	0	0
0.0918212	66	0	0
0.0922637	66	0	0
0.0938262	66	0	0
0.0942796	66	0	0
0.094289	66	0	0
0.0947717	66	0	0
0.096142	66	0	0
0.0966316	66	0	0
0.0969005	66	0	0
0.0972371	67	0	0
0.0976155	67	0	0
0.0982941	67	0	0
0.0986762	67	0	0
0.101394	67	0	0
0.101448	67	0	0
0.103959	67	0	0
0.104076	67	0	0
0.104511	67	0	0
0.104904	67	0	0
0.105425	67	0	0
0.106944	67	0	0
0.107233	67	0	0
0.107326	67	1	0
0.108109	67	1	0
0.108131	68	2	0
0.108317	69	2	0
0.108375	71	1	0
0.108754	73	0	0
0.108763	73	0	0
0.108814	73	0	0
0.109205	73	0	0
0.110034	73	0	0
0.110352	73	0	0
0.110369	73	0	0
0.110406	73	0	0
0.111329	73	0	0
0.112075	73	0	0
0.112696	73	2	0
0.112851	75	1	0
0.112864	75	1	0
0.11295	75	1	0
0.112998	77	0	0
0.114678	77	0	0
0.115394	77	0	0
0.115475	77	0	0
0.115537	77	0	0
0.11699	77	0	0
0.117597	77	0	0
0.118854	77	0	0
0.119174	77	1	0
0.119824	77	1	0
0.120988	77	1	0
0.122269	77	1	0
0.122366	77	1	0
0.122622	77	1	0
0.123033	77	1	0
0.123352	77	1	0
0.123821	77	1	0
0.12388	77	1	0
0.124068	77	1	0
0.125236	77	1	0
0.125289	77	1	0
0.12641	77	1	0
0.127578	77	1	0
0.127763	77	1	0
0.128261	77	1	0
0.128908	77	1	0
0.129571	77	1	0
0.130389	77	1	0
0.130579	77	1	0
0.130808	77	1	0
0.131248	77	1	0
0.131306	77	1	0
0.131851	77	2	0
0.13191	77	2	0
0.132183	77	2	0
0.132496	78	3	0
0.132586	78	3	0
0.133269	80	2	0
0.133294	80	2	0
0.134061	82	1	0
0.134564	82	1	0
0.134575	82	1	0
0.134842	82	1	0
0.134978	82	1	0
0.135763	82	1	0
0.135774	82	1	0
0.135863	82	1	0
0.136269	82	1	0
0.136314	83	2	0
0.136519	85	1	0
0.13665	85	1	0
0.137135	85	1	0
0.137303	85	1	0
0.138388	85	1	0
0.138659	85	1	0
0.138709	86	2	0
0.13902	88	1	0
0.139815	88	1	0
0.140015	88	1	0
0.142008	88	1	0
0.142214	88	1	0
0.142471	88	1	0
0.142918	88	1	0
0.143035	88	1	0
0.143965	88	1	0
0.144373	89	1	0
0.144397	89	1	0
0.144688	89	1	0
0.1448	89	1	0
0.145509	89	1	0
0.146241	89	1	0
0.146432	90	2	0
0.14666	90	2	0
0.146661	92	1	0
0.147011	94	0	0
0.147479	94	0	0
0.148112	94	0	0
0.148293	94	0	0
0.148379	94	0	0
0.148592	94	0	0
0.148629	94	0	0
0.148853	94	0	0
0.149396	94	0	0
0.149624	94	0	0
0.15034	94	0	0
0.15239	94	0	0
0.152969	94	0	0
0.153172	94	0	0
0.154203	94	0	0
0.155246	94	0	0
0.157572	94	0	0
0.158495	94	0	0
0.158557	94	0	0
0.159707	94	0	0
0.16005	94	0	0
0.16079	94	0	0
0.162173	94	0	0
0.163193	94	0	0
0.164174	94	0	0
0.164842	94	0	0
0.165019	94	0	0
0.165745	94	0	0
0.166101	94	0	0
0.166178	94	0	0
0.166252	94	0	0
0.16644	94	0	0
0.166829	94	0	0
0.166994	95	1	0
0.168245	97	0	0
0.168324	97	0	0
0.16845	97	0	0
0.168692	97	0	0
0.169874	97	0	0
0.170128	97	0	0
0.170185	97	0	0
0.17074	97	0	0
0.171322	97	0	0
0.171514	97	0	0
0.171592	98	0	0
0.171715	98	0	0
0.173994	98	0	0
0.175274	98	0	0
0.175306	98	0	0
0.175855	98	0	0
0.178788	99	0	0
0.178962	99	0	0
0.17937	99	0	0
0.179659	99	0	0
0.179676	99	0	0
0.182797	99	0	0
0.183374	99	0	0
0.185559	99	0	0
0.186349	99	0	0
0.187261	99	0	0
0.188048	99	0	0
0.188241	99	0	0
0.188314	99	0	0
0.190094	100	0	0
0.190152	100	0	0
0.190198	100	0	0
0.190278	100	0	0
0.190732	100	0	0
0.191461	100	0	0
0.191669	100	0	0
0.191972	100	0	0
0.19256	100	0	0
0.193342	100	0	0
0.193409	100	0	0
0.193517	100	0	0
0.193563	100	0	0
0.193568	101	1	0
0.194444	103	0	0
0.194601	103	0	0
0.195017	103	0	0
0.195379	103	0	0
0.196055	103	0	0
0.197219	103	0	0
0.197455	103	0	0
0.197941	103	0	0
0.198004	104	1	0
0.19814	104	1	0
0.198592	106	0	0
0.199598	106	0	0
0.199662	106	0	0
0.199965	107	1	0
0.200157	109	0	0
0.200493	109	0	0
0.201151	109	0	0
0.201179	109	0	0
0.201279	109	0	0
0.201511	109	0	0
0.201623	109	0	0
0.201802	109	0	0
0.202564	109	0	0
0.204514	109	0	0
0.205725	109	0	0
0.205833	109	0	0
0.206145	109	0	0
0.206309	109	0	0
0.206802	109	0	0
0.207445	109	0	0
0.207454	109	0	0
0.207838	109	0	0
0.208154	109	0	0
0.208886	109	0	0
0.209131	109	0	0
0.209908	109	0	0
0.209976	110	0	0
0.210705	111	0	0
0.211507	111	0	0
0.211837	111	0	0
0.211957	111	0	0
0.212202	111	0	0
0.212659	111	0	0
0.213085	111	0	0
0.213118	111	0	0
0.213645	111	0	0
0.214356	111	0	0
0.214866	111	0	0
0.21522	111	0	0
0.216675	111	0	0
0.217594	111	0	0
0.217721	111	0	0
0.218016	111	0	0
0.218036	111	0	0
0.218425	112	1	0
0.218549	114	0	0
0.218678	114	0	0
0.218797	114	0	0
0.2195	114	0	0
0.220295	114	0	0
0.220744	114	0	0
0.221279	114	0	0
0.222079	114	0	0
0.2223	115	0	0
0.222677	115	0	0
0.22309	115	0	0
0.223614	115	0	0
0.223661	116	1	0
0.223688	116	1	0
0.225252	118	0	0
0.226171	118	0	0
0.226772	118	0	0
0.226939	118	0	0
0.227066	118	0	0
0.227357	118	0	0
0.227416	118	0	0
0.228027	118	0	0
0.230601	118	0	0
0.23095	118	0	0
0.231231	118	0	0
0.231457	118	2	0
0.231562	120	1	0
0.231655	120	1	0
0.231859	120	1	0
0.231903	120	1	0
0.232347	120	1	0
0.232422	122	0	0
0.234035	122	0	0
0.234366	122	0	0
0.234787	122	0	0
0.235047	122	0	0
0.235464	122	0	0
0.236075	122	0	0
0.236773	122	0	0
0.236892	122	0	0
0.236954	122	0	0
0.237894	122	0	0
0.238858	122	0	0
0.23896	122	0	0
0.24012	122	0	0
0.240668	122	0	0
0.241276	122	0	0
0.241308	123	1	0
0.241806	125	0	0
0.243321	125	0	0
0.244108	125	0	0
0.244201	125	0	0
0.244441	125	0	0
0.244643	125	0	0
0.245656	125	0	0
0.245998	125	0	0
0.246575	125	0	0
0.24737	125	0	0
0.247541	125	0	0
0.247651	125	0	0
0.248936	125	0	0
0.249267	125	0	0
0.249479	125	0	0
0.249587	125	0	0
0.249803	125	0	0
0.250476	125	0	0
0.25066	126	1	0
0.250882	128	0	0
0.251475	128	0	0
0.251623	128	0	0
0.251802	128	0	0
0.251931	128	0	0
0.253912	129	0	0
0.254012	129	0	0
0.254078	129	0	0
0.254438	129	0	0
0.25507	129	0	0
0.255793	129	0	0
0.255998	129	0	0
0.256595	129	0	0
0.257515	130	0	0
0.257639	130	0	0
0.257972	130	0	0
0.258069	132	0	0
0.258184	133	1	0
0.258744	133	1	0
0.258793	133	1	0
0.259158	133	1	0
0.25931	133	1	0
0.259428	135	0	0
0.259499	135	0	0
0.259987	135	0	0
0.260145	135	0	0
0.261013	135	0	0
0.261122	135	0	0
0.261225	135	0	0
0.261986	135	0	0
0.26429	135	0	0
0.265262	135	0	0
0.265832	135	0	0
0.267455	135	0	0
0.268538	135	0	0
0.269298	135	0	0
0.269547	135	0	0
0.269654	135	0	0
0.270099	135	0	0
0.270851	135	0	0
0.272027	135	0	0
0.272028	135	0	0
0.272643	135	0	0
0.272666	135	0	0
0.272779	136	1	0
0.273238	138	0	0
0.273794	138	0	0
0.275546	138	0	0
0.276681	138	0	0
0.276838	138	0	0
0.277372	139	1	0
0.277639	139	1	0
0.278129	141	0	0
0.278856	141	0	0
0.279304	141	0	0
0.279681	141	0	0
0.279998	141	0	0
0.280454	141	0	0
0.280892	141	0	0
0.281389	141	0	0
0.281558	141	0	0
0.282145	141	0	0
0.282568	142	0	0
0.283328	142	0	0
0.283413	142	0	0
0.283727	142	0	0
0.284703	142	0	0
0.286249	142	0	0
0.286854	142	0	0
0.286866	143	1	0
0.287376	145	0	0
0.287607	145	0	0
0.28863	145	0	0
0.290038	145	0	0
0.290252	145	0	0
0.291009	146	0	0
0.292614	147	0	0
0.292726	147	0	0
0.293351	147	0	0
0.294585	147	0	0
0.294588	147	0	0
0.294604	148	0	0
0.295866	148	0	0
0.297479	148	0	0
0.29761	149	0	0
0.297672	149	0	0
0.298068	149	0	0
0.29808	150	1	0
0.299354	152	0	0
0.299594	153	1	0
0.300154	153	1	0
0.300593	155	0	0
0.300795	155	0	0
0.303519	155	0	0
0.303763	155	0	0
0.304436	155	0	0
0.305843	155	0	0
0.306652	155	0	0
0.306762	155	0	0
0.307107	155	0	0
0.307371	155	1	0
0.309152	155	1	0
0.30994	155	1	0
0.309942	156	2	0
0.310542	158	1	0
0.310719	160	0	0
0.310833	160	0	0
0.31166	160	0	0
0.31349	160	0	0
0.31377	160	0	0
0.313867	160	0	0
0.31387	160	0	0
0.314165	160	0	0
0.314686	160	0	0
0.314798	160	0	0
0.315557	160	0	0
0.316696	160	0	0
0.317524	160	0	0
0.317755	160	0	0
0.317889	160	0	0
0.318866	160	0	0
0.320366	160	0	0
0.320539	161	0	0
0.320718	161	0	0
0.321483	161	0	0
0.324609	161	0	0
0.325161	161	0	0
0.326037	161	0	0
0.326271	161	0	0
0.327123	161	0	0
0.328866	161	0	0
0.329506	161	0	0
0.329661	161	0	0
0.329725	161	0	0
0.330613	162	0	0
0.330786	162	0	0
0.332903	162	0	0
0.332925	162	0	0
0.333376	162	0	0
0.333893	162	0	0
0.334302	162	0	0
0.334609	163	0	0
0.335618	163	0	0
0.337124	163	0	0
0.338342	163	0	0
0.338767	164	0	0
0.339455	164	0	0
0.340146	164	0	0
0.340495	164	0	0
0.340758	165	0	0
0.345244	166	0	0
0.345484	166	0	0
0.347224	167	0	0
0.347521	168	0	0
0.347523	168	0	0
0.347831	168	0	0
0.350079	168	0	0
0.350544	168	0	0
0.350681	168	0	0
0.350728	169	0	0
0.351535	169	0	0
0.351929	169	0	0
0.352143	169	2	0
0.352284	169	2	0
0.352933	171	1	0
0.353156	173	0	0
0.355446	173	0	0
0.355638	173	0	0
0.356146	173	0	0
0.35662	173	0	0
0.35685	173	0	0
0.357308	173	0	0
0.359001	173	0	0
0.359586	173	0	0
0.359744	173	0	0
0.360707	173	0	0
0.360727	173	0	0
0.360788	173	0	0
0.361446	174	1	0
0.361711	176	0	0
0.361797	176	0	0
0.362002	176	0	0
0.363028	176	0	0
0.36428	177	0	0
0.364369	177	0	0
0.364437	177	0	0
0.36472	177	0	0
0.365932	177	0	0
0.366418	177	0	0
0.367804	178	0	0
0.368976	178	0	0
0.369098	179	0	0
0.369243	179	0	0
0.369562	179	0	0
0.371258	179	0	0
0.371325	179	0	0
0.371851	179	0	0
0.371858	179	1	0
0.372064	179	1	0
0.3725	179	1	0
0.3726	179	1	0
0.372603	180	2	0
0.372735	182	1	0
0.373521	184	0	0
0.37465	184	0	0
0.375858	184	0	0
0.376147	184	0	0
0.377097	184	0	0
0.377667	185	1	0
0.377693	185	1	0
0.378524	185	1	0
0.379095	187	0	0
0.380437	187	0	0
0.382175	188	0	0
0.383102	188	0	0
0.385979	188	0	0
0.386975	188	0	0
0.387482	188	0	0
0.38804	188	0	0
0.389726	188	0	0
0.389778	190	0	0
0.391588	190	0	0
0.391731	190	0	0
0.392143	190	0	0
0.39219	190	0	0
0.39289	190	1	0
0.393793	190	1	0
0.394559	190	1	0
0.394757	191	2	0
0.395756	192	2	0
0.396118	194	1	0
0.396163	195	2	0
0.396222	197	1	0
0.396601	197	1	0
0.39675	197	1	0
0.396817	197	2	0
0.397526	199	1	0
0.398546	199	1	0
0.399018	199	1	0
0.399779	199	1	0
0.399877	200	2	0
0.399965	202	1	0
0.401936	204	0	0
0.402472	205	0	0
0.403979	205	0	0
0.404168	205	0	0
0.404948	205	0	0
0.405892	205	0	0
0.406825	205	0	0
0.407598	206	0	0
0.409027	206	0	0
0.410458	206	0	0
0.412906	207	0	0
0.414642	207	0	0
0.415383	207	0	0
0.415536	207	0	0
0.416171	208	0	0
0.418116	208	0	0
0.4183	208	0	0
0.418403	208	0	0
0.420741	208	1	0
0.420894	208	1	0
0.421488	208	1	0
0.421756	209	2	0
0.421844	211	1	0
0.423802	213	0	0
0.424569	214	0	0
0.424973	214	0	0
0.426014	214	0	0
0.426282	214	0	0
0.426926	214	0	0
0.42705	215	0	0
0.427623	215	0	0
0.428571	215	0	0
0.429091	215	0	0
0.429519	215	2	0
0.429662	217	1	0
0.430695	219	0	0
0.431232	219	0	0
0.431615	219	0	0
0.433165	220	0	0
0.433387	220	0	0
0.434234	221	0	0
0.43569	221	0	0
0.435915	222	1	0
0.439216	224	0	0
0.440272	224	0	0
0.44048	224	0	0
0.440755	224	0	0
0.441569	224	0	0
0.442353	224	0	0
0.442494	225	1	0
0.447484	227	0	0
0.447959	227	0	0
0.448382	227	0	0
0.448722	228	0	0
0.450616	228	0	0
0.451061	229	0	0
0.451251	229	0	0
0.45128	229	0	0
0.451428	229	0	0
0.454558	229	0	0
0.454773	229	0	0
0.45483	229	0	0
0.455051	230	1	0
0.455084	232	0	0
0.456994	232	0	0
0.457243	232	0	0
0.45784	232	0	0
0.459074	232	0	0
0.459364	232	0	0
0.460828	234	0	0
0.461373	234	0	0
0.463692	234	0	0
0.46382	234	0	0
0.464081	234	0	0
0.464206	234	0	0
0.464209	234	0	0
0.464533	234	0	0
0.465031	234	0	0
0.465234	234	0	0
0.465296	234	0	0
0.465325	235	1	0
0.465818	235	1	0
0.466328	237	0	0
0.46708	237	0	0
0.470185	237	0	0
0.470604	237	0	0
0.47085	237	0	0
0.471697	237	0	0
0.471756	237	0	0
0.473758	237	0	0
0.474008	237	0	0
0.474086	237	2	0
0.474515	239	1	0
0.474535	239	1	0
0.475482	241	0	0
0.476869	241	0	0
0.477604	241	0	0
0.478353	241	0	0
0.478804	241	0	0
0.478988	241	0	0
0.480144	242	0	0
0.481896	242	0	0
0.481898	242	0	0
0.482736	242	0	0
0.483586	242	0	0
0.484541	242	0	0
0.486327	242	0	0
0.486812	242	0	0
0.487	242	0	0
0.487569	243	1	0
0.488474	245	0	0
0.490321	245	0	0
0.490834	245	0	0
0.492753	245	0	0
0.493722	245	0	0
0.494108	245	0	0
0.496328	245	0	0
0.497285	245	0	0
0.497931	245	0	0
0.498222	245	0	0
0.498692	245	0	0
0.500254	245	0	0
0.504234	245	0	0
0.504715	245	0	0
0.504946	245	0	0
0.505882	245	0	0
0.506039	245	0	0
0.50625	245	0	0
0.506297	245	0	0
0.506308	245	0	0
0.506365	245	2	0
0.506595	247	1	0
0.507599	249	0	0
0.508708	249	0	0
0.510084	249	0	0
0.510741	250	0	0
0.512443	250	0	0
0.513869	250	0	0
0.514036	250	0	0
0.514244	250	0	0
0.515245	250	0	0
0.515895	250	0	0
0.515966	250	0	0
0.517023	250	0	0
0.517174	251	0	0
0.518016	251	0	0
0.518678	251	0	0
0.519172	251	0	0
0.519266	251	0	0
0.519735	252	0	0
0.520559	252	0	0
0.521016	254	0	0
0.521817	254	0	0
0.523324	254	0	0
0.52778	255	0	0
0.528341	255	0	0
0.530503	256	0	0
0.530565	256	0	0
0.530708	256	0	0
0.530709	256	0	0
0.531964	257	0	0
0.532919	257	0	0
0.533103	257	0	0
0.534839	257	0	0
0.535125	257	0	0
0.53832	257	0	0
0.539155	257	0	0
0.539254	257	0	0
0.540374	257	0	0
0.540534	257	0	0
0.541618	257	0	0
0.545253	257	0	0
0.545544	257	0	0
0.546853	257	0	0
0.547275	257	0	0
0.548354	257	0	0
0.548891	257	0	0
0.549124	257	0	0
0.549263	257	2	0
0.549281	259	1	0
0.551498	261	0	0
0.551923	261	0	0
0.552002	261	0	0
0.55237	261	0	0
0.556138	261	0	0
0.556365	261	0	0
0.557122	261	0	0
0.559393	261	0	0
0.559784	261	0	0
0.560479	261	0	0
0.560527	261	0	0
0.561928	261	0	0
0.565634	261	0	0
0.568246	262	0	0
0.569498	262	0	0
0.569962	262	0	0
0.572414	262	0	0
0.572809	263	0	0
0.57354	263	0	0
0.573899	263	0	0
0.574079	263	0	0
0.574136	263	0	0
0.574747	263	0	0
0.574936	263	2	0
0.574938	265	1	0
0.57573	267	0	0
0.576678	267	0	0
0.57815	267	0	0
0.579214	267	0	0
0.579989	267	0	0
0.582966	267	0	0
0.583041	267	0	0
0.583567	267	0	0
0.585251	267	0	0
0.585672	267	0	0
0.586209	267	0	0
0.586979	267	0	0
0.587157	267	0	0
0.587534	267	0	0
0.588346	267	0	0
0.589451	267	0	0
0.590974	267	0	0
0.590979	267	2	0
0.591005	267	2	0
0.59188	269	1	0
0.591928	271	0	0
0.593141	271	1	0
0.594092	271	1	0
0.594347	271	1	0
0.596686	271	1	0
0.596754	271	1	0
0.597426	271	1	0
0.597885	271	1	0
0.598515	271	1	0
0.598537	272	2	0
0.599473	272	2	0
0.599526	272	4	0
0.599543	272	4	0
0.599588	272	4	0
0.599711	274	3	0
0.599888	274	3	0
0.600173	276	2	0
0.601935	278	1	0
0.60415	278	1	0
0.604465	278	1	0
0.604528	278	1	0
0.60536	279	2	0
0.605563	281	1	0
0.607742	281	1	0
0.610252	281	1	0
0.613506	281	1	0
0.613667	281	1	0
0.616748	281	1	0
0.616845	281	1	0
0.616991	281	1	0
0.617031	281	1	0
0.617757	282	2	0
0.619807	284	1	0
0.620182	284	1	0
0.620281	284	3	0
0.620747	286	2	0
0.621041	288	1	0
0.621265	288	1	0
0.621575	290	0	0
0.623491	290	0	0
0.623605	290	0	0
0.623915	290	0	0
0.624047	290	0	0
0.625042	290	0	0
0.625187	290	0	0
0.625667	290	0	0
0.626144	290	0	0
0.626735	291	1	0
0.627498	293	0	0
0.628601	293	0	0
0.629208	293	0	0
0.630893	293	0	0
0.631659	293	0	0
0.631667	293	0	0
0.631833	293	0	0
0.632764	293	0	0
0.633198	293	0	0
0.633295	293	0	0
0.634307	293	0	0
0.635359	294	0	0
0.635967	294	0	0
0.63718	294	0	0
0.639124	296	0	0
0.639651	296	0	0
0.640145	296	0	0
0.640154	296	0	0
0.640332	297	0	0
0.642564	297	0	0
0.64277	297	0	0
0.64615	297	0	0
0.64639	299	0	0
0.646491	299	0	0
0.650522	299	0	0
0.652639	299	0	0
0.654134	299	0	0
0.658794	299	0	0
0.659521	300	0	0
0.66032	300	0	0
0.660943	300	0	0
0.66278	300	0	0
0.665077	300	0	0
0.665321	302	0	0
0.667618	302	0	0
0.669307	302	0	0
0.670009	302	0	0
0.672996	302	0	0
0.673374	302	0	0
0.675146	302	0	0
0.676617	302	0	0
0.677941	302	0	0
0.678088	302	0	0
0.67903	302	0	0
0.67924	302	0	0
0.679726	302	0	0
0.680653	302	0	0
0.683956	302	0	0
0.684766	302	0	0
0.686839	302	0	0
0.687387	302	0	0
0.687591	302	0	0
0.68893	302	0	0
0.689155	302	0	0
0.689653	302	0	0
0.691532	302	0	0
0.692504	302	0	0
0.692748	302	0	0
0.692818	303	0	0
0.695491	303	0	0
0.696166	303	0	0
0.698409	303	0	0
0.699968	303	0	0
0.701838	303	0	0
0.702397	303	0	0
0.702461	303	0	0
0.702736	303	2	0
0.702793	305	1	0
0.703952	307	0	0
0.704948	307	0	0
0.706198	307	0	0
0.706642	307	0	0
0.708399	307	0	0
0.709823	307	1	0
0.710229	307	1	0
0.710969	307	1	0
0.711084	308	2	0
0.711224	308	2	0
0.711265	308	2	0
0.711409	310	1	0
0.713449	312	0	0
0.714522	312	0	0
0.714703	312	0	0
0.714988	312	0	0
0.715211	313	1	0
0.715231	313	1	0
0.715258	313	1	0
0.715337	313	3	0
0.715344	315	2	0
0.715635	315	2	0
0.715666	317	1	0
0.716652	319	0	0
0.719854	319	0	0
0.720691	320	0	0
0.722485	320	0	0
0.722698	320	0	0
0.7232	320	0	0
0.724837	320	0	0
0.725897	320	0	0
0.725924	320	0	0
0.726313	321	0	0
0.726783	322	1	0
0.729533	324	0	0
0.730771	324	0	0
0.732601	324	0	0
0.733003	325	0	0
0.733983	325	0	0
0.734604	326	1	0
0.734642	326	1	0
0.738076	328	0	0
0.741116	328	0	0
0.744906	328	0	0
0.745926	328	0	0
0.746889	328	0	0
0.748804	329	0	0
0.75038	329	0	0
0.750524	329	0	0
0.750979	331	0	0
0.751721	331	0	0
0.75218	331	0	0
0.753989	331	0	0
0.756247	331	0	0
0.756705	332	0	0
0.756746	332	0	0
0.758456	333	0	0
0.759995	334	0	0
0.760153	334	0	0
0.763056	334	0	0
0.766062	334	0	0
0.767345	334	0	0
0.768566	334	0	0
0.768662	335	0	0
0.769311	335	0	0
0.770971	336	0	0
0.771468	336	0	0
0.773343	336	0	0
0.775443	336	0	0
0.775611	336	0	0
0.777265	336	0	0
0.779049	336	0	0
0.779417	336	0	0
0.782237	336	0	0
0.782516	338	0	0
0.783476	338	0	0
0.783664	338	0	0
0.783987	338	0	0
0.784671	338	0	0
0.784811	338	0	0
0.784954	338	0	0
0.787653	338	0	0
0.790377	338	0	0
0.790687	338	0	0
0.792768	339	0	0
0.792859	339	0	0
0.79334	339	0	0
0.796548	339	0	0
0.797439	339	0	0
0.797685	339	0	0
0.797788	339	0	0
0.798207	339	0	0
0.798214	340	1	0
0.798691	340	1	0
0.804468	342	0	0
0.80491	342	0	0
0.809077	344	0	0
0.809265	344	0	0
0.809443	344	0	0
0.81063	346	0	0
0.811204	347	0	0
0.81127	348	0	0
0.813309	348	0	0
0.813565	348	0	0
0.816263	348	0	0
0.817114	348	0	0
0.817213	349	1	0
0.818624	351	0	0
0.822395	353	0	0
0.823267	353	0	0
0.823276	354	1	0
0.82353	356	0	0
0.824168	356	0	0
0.824197	356	0	0
0.82655	356	0	0
0.830963	356	0	0
0.832498	356	0	0
0.833014	356	0	0
0.833679	357	1	0
0.834363	357	1	0
0.836783	359	0	0
0.836822	359	0	0
0.838806	359	0	0
0.839192	359	0	0
0.840973	360	0	0
0.841604	360	0	0
0.84203	360	0	0
0.844987	360	0	0
0.845248	361	0	0
0.848756	361	0	0
0.849056	362	0	0
0.851748	362	0	0
0.852123	362	0	0
0.853858	362	0	0
0.857276	362	0	0
0.85804	362	0	0
0.858131	362	0	0
0.858405	362	1	0
0.858664	362	1	0
0.862021	362	1	0
0.862114	363	2	0
0.862129	365	1	0
0.862394	365	1	0
0.864288	367	0	0
0.868286	367	0	0
0.869506	367	0	0
0.874429	367	0	0
0.877647	368	0	0
0.877946	368	0	0
0.878052	368	0	0
0.879724	368	1	0
0.880198	369	1	0
0.883967	369	1	0
0.884067	371	1	0
0.886619	371	1	0
0.888305	371	1	0
0.888626	371	1	0
0.889535	371	1	0
0.889542	371	2	0
0.889725	372	3	0
0.889849	374	2	0
0.889937	376	1	0
0.891231	376	1	0
0.892177	376	1	0
0.893758	376	1	0
0.894901	376	1	0
0.895005	376	1	0
0.897635	376	1	0
0.898117	376	1	0
0.898912	376	1	0
0.899057	376	1	0
0.899114	376	1	0
0.899257	376	1	0
0.900342	376	1	0
0.900913	376	1	0
0.902121	376	1	0
0.90265	376	1	0
0.903211	376	1	0
0.904521	376	1	0
0.90563	376	1	0
0.909298	376	2	0
0.909417	377	3	0
0.909447	377	3	0
0.910795	379	2	0
0.910831	381	1	0
0.910853	381	1	0
0.910898	382	2	0
0.912085	384	1	0
0.914803	384	1	0
0.915243	384	1	0
0.915408	384	3	0
0.915958	386	2	0
0.91726	388	1	0
0.917387	388	1	0
0.926575	388	1	0
0.926627	388	1	0
0.927036	388	1	0
0.927095	388	1	0
0.928247	390	0	0
0.928273	390	0	0
0.928847	390	0	0
0.929839	391	0	0
0.931097	391	0	0
0.934957	391	0	0
0.936988	391	0	0
0.939215	391	0	0
0.939353	391	0	0
0.941725	391	0	0
0.942613	391	0	0
0.943562	391	0	0
0.943668	391	0	0
0.943852	391	0	0
0.943896	391	0	0
0.944441	392	1	0
0.945875	394	0	0
0.949966	394	0	0
0.950046	394	0	0
0.950241	395	1	0
0.953472	397	0	0
0.954431	397	0	0
0.954709	397	0	0
0.956672	397	0	0
0.956853	397	0	0
0.957377	397	0	0
0.958782	397	0	0
0.959228	397	0	0
0.96333	397	0	0
0.963355	397	0	0
0.965514	397	0	0
0.967516	397	0	0
0.969081	397	0	0
0.969336	399	0	0
0.969412	399	0	0
0.973367	399	0	0
0.977179	399	0	0
0.977601	399	0	0
0.978228	401	0	0
0.980262	401	0	0
0.98044	401	0	0
0.98904	401	0	0
0.989189	401	0	0
0.990526	401	0	0
0.991033	401	0	0
0.991355	401	0	0
0.991446	401	0	0
0.991699	401	0	0
0.992206	401	0	0
0.998253	403	0	0
0.998359	404	0	0
0.999224	404	0	0
1.00102	404	0	0
1.00395	404	0	0
1.0053	404	0	0
1.00533	404	0	0
1.00539	404	0	0
1.00603	404	0	0
1.00694	406	0	0
1.00711	406	0	0
1.00878	406	0	0
1.01227	406	0	0
1.01349	406	0	0
1.01401	406	0	0
1.01424	406	0	0
1.01498	406	0	0
1.01614	406	0	0
1.01656	406	0	0
1.01663	407	1	0
1.0167	407	1	0
1.01686	409	1	0
1.01947	411	0	0
1.024	411	0	0
1.02591	413	0	0
1.02608	413	0	0
1.02841	413	0	0
1.03212	413	0	0
1.03462	413	0	0
1.03606	413	0	0
1.03774	413	0	0
1.03982	413	0	0
1.04192	413	0	0
1.0427	413	0	0
1.04445	413	0	0
1.04533	413	0	0
1.04876	413	0	0
1.04884	413	0	0
1.04912	413	0	0
1.04973	413	0	0
1.05156	413	0	0
1.05159	413	0	0
1.05686	413	0	0
1.0569	413	0	0
1.05704	414	1	0
1.0575	416	0	0
1.05773	416	0	0
1.05812	416	0	0
1.05867	416	0	0
1.05901	416	0	0
1.05937	416	1	0
1.05945	416	3	0
1.0595	418	2	0
1.05999	420	1	0
1.06048	421	2	0
1.06083	423	1	0
1.06196	425	0	0
1.06356	426	0	0
1.06386	426	0	0
1.06402	426	0	0
1.06459	426	0	0
1.07059	426	0	0
1.07476	426	0	0
1.07838	426	0	0
1.08369	426	0	0
1.08395	426	0	0
1.08419	426	1	0
1.08424	427	2	0
1.08429	429	1	0
1.08645	431	0	0
1.08775	431	0	0
1.08858	431	0	0
1.09122	431	0	0
1.09257	431	0	0
1.09577	431	0	0
1.10045	431	0	0
1.10104	431	0	0
1.10322	431	0	0
1.10345	431	0	0
1.10373	431	0	0
1.10478	431	0	0
1.10678	431	0	0
1.1071	431	0	0
1.10748	431	0	0
1.10786	432	1	0
1.1081	434	0	0
1.1084	434	0	0
1.10847	434	0	0
1.10921	434	0	0
1.11349	434	0	0
1.11546	434	0	0
1.11632	434	0	0
1.11862	434	0	0
1.12053	434	0	0
1.12094	434	0	0
1.12105	434	0	0
1.12218	434	0	0
1.12238	435	1	0
1.13155	437	0	0
1.13225	437	0	0
1.13259	437	0	0
1.13497	437	0	0
1.13611	437	0	0
1.13668	437	0	0
1.13801	438	0	0
1.13834	438	0	0
1.1388	438	0	0
1.14269	438	0	0
1.14823	439	0	0
1.14915	439	0	0
1.15	440	0	0
1.15301	441	0	0
1.15733	441	0	0
1.15896	441	0	0
1.16043	441	0	0
1.16481	441	0	0
1.16485	441	0	0
1.16563	441	0	0
1.16596	441	0	0
1.16599	441	0	0
1.16649	441	0	0
1.16684	441	1	0
1.16717	442	2	0
1.16727	442	2	0
1.1673	442	2	0
1.16865	444	1	0
1.17082	446	0	0
1.17459	446	0	0
1.17553	446	0	0
1.17669	448	0	0
1.17728	448	0	0
1.17776	448	0	0
1.1837	448	0	0
1.18593	449	0	0
1.18625	449	0	0
1.18888	449	0	0
1.18912	450	1	0
1.18937	452	0	0
1.18978	452	0	0
1.19013	452	0	0
1.19099	452	0	0
1.1917	452	0	0
1.19192	452	0	0
1.19363	452	0	0
1.19414	452	0	0
1.19455	452	0	0
1.19764	452	0	0
1.19778	452	0	0
1.19954	452	0	0
1.19962	452	0	0
1.20098	452	0	0
1.20181	452	0	0
1.20198	452	0	0
1.20208	452	0	0
1.20516	452	0	0
1.20843	452	0	0
1.20856	452	0	0
1.20934	452	0	0
1.21105	452	0	0
1.21278	452	0	0
1.21456	452	0	0
1.2163	452	0	0
1.21778	452	0	0
1.21802	452	0	0
1.2189	452	0	0
1.21927	453	1	0
1.2213	455	0	0
1.22591	455	0	0
1.2266	455	0	0
1.2267	455	0	0
1.23085	455	0	0
1.23266	455	0	0
1.23485	455	0	0
1.23507	455	0	0
1.23699	456	1	0
1.23712	456	1	0
1.23777	456	2	0
1.23788	457	3	0
1.23793	457	3	0
1.23797	459	2	0
1.23797	461	1	0
1.23865	461	1	0
1.23901	461	3	0
1.23919	463	2	0
1.23946	465	1	0
1.2409	466	1	0
1.24223	467	1	0
1.24734	467	1	0
1.24763	467	1	0
1.25749	468	2	0
1.2584	468	2	0
1.26199	468	2	0
1.26493	468	2	0
1.26498	468	2	0
1.26582	468	2	0
1.2659	469	2	0
1.26714	469	2	0
1.27101	469	2	0
1.27182	469	2	0
1.27202	470	2	0
1.27265	470	2	0
1.27269	470	2	0
1.27381	470	2	0
1.27388	471	3	0
1.27424	473	2	0
1.27491	473	2	0
1.2788	474	2	0
1.27927	474	2	0
1.28243	474	2	0
1.28525	474	2	0
1.28534	475	3	0
1.2886	477	2	0
1.2887	477	2	0
1.28979	477	2	0
1.29065	478	2	0
1.29172	478	2	0
1.29518	478	2	0
1.29666	478	2	0
1.29681	479	3	0
1.29802	481	2	0
1.29807	481	2	0
1.30164	481	2	0
1.30251	481	2	0
1.30291	481	2	0
1.30525	481	2	0
1.30555	481	3	0
1.30631	481	3	0
1.30636	482	4	0
1.30683	484	3	0
1.30767	486	2	0
1.30769	487	2	0
1.31075	487	2	0
1.31327	487	2	0
1.31518	488	2	0
1.31524	488	2	0
1.31611	488	2	0
1.32104	488	2	0
1.32282	488	2	0
1.32446	488	2	0
1.32695	488	2	0
1.3271	488	2	0
1.32736	488	2	0
1.32744	488	3	0
1.32782	489	4	0
1.32866	491	3	0
1.3305	493	2	0
1.33176	493	2	0
1.33178	493	2	0
1.33244	493	2	0
1.33316	493	2	0
1.33361	494	2	0
1.33578	495	2	0
1.33601	495	2	0
1.33647	495	3	0
1.33656	496	4	0
1.33696	498	3	0
1.33935	500	2	0
1.33969	500	2	0
1.34053	501	3	0
1.34441	503	2	0
1.34786	503	2	0
1.35086	503	2	0
1.35203	503	2	0
1.35312	503	2	0
1.35343	504	2	0
1.35415	504	2	0
1.35455	504	2	0
1.35455	505	3	0
1.3606	507	2	0
1.36277	508	2	0
1.36307	508	2	0
1.36344	508	3	0
1.36345	509	4	0
1.36347	511	3	0
1.36395	512	3	0
1.36459	514	2	0
1.37173	514	2	0
1.37455	514	2	0
1.3776	514	2	0
1.38284	514	2	0
1.38399	515	2	0
1.38935	515	2	0
1.38991	515	2	0
1.38999	516	3	0
1.39052	518	2	0
1.3907	518	2	0
1.39075	518	2	0
1.39077	519	3	0
1.39223	521	2	0
1.39714	521	2	0
1.39811	521	2	0
1.39842	521	2	0
1.39857	521	4	0
1.39872	523	3	0
1.39884	525	2	0
1.40004	525	2	0
1.40057	525	2	0
1.40385	525	2	0
1.4098	525	2	0
1.41414	525	2	0
1.41515	525	2	0
1.41537	526	2	0
1.41602	526	2	0
1.41609	526	2	0
1.41642	526	2	0
1.41731	526	3	0
1.41738	527	4	0
1.41761	529	3	0
1.41835	531	2	0
1.41917	531	2	0
1.42042	531	2	0
1.42255	531	3	0
1.42263	532	4	0
1.42302	534	3	0
1.42464	536	2	0
1.42586	536	2	0
1.43025	536	2	0
1.43655	536	2	0
1.43987	536	2	0
1.43996	536	2	0
1.44054	536	2	0
1.4408	537	3	0
1.44442	539	2	0
1.4467	539	2	0
1.44671	539	2	0
1.44693	540	3	0
1.45255	542	2	0
1.45352	542	2	0
1.46838	542	2	0
1.47931	542	2	0
1.48187	542	2	0
1.48272	542	2	0
1.48324	542	2	0
1.48453	543	2	0
1.48484	544	2	0
1.48549	545	2	0
1.48582	545	2	0
1.48886	545	2	0
1.49209	545	2	0
1.49287	545	2	0
1.49294	545	4	0
1.49324	547	3	0
1.49539	549	2	0
1.49618	551	2	0
1.4988	551	2	0
1.50231	551	2	0
1.50266	552	2	0
1.50505	552	2	0
1.50534	552	2	0
1.50655	552	2	0
1.50734	552	2	0
1.51053	552	2	0
1.51221	552	2	0
1.51315	553	3	0
1.51719	555	2	0
1.52282	555	2	0
1.52382	555	2	0
1.524	556	3	0
1.52906	558	2	0
1.53133	558	2	0
1.53141	559	2	0
1.53248	559	2	0
1.53338	559	2	0
1.53404	559	2	0
1.53519	559	2	0
1.53732	559	2	0
1.53764	559	2	0
1.54444	559	2	0
1.54729	559	2	0
1.54732	559	2	0
1.54747	560	3	0
1.55155	562	2	0
1.55678	562	2	0
1.55728	562	2	0
1.55734	562	2	0
1.55837	562	3	0
1.55839	563	4	0
1.55859	563	6	0
1.55863	565	5	0
1.55917	567	4	0
1.55985	569	3	0
1.5602	571	2	0
1.56287	571	2	0
1.57002	571	2	0
1.58038	571	2	0
1.58065	571	2	0
1.58724	571	2	0
1.58802	571	2	0
1.58855	572	3	0
1.58868	574	2	0
1.59097	574	2	0
1.59351	574	2	0
1.59352	574	2	0
1.5947	574	2	0
1.59506	574	3	0
1.59509	575	4	0
1.59519	577	3	0
1.59674	579	2	0
1.59717	579	2	0
1.60151	579	2	0
1.60156	579	2	0
1.60165	580	3	0
1.61513	582	2	0
1.61688	582	2	0
1.6176	582	2	0
1.6248	582	2	0
1.62671	582	2	0
1.62882	582	2	0
1.62902	582	4	0
1.62945	584	3	0
1.63378	586	2	0
1.63408	586	2	0
1.63621	586	3	0
1.63626	587	4	0
1.63658	589	3	0
1.63818	591	2	0
1.63835	591	2	0
1.64117	591	3	0
1.64131	592	4	0
1.64154	594	3	0
1.64804	596	2	0
1.65349	596	2	0
1.65537	596	2	0
1.65728	597	2	0
1.66159	597	2	0
1.66176	597	2	0
1.66255	597	2	0
1.66976	597	2	0
1.67199	597	2	0
1.67402	597	2	0
1.67645	598	2	0
1.67794	598	2	0
1.67809	598	2	0
1.67865	598	3	0
1.6787	599	4	0
1.6789	601	3	0
1.67916	602	4	0
1.67944	604	3	0
1.67989	604	3	0
1.68268	606	2	0
1.68304	607	2	0
1.68369	609	2	0
1.69697	609	2	0
1.71001	609	2	0
1.71047	609	2	0
1.71086	609	2	0
1.71159	609	2	0
1.71561	609	2	0
1.7164	609	2	0
1.7171	609	2	0
1.71737	610	3	0
1.71977	612	2	0
1.72179	612	2	0
1.72205	612	2	0
1.72227	612	2	0
1.72284	613	3	0
1.723	613	3	0
1.72377	615	2	0
1.72633	615	2	0
1.7352	615	2	0
1.73925	615	2	0
1.73941	615	2	0
1.73975	615	2	0
1.73982	615	4	0
1.7409	617	3	0
1.74479	619	2	0
1.74599	619	2	0
1.74813	619	2	0
1.75536	619	2	0
1.75543	619	2	0
1.75697	620	2	0
1.75811	620	2	0
1.76623	620	2	0
1.76941	620	2	0
1.78726	620	2	0
1.79343	620	2	0
1.79439	620	2	0
1.79879	620	2	0
1.80496	621	2	0
1.81274	621	2	0
1.81329	621	2	0
1.82147	621	2	0
1.82267	621	2	0
1.82345	623	2	0
1.824	624	2	0
1.82499	624	2	0
1.82509	624	2	0
1.82633	624	2	0
1.828	624	3	0
1.82804	625	4	0
1.82926	627	3	0
1.82977	629	2	0
1.82989	629	2	0
1.83026	629	3	0
1.83044	629	3	0
1.83048	630	4	0
1.83056	632	3	0
1.83938	634	2	0
1.85268	634	2	0
1.86093	634	2	0
1.86133	634	2	0
1.86309	634	2	0
1.86415	636	2	0
1.8652	636	2	0
1.8653	636	4	0
1.86561	636	4	0
1.87113	638	3	0
1.87115	638	3	0
1.87121	639	4	0
1.87476	641	3	0
1.87712	641	3	0
1.87751	641	3	0
1.88044	641	3	0
1.88192	641	3	0
1.88523	641	3	0
1.88562	641	3	0
1.88988	641	3	0
1.89012	641	3	0
1.89038	641	3	0
1.89049	642	4	0
1.89097	644	3	0
1.90149	644	3	0
1.90194	644	3	0
1.90399	644	3	0
1.9082	644	3	0
1.91467	644	3	0
1.91497	644	3	0
1.91499	644	5	0
1.91515	646	4	0
1.91616	648	3	0
1.92275	648	3	0
1.93191	648	3	0
1.93624	649	3	0
1.93714	650	3	0
1.93724	650	3	0
1.93774	650	3	0
1.93842	651	4	0
1.95169	653	3	0
1.95731	653	3	0
1.96592	653	3	0
1.96744	653	3	0
1.96855	653	3	0
1.96916	653	3	0
1.97196	653	3	0
1.97326	653	3	0
1.97842	653	3	0
1.98116	653	3	0
1.98127	653	3	0
1.98194	654	4	0
1.98272	654	4	0
1.98795	656	3	0
1.98798	656	3	0
1.99095	656	3	0
1.99785	656	3	0
1.99863	656	3	0
1.9995	656	3	0
1.99955	656	4	0
1.99975	657	5	0
2.00014	659	4	0
2.01318	661	3	0
2.01481	661	3	0
2.01981	661	3	0
2.02018	661	3	0
2.02207	661	3	0
2.02316	663	3	0
2.02517	663	3	0
2.02758	664	3	0
2.02782	665	4	0
2.03256	667	3	0
2.04045	667	3	0
2.04295	667	3	0
2.04344	667	3	0
2.04702	667	4	0
2.04709	668	5	0
2.04798	670	4	0
2.05046	672	3	0
2.05495	672	3	0
2.07595	672	3	0
2.07657	672	3	0
2.07761	672	3	0
2.078	673	4	0
2.08202	675	3	0
2.08295	675	3	0
2.0915	675	3	0
2.09151	675	3	0
2.09152	676	4	0
2.0938	678	3	0
2.09593	678	3	0
2.09675	678	3	0
2.09685	679	4	0
2.10086	681	3	0
2.10755	681	3	0
2.11117	681	3	0
2.11294	681	3	0
2.11333	681	3	0
2.11359	681	3	0
2.11375	682	4	0
2.1145	684	3	0
2.11652	684	3	0
2.11671	685	4	0
2.11775	687	3	0
2.12576	687	3	0
2.12594	687	3	0
2.13114	687	3	0
2.13852	688	3	0
2.14203	688	3	0
2.14451	688	3	0
2.14546	688	3	0
2.14714	688	4	0
2.14722	689	5	0
2.14733	691	4	0
2.14907	693	3	0
2.14935	693	3	0
2.14936	694	4	0
2.15052	696	3	0
2.15332	696	3	0
2.15346	696	3	0
2.15435	696	5	0
2.15473	698	4	0
2.15967	700	3	0
2.16169	701	3	0
2.16523	701	3	0
2.16665	701	3	0
2.16694	701	3	0
2.16729	701	4	0
2.16732	702	5	0
2.16734	704	4	0
2.16936	706	3	0
2.16957	706	3	0
2.17069	707	4	0
2.17266	709	3	0
2.17388	709	3	0
2.17996	709	3	0
2.18392	709	3	0
2.18536	709	3	0
2.18559	710	4	0
2.18738	712	3	0
2.18844	712	3	0
2.18907	713	4	0
2.19147	715	3	0
2.19632	715	3	0
2.19777	715	3	0
2.19803	716	4	0
2.19846	718	3	0
2.19875	718	3	0
2.2005	718	3	0
2.20056	718	3	0
2.20078	719	4	0
2.2009	721	3	0
2.20613	721	3	0
2.21039	721	3	0
2.21686	721	3	0
2.21871	722	3	0
2.21897	722	3	0
2.21946	722	3	0
2.22035	722	4	0
2.22036	723	5	0
2.22052	725	4	0
2.22687	727	3	0
2.22925	727	3	0
2.22996	727	3	0
2.23044	728	4	0
2.23491	730	3	0
2.24113	730	3	0
2.2479	730	3	0
2.2495	730	3	0
2.24964	731	4	0
2.25257	733	3	0
2.25367	733	3	0
2.25532	733	3	0
2.25543	733	5	0
2.25629	735	4	0
2.25632	737	3	0
2.25937	737	3	0
2.25944	737	3	0
2.26307	737	3	0
2.26684	737	3	0
2.26793	737	3	0
2.26807	737	4	0
2.26812	738	5	0
2.26813	740	4	0
2.26875	740	4	0
2.2757	742	3	0
2.2764	742	3	0
2.27733	742	3	0
2.27736	742	3	0
2.27842	742	3	0
2.27851	743	4	0
2.27895	744	5	0
2.27938	746	4	0
2.28224	748	3	0
2.29249	748	3	0
2.30013	748	3	0
2.30187	748	3	0
2.3022	748	4	0
2.3023	749	5	0
2.30264	751	4	0
2.30698	753	3	0
2.31336	753	3	0
2.31408	753	3	0
2.31555	753	4	0
2.31591	754	5	0
2.31603	756	4	0
2.3162	758	3	0
2.31834	758	3	0
2.32368	758	3	0
2.33631	758	3	0
2.34223	758	3	0
2.34878	758	3	0
2.35039	758	3	0
2.35136	758	3	0
2.35225	759	3	0
2.35309	760	3	0
2.35506	761	4	0
2.3572	763	3	0
2.35757	763	3	0
2.36102	763	3	0
2.36831	763	3	0
2.3698	763	3	0
2.37045	763	3	0
2.37052	763	5	0
2.3707	765	4	0
2.3761	767	3	0
2.383	767	3	0
2.38916	767	3	0
2.39197	767	3	0
2.39467	767	3	0
2.3949	769	3	0
2.39666	769	3	0
2.39682	769	3	0
2.40153	769	3	0
2.41214	769	3	0
2.41214	769	3	0
2.41565	769	3	0
2.41671	769	3	0
2.41739	769	3	0
2.42021	769	3	0
2.42136	769	3	0
2.4216	769	4	0
2.42234	771	3	0
2.42366	771	3	0
2.42568	771	3	0
2.42605	771	3	0
2.42626	772	4	0
2.42809	774	3	0
2.42813	774	3	0
2.42867	775	4	0
2.42893	777	3	0
2.42944	777	5	0
2.42959	779	4	0
2.43535	781	3	0
2.44249	783	3	0
2.44361	783	3	0
2.44477	783	3	0
2.44693	783	3	0
2.44701	783	5	0
2.44778	785	4	0
2.45162	787	3	0
2.45361	787	3	0
2.45555	787	3	0
2.45633	787	3	0
2.45822	787	3	0
2.46721	787	3	0
2.46796	787	3	0
2.47293	787	3	0
2.47515	787	3	0
2.48415	787	3	0
2.48459	787	3	0
2.48665	787	3	0
2.48743	787	3	0
2.48937	787	3	0
2.48982	787	3	0
2.49027	787	5	0
2.49054	789	4	0
2.49496	791	3	0
2.49846	791	3	0
2.50069	791	3	0
2.50152	791	3	0
2.5019	792	4	0
2.51286	794	3	0
2.51426	795	3	0
2.5266	795	3	0
2.52819	795	3	0
2.52927	795	3	0
2.52938	795	4	0
2.53158	795	4	0
2.5316	796	5	0
2.53211	798	4	0
2.53839	800	3	0
2.53915	800	3	0
2.54101	800	4	0
2.54101	801	5	0
2.54126	803	4	0
2.54916	805	3	0
2.55743	807	2	0
2.55746	807	2	0
2.55868	807	2	0
2.55876	808	3	0
2.56817	810	2	0
2.57257	810	2	0
2.57334	810	2	0
2.57549	810	3	0
2.576	811	4	0
2.57615	813	3	0
2.57678	813	3	0
2.57951	815	2	0
2.58451	815	2	0
2.58617	815	2	0
2.58646	815	4	0
2.58697	817	3	0
2.58715	817	3	0
2.58806	817	3	0
2.59017	819	2	0
2.59096	819	2	0
2.59105	819	2	0
2.59132	820	3	0
2.59579	822	2	0
2.61027	822	2	0
2.61246	822	2	0
2.61285	822	2	0
2.62022	822	2	0
2.62348	822	2	0
2.62458	822	2	0
2.62918	822	2	0
2.6304	822	2	0
2.63054	822	4	0
2.63145	824	3	0
2.63165	824	3	0
2.63663	826	2	0
2.64456	826	2	0
2.6473	826	2	0
2.64809	826	2	0
2.64917	826	2	0
2.64927	826	3	0
2.64944	827	4	0
2.64968	829	3	0
2.65838	831	2	0
2.66109	831	2	0
2.66338	831	2	0
2.66651	831	2	0
2.66723	832	3	0
2.67013	834	2	0
2.67429	835	2	0
2.6782	835	2	0
2.68319	835	2	0
2.68438	835	2	0
2.68443	835	4	0
2.68468	837	3	0
2.70154	839	2	0
2.71384	839	2	0
2.72285	839	2	0
2.72312	839	2	0
2.72678	839	3	0
2.7268	840	4	0
2.72737	842	3	0
2.72866	844	2	0
2.72875	844	2	0
2.72878	844	4	0
2.72904	846	3	0
2.72966	848	2	0
2.73135	848	2	0
2.73171	848	4	0
2.73223	850	3	0
2.73236	852	2	0
2.73272	854	1	0
2.73355	854	1	0
2.73388	855	2	0
2.73673	857	1	0
2.7384	857	1	0
2.73848	857	1	0
2.74286	857	1	0
2.7476	859	1	0
2.74995	859	1	0
2.75039	859	2	0
2.75061	859	2	0
2.75089	859	2	0
2.75148	859	3	0
2.75149	860	4	0
2.75155	861	5	0
2.75176	863	4	0
2.75183	865	3	0
2.75192	867	2	0
2.75276	869	1	0
2.75495	869	1	0
2.76554	869	1	0
2.76807	869	1	0
2.7692	869	1	0
2.77177	869	1	0
2.77197	869	2	0
2.77215	870	3	0
2.77226	872	2	0
2.77548	874	1	0
2.77568	874	1	0
2.77837	874	1	0
2.7802	874	1	0
2.78985	874	1	0
2.79055	874	1	0
2.79151	874	1	0
2.79179	875	2	0
2.79874	877	1	0
2.79987	877	1	0
2.81697	878	1	0
2.81969	878	1	0
2.81975	878	1	0
2.81992	878	1	0
2.81995	879	2	0
2.82013	880	3	0
2.82096	882	2	0
2.82119	884	1	0
2.82658	884	1	0
2.82834	884	1	0
2.83335	884	1	0
2.8378	884	1	0
2.84024	884	1	0
2.84192	884	1	0
2.86604	884	1	0
2.87434	884	1	0
2.88315	884	1	0
2.8832	884	1	0
2.88728	884	1	0
2.89048	884	1	0
2.90417	884	1	0
2.90591	886	1	0
2.90709	886	1	0
2.90713	886	3	0
2.90749	888	2	0
2.91591	890	1	0
2.91684	890	1	0
2.91691	891	2	0
2.92066	893	1	0
2.92978	893	1	0
2.96914	893	1	0
2.96925	893	1	0
2.98031	893	1	0
2.98691	893	1	0
2.99211	893	1	0
2.99408	893	1	0
2.99722	893	1	0
2.99751	893	3	0
2.99768	895	2	0
3.00445	897	1	0
3.00626	897	1	0
3.00737	897	1	0
3.0085	898	2	0
3.01588	900	1	0
3.0167	900	1	0
3.01684	901	2	0
3.03912	903	1	0
3.05199	903	1	0
3.05493	903	1	0
3.05629	903	1	0
3.05904	903	1	0
3.06314	903	1	0
3.06382	903	1	0
3.08146	903	1	0
3.08239	903	1	0
3.08261	903	3	0
3.08291	905	2	0
3.08659	907	1	0
3.09097	907	1	0
3.0918	907	1	0
3.0921	907	3	0
3.09216	909	2	0
3.09533	911	1	0
3.1006	911	1	0
3.10623	911	1	0
3.10651	911	1	0
3.10793	911	1	0
3.11606	911	1	0
3.1162	911	1	0
3.11794	912	2	0
3.12663	912	2	0
3.12683	912	2	0
3.12696	913	3	0
3.12967	915	2	0
3.12988	915	2	0
3.13003	915	3	0
3.13006	916	4	0
3.13029	918	3	0
3.13311	920	2	0
3.13594	920	2	0
3.14928	920	2	0
3.17025	920	2	0
3.1709	920	2	0
3.17093	920	4	0
3.17098	922	3	0
3.18067	924	2	0
3.21178	924	2	0
3.21187	924	2	0
3.21336	924	2	0
3.21356	925	3	0
3.21397	927	2	0
3.21444	927	2	0
3.21939	927	2	0
3.21993	927	2	0
3.22025	927	4	0
3.22027	929	3	0
3.23053	931	2	0
3.23096	931	2	0
3.23153	932	3	0
3.25573	934	2	0
3.26246	934	2	0
3.27143	934	2	0
3.27169	934	2	0
3.2972	934	2	0
3.3041	934	2	0
3.30547	934	2	0
3.31131	934	2	0
3.31487	934	2	0
3.31875	936	2	0
3.32343	936	2	0
3.32481	936	2	0
3.32522	936	2	0
3.32599	936	2	0
3.3279	936	3	0
3.32793	937	4	0
3.32801	939	3	0
3.33243	941	2	0
3.33797	942	3	0
3.34441	942	3	0
3.35418	942	3	0
3.35572	942	3	0
3.3586	943	4	0
3.36259	943	4	0
3.36282	943	4	0
3.36286	943	6	0
3.36299	945	5	0
3.36928	947	4	0
3.39424	947	4	0
3.39442	947	4	0
3.39489	947	4	0
3.39502	948	5	0
3.39761	950	4	0
3.40265	950	4	0
3.40332	950	4	0
3.40407	951	5	0
3.4111	953	4	0
3.42041	955	4	0
3.4211	955	4	0
3.42193	955	5	0
3.42206	956	6	0
3.42249	958	5	0
3.42599	960	4	0
3.45026	960	4	0
3.4506	960	4	0
3.45076	960	5	0
3.45077	961	6	0
3.4509	963	5	0
3.46001	965	4	0
3.46018	965	4	0
3.46089	965	4	0
3.47033	965	4	0
3.47885	967	3	0
3.50048	967	3	0
3.52457	967	3	0
3.52593	967	3	0
3.52608	968	4	0
3.55314	970	3	0
3.55393	970	3	0
3.55417	970	5	0
3.55483	972	4	0
3.57222	974	3	0
3.57225	974	3	0
3.57242	975	4	0
3.59746	977	3	0
3.61062	977	3	0
3.61102	977	3	0
3.61327	977	3	0
3.61404	977	3	0
3.616	977	3	0
3.62774	977	3	0
3.63341	977	3	0
3.64588	977	3	0
3.66004	977	3	0
3.66018	977	3	0
3.68852	977	3	0
3.69433	977	3	0
3.72277	977	3	0
3.72303	977	3	0
3.72467	977	4	0
3.73605	977	4	0
3.75594	977	4	0
3.75611	977	4	0
3.75767	979	3	0
3.75768	979	3	0
3.75791	980	4	0
3.76487	982	3	0
3.80655	982	3	0
3.80865	982	3	0
3.80883	983	4	0
3.80889	983	4	0
3.80891	985	3	0
3.80904	986	4	0
3.83062	988	3	0
3.83116	988	3	0
3.83145	989	4	0
3.8486	991	3	0
3.85111	991	3	0
3.85183	992	4	0
3.86042	994	3	0
3.86207	994	3	0
3.88676	994	3	0
3.90451	994	3	0
3.92582	994	3	0
3.92645	994	3	0
3.92671	995	4	0
3.94594	997	3	0
3.95215	998	3	0
3.95217	998	3	0
3.95242	998	4	0
3.95271	998	4	0
3.95344	999	5	0
3.95392	1001	4	0
3.95452	1003	3	0
3.95457	1003	3	0
3.95513	1004	4	0
3.97416	1006	3	0
3.99769	1006	3	0
3.99823	1006	3	0
3.99829	1006	5	0
3.99842	1008	4	0
4.01212	1010	3	0
4.0129	1010	3	0
4.01344	1010	4	0
4.01359	1011	5	0
4.01384	1013	4	0
4.02992	1015	3	0
4.06328	1015	3	0
4.06415	1015	3	0
4.06429	1016	4	0
4.06975	1018	3	0
4.07198	1020	2	0
4.07377	1020	2	0
4.08175	1020	2	0
4.08185	1020	2	0
4.08262	1021	3	0
4.09083	1023	2	0
4.09948	1024	2	0
4.10043	1024	2	0
4.10169	1025	3	0
4.12287	1027	2	0
4.12891	1027	2	0
4.12953	1027	2	0
4.1316	1027	2	0
4.13193	1028	3	0
4.1448	1030	2	0
4.14526	1030	2	0
4.16088	1030	2	0
4.17507	1030	2	0
4.18445	1030	2	0
4.19178	1030	2	0
4.19719	1030	2	0
4.20588	1030	2	0
4.2064	1030	2	0
4.20711	1031	3	0
4.21584	1033	2	0
4.2346	1033	2	0
4.235	1033	2	0
4.23519	1033	2	0
4.23532	1034	3	0
4.24457	1036	2	0
4.26206	1036	2	0
4.26589	1036	2	0
4.26625	1036	2	0
4.26706	1037	3	0
4.27346	1039	2	0
4.29039	1039	2	0
4.29165	1039	2	0
4.29191	1039	4	0
4.29229	1041	3	0
4.3204	1043	2	0
4.32057	1043	2	0
4.32061	1044	3	0
4.33141	1046	2	0
4.33146	1046	2	0
4.33166	1046	2	0
4.3319	1047	3	0
4.33329	1049	2	0
4.33412	1050	3	0
4.33433	1052	2	0
4.33449	1052	2	0
4.34494	1053	3	0
4.34504	1053	3	0
4.3453	1054	4	0
4.36451	1056	3	0
4.36555	1056	3	0
4.36576	1057	4	0
4.37846	1059	3	0
4.42112	1059	3	0
4.43635	1061	2	0
4.44656	1061	2	0
4.44781	1061	2	0
4.44849	1062	3	0
4.44936	1064	2	0
4.47543	1064	2	0
4.47545	1064	2	0
4.47591	1064	3	0
4.47597	1065	4	0
4.47608	1067	3	0
4.51583	1069	2	0
4.51607	1069	2	0
4.52259	1069	2	0
4.52293	1069	3	0
4.52311	1070	4	0
4.5237	1072	3	0
4.53968	1074	2	0
4.54003	1074	2	0
4.54012	1074	4	0
4.54026	1076	3	0
4.54113	1078	2	0
4.57295	1078	2	0
4.59141	1078	2	0
4.60557	1078	2	0
4.60558	1078	2	0
4.60578	1078	4	0
4.60608	1080	3	0
4.61495	1082	2	0
4.61602	1082	2	0
4.61647	1083	3	0
4.65834	1085	2	0
4.66678	1085	2	0
4.6671	1085	2	0
4.66797	1085	3	0
4.66847	1086	4	0
4.6685	1088	3	0
4.67836	1090	2	0
4.70317	1090	2	0
4.71329	1090	2	0
4.7146	1090	2	0
4.7152	1090	4	0
4.71526	1092	3	0
4.73339	1094	2	0
4.73375	1094	2	0
4.73432	1095	3	0
4.73617	1097	2	0
4.75793	1097	2	0
4.81496	1097	2	0
4.81562	1097	2	0
4.81568	1097	4	0
4.81676	1099	3	0
4.82639	1101	2	0
4.82705	1101	2	0
4.82707	1101	4	0
4.82724	1103	3	0
4.83794	1105	2	0
4.87662	1105	2	0
4.88767	1105	2	0
4.88777	1105	2	0
4.88778	1105	4	0
4.88806	1107	3	0
4.88871	1109	2	0
4.88884	1109	2	0
4.88898	1110	3	0
4.89241	1112	2	0
4.89467	1112	2	0
4.89481	1112	4	0
4.94433	1114	3	0
4.95019	1114	3	0
5.02424	1114	3	0
5.03198	1114	3	0
5.04398	1114	3	0
5.08321	1114	3	0
5.08331	1114	3	0
5.08386	1115	4	0
5.10552	1117	3	0
5.10596	1117	3	0
5.10596	1117	5	0
5.10692	1119	4	0
5.12364	1121	3	0
5.12522	1121	3	0
5.12536	1122	4	0
5.1643	1124	3	0
5.16513	1124	3	0
5.16514	1124	3	0
5.16601	1124	4	0
5.16622	1125	5	0
5.16637	1127	4	0
5.18229	1129	3	0
5.18251	1129	3	0
5.18257	1130	4	0
5.18912	1132	3	0
5.19863	1132	3	0
5.21133	1132	3	0
5.22914	1132	3	0
5.23102	1132	3	0
5.23136	1132	4	0
5.23217	1133	5	0
5.2324	1135	4	0
5.24259	1137	3	0
5.24534	1137	3	0
5.25939	1137	3	0
5.27256	1137	3	0
5.27592	1137	3	0
5.28916	1137	3	0
5.28935	1137	3	0
5.29008	1137	4	0
5.29056	1138	5	0
5.29159	1140	4	0
5.29363	1142	3	0
5.33224	1142	3	0
5.35017	1142	3	0
5.35053	1142	3	0
5.35056	1142	5	0
5.35061	1144	4	0
5.37688	1146	3	0
5.38006	1146	3	0
5.38017	1146	4	0
5.38029	1147	5	0
5.38146	1149	4	0
5.43944	1151	3	0
5.43964	1151	3	0
5.43972	1151	5	0
5.44009	1153	4	0
5.45431	1155	3	0
5.45636	1155	3	0
5.45645	1156	4	0
5.46404	1158	3	0
5.46413	1158	3	0
5.4644	1159	4	0
5.47797	1161	3	0
5.48125	1161	3	0
5.48165	1161	3	0
5.48184	1161	5	0
5.48254	1163	4	0
5.5057	1165	3	0
5.50658	1165	3	0
5.50706	1166	4	0
5.51698	1168	3	0
5.52579	1168	3	0
5.52651	1168	3	0
5.52675	1169	4	0
5.56254	1171	3	0
5.56597	1171	3	0
5.56731	1172	4	0
5.65131	1174	3	0
5.67574	1174	3	0
5.67586	1174	3	0
5.67608	1174	4	0
5.67623	1175	5	0
5.67634	1177	4	0
5.67915	1179	3	0
5.70777	1179	3	0
5.70923	1179	3	0
5.71056	1179	4	0
5.71092	1180	5	0
5.71114	1182	4	0
5.73531	1184	3	0
5.73581	1184	3	0
5.73582	1184	5	0
5.73723	1186	4	0
5.73973	1188	3	0
5.74149	1188	3	0
5.74159	1188	4	0
5.74182	1189	5	0
5.74197	1191	4	0
5.77517	1193	3	0
5.77518	1193	3	0
5.77569	1194	4	0
5.79493	1196	3	0
5.80739	1196	3	0
5.8095	1196	3	0
5.80953	1197	4	0
5.83645	1199	3	0
5.87529	1199	3	0
5.89062	1199	3	0
5.89163	1199	3	0
5.93349	1199	3	0
5.93436	1201	2	0
6.00264	1201	2	0
6.00317	1201	2	0
6.00338	1202	3	0
6.011	1204	2	0
6.01249	1204	2	0
6.01279	1205	3	0
6.04855	1207	2	0
6.0491	1207	2	0
6.04913	1207	4	0
6.04951	1209	3	0
6.05211	1211	2	0
6.05235	1211	2	0
6.05258	1211	3	0
6.0526	1212	4	0
6.05292	1214	3	0
6.07792	1216	2	0
6.10115	1216	2	0
6.10183	1216	2	0
6.10195	1217	3	0
6.13883	1219	2	0
6.1395	1219	2	0
6.14347	1219	3	0
6.1435	1220	4	0
6.14364	1222	3	0
6.15921	1224	2	0
6.15989	1224	2	0
6.16048	1224	4	0
6.16079	1226	3	0
6.16244	1228	2	0
6.16656	1228	2	0
6.16805	1229	3	0
6.17755	1231	2	0
6.1785	1231	2	0
6.17877	1231	4	0
6.17883	1233	3	0
6.18326	1235	2	0
6.1872	1235	2	0
6.18736	1235	3	0
6.18782	1236	4	0
6.18839	1238	3	0
6.21355	1240	2	0
6.21451	1240	2	0
6.21504	1241	3	0
6.22524	1243	2	0
6.23184	1243	2	0
6.23301	1243	2	0
6.23326	1243	4	0
6.23407	1245	3	0
6.24242	1247	2	0
6.25207	1247	2	0
6.25221	1247	2	0
6.25242	1247	4	0
6.25297	1249	3	0
6.25396	1251	2	0
6.32407	1251	2	0
6.32435	1251	2	0
6.32438	1251	4	0
6.34865	1253	3	0
6.34988	1253	3	0
6.3503	1254	4	0
6.35233	1256	3	0
6.35358	1256	3	0
6.35379	1256	5	0
6.35453	1258	4	0
6.44989	1260	3	0
6.45308	1260	3	0
6.45355	1261	4	0
6.50026	1263	3	0
6.50074	1263	3	0
6.50251	1264	4	0
6.50574	1266	3	0
6.58995	1266	3	0
6.63176	1266	3	0
6.6631	1266	3	0
6.67062	1266	3	0
6.67193	1266	3	0
6.67346	1267	4	0
6.72634	1269	3	0
6.7269	1269	3	0
6.72722	1269	4	0
6.72741	1270	5	0
6.72753	1272	4	0
6.72871	1274	3	0
6.78808	1274	3	0
6.78983	1274	3	0
6.79014	1275	4	0
6.79104	1277	3	0
6.79166	1277	3	0
6.7928	1278	4	0
6.82734	1280	3	0
6.82772	1280	3	0
6.82776	1280	5	0
6.828	1282	4	0
6.88122	1284	3	0
6.88147	1284	3	0
6.88171	1285	4	0
6.90173	1287	3	0
6.90289	1287	3	0
6.90405	1287	3	0
6.90439	1288	4	0
6.92148	1290	3	0
7.04531	1290	3	0
7.07522	1290	3	0
7.08226	1290	3	0
7.08317	1290	3	0
7.08817	1290	4	0
7.0882	1291	5	0
7.08837	1293	4	0
7.1078	1295	3	0
7.10817	1295	3	0
7.10844	1296	4	0
7.14021	1298	3	0
7.14137	1298	3	0
7.14156	1298	5	0
7.14237	1300	4	0
7.14588	1302	3	0
7.14602	1302	3	0
7.14618	1303	4	0
7.15877	1305	3	0
7.16789	1305	3	0
7.18265	1305	3	0
7.24218	1305	3	0
7.24267	1305	3	0
7.24278	1305	3	0
7.24823	1305	3	0
7.24901	1305	4	0
7.24902	1306	5	0
7.24912	1308	4	0
7.25673	1310	3	0
7.25717	1310	3	0
7.25719	1311	4	0
7.29262	1313	3	0
7.29265	1313	3	0
7.31861	1314	4	0
7.31926	1314	4	0
7.31946	1314	5	0
7.31974	1315	6	0
7.31978	1317	5	0
7.32468	1319	4	0
7.33151	1319	4	0
7.33745	1319	4	0
7.33811	1319	4	0
7.34004	1319	5	0
7.34025	1320	6	0
7.34095	1322	5	0
7.36185	1324	4	0
7.37576	1324	4	0
7.37611	1324	4	0
7.37687	1325	5	0
7.40322	1327	4	0
7.44274	1327	4	0
7.50356	1327	4	0
7.50467	1327	4	0
7.50653	1327	4	0
7.50664	1327	6	0
7.50665	1329	5	0
7.52355	1331	4	0
7.52451	1331	4	0
7.52531	1331	5	0
7.52585	1331	5	0
7.52832	1333	4	0
7.62388	1333	4	0
7.62467	1333	4	0
7.62487	1334	5	0
7.6429	1336	4	0
7.64402	1336	4	0
7.6445	1337	5	0
7.67967	1339	4	0
7.68031	1339	4	0
7.6805	1340	5	0
7.68651	1342	4	0
7.70272	1342	4	0
7.71336	1342	4	0
7.71482	1344	3	0
7.71496	1344	3	0
7.7161	1344	4	0
7.71626	1345	5	0
7.71635	1347	4	0
7.79443	1349	3	0
7.79731	1349	3	0
7.79734	1349	5	0
7.79767	1351	4	0
7.85337	1353	3	0
7.85402	1353	3	0
7.85434	1354	4	0
7.86612	1356	3	0
7.86636	1356	3	0
7.9143	1357	4	0
7.91432	1357	4	0
7.91501	1358	5	0
7.93207	1360	4	0
7.97643	1362	3	0
7.97653	1362	3	0
7.97694	1363	4	0
7.98815	1365	3	0
7.98914	1365	3	0
7.98933	1366	4	0
8.0006	1368	3	0
8.0014	1368	3	0
8.00146	1369	4	0
8.07512	1371	3	0
8.13067	1371	3	0
8.14341	1371	3	0
8.18543	1371	3	0
8.20345	1371	3	0
8.2046	1371	3	0
8.33112	1372	4	0
8.33282	1372	4	0
8.33294	1373	5	0
8.33334	1373	5	0
8.33474	1375	4	0
8.33547	1375	5	0
8.33586	1376	6	0
8.33618	1378	5	0
8.34342	1380	4	0
8.34461	1380	4	0
8.34467	1381	5	0
8.355	1383	4	0
8.35525	1383	4	0
8.35531	1384	5	0
8.39502	1386	4	0
8.39556	1386	4	0
8.39666	1386	5	0
8.39676	1387	6	0
8.39774	1389	5	0
8.4944	1391	4	0
8.5347	1391	4	0
8.53677	1391	4	0
8.53868	1391	5	0
8.53938	1392	6	0
8.53989	1394	5	0
8.56702	1396	4	0
8.56855	1396	4	0
8.56878	1396	5	0
8.56936	1397	6	0
8.56967	1399	5	0
8.5732	1401	4	0
8.58294	1403	3	0
8.58402	1403	3	0
8.60764	1404	4	0
8.60779	1404	4	0
8.6086	1404	6	0
8.60969	1406	5	0
8.61183	1408	4	0
8.63473	1408	4	0
8.63548	1408	4	0
8.63587	1409	5	0
8.64105	1411	4	0
8.6417	1411	4	0
8.64202	1411	4	0
8.64251	1412	5	0
8.64381	1414	4	0
8.64383	1415	5	0
8.65213	1417	4	0
8.654	1417	4	0
8.65427	1417	6	0
8.65428	1419	5	0
8.65591	1421	4	0
8.66941	1421	4	0
8.70062	1421	4	0
8.70382	1421	4	0
8.7039	1422	5	0
8.71098	1424	4	0
8.7115	1424	4	0
8.71173	1424	5	0
8.71191	1425	6	0
8.71215	1427	5	0
8.77942	1429	4	0
8.77948	1429	4	0
8.77971	1430	5	0
8.91352	1432	4	0
9.02504	1432	4	0
9.02641	1432	4	0
9.02642	1432	6	0
9.02662	1434	5	0
9.21571	1436	4	0
9.26218	1436	4	0
9.3183	1436	4	0
9.31872	1436	4	0
9.32065	1437	5	0
9.50186	1439	4	0
9.50656	1439	4	0
9.50666	1440	5	0
9.57093	1442	4	0
9.57176	1442	4	0
9.65625	1443	5	0
9.6624	1443	5	0
9.66309	1443	5	0
9.66364	1443	6	0
9.66368	1444	7	0
9.6639	1446	6	0
9.67657	1448	5	0
9.67659	1448	5	0
9.67677	1449	6	0
9.68442	1451	5	0
9.6849	1451	5	0
9.68506	1451	7	0
9.68534	1453	6	0
9.71697	1455	5	0
9.71714	1455	5	0
9.71714	1456	6	0
9.76032	1458	5	0
9.76126	1458	5	0
9.76216	1458	6	0
9.76324	1460	5	0
9.76331	1461	6	0
9.7639	1463	5	0
9.79204	1465	4	0
9.79317	1465	4	0
9.80473	1467	3	0
9.8051	1467	3	0
9.80521	1467	4	0
9.80569	1468	5	0
9.8063	1470	4	0
9.97087	1472	3	0
10.006	1474	2	0
10.0131	1474	2	0
10.0138	1474	2	0
10.015	1475	3	0
10.0304	1477	2	0
10.1678	1477	2	0
10.1685	1477	2	0
10.1686	1478	3	0
10.1913	1480	2	0
10.192	1480	2	0
10.192	1481	3	0
10.3143	1483	2	0
10.3176	1483	2	0
10.3179	1483	4	0
10.318	1485	3	0
10.3474	1487	2	0
10.3483	1487	2	0
10.3486	1488	3	0
10.3848	1490	2	0
10.3856	1490	2	0
10.3857	1490	4	0
10.3864	1492	3	0
10.3871	1494	2	0
10.3879	1494	2	0
10.388	1495	3	0
10.4105	1497	2	0
10.4112	1497	2	0
10.4123	1498	3	0
10.4227	1500	2	0
10.4261	1500	2	0
10.4387	1501	3	0
10.4388	1501	3	0
10.4425	1501	4	0
10.4426	1502	5	0
10.4429	1504	4	0
10.4529	1506	3	0
10.4541	1506	3	0
10.4541	1506	5	0
10.4563	1508	4	0
10.4885	1510	3	0
10.5373	1510	3	0
10.5386	1510	3	0
10.5387	1510	5	0
10.539	1512	4	0
10.5884	1514	3	0
10.5887	1514	3	0
10.5898	1515	4	0
10.917	1517	3	0
10.9179	1517	3	0
10.9181	1517	5	0
10.9185	1519	4	0
10.9526	1521	3	0
10.9531	1521	3	0
10.9532	1521	5	0
10.9534	1523	4	0
11.0107	1525	3	0
11.0134	1525	3	0
11.0135	1525	5	0
11.0141	1527	4	0
11.0392	1529	3	0
11.048	1531	2	0
11.049	1531	2	0
11.0492	1532	3	0
11.1262	1534	2	0
11.146	1534	2	0
11.1481	1534	2	0
11.1482	1534	4	0
11.1485	1536	3	0
11.2365	1538	2	0
11.237	1538	2	0
11.237	1538	4	0
11.2373	1540	3	0
11.3827	1542	2	0
11.3831	1542	2	0
11.3835	1543	3	0
11.6313	1545	2	0
11.6341	1545	2	0
11.6344	1546	3	0
11.6951	1548	2	0
11.7287	1548	2	0
11.7302	1548	2	0
11.7303	1549	3	0
11.747	1551	2	0
11.7471	1551	2	0
11.7472	1552	3	0
11.7803	1554	2	0
11.781	1554	2	0
11.7812	1555	3	0
11.7888	1557	2	0
11.7977	1557	2	0
11.7999	1557	2	0
11.8002	1558	3	0
11.9698	1560	2	0
12.1257	1560	2	0
12.1285	1560	2	0
12.1286	1561	3	0
12.135	1563	2	0
12.1368	1563	2	0
12.1368	1563	4	0
12.1368	1565	3	0
12.288	1567	2	0
12.2891	1567	2	0
12.2894	1568	3	0
12.5361	1570	2	0
12.5371	1570	2	0
12.5419	1571	3	0
12.5421	1571	3	0
12.5491	1572	4	0
12.5499	1572	4	0
12.7364	1573	5	0
12.7386	1573	5	0
12.7387	1573	7	0
12.7389	1575	6	0
12.9021	1577	5	0
12.9033	1577	5	0
12.9034	1577	5	0
12.904	1577	6	0
12.904	1578	7	0
12.9043	1580	6	0
12.9046	1582	5	0
12.9046	1582	7	0
12.9049	1584	6	0
13.0176	1586	5	0
13.0653	1586	5	0
13.0655	1586	5	0
13.0659	1586	6	0
13.0659	1587	7	0
13.066	1589	6	0
13.0903	1591	5	0
13.0944	1593	4	0
13.0974	1593	4	0
13.0976	1593	6	0
13.0985	1595	5	0
13.1328	1597	4	0
13.1332	1597	4	0
13.1333	1597	6	0
13.1333	1599	5	0
13.2914	1601	4	0
13.2926	1601	4	0
13.2942	1601	5	0
13.3483	1601	6	0
13.3488	1601	6	0
13.3496	1603	5	0
13.35	1604	6	0
13.3521	1606	5	0
13.4845	1608	4	0
13.485	1608	4	0
13.486	1608	4	0
13.4869	1609	5	0
13.487	1609	7	0
13.4876	1611	6	0
13.6117	1613	5	0
13.6276	1613	5	0
13.6849	1613	5	0
13.7066	1613	5	0
13.7066	1613	5	0
13.7067	1613	7	0
13.7069	1615	6	0
13.8516	1617	5	0
13.8685	1617	5	0
13.8688	1617	5	0
13.8692	1617	7	0
13.8694	1619	6	0
13.9117	1621	5	0
13.9119	1621	5	0
13.9131	1621	7	0
13.9149	1623	6	0
14.0187	1625	5	0
14.0517	1627	4	0
14.0532	1627	4	0
14.0781	1628	5	0
14.0786	1628	5	0
14.0789	1629	6	0
14.2836	1631	5	0
14.2911	1631	5	0
14.2913	1631	7	0
14.2913	1633	6	0
14.2927	1635	5	0
14.2931	1635	5	0
14.2934	1636	6	0
14.3466	1638	5	0
14.3491	1638	5	0
14.3727	1639	6	0
14.3745	1639	6	0
14.3747	1639	6	0
14.3747	1640	7	0
14.3753	1642	6	0
14.3765	1643	7	0
14.3872	1645	6	0
14.3883	1645	6	0
14.3883	1646	7	0
14.4484	1648	6	0
14.4519	1648	6	0
14.452	1649	7	0
14.4733	1651	6	0
14.4972	1651	6	0
14.4985	1651	6	0
14.4998	1652	7	0
14.5212	1654	6	0
14.5218	1654	6	0
14.5224	1655	7	0
14.5272	1657	6	0
14.7555	1657	6	0
14.8749	1657	6	0
14.8753	1657	6	0
14.8755	1657	8	0
14.876	1659	7	0
14.883	1661	6	0
14.8835	1661	6	0
14.8841	1661	7	0
14.8844	1662	8	0
14.8844	1664	7	0
14.8856	1666	6	0
14.8868	1666	6	0
14.8868	1667	7	0
14.9797	1669	6	0
15.0599	1669	6	0
15.0846	1671	5	0
15.0852	1671	5	0
15.2068	1672	6	0
15.3108	1672	6	0
15.3113	1672	6	0
15.3119	1673	7	0
15.5046	1675	6	0
15.5433	1677	5	0
15.9051	1679	4	0
16.4712	1681	3	0
16.4721	1681	3	0
16.6462	1682	4	0
16.6475	1682	4	0
16.6476	1683	5	0
16.7577	1685	4	0
16.7589	1685	4	0
16.7703	1685	5	0
16.7709	1685	5	0
16.7732	1685	6	0
16.7733	1686	7	0
16.7734	1688	6	0
16.7756	1690	5	0
16.7758	1690	5	0
16.7761	1690	7	0
16.7769	1692	6	0
16.9797	1694	5	0
16.9801	1696	4	0
17.1206	1698	3	0
17.2249	1700	2	0
17.2255	1700	2	0
17.2256	1700	4	0
17.226	1702	3	0
17.2336	1704	2	0
17.2341	1704	2	0
17.2341	1705	3	0
17.2899	1707	2	0
17.2902	1707	2	0
17.2902	1707	4	0
17.2903	1709	3	0
17.313	1711	2	0
17.313	1711	2	0
17.3135	1712	3	0
17.5809	1714	2	0
17.5818	1714	2	0
17.5857	1714	3	0
17.5857	1715	4	0
17.586	1717	3	0
18.1086	1719	2	0
18.1086	1719	2	0
18.1087	1720	3	0
18.2127	1722	2	0
18.31	1722	2	0
18.3112	1722	2	0
18.3112	1723	3	0
18.608	1725	2	0
18.6084	1725	2	0
18.6085	1725	4	0
18.6085	1727	3	0
18.8023	1729	2	0
18.8032	1729	2	0
18.904	1730	3	0
18.9047	1730	3	0
18.905	1731	4	0
18.9196	1733	3	0
18.9198	1733	3	0
18.9199	1733	5	0
18.9202	1735	4	0
19.0805	1737	3	0
19.0807	1737	3	0
19.0808	1737	5	0
19.0811	1739	4	0
19.2599	1741	3	0
19.5132	1743	2	0
19.5165	1743	2	0
19.5167	1743	4	0
19.5171	1745	3	0
19.6341	1747	2	0
19.883	1749	1	0
19.8831	1749	1	0
19.8832	1749	3	0
19.8833	1751	2	0
20.0186	1753	1	0
20.0192	1753	1	0
20.0196	1754	2	0
21.5531	1756	1	0
22.5477	1758	0	0
22.5483	1758	0	0
22.5484	1758	2	0
22.5487	1760	1	0
22.5726	1762	0	0
22.5737	1762	0	0
22.5738	1763	1	0
22.7379	1765	0	0
22.7414	1765	0	0
22.7417	1766	1	0
22.844	1768	0	0
22.848	1768	0	0
22.8482	1768	2	0
22.8482	1770	1	0
22.8644	1772	0	0
22.865	1772	0	0
22.8651	1772	2	0
22.8656	1774	1	0
23.0216	1776	0	0
23.0236	1776	0	0
23.0241	1776	2	0
23.0247	1778	1	0
24.839	1780	0	0
24.8398	1780	0	0
24.8398	1780	2	0
24.8398	1782	1	0
24.9807	1784	0	0
24.9834	1784	0	0
24.9841	1784	1	0
24.9845	1785	2	0
24.9847	1787	1	0
25.0184	1789	0	0
25.0185	1789	0	0
25.0185	1789	2	0
25.0186	1791	1	0
25.2262	1793	0	0
25.2287	1793	0	0
25.8387	1794	1	0
25.8391	1794	1	0
25.8394	1794	3	0
25.8399	1796	2	0
25.9642	1798	1	0
26.3116	1798	1	0
26.3124	1798	1	0
26.3124	1798	3	0
26.3126	1800	2	0
26.456	1802	1	0
26.4567	1802	1	0
26.4575	1803	2	0
26.7483	1805	1	0
26.8812	1807	0	0
26.8818	1807	0	0
26.8824	1807	2	0
26.8826	1809	1	0
28.0951	1811	0	0
28.0951	1811	0	0
28.105	1812	1	0
