4.47982e-10	0	0	0
4.0386e-08	0	0	0
4.1107e-08	0	0	0
8.17952e-08	0	0	0
1.53335e-07	0	0	0
1.83554e-07	0	0	0
2.35247e-07	0	0	0
2.62463e-07	0	0	0
2.95258e-07	0	0	0
3.16967e-07	0	0	0
3.28941e-07	0	0	0
3.62082e-07	0	0	0
3.68685e-07	0	0	0
4.49665e-07	0	0	0
1.63953e-06	0	0	0
2.29848e-06	0	0	0
2.45539e-06	0	0	0
2.88292e-06	0	0	0
3.05895e-06	0	0	0
4.10364e-06	0	0	0
4.32206e-06	0	0	0
6.10937e-06	0	0	0
6.7491e-06	0	0	0
7.30041e-06	0	0	0
7.59917e-06	0	0	0
7.84371e-06	0	0	0
7.84841e-06	0	0	0
8.56147e-06	0	0	0
9.01998e-06	0	0	0
9.07462e-06	0	0	0
9.88399e-06	0	0	0
9.93451e-06	0	0	0
1.0055e-05	0	0	0
1.00667e-05	0	0	0
1.07516e-05	0	0	0
1.09015e-05	0	0	0
1.12444e-05	0	0	0
1.17986e-05	0	0	0
1.27671e-05	0	0	0
1.31429e-05	0	0	0
1.33397e-05	0	0	0
1.37156e-05	0	0	0
1.40872e-05	0	0	0
1.43111e-05	0	0	0
1.44719e-05	0	0	0
1.46568e-05	0	0	0
1.48822e-05	0	0	0
1.49786e-05	0	0	0
1.54206e-05	0	0	0
1.56603e-05	0	0	0
1.5799e-05	0	0	0
1.62026e-05	0	0	0
1.62252e-05	0	0	0
1.68685e-05	0	0	0
1.72362e-05	0	0	0
1.73177e-05	0	0	0
1.75914e-05	0	0	0
1.7633e-05	0	0	0
1.79526e-05	0	0	0
1.80425e-05	0	0	0
1.94196e-05	0	0	0
2.12017e-05	0	0	0
2.1703e-05	0	0	0
2.19105e-05	0	0	0
2.36861e-05	0	0	0
2.42029e-05	0	0	0
2.45665e-05	0	0	0
2.4618e-05	0	0	0
2.46604e-05	0	0	0
2.47151e-05	0	0	0
2.48044e-05	0	0	0
2.54954e-05	0	0	0
2.55924e-05	0	0	0
2.56548e-05	0	0	0
2.57586e-05	0	0	0
2.60635e-05	0	0	0
2.63916e-05	0	0	0
2.64448e-05	0	0	0
2.68147e-05	0	0	0
2.71284e-05	0	0	0
2.7435e-05	0	0	0
2.75602e-05	0	0	0
2.77066e-05	0	0	0
2.77649e-05	0	0	0
2.84643e-05	0	0	0
2.86355e-05	0	0	0
3.00195e-05	0	0	0
3.05043e-05	0	0	0
3.06016e-05	0	0	0
3.07436e-05	0	0	0
3.08738e-05	0	0	0
3.09019e-05	0	0	0
3.14263e-05	0	0	0
3.14576e-05	0	0	0
3.18092e-05	0	0	0
3.23752e-05	0	0	0
3.35244e-05	0	0	0
3.39728e-05	0	0	0
3.40331e-05	0	0	0
3.4361e-05	0	0	0
3.52465e-05	0	0	0
3.54538e-05	0	0	0
3.67386e-05	0	0	0
3.74462e-05	0	0	0
3.74577e-05	0	0	0
3.75456e-05	0	0	0
3.76088e-05	0	0	0
3.92734e-05	0	0	0
4.03915e-05	0	0	0
4.04223e-05	0	0	0
4.10117e-05	0	0	0
4.11961e-05	0	0	0
4.12823e-05	0	0	0
4.15008e-05	0	0	0
4.15406e-05	0	0	0
4.17981e-05	0	0	0
4.225e-05	0	0	0
4.35454e-05	0	0	0
4.40044e-05	0	0	0
4.40707e-05	0	0	0
4.41871e-05	0	0	0
4.46147e-05	0	0	0
4.46175e-05	0	0	0
4.51454e-05	0	0	0
4.62006e-05	0	0	0
4.67878e-05	0	0	0
4.72318e-05	0	0	0
4.75451e-05	0	0	0
4.76579e-05	0	0	0
4.79906e-05	0	0	0
4.83904e-05	0	0	0
4.8438e-05	0	0	0
4.84969e-05	0	0	0
4.86017e-05	0	0	0
4.86793e-05	0	0	0
4.87364e-05	0	0	0
4.9406e-05	0	0	0
4.9487e-05	0	0	0
4.98951e-05	0	0	0
5.0082e-05	0	0	0
5.03896e-05	0	0	0
5.06724e-05	0	0	0
5.071e-05	0	0	0
5.21564e-05	0	0	0
5.24583e-05	0	0	0
5.29474e-05	0	0	0
5.30719e-05	0	0	0
5.3306e-05	0	0	0
5.33931e-05	0	0	0
5.35738e-05	0	0	0
5.38151e-05	0	0	0
5.38738e-05	0	0	0
5.54027e-05	0	0	0
5.73938e-05	0	0	0
5.7509e-05	0	0	0
5.79144e-05	0	0	0
5.82521e-05	0	0	0
5.84801e-05	0	0	0
5.85104e-05	0	0	0
5.89642e-05	0	0	0
5.95827e-05	0	0	0
6.06006e-05	0	0	0
6.12727e-05	0	0	0
6.1476e-05	0	0	0
6.17959e-05	0	0	0
6.18798e-05	0	0	0
6.24828e-05	0	0	0
6.27164e-05	0	0	0
6.3411e-05	0	0	0
6.35675e-05	0	0	0
6.48631e-05	0	0	0
6.49961e-05	0	0	0
6.51705e-05	0	0	0
6.53483e-05	0	0	0
6.57842e-05	0	0	0
6.58592e-05	0	0	0
6.72741e-05	0	0	0
6.7339e-05	0	0	0
6.75898e-05	0	0	0
6.77424e-05	0	0	0
6.87519e-05	0	0	0
6.97932e-05	0	0	0
7.01251e-05	0	0	0
7.10678e-05	0	0	0
7.14006e-05	0	0	0
7.21155e-05	0	0	0
7.28575e-05	0	0	0
7.30715e-05	0	0	0
7.31758e-05	0	0	0
7.32555e-05	0	0	0
7.34324e-05	0	0	0
7.38437e-05	0	0	0
7.43401e-05	0	0	0
7.45359e-05	0	0	0
7.505e-05	0	0	0
7.64654e-05	0	0	0
7.67267e-05	0	0	0
7.71894e-05	0	0	0
7.73648e-05	0	0	0
7.77594e-05	0	0	0
7.92045e-05	0	0	0
8.05197e-05	0	0	0
8.21562e-05	0	0	0
8.30156e-05	0	0	0
8.34526e-05	0	0	0
8.37892e-05	0	0	0
8.42191e-05	0	0	0
8.46856e-05	0	0	0
8.54948e-05	0	0	0
8.67775e-05	0	0	0
8.69272e-05	0	0	0
8.71879e-05	0	0	0
8.7907e-05	0	0	0
8.96035e-05	0	0	0
9.12621e-05	0	0	0
9.19999e-05	0	0	0
9.20495e-05	0	0	0
9.23425e-05	0	0	0
9.28714e-05	0	0	0
9.33544e-05	0	0	0
9.4445e-05	0	0	0
9.4649e-05	0	0	0
9.59097e-05	0	0	0
9.60045e-05	0	0	0
9.67148e-05	0	0	0
9.70466e-05	0	0	0
9.79207e-05	0	0	0
9.85517e-05	0	0	0
9.87585e-05	0	0	0
9.87883e-05	0	0	0
9.88669e-05	0	0	0
9.98687e-05	0	0	0
0.000101333	0	0	0
0.000102624	0	0	0
0.000104153	0	0	0
0.000104743	0	0	0
0.000105007	0	0	0
0.000105266	0	0	0
0.000105279	0	0	0
0.000106846	0	0	0
0.00010716	0	0	0
0.000107385	0	0	0
0.00010758	0	0	0
0.000107832	0	0	0
0.000108973	0	0	0
0.000110156	0	0	0
0.00011134	0	0	0
0.000112432	0	0	0
0.000113712	0	0	0
0.000113879	0	0	0
0.000114021	0	0	0
0.000114112	0	0	0
0.000115017	0	0	0
0.000115255	0	0	0
0.000115645	0	0	0
0.000115868	0	0	0
0.000116308	0	0	0
0.000116908	0	0	0
0.000117308	0	0	0
0.000119224	0	0	0
0.000119738	0	0	0
0.000121566	0	0	0
0.000122003	0	0	0
0.000122636	0	0	0
0.000123353	0	0	0
0.000123555	0	0	0
0.000123816	0	0	0
0.000124688	0	0	0
0.000125007	0	0	0
0.000125484	0	0	0
0.00012551	0	0	0
0.00012755	0	0	0
0.000127562	0	0	0
0.000127599	0	0	0
0.000127745	0	0	0
0.000127785	0	0	0
0.000128568	0	0	0
0.000128873	0	0	0
0.000130181	0	0	0
0.000131727	0	0	0
0.000132286	0	0	0
0.000132929	0	0	0
0.000133952	0	0	0
0.000134617	0	0	0
0.000135131	0	0	0
0.000136328	0	0	0
0.000139666	0	0	0
0.000142099	0	0	0
0.000143926	0	0	0
0.000144273	0	0	0
0.00014467	0	0	0
0.000145129	0	0	0
0.000146904	0	0	0
0.000147051	0	0	0
0.000147856	0	0	0
0.000149113	0	0	0
0.000151023	0	0	0
0.000151098	0	0	0
0.00015153	0	0	0
0.000151539	0	0	0
0.000151606	0	0	0
0.000152794	0	0	0
0.000153082	0	0	0
0.000153106	0	0	0
0.000154526	0	0	0
0.0001547	0	0	0
0.000154879	0	0	0
0.00015579	0	0	0
0.000159002	0	0	0
0.000159355	0	0	0
0.00016144	0	0	0
0.00016172	0	0	0
0.000162314	0	0	0
0.000163748	0	0	0
0.000165863	0	0	0
0.000167784	0	0	0
0.00016907	0	0	0
0.000169172	0	0	0
0.000169589	0	0	0
0.000170357	0	0	0
0.000173348	0	0	0
0.000174859	0	0	0
0.000175488	0	0	0
0.000178623	0	0	0
0.000178767	0	0	0
0.00017914	0	0	0
0.000179184	0	0	0
0.000179265	0	0	0
0.000180218	0	0	0
0.000182089	0	0	0
0.000182846	0	0	0
0.000184786	0	0	0
0.000188478	0	0	0
0.000188949	0	0	0
0.00019084	0	0	0
0.000192173	0	0	0
0.000193198	0	0	0
0.000193945	0	0	0
0.000196357	0	0	0
0.00019766	0	0	0
0.00019935	0	0	0
0.000201946	0	0	0
0.000203145	0	0	0
0.000204096	0	0	0
0.00020462	0	0	0
0.000204837	0	0	0
0.000206087	0	0	0
0.000206529	0	0	0
0.000207932	0	0	0
0.000209912	0	0	0
0.000209937	0	0	0
0.000210794	0	0	0
0.000214443	0	0	0
0.000214988	0	0	0
0.000215013	0	0	0
0.000216069	0	0	0
0.000216165	0	0	0
0.000216195	0	0	0
0.000216201	0	0	0
0.000216256	0	0	0
0.00021792	0	0	0
0.000218728	0	0	0
0.000218891	0	0	0
0.000221094	0	0	0
0.000221446	0	0	0
0.000222986	0	0	0
0.000224076	0	0	0
0.000226124	0	0	0
0.000229659	0	0	0
0.000229763	0	0	0
0.000229898	0	0	0
0.000232237	0	0	0
0.000233737	0	0	0
0.000234349	0	0	0
0.000234943	0	0	0
0.000239552	0	0	0
0.000240387	0	0	0
0.000241127	0	0	0
0.00024256	0	0	0
0.000246063	0	0	0
0.000246512	0	0	0
0.000248366	0	0	0
0.000248373	0	0	0
0.000248424	0	0	0
0.00024964	0	0	0
0.000251681	0	0	0
0.000255064	0	0	0
0.000255354	0	0	0
0.000256202	0	0	0
0.000256925	0	0	0
0.000261436	0	0	0
0.000263434	0	0	0
0.000263586	0	0	0
0.000264582	0	0	0
0.000265708	0	0	0
0.000268742	0	0	0
0.000269722	0	0	0
0.000271994	0	0	0
0.000272504	0	0	0
0.000273174	0	0	0
0.000273389	0	0	0
0.000273907	0	0	0
0.000274317	0	0	0
0.000275649	0	0	0
0.000276036	0	0	0
0.000279664	0	0	0
0.0002819	0	0	0
0.000282528	0	0	0
0.000284615	0	0	0
0.000289012	0	0	0
0.000289553	0	0	0
0.00029114	0	0	0
0.00029118	0	0	0
0.000294544	0	0	0
0.000295138	0	0	0
0.000295528	0	0	0
0.000297512	0	0	0
0.000298032	0	0	0
0.00029896	0	0	0
0.000302086	0	0	0
0.000303649	0	0	0
0.000303661	0	0	0
0.000306449	0	0	0
0.000307105	0	0	0
0.000309722	0	0	0
0.000310765	0	0	0
0.000311884	0	0	0
0.000313823	0	0	0
0.000317994	0	0	0
0.000319089	0	0	0
0.000320268	0	0	0
0.000320961	0	0	0
0.000323078	0	0	0
0.000325087	0	0	0
0.000326679	0	0	0
0.000326788	0	0	0
0.00033054	0	0	0
0.00033616	0	0	0
0.000337845	0	0	0
0.000337916	0	0	0
0.000340042	0	0	0
0.000343695	0	0	0
0.000345888	0	0	0
0.000346237	0	0	0
0.000351031	0	0	0
0.000357113	0	0	0
0.000357298	0	0	0
0.000357692	0	0	0
0.000361434	0	0	0
0.000372848	0	0	0
0.000376301	0	0	0
0.000383859	0	0	0
0.000387482	0	0	0
0.000391589	0	0	0
0.000394691	0	0	0
0.000394988	0	0	0
0.000395999	0	0	0
0.000397493	0	0	0
0.000398488	0	0	0
0.000410357	0	0	0
0.000412219	0	0	0
0.000413995	0	0	0
0.000437929	0	0	0
0.000446083	0	0	0
0.000458481	0	0	0
0.000460086	0	0	0
0.000460453	0	0	0
0.000464941	0	0	0
0.000468908	0	0	0
0.000471082	0	0	0
0.000478178	0	0	0
0.000482969	0	0	0
0.000490593	0	0	0
0.000494934	0	0	0
0.000495681	0	0	0
0.00050936	0	0	0
0.000512531	0	0	0
0.000523298	0	0	0
0.000529934	0	0	0
0.000538208	0	0	0
0.000540912	0	0	0
0.000540991	0	0	0
0.000544136	0	0	0
0.000545609	0	0	0
0.0005479	0	0	0
0.000551334	0	0	0
0.000551377	0	0	0
0.000560158	0	0	0
0.000574069	0	0	0
0.000575878	0	0	0
0.000577234	0	0	0
0.000577405	0	0	0
0.000586152	0	0	0
0.000587906	0	0	0
0.000592388	0	0	0
0.000592956	0	0	0
0.000594839	0	0	0
0.000595252	0	0	0
0.000599547	0	0	0
0.000604387	0	0	0
0.000606148	0	0	0
0.000606665	0	0	0
0.000608874	0	0	0
0.000615408	0	0	0
0.00062544	0	0	0
0.000628781	0	0	0
0.000630605	0	0	0
0.000635521	0	0	0
0.000635785	0	0	0
0.000637378	0	0	0
0.000637814	0	0	0
0.000648605	0	0	0
0.000653481	0	0	0
0.00067084	0	0	0
0.000686742	0	0	0
0.000692582	0	0	0
0.000693514	0	0	0
0.000697574	0	0	0
0.000701929	0	0	0
0.000705036	0	0	0
0.000705881	0	0	0
0.000714532	0	0	0
0.000715011	0	0	0
0.000741951	0	0	0
0.000755986	0	0	0
0.000765039	0	0	0
0.000807084	0	0	0
0.000808229	0	0	0
0.000808888	0	0	0
0.000811868	0	0	0
0.000822224	0	0	0
0.000824295	0	0	0
0.000830941	0	0	0
0.00083534	0	0	0
0.000848141	0	0	0
0.000864855	0	0	0
0.000870195	0	0	0
0.000872456	0	0	0
0.000874047	0	0	0
0.000891391	0	0	0
0.000891503	0	0	0
0.000896007	0	0	0
0.00090946	0	0	0
0.000910612	0	0	0
0.000917479	0	0	0
0.00092482	0	0	0
0.000926811	0	0	0
0.000950578	0	0	0
0.000985576	0	0	0
0.00100817	0	0	0
0.00102185	0	0	0
0.00104945	0	0	0
0.00109234	0	0	0
0.00109798	0	0	0
0.00110617	0	0	0
0.00112518	0	0	0
0.00114596	0	0	0
0.00116499	0	0	0
0.0011759	0	0	0
0.00118693	0	0	0
0.00122165	0	0	0
0.00126232	0	0	0
0.0012719	0	0	0
0.00127891	0	0	0
0.00132493	0	0	0
0.00135492	0	0	0
0.00138769	0	0	0
0.00140881	0	0	0
0.00141094	0	0	0
0.00143134	0	0	0
0.0014907	0	0	0
0.00152781	0	0	0
0.00152813	0	0	0
0.00156887	0	0	0
0.00159866	0	0	0
0.00163626	0	0	0
0.00164184	0	0	0
0.00168653	0	0	0
0.00172683	0	0	0
0.00176839	0	0	0
0.00176843	0	0	0
0.00177301	0	0	0
0.00182272	0	0	0
0.00187519	0	0	0
0.00200363	0	0	0
0.00217989	0	0	0
0.00224937	0	0	0
0.00302515	0	0	0
0.00309147	0	0	0
0.00353266	0	0	0
0.00457473	0	0	0
0.00466604	1	1	0
0.00468345	1	1	0
0.0050328	3	0	0
0.00524323	3	0	0
0.00624263	3	0	0
0.00680318	3	0	0
0.0068561	3	2	0
0.00691637	3	2	0
0.00753079	5	1	0
0.0083774	7	0	0
0.0087862	7	0	0
0.009188	7	0	0
0.00938219	7	1	0
0.00943936	7	1	0
0.00954867	7	1	0
0.00960179	8	2	0
0.00967257	8	2	0
0.0101304	10	1	0
0.0102116	11	2	0
0.0102688	11	2	0
0.0103832	11	2	0
0.0104155	13	1	0
0.0104198	13	1	0
0.0104894	13	1	0
0.0108514	13	1	0
0.0115091	15	0	0
0.0117523	15	0	0
0.0120366	15	0	0
0.0124006	15	0	0
0.0127262	15	0	0
0.0130853	15	0	0
0.0132244	15	0	0
0.0133197	15	0	0
0.0133481	15	0	0
0.0135716	16	1	0
0.0137398	16	1	0
0.0137766	17	2	0
0.0140918	19	1	0
0.0141837	19	1	0
0.0142701	21	0	0
0.0145095	21	0	0
0.015071	21	0	0
0.0157258	21	0	0
0.0158439	21	0	0
0.0159674	21	0	0
0.0161815	21	0	0
0.0163934	21	0	0
0.0169151	21	0	0
0.0169978	21	0	0
0.0172874	21	0	0
0.0185543	21	0	0
0.0189675	21	0	0
0.0196653	21	0	0
0.0199519	21	0	0
0.0201533	21	0	0
0.0202057	21	0	0
0.0205287	21	0	0
0.0206707	21	0	0
0.0212809	21	0	0
0.02144	21	0	0
0.0214684	21	0	0
0.0217193	21	0	0
0.0221904	21	1	0
0.0223865	21	1	0
0.0230331	21	1	0
0.0239076	21	1	0
0.0245593	21	1	0
0.024621	21	1	0
0.0250986	21	1	0
0.0255319	21	1	0
0.0255715	21	1	0
0.0256175	21	1	0
0.0256642	21	1	0
0.0261945	21	1	0
0.0265158	21	2	0
0.0271	21	2	0
0.0280015	21	3	0
0.0280955	22	4	0
0.0284791	24	3	0
0.0285908	25	4	0
0.0287781	27	3	0
0.0288782	29	2	0
0.0290059	31	1	0
0.0291441	31	1	0
0.0293126	33	0	0
0.0294143	33	0	0
0.0294248	33	0	0
0.0295639	34	1	0
0.0300369	36	0	0
0.0302	36	0	0
0.0302744	36	2	0
0.0306023	38	1	0
0.0307862	40	0	0
0.0315057	40	0	0
0.031567	40	0	0
0.031881	40	0	0
0.0326107	40	0	0
0.0329418	41	1	0
0.0329545	41	1	0
0.0330609	41	1	0
0.0332265	43	0	0
0.0333224	43	0	0
0.0339563	44	0	0
0.0339671	44	0	0
0.0349162	44	0	0
0.0349219	44	0	0
0.0351931	44	0	0
0.0354714	44	0	0
0.0356543	44	0	0
0.0361859	44	1	0
0.0362562	44	1	0
0.0362565	44	1	0
0.0371372	44	1	0
0.037142	45	2	0
0.0375822	47	1	0
0.0377281	49	0	0
0.0383323	49	0	0
0.0384007	49	0	0
0.0388989	49	0	0
0.0392532	49	0	0
0.039542	49	0	0
0.0400609	49	0	0
0.0400989	49	0	0
0.0408215	49	0	0
0.0411051	49	0	0
0.0412222	49	0	0
0.0416225	49	1	0
0.0416521	50	2	0
0.0417921	52	1	0
0.0431291	54	0	0
0.0444734	55	0	0
0.0453088	55	0	0
0.0465668	55	0	0
0.0466274	55	0	0
0.0471481	55	0	0
0.0474221	55	0	0
0.0478837	55	0	0
0.0478868	55	0	0
0.0480056	55	0	0
0.0481433	55	0	0
0.048276	55	0	0
0.0485259	55	0	0
0.0485435	55	0	0
0.049208	55	0	0
0.0492958	55	0	0
0.0494357	55	0	0
0.0496719	55	0	0
0.0502856	55	0	0
0.0507017	55	0	0
0.0511545	55	0	0
0.0514505	55	0	0
0.0518683	55	0	0
0.0526674	55	0	0
0.0526823	56	0	0
0.0538264	56	0	0
0.053848	56	0	0
0.053897	56	0	0
0.0542409	56	0	0
0.0543309	56	0	0
0.0544179	57	1	0
0.0551732	59	0	0
0.0552289	59	0	0
0.0552338	59	0	0
0.0552537	59	0	0
0.0561463	59	0	0
0.05615	60	0	0
0.0565723	60	0	0
0.0573485	60	0	0
0.0575118	60	0	0
0.0576306	61	1	0
0.0578137	61	1	0
0.05839	63	0	0
0.0583939	63	0	0
0.0585695	63	0	0
0.0587953	63	0	0
0.0588519	63	0	0
0.0592278	64	1	0
0.0593414	66	0	0
0.059431	67	1	0
0.0594847	67	1	0
0.0601615	69	0	0
0.0606994	69	0	0
0.060962	70	1	0
0.06123	70	1	0
0.0614817	72	0	0
0.0629366	72	0	0
0.06325	72	0	0
0.0637323	72	0	0
0.0642818	72	0	0
0.0645003	72	0	0
0.0648068	72	0	0
0.0659704	72	0	0
0.0661349	72	0	0
0.0661612	72	0	0
0.0665027	72	0	0
0.0669958	72	1	0
0.0671078	73	2	0
0.0672215	73	2	0
0.0675378	75	1	0
0.0675936	75	1	0
0.0678473	77	0	0
0.0682557	78	0	0
0.0689911	78	0	0
0.0701537	78	0	0
0.0711038	78	0	0
0.0712393	78	0	0
0.0714778	78	0	0
0.0715604	80	0	0
0.0715879	80	0	0
0.0723972	80	0	0
0.0724761	80	0	0
0.0735291	80	0	0
0.0736425	80	0	0
0.0743743	80	0	0
0.0747458	80	0	0
0.0754607	80	0	0
0.0754803	80	0	0
0.0756025	80	0	0
0.0761127	80	0	0
0.0766606	80	0	0
0.0772254	80	0	0
0.0781385	80	0	0
0.0784494	80	0	0
0.0787262	80	0	0
0.0789528	81	0	0
0.0791123	81	0	0
0.0793952	81	0	0
0.0817046	81	0	0
0.0819259	81	0	0
0.0831851	81	0	0
0.0833658	81	0	0
0.0853824	81	0	0
0.0869199	81	0	0
0.0870808	81	0	0
0.0881701	81	0	0
0.0889842	81	0	0
0.0893159	82	0	0
0.0895676	82	0	0
0.0904001	82	0	0
0.0907316	82	0	0
0.090956	82	0	0
0.0918066	82	0	0
0.0925276	82	0	0
0.0927035	82	0	0
0.0927115	82	0	0
0.0928484	82	0	0
0.0930555	82	0	0
0.0933297	82	0	0
0.0934171	82	0	0
0.0944709	82	0	0
0.0945894	82	0	0
0.094995	83	1	0
0.0953188	85	0	0
0.0973792	85	0	0
0.0974357	85	0	0
0.0978643	86	0	0
0.0989879	86	0	0
0.100838	86	0	0
0.102579	86	0	0
0.102743	86	0	0
0.103049	86	2	0
0.103054	88	1	0
0.103744	88	1	0
0.103814	88	1	0
0.104266	90	0	0
0.104953	90	0	0
0.105103	90	0	0
0.105106	90	0	0
0.105462	90	0	0
0.10654	90	0	0
0.106964	90	0	0
0.107858	90	0	0
0.109581	90	0	0
0.109852	90	0	0
0.109929	90	0	0
0.110616	90	0	0
0.111769	90	0	0
0.112345	90	0	0
0.112499	90	0	0
0.113356	90	0	0
0.115245	90	0	0
0.115772	91	0	0
0.120315	91	0	0
0.121138	91	0	0
0.122074	91	0	0
0.122096	91	0	0
0.123907	91	0	0
0.12767	92	0	0
0.129172	92	0	0
0.129443	92	0	0
0.129754	93	0	0
0.129783	93	0	0
0.130217	93	0	0
0.131115	93	0	0
0.131245	93	0	0
0.131484	93	0	0
0.132382	93	0	0
0.132888	93	0	0
0.133181	93	0	0
0.133839	93	0	0
0.133949	93	0	0
0.134295	93	0	0
0.134426	94	0	0
0.134961	94	0	0
0.135234	94	0	0
0.137621	94	0	0
0.138799	95	0	0
0.138821	95	0	0
0.139314	96	1	0
0.139497	96	1	0
0.139567	96	1	0
0.139773	96	1	0
0.1398	98	0	0
0.139915	98	0	0
0.140059	98	0	0
0.140186	98	0	0
0.140543	98	0	0
0.140674	98	0	0
0.140829	98	0	0
0.140885	98	0	0
0.142281	99	0	0
0.142894	99	0	0
0.143159	99	0	0
0.144218	99	0	0
0.144562	99	0	0
0.144736	99	0	0
0.145242	99	1	0
0.148738	101	0	0
0.148946	101	0	0
0.150548	101	0	0
0.151159	101	0	0
0.151316	101	0	0
0.151693	101	0	0
0.152135	101	0	0
0.152594	101	0	0
0.152707	101	0	0
0.152757	101	0	0
0.153193	102	1	0
0.153754	102	1	0
0.154173	102	1	0
0.154348	104	0	0
0.154699	104	0	0
0.155584	104	0	0
0.15568	104	0	0
0.155808	104	0	0
0.157909	104	0	0
0.158305	104	0	0
0.15866	104	0	0
0.159814	104	0	0
0.160077	104	0	0
0.160325	104	0	0
0.160875	104	0	0
0.161023	104	0	0
0.161154	104	0	0
0.161264	104	0	0
0.161273	104	0	0
0.161646	104	0	0
0.162229	104	0	0
0.163173	104	0	0
0.163611	104	0	0
0.163749	105	0	0
0.164075	106	1	0
0.164329	108	0	0
0.164807	108	0	0
0.166394	109	0	0
0.166698	109	0	0
0.167448	109	0	0
0.167656	109	0	0
0.168337	109	0	0
0.16947	109	0	0
0.169645	109	0	0
0.169866	109	0	0
0.170362	109	0	0
0.171138	109	0	0
0.171449	109	0	0
0.171499	109	0	0
0.171866	109	0	0
0.172367	110	1	0
0.172897	112	0	0
0.173355	112	0	0
0.173591	112	0	0
0.174527	112	0	0
0.174628	112	0	0
0.174761	112	0	0
0.175645	112	0	0
0.176331	112	0	0
0.177106	112	0	0
0.177602	112	0	0
0.177614	112	0	0
0.179394	112	0	0
0.179589	112	0	0
0.179607	112	0	0
0.179823	112	0	0
0.183785	112	0	0
0.184449	112	0	0
0.184461	112	0	0
0.184833	112	0	0
0.185045	112	0	0
0.186393	112	0	0
0.186707	112	0	0
0.186947	112	0	0
0.187231	112	0	0
0.187418	112	0	0
0.187665	112	1	0
0.187972	112	1	0
0.188194	113	2	0
0.188249	115	1	0
0.188998	117	0	0
0.189421	117	0	0
0.189965	117	0	0
0.190058	117	0	0
0.190173	117	0	0
0.191599	117	0	0
0.192353	118	0	0
0.192426	118	0	0
0.192435	118	0	0
0.192772	118	0	0
0.192886	119	0	0
0.193329	119	0	0
0.193395	119	0	0
0.193948	119	0	0
0.194673	119	0	0
0.195464	119	0	0
0.196802	119	0	0
0.197012	120	0	0
0.197314	120	1	0
0.197419	120	1	0
0.197956	121	2	0
0.198029	121	2	0
0.198224	121	2	0
0.198556	121	2	0
0.198578	121	2	0
0.199475	123	1	0
0.199803	123	1	0
0.199963	125	0	0
0.200535	125	0	0
0.200888	125	0	0
0.201204	125	0	0
0.201708	125	0	0
0.202848	125	0	0
0.203047	125	0	0
0.203093	125	0	0
0.204201	125	0	0
0.20438	125	0	0
0.204609	125	0	0
0.204617	126	0	0
0.205734	126	0	0
0.206095	126	0	0
0.206391	126	1	0
0.206497	127	2	0
0.20662	127	2	0
0.206733	129	1	0
0.206953	129	1	0
0.20703	131	0	0
0.207995	132	0	0
0.208043	132	0	0
0.2083	132	0	0
0.209652	133	0	0
0.20985	134	1	0
0.21008	136	0	0
0.211115	136	0	0
0.211436	136	0	0
0.211474	136	0	0
0.21159	136	0	0
0.211764	136	0	0
0.211828	136	0	0
0.212271	136	0	0
0.212272	136	0	0
0.212274	137	1	0
0.213404	139	0	0
0.214033	140	0	0
0.214185	141	0	0
0.216514	141	0	0
0.217051	141	0	0
0.217292	142	1	0
0.21782	144	0	0
0.219445	145	0	0
0.220738	145	0	0
0.221817	145	0	0
0.222995	145	0	0
0.22385	145	0	0
0.223921	146	0	0
0.224165	146	0	0
0.224332	146	1	0
0.224435	147	2	0
0.224909	149	1	0
0.224973	149	1	0
0.225933	151	0	0
0.22649	151	0	0
0.227287	151	0	0
0.228442	151	0	0
0.229908	151	0	0
0.230167	151	0	0
0.230999	151	0	0
0.231532	151	0	0
0.232375	151	0	0
0.234152	151	0	0
0.235326	151	0	0
0.235613	151	0	0
0.236804	151	0	0
0.237289	151	0	0
0.237308	151	0	0
0.237657	151	0	0
0.237699	151	0	0
0.239466	151	0	0
0.239754	151	0	0
0.240154	151	0	0
0.240799	151	0	0
0.241044	151	0	0
0.241385	151	0	0
0.241739	151	0	0
0.242165	151	1	0
0.242363	152	2	0
0.242372	154	1	0
0.242898	156	0	0
0.242899	156	0	0
0.243085	156	0	0
0.243179	156	0	0
0.243695	157	0	0
0.243734	157	0	0
0.243847	157	0	0
0.245848	157	0	0
0.24651	157	0	0
0.246723	157	0	0
0.246887	157	0	0
0.247406	157	0	0
0.247459	157	0	0
0.247838	157	0	0
0.248283	157	0	0
0.248296	157	0	0
0.248539	157	2	0
0.24874	159	1	0
0.248757	161	0	0
0.249603	161	0	0
0.251523	161	0	0
0.251725	161	0	0
0.252978	161	0	0
0.253359	161	0	0
0.253723	162	1	0
0.254858	164	0	0
0.255326	164	0	0
0.255393	164	0	0
0.256196	165	0	0
0.256214	165	0	0
0.256224	165	0	0
0.256299	165	1	0
0.256402	166	2	0
0.256535	168	1	0
0.257119	170	0	0
0.25716	170	0	0
0.257508	170	0	0
0.257604	170	0	0
0.259122	170	0	0
0.259346	170	0	0
0.260541	170	0	0
0.260736	170	0	0
0.261726	170	0	0
0.262877	170	0	0
0.263988	170	0	0
0.264275	170	0	0
0.264617	170	0	0
0.264806	170	0	0
0.264965	171	1	0
0.265324	173	0	0
0.266184	173	0	0
0.266863	173	0	0
0.267848	173	0	0
0.269034	173	0	0
0.269358	173	0	0
0.269719	173	0	0
0.269806	173	0	0
0.271571	173	0	0
0.272039	173	0	0
0.2727	173	0	0
0.273798	173	0	0
0.276152	173	0	0
0.276538	173	0	0
0.276652	173	0	0
0.276825	173	0	0
0.277245	173	0	0
0.277368	173	0	0
0.277707	173	1	0
0.277751	173	1	0
0.278814	174	1	0
0.278968	174	1	0
0.279006	175	2	0
0.279019	175	2	0
0.27909	177	1	0
0.279164	177	1	0
0.279397	179	0	0
0.28006	179	0	0
0.280122	179	0	0
0.280276	179	0	0
0.280373	179	0	0
0.281242	179	0	0
0.281542	179	0	0
0.281548	179	0	0
0.281799	179	0	0
0.282045	179	2	0
0.282069	181	1	0
0.282394	181	1	0
0.282997	183	0	0
0.283039	183	0	0
0.286317	185	0	0
0.286573	185	0	0
0.2866	185	2	0
0.286653	187	1	0
0.287754	189	0	0
0.289316	189	0	0
0.290271	189	0	0
0.291092	189	0	0
0.291914	189	0	0
0.29242	189	0	0
0.292961	189	0	0
0.293021	189	0	0
0.294318	189	0	0
0.294448	189	0	0
0.295944	189	0	0
0.296024	189	0	0
0.297352	189	0	0
0.297506	189	0	0
0.297865	189	0	0
0.297971	189	0	0
0.298732	189	0	0
0.299774	189	0	0
0.299783	189	0	0
0.300211	189	0	0
0.300334	189	0	0
0.300947	190	1	0
0.302377	192	0	0
0.302387	192	0	0
0.302444	192	0	0
0.303102	192	0	0
0.30351	192	0	0
0.303916	192	0	0
0.304162	192	0	0
0.304583	192	0	0
0.304627	192	0	0
0.304639	192	0	0
0.30593	192	0	0
0.306189	192	0	0
0.306241	192	0	0
0.30698	192	0	0
0.306982	192	0	0
0.308375	192	0	0
0.309587	192	0	0
0.310186	192	0	0
0.310531	192	0	0
0.311034	192	0	0
0.311938	192	0	0
0.312168	192	0	0
0.312613	192	0	0
0.31469	192	0	0
0.315853	192	0	0
0.316331	192	0	0
0.316829	192	0	0
0.316893	192	0	0
0.317195	192	0	0
0.317407	192	0	0
0.317468	193	0	0
0.318217	193	0	0
0.318984	193	0	0
0.3208	194	0	0
0.322043	194	0	0
0.322067	194	0	0
0.322139	194	0	0
0.322395	194	0	0
0.322432	194	0	0
0.324149	194	0	0
0.324588	194	0	0
0.32484	194	0	0
0.324966	195	0	0
0.325376	195	0	0
0.325973	195	0	0
0.327847	195	0	0
0.328159	195	0	0
0.328742	195	0	0
0.329434	195	0	0
0.329447	195	1	0
0.329673	195	1	0
0.329699	195	1	0
0.329808	195	1	0
0.329837	196	2	0
0.329909	196	2	0
0.331136	198	1	0
0.331175	198	1	0
0.331258	199	2	0
0.331435	201	1	0
0.331804	203	0	0
0.331939	203	0	0
0.332046	203	0	0
0.332912	204	1	0
0.333529	206	0	0
0.333609	208	0	0
0.333705	208	0	0
0.333778	208	0	0
0.334394	209	1	0
0.335134	211	0	0
0.336095	211	0	0
0.336652	211	0	0
0.33737	211	0	0
0.337509	211	0	0
0.337593	211	0	0
0.338338	212	1	0
0.339002	214	0	0
0.341305	214	0	0
0.344429	214	0	0
0.344549	214	0	0
0.345078	215	0	0
0.345281	215	0	0
0.345528	215	0	0
0.345764	215	0	0
0.346196	215	0	0
0.346688	216	1	0
0.346693	216	1	0
0.34706	218	0	0
0.349171	218	0	0
0.349495	218	0	0
0.350397	218	0	0
0.35081	219	1	0
0.351136	219	1	0
0.351161	219	1	0
0.351492	219	1	0
0.352269	221	0	0
0.354009	221	0	0
0.356494	221	0	0
0.356858	221	0	0
0.357439	221	0	0
0.357956	222	0	0
0.357959	223	1	0
0.35812	225	0	0
0.358273	225	0	0
0.359177	225	0	0
0.361083	225	0	0
0.362458	225	0	0
0.363805	226	0	0
0.363966	226	0	0
0.364137	226	0	0
0.364215	226	0	0
0.365282	226	0	0
0.365386	227	0	0
0.36563	227	0	0
0.366454	227	0	0
0.366937	227	0	0
0.367421	227	0	0
0.368014	227	0	0
0.369142	227	0	0
0.369568	228	0	0
0.370036	228	0	0
0.370046	228	1	0
0.370259	229	2	0
0.370868	231	1	0
0.370932	232	1	0
0.371072	232	1	0
0.371226	232	1	0
0.371363	234	0	0
0.372515	234	0	0
0.372618	234	0	0
0.372788	234	0	0
0.374414	234	1	0
0.374623	234	1	0
0.374773	235	2	0
0.374853	237	1	0
0.375361	239	0	0
0.375956	239	0	0
0.376227	239	0	0
0.377104	239	0	0
0.377255	239	0	0
0.377338	239	0	0
0.377822	241	0	0
0.378644	241	0	0
0.378677	242	1	0
0.379564	244	0	0
0.380323	244	0	0
0.380831	244	0	0
0.381476	244	0	0
0.381586	244	0	0
0.382351	244	0	0
0.382861	244	0	0
0.383341	244	0	0
0.384439	244	0	0
0.385408	244	0	0
0.386715	244	0	0
0.387364	244	0	0
0.387698	244	0	0
0.389424	245	0	0
0.39011	245	0	0
0.390412	245	0	0
0.390724	245	0	0
0.390833	245	2	0
0.390914	247	1	0
0.391015	247	1	0
0.391923	249	0	0
0.392064	249	0	0
0.392374	249	0	0
0.393678	249	0	0
0.395426	249	0	0
0.396221	249	0	0
0.396444	249	0	0
0.396513	249	0	0
0.396901	249	0	0
0.397137	249	0	0
0.39731	249	0	0
0.397438	249	0	0
0.397478	250	1	0
0.398297	250	1	0
0.398747	250	1	0
0.398812	250	1	0
0.398853	250	2	0
0.399051	250	2	0
0.399221	251	3	0
0.399347	253	2	0
0.39945	255	1	0
0.399542	257	0	0
0.399552	257	0	0
0.399869	257	0	0
0.400064	257	0	0
0.400709	258	0	0
0.402111	258	0	0
0.40338	258	0	0
0.403677	258	0	0
0.403713	258	0	0
0.404205	258	0	0
0.404917	258	0	0
0.405889	259	0	0
0.407074	259	0	0
0.408147	259	0	0
0.408478	259	0	0
0.409644	259	0	0
0.409719	259	0	0
0.409812	259	0	0
0.410101	259	0	0
0.410277	259	0	0
0.410855	259	0	0
0.411118	260	1	0
0.411229	260	1	0
0.411517	262	0	0
0.411731	262	0	0
0.412327	263	0	0
0.412881	263	0	0
0.412949	263	0	0
0.414875	263	0	0
0.414994	263	0	0
0.416122	263	0	0
0.416551	264	0	0
0.417385	264	0	0
0.418608	265	0	0
0.418692	265	0	0
0.418769	266	0	0
0.419272	266	0	0
0.420131	266	0	0
0.420763	266	0	0
0.421529	266	0	0
0.421875	266	0	0
0.422042	267	0	0
0.422814	268	1	0
0.422981	270	0	0
0.423474	271	0	0
0.425132	271	0	0
0.426041	271	0	0
0.426925	271	0	0
0.427002	271	0	0
0.427043	272	0	0
0.427152	272	0	0
0.427494	273	1	0
0.427892	275	0	0
0.428112	275	0	0
0.429807	275	0	0
0.43369	275	0	0
0.434419	275	0	0
0.434964	275	1	0
0.435073	275	1	0
0.435122	276	2	0
0.435131	278	1	0
0.436157	280	1	0
0.436612	280	1	0
0.437537	282	0	0
0.438329	282	0	0
0.438836	282	0	0
0.438843	282	0	0
0.439834	282	0	0
0.440381	282	0	0
0.44046	283	1	0
0.442477	285	0	0
0.443009	285	0	0
0.4432	285	0	0
0.443224	285	0	0
0.447679	285	0	0
0.448311	285	0	0
0.448565	285	0	0
0.448656	285	0	0
0.449724	286	0	0
0.450787	286	0	0
0.451481	286	0	0
0.451971	286	0	0
0.453763	286	0	0
0.453852	286	0	0
0.455365	286	0	0
0.457749	287	0	0
0.458211	287	0	0
0.460913	287	0	0
0.461051	289	0	0
0.461264	289	0	0
0.461306	289	0	0
0.462345	289	0	0
0.464778	289	0	0
0.468221	290	0	0
0.468709	290	0	0
0.469032	290	0	0
0.469681	290	0	0
0.470491	290	0	0
0.471718	290	0	0
0.474646	290	0	0
0.475757	290	0	0
0.47668	290	0	0
0.476826	290	2	0
0.477044	292	1	0
0.477045	292	1	0
0.477815	294	0	0
0.478092	294	0	0
0.478164	294	0	0
0.478221	295	1	0
0.478401	295	1	0
0.478989	297	0	0
0.479313	297	0	0
0.479633	297	0	0
0.479721	297	0	0
0.480313	297	1	0
0.480482	298	2	0
0.480606	300	1	0
0.480808	300	1	0
0.481386	302	0	0
0.481458	302	0	0
0.481482	303	1	0
0.482836	305	0	0
0.48304	305	0	0
0.483075	305	0	0
0.484816	305	0	0
0.486755	306	0	0
0.487238	306	0	0
0.48731	306	0	0
0.488127	306	0	0
0.488646	306	0	0
0.488968	306	0	0
0.490159	308	0	0
0.491471	308	0	0
0.492975	308	0	0
0.493585	308	0	0
0.493947	309	0	0
0.494281	309	0	0
0.494431	310	0	0
0.496214	310	0	0
0.496926	310	0	0
0.497109	310	0	0
0.498073	310	0	0
0.500056	310	0	0
0.50117	310	0	0
0.501755	312	0	0
0.502005	312	0	0
0.50207	312	0	0
0.502765	312	0	0
0.503618	313	0	0
0.503768	313	0	0
0.503779	314	0	0
0.50423	314	0	0
0.505017	314	0	0
0.50504	314	0	0
0.50532	314	0	0
0.505882	314	1	0
0.506474	314	1	0
0.506781	315	1	0
0.506905	316	2	0
0.506981	318	1	0
0.507116	320	0	0
0.507548	322	0	0
0.509282	322	0	0
0.510017	322	0	0
0.510114	322	0	0
0.510608	323	0	0
0.510735	323	2	0
0.510776	325	1	0
0.510878	327	0	0
0.511833	327	0	0
0.51245	327	0	0
0.513605	327	0	0
0.513708	327	0	0
0.513884	328	1	0
0.514079	328	1	0
0.51508	330	0	0
0.518175	330	0	0
0.520757	330	0	0
0.524664	331	0	0
0.525482	331	0	0
0.527353	331	0	0
0.530083	331	0	0
0.531135	331	0	0
0.531626	332	1	0
0.532422	334	0	0
0.533644	335	0	0
0.533663	336	0	0
0.533969	336	0	0
0.535036	336	0	0
0.536789	336	0	0
0.537072	336	0	0
0.537151	336	0	0
0.537155	336	0	0
0.537486	337	1	0
0.537676	337	2	0
0.53783	339	1	0
0.538349	340	1	0
0.538577	340	1	0
0.53883	340	1	0
0.539764	340	1	0
0.539979	341	2	0
0.540223	343	1	0
0.541182	343	1	0
0.541815	343	1	0
0.542034	343	1	0
0.542959	345	0	0
0.543003	345	0	0
0.543028	345	2	0
0.54324	347	1	0
0.543353	347	1	0
0.545537	349	0	0
0.547565	349	0	0
0.548376	349	0	0
0.549543	349	0	0
0.549615	350	0	0
0.549685	350	0	0
0.551244	351	0	0
0.55155	351	0	0
0.551968	351	0	0
0.555007	351	0	0
0.555312	351	0	0
0.555688	351	0	0
0.555722	351	0	0
0.556236	352	0	0
0.556786	352	0	0
0.55707	352	0	0
0.558559	352	0	0
0.558993	352	2	0
0.559527	354	1	0
0.561903	356	0	0
0.562446	356	0	0
0.562711	356	0	0
0.564289	356	0	0
0.565383	356	0	0
0.566957	356	0	0
0.566989	356	0	0
0.569734	357	0	0
0.570098	357	0	0
0.570757	357	0	0
0.572039	357	0	0
0.57228	357	0	0
0.573685	357	0	0
0.578174	357	0	0
0.581661	358	0	0
0.582054	358	0	0
0.583256	358	0	0
0.584384	358	0	0
0.585606	358	0	0
0.586403	358	0	0
0.587117	358	0	0
0.589161	359	0	0
0.590317	359	0	0
0.592201	359	0	0
0.59252	359	0	0
0.594094	359	0	0
0.594407	359	0	0
0.594775	359	0	0
0.594788	359	0	0
0.595407	359	0	0
0.596946	359	0	0
0.597232	359	0	0
0.597646	359	0	0
0.597942	359	0	0
0.598253	360	0	0
0.598265	361	0	0
0.598355	361	0	0
0.598762	361	0	0
0.599779	361	0	0
0.599852	362	1	0
0.599927	363	1	0
0.60434	365	0	0
0.604754	366	0	0
0.605327	366	0	0
0.605856	367	0	0
0.608101	367	0	0
0.611518	367	0	0
0.611619	367	0	0
0.614151	367	0	0
0.616487	367	0	0
0.616927	367	0	0
0.6172	369	0	0
0.620815	370	0	0
0.621481	370	0	0
0.622015	370	0	0
0.62205	370	0	0
0.622971	370	0	0
0.623965	371	1	0
0.623977	371	1	0
0.626712	373	0	0
0.628269	374	0	0
0.628555	374	0	0
0.629379	374	1	0
0.629448	375	2	0
0.629735	376	2	0
0.629739	378	1	0
0.630894	380	0	0
0.631248	380	0	0
0.631921	382	0	0
0.632283	382	0	0
0.632742	382	0	0
0.633075	382	2	0
0.633104	382	2	0
0.633382	384	1	0
0.633407	384	1	0
0.633488	384	1	0
0.633602	384	1	0
0.633808	386	0	0
0.633916	386	0	0
0.636721	386	0	0
0.637355	388	0	0
0.637542	388	0	0
0.63858	388	0	0
0.640092	388	0	0
0.640374	389	0	0
0.640757	390	0	0
0.64132	390	0	0
0.643299	390	0	0
0.644919	390	0	0
0.645559	390	0	0
0.64627	390	0	0
0.646625	390	0	0
0.646865	390	0	0
0.646985	390	1	0
0.647275	390	1	0
0.647378	391	2	0
0.647386	393	1	0
0.648205	395	0	0
0.649665	395	0	0
0.649868	395	0	0
0.651182	395	0	0
0.651191	395	0	0
0.651728	395	0	0
0.652917	395	0	0
0.654122	395	0	0
0.654763	395	0	0
0.655514	396	0	0
0.656827	397	0	0
0.657289	397	0	0
0.658451	397	0	0
0.658773	397	0	0
0.659126	397	0	0
0.659291	397	0	0
0.659351	398	0	0
0.659849	398	0	0
0.660008	398	0	0
0.661111	399	0	0
0.661625	399	0	0
0.662533	399	0	0
0.662585	399	0	0
0.662589	399	0	0
0.664658	399	0	0
0.665009	399	0	0
0.66506	399	0	0
0.666146	399	0	0
0.66643	399	0	0
0.666715	399	0	0
0.667768	399	0	0
0.668584	400	0	0
0.669384	400	1	0
0.66954	401	1	0
0.669962	401	1	0
0.670054	402	2	0
0.670742	404	1	0
0.670799	404	1	0
0.671907	406	0	0
0.672746	406	0	0
0.672866	407	1	0
0.673878	409	0	0
0.674887	411	0	0
0.675507	411	0	0
0.675793	411	0	0
0.677073	411	0	0
0.678616	412	0	0
0.679732	412	0	0
0.681548	412	0	0
0.681785	412	0	0
0.681905	413	0	0
0.684951	413	0	0
0.686952	413	0	0
0.68711	413	0	0
0.687165	413	2	0
0.687193	415	1	0
0.688581	417	0	0
0.688642	417	1	0
0.688837	417	1	0
0.68895	418	2	0
0.68896	418	2	0
0.689016	420	1	0
0.689411	422	0	0
0.689924	422	0	0
0.691359	422	0	0
0.692742	422	0	0
0.694876	422	0	0
0.696206	422	0	0
0.698625	422	0	0
0.699627	422	0	0
0.703264	422	0	0
0.704589	422	0	0
0.704858	422	0	0
0.705287	422	0	0
0.70683	422	0	0
0.70821	423	0	0
0.709518	423	0	0
0.710103	423	0	0
0.710725	423	0	0
0.713596	423	0	0
0.715344	424	0	0
0.718461	424	0	0
0.718756	424	0	0
0.719458	424	0	0
0.719663	424	0	0
0.721367	424	0	0
0.722243	424	0	0
0.722266	425	1	0
0.722928	425	1	0
0.723003	425	1	0
0.723052	427	0	0
0.723108	427	0	0
0.723115	427	0	0
0.723773	427	0	0
0.725343	428	0	0
0.731872	428	0	0
0.732134	428	0	0
0.733535	428	0	0
0.733538	428	0	0
0.733763	429	0	0
0.73522	429	0	0
0.736111	430	0	0
0.738407	430	0	0
0.73887	431	0	0
0.739258	431	0	0
0.740085	432	0	0
0.740431	432	0	0
0.742673	432	0	0
0.743531	432	0	0
0.744318	433	0	0
0.74444	433	0	0
0.746887	434	0	0
0.748504	434	0	0
0.750605	434	0	0
0.753808	435	0	0
0.755531	435	0	0
0.756373	435	0	0
0.75922	436	0	0
0.76069	436	0	0
0.76125	436	1	0
0.761331	437	1	0
0.761563	437	1	0
0.762015	437	2	0
0.762032	437	3	0
0.762126	438	3	0
0.762319	439	4	0
0.762378	441	3	0
0.762435	443	2	0
0.762507	445	1	0
0.762925	445	1	0
0.764933	447	0	0
0.766765	447	0	0
0.768182	447	0	0
0.769016	448	0	0
0.771087	449	0	0
0.772907	450	0	0
0.774675	450	0	0
0.776735	450	0	0
0.776952	451	0	0
0.77779	451	0	0
0.783727	451	0	0
0.783991	451	0	0
0.784484	451	0	0
0.785011	451	0	0
0.78576	451	1	0
0.785956	452	2	0
0.786578	454	1	0
0.78876	456	0	0
0.789058	456	0	0
0.789142	456	0	0
0.790017	456	0	0
0.790718	456	0	0
0.79158	456	0	0
0.793251	456	0	0
0.79455	456	0	0
0.794737	456	2	0
0.794943	458	1	0
0.79677	460	0	0
0.80075	460	0	0
0.800935	461	0	0
0.80173	461	0	0
0.802204	461	0	0
0.803575	461	0	0
0.80379	461	0	0
0.80391	461	1	0
0.803928	462	2	0
0.805937	464	1	0
0.806014	465	2	0
0.806198	467	1	0
0.807275	469	0	0
0.80985	469	0	0
0.809993	469	0	0
0.810075	469	1	0
0.810303	471	0	0
0.810466	472	0	0
0.811135	472	0	0
0.811653	472	0	0
0.811808	472	1	0
0.811881	472	1	0
0.812219	473	2	0
0.812223	475	1	0
0.812472	476	2	0
0.812619	476	2	0
0.81334	478	1	0
0.815062	480	0	0
0.81516	480	0	0
0.816722	480	0	0
0.81764	480	0	0
0.822247	480	0	0
0.823971	480	0	0
0.824244	481	0	0
0.824779	481	0	0
0.827778	481	0	0
0.82936	481	0	0
0.82955	481	0	0
0.829626	482	1	0
0.830024	484	0	0
0.831016	485	0	0
0.832845	485	0	0
0.833329	486	0	0
0.839714	487	0	0
0.84087	487	0	0
0.840921	487	0	0
0.841011	487	0	0
0.84146	487	0	0
0.842665	487	0	0
0.844037	487	0	0
0.845135	487	0	0
0.845497	487	0	0
0.846984	488	0	0
0.847087	488	0	0
0.847425	488	0	0
0.84753	489	1	0
0.849066	491	0	0
0.849829	491	0	0
0.850107	491	0	0
0.850432	491	1	0
0.850562	492	2	0
0.850864	494	1	0
0.851527	494	1	0
0.851798	496	0	0
0.852344	496	0	0
0.852556	496	0	0
0.85301	496	0	0
0.854468	497	0	0
0.854841	498	1	0
0.855502	500	0	0
0.855747	500	0	0
0.856476	500	0	0
0.856599	500	0	0
0.857795	500	0	0
0.858911	501	0	0
0.860019	501	0	0
0.860877	501	0	0
0.862672	501	0	0
0.863054	501	0	0
0.865571	501	0	0
0.867178	501	0	0
0.868077	501	0	0
0.869216	501	0	0
0.869268	501	0	0
0.870896	501	0	0
0.872209	501	0	0
0.872317	502	0	0
0.872412	502	0	0
0.873583	502	0	0
0.873768	502	0	0
0.873838	504	0	0
0.874284	504	0	0
0.874326	505	1	0
0.875119	507	0	0
0.875997	509	0	0
0.876421	510	0	0
0.877943	511	0	0
0.879274	511	0	0
0.879846	511	0	0
0.880345	511	0	0
0.880365	511	0	0
0.882895	512	0	0
0.883584	512	0	0
0.8908	512	0	0
0.8925	512	0	0
0.89538	512	0	0
0.896045	513	0	0
0.896404	513	0	0
0.896433	514	1	0
0.898807	516	0	0
0.903758	516	0	0
0.905434	516	0	0
0.90568	516	0	0
0.905898	516	2	0
0.9062	518	1	0
0.908178	520	0	0
0.908425	520	0	0
0.909103	520	0	0
0.909406	520	0	0
0.910182	521	0	0
0.910248	521	2	0
0.910431	521	2	0
0.91058	521	2	0
0.910637	523	1	0
0.912003	525	0	0
0.913394	525	0	0
0.913875	525	0	0
0.915726	525	0	0
0.915736	525	0	0
0.916256	525	0	0
0.917241	525	1	0
0.917329	526	2	0
0.917745	528	1	0
0.921326	530	0	0
0.924618	530	0	0
0.924974	530	0	0
0.925462	530	0	0
0.927136	530	0	0
0.930303	530	0	0
0.932533	530	0	0
0.933512	531	0	0
0.935154	531	0	0
0.935536	531	0	0
0.935997	531	0	0
0.936156	532	1	0
0.937213	534	0	0
0.937342	534	0	0
0.937468	535	1	0
0.937549	537	0	0
0.939101	537	0	0
0.940291	538	0	0
0.941866	538	0	0
0.945935	538	0	0
0.946079	538	0	0
0.947236	538	1	0
0.947457	538	1	0
0.947826	539	2	0
0.947923	541	1	0
0.948956	543	0	0
0.95077	543	0	0
0.951706	543	0	0
0.951846	543	0	0
0.954883	543	0	0
0.956095	544	0	0
0.956281	544	0	0
0.957118	545	1	0
0.957481	547	0	0
0.957601	547	0	0
0.961247	547	0	0
0.961378	547	0	0
0.962068	548	1	0
0.962323	550	0	0
0.964589	550	0	0
0.965337	550	0	0
0.965501	550	0	0
0.966789	551	1	0
0.967132	553	0	0
0.969039	554	0	0
0.969178	554	0	0
0.969399	554	0	0
0.971125	555	0	0
0.971794	555	0	0
0.971911	556	0	0
0.974009	556	0	0
0.974637	556	0	0
0.975994	557	1	0
0.976388	557	1	0
0.980114	559	0	0
0.980832	559	0	0
0.980967	560	1	0
0.982473	562	0	0
0.98272	562	0	0
0.984167	562	0	0
0.987825	563	0	0
0.987889	563	0	0
0.988625	564	0	0
0.988999	564	0	0
0.994319	565	0	0
1.00342	565	0	0
1.00615	565	0	0
1.00687	565	0	0
1.00751	566	1	0
1.0078	567	1	0
1.00859	569	0	0
1.00903	569	0	0
1.0092	569	0	0
1.0092	569	0	0
1.00966	570	1	0
1.01132	572	0	0
1.01355	572	0	0
1.01359	573	0	0
1.01394	573	0	0
1.01433	573	0	0
1.01452	573	0	0
1.01551	573	0	0
1.01565	573	0	0
1.01831	573	0	0
1.02139	573	0	0
1.02191	573	0	0
1.02196	573	0	0
1.02282	573	0	0
1.02373	573	0	0
1.02398	573	2	0
1.02438	575	1	0
1.02732	577	0	0
1.02788	578	0	0
1.02974	578	0	0
1.03261	579	0	0
1.0349	579	0	0
1.03556	580	0	0
1.03561	582	0	0
1.03617	582	0	0
1.03992	582	0	0
1.04045	582	0	0
1.04105	582	1	0
1.04121	583	2	0
1.04121	583	2	0
1.04172	585	1	0
1.04192	586	2	0
1.04253	588	1	0
1.04317	590	0	0
1.04763	590	0	0
1.04828	590	0	0
1.04831	590	0	0
1.04846	591	1	0
1.0485	593	0	0
1.04856	593	0	0
1.0486	594	1	0
1.04956	596	0	0
1.05097	596	0	0
1.05154	597	0	0
1.05203	597	0	0
1.05353	597	0	0
1.05484	597	0	0
1.0553	597	0	0
1.05721	597	0	0
1.05753	597	0	0
1.05776	598	1	0
1.05916	600	0	0
1.05938	600	0	0
1.0619	600	0	0
1.06564	600	0	0
1.06603	600	0	0
1.06692	601	1	0
1.06804	603	0	0
1.0738	604	0	0
1.07405	604	0	0
1.07444	605	1	0
1.07454	607	0	0
1.07637	607	0	0
1.07655	607	0	0
1.07656	607	0	0
1.07677	608	1	0
1.07736	610	0	0
1.07749	610	0	0
1.07789	610	0	0
1.07802	610	0	0
1.07906	611	1	0
1.07935	613	0	0
1.07937	613	0	0
1.0807	613	0	0
1.08222	613	0	0
1.08277	613	0	0
1.0833	613	0	0
1.08341	614	1	0
1.08993	616	0	0
1.09261	616	0	0
1.09297	616	0	0
1.09358	616	0	0
1.10209	616	0	0
1.10217	616	0	0
1.10287	616	0	0
1.1032	617	1	0
1.10342	619	0	0
1.10399	620	0	0
1.10402	620	0	0
1.10507	620	0	0
1.108	621	0	0
1.1091	621	0	0
1.11007	621	0	0
1.11331	621	0	0
1.11347	621	0	0
1.11515	622	0	0
1.11921	622	0	0
1.12117	624	0	0
1.1215	624	0	0
1.12166	624	0	0
1.12252	624	0	0
1.12368	624	0	0
1.12492	624	0	0
1.12607	624	0	0
1.12636	625	0	0
1.12789	626	0	0
1.128	626	0	0
1.12814	626	0	0
1.12964	626	0	0
1.13319	627	0	0
1.13674	627	0	0
1.14177	627	0	0
1.14197	628	0	0
1.14349	628	0	0
1.14836	629	0	0
1.1484	629	0	0
1.15031	630	0	0
1.15086	630	0	0
1.15187	630	0	0
1.1522	630	0	0
1.15259	630	0	0
1.1535	631	1	0
1.15567	633	0	0
1.15653	633	0	0
1.15683	635	0	0
1.15832	636	0	0
1.15837	636	0	0
1.15876	637	0	0
1.1594	637	0	0
1.15941	638	1	0
1.16087	640	0	0
1.16151	641	0	0
1.16249	641	0	0
1.16312	641	1	0
1.16319	641	1	0
1.16325	642	2	0
1.16332	644	1	0
1.16688	646	0	0
1.16862	646	0	0
1.16953	646	0	0
1.17262	646	0	0
1.17296	646	0	0
1.17318	647	0	0
1.17533	647	0	0
1.1756	647	0	0
1.17612	647	0	0
1.17626	647	0	0
1.1766	648	1	0
1.17674	650	0	0
1.17733	650	0	0
1.17823	650	1	0
1.17829	651	2	0
1.17834	653	1	0
1.17897	655	0	0
1.18759	655	0	0
1.19318	655	0	0
1.19766	655	0	0
1.19835	655	0	0
1.20211	655	0	0
1.20219	656	0	0
1.20345	656	0	0
1.20415	656	0	0
1.20594	656	0	0
1.20768	656	0	0
1.20845	656	0	0
1.20995	656	0	0
1.21032	657	1	0
1.21123	659	0	0
1.21224	660	0	0
1.21304	660	0	0
1.21361	660	0	0
1.21525	660	0	0
1.21723	660	0	0
1.21814	660	0	0
1.21843	661	1	0
1.22155	663	0	0
1.22502	663	0	0
1.22536	663	0	0
1.22562	663	0	0
1.22586	663	0	0
1.2261	663	0	0
1.22731	663	0	0
1.22882	663	0	0
1.23233	663	0	0
1.23415	663	0	0
1.24009	663	0	0
1.24098	663	0	0
1.24156	663	0	0
1.24194	663	0	0
1.24323	663	0	0
1.24405	663	0	0
1.24497	663	0	0
1.2455	663	0	0
1.25007	663	0	0
1.25281	663	0	0
1.25417	663	0	0
1.25451	663	0	0
1.25469	664	1	0
1.25677	666	0	0
1.2575	666	0	0
1.26036	666	0	0
1.26048	666	2	0
1.2605	668	1	0
1.26332	670	0	0
1.26887	671	0	0
1.27035	672	0	0
1.27062	673	0	0
1.27107	673	0	0
1.27472	673	0	0
1.27803	673	0	0
1.28369	674	0	0
1.28454	674	0	0
1.28592	674	0	0
1.28742	674	0	0
1.28814	674	0	0
1.28834	674	0	0
1.28892	674	0	0
1.28948	674	0	0
1.29396	674	0	0
1.29588	674	0	0
1.29723	674	0	0
1.29737	674	0	0
1.29752	675	1	0
1.29896	677	0	0
1.30271	678	0	0
1.30288	678	0	0
1.30495	678	0	0
1.30933	679	0	0
1.31003	679	0	0
1.31026	680	1	0
1.31196	682	0	0
1.31522	682	0	0
1.31555	682	0	0
1.32069	682	0	0
1.32171	683	0	0
1.3222	683	0	0
1.32283	683	0	0
1.32398	683	0	0
1.32689	683	0	0
1.32735	683	0	0
1.32958	683	0	0
1.33152	684	0	0
1.33558	684	0	0
1.33897	684	0	0
1.34133	685	0	0
1.34159	685	0	0
1.34197	685	0	0
1.3421	685	0	0
1.34235	686	1	0
1.34353	688	0	0
1.34431	688	0	0
1.3444	688	0	0
1.3445	688	0	0
1.34667	688	1	0
1.34672	689	1	0
1.34675	690	2	0
1.34702	692	1	0
1.34708	694	0	0
1.34708	694	0	0
1.34712	694	2	0
1.34755	696	1	0
1.34767	698	0	0
1.3479	698	0	0
1.3485	699	1	0
1.3498	701	0	0
1.35367	701	0	0
1.35434	701	0	0
1.35915	701	0	0
1.36202	701	0	0
1.363	701	0	0
1.36395	701	0	0
1.36518	701	0	0
1.36522	701	2	0
1.36527	703	1	0
1.36992	705	0	0
1.38466	706	0	0
1.38817	707	0	0
1.3947	707	0	0
1.39516	707	0	0
1.39521	707	0	0
1.39555	708	1	0
1.39827	710	0	0
1.39874	710	0	0
1.39885	710	2	0
1.39982	712	1	0
1.39999	714	0	0
1.40232	714	0	0
1.40507	716	0	0
1.40532	716	0	0
1.40713	716	0	0
1.40953	716	0	0
1.41056	716	0	0
1.41232	717	0	0
1.41399	717	0	0
1.41655	717	0	0
1.41678	717	0	0
1.41899	718	1	0
1.42052	719	1	0
1.42054	719	1	0
1.42169	719	1	0
1.42227	719	1	0
1.42229	720	2	0
1.42306	722	1	0
1.42355	722	1	0
1.42834	723	1	0
1.432	723	1	0
1.43327	723	1	0
1.43356	723	1	0
1.43362	723	1	0
1.43369	724	2	0
1.43373	725	3	0
1.43426	727	2	0
1.43438	729	1	0
1.43475	729	1	0
1.43808	729	1	0
1.43834	729	1	0
1.43837	729	3	0
1.43852	731	2	0
1.44157	733	1	0
1.44361	734	1	0
1.44545	734	1	0
1.44915	734	1	0
1.45044	734	1	0
1.45076	734	2	0
1.45082	735	3	0
1.45105	737	2	0
1.45125	737	2	0
1.45134	739	1	0
1.45644	739	1	0
1.45779	741	1	0
1.46036	742	1	0
1.46094	742	1	0
1.46104	743	2	0
1.46133	744	2	0
1.46134	746	1	0
1.46151	748	1	0
1.46576	748	1	0
1.46849	748	1	0
1.47521	748	1	0
1.47532	748	1	0
1.4754	748	1	0
1.47551	749	2	0
1.4782	751	1	0
1.48742	751	1	0
1.49043	751	1	0
1.49261	751	1	0
1.49353	751	1	0
1.49484	751	1	0
1.4949	751	1	0
1.49492	752	1	0
1.49542	752	1	0
1.49598	753	1	0
1.50875	753	1	0
1.51077	753	1	0
1.51202	753	1	0
1.51359	753	1	0
1.51458	753	1	0
1.51522	754	1	0
1.51754	754	1	0
1.52051	754	1	0
1.52075	754	1	0
1.5211	755	2	0
1.52213	757	1	0
1.52221	757	1	0
1.52224	758	2	0
1.52674	760	1	0
1.52686	760	1	0
1.52687	760	3	0
1.52717	762	2	0
1.52916	764	1	0
1.53084	764	1	0
1.53194	764	1	0
1.53197	765	2	0
1.53259	765	2	0
1.53879	767	1	0
1.5503	767	1	0
1.55142	767	1	0
1.55143	767	3	0
1.55205	769	2	0
1.55282	771	1	0
1.55303	771	1	0
1.55376	771	1	0
1.55515	772	2	0
1.55798	772	2	0
1.55819	772	2	0
1.55839	772	2	0
1.559	772	2	0
1.55945	773	3	0
1.55963	773	4	0
1.56079	775	3	0
1.56089	775	3	0
1.56095	776	4	0
1.56159	778	3	0
1.56195	780	2	0
1.5639	780	2	0
1.56657	780	2	0
1.56755	780	2	0
1.56755	780	2	0
1.57277	780	2	0
1.57887	781	2	0
1.57904	781	2	0
1.57963	781	2	0
1.57973	781	2	0
1.58023	782	2	0
1.58031	782	2	0
1.58086	783	3	0
1.58175	785	2	0
1.58361	786	2	0
1.58564	786	2	0
1.5892	786	2	0
1.59218	787	2	0
1.59415	787	2	0
1.59867	787	2	0
1.60554	787	2	0
1.6056	789	2	0
1.60588	789	2	0
1.60645	789	2	0
1.6065	791	2	0
1.60663	791	2	0
1.60764	792	2	0
1.60834	793	3	0
1.61183	795	2	0
1.61309	795	2	0
1.61358	795	2	0
1.6157	796	2	0
1.61664	796	2	0
1.61731	797	3	0
1.61739	799	2	0
1.63135	799	2	0
1.63349	800	2	0
1.63378	800	2	0
1.63407	801	2	0
1.63726	801	2	0
1.63854	801	2	0
1.63883	801	3	0
1.63915	802	4	0
1.64	804	3	0
1.64275	806	2	0
1.64287	806	2	0
1.64377	807	3	0
1.64575	809	2	0
1.64604	809	2	0
1.64652	809	2	0
1.6492	810	2	0
1.65128	811	2	0
1.65167	811	2	0
1.65324	811	2	0
1.6546	811	2	0
1.65672	811	2	0
1.6613	811	2	0
1.66263	811	2	0
1.6658	811	2	0
1.66931	811	2	0
1.66942	812	2	0
1.67758	813	2	0
1.67818	813	2	0
1.67917	813	2	0
1.6856	813	2	0
1.68642	813	2	0
1.68896	814	2	0
1.68937	815	3	0
1.69434	817	2	0
1.69474	817	2	0
1.69497	817	2	0
1.69511	818	3	0
1.70031	820	2	0
1.70758	820	2	0
1.71103	820	2	0
1.71443	821	2	0
1.7168	821	2	0
1.72323	821	2	0
1.7249	821	2	0
1.72569	822	2	0
1.72581	823	3	0
1.72603	825	2	0
1.72821	825	2	0
1.72952	825	2	0
1.73189	825	2	0
1.73318	825	2	0
1.73528	825	2	0
1.737	825	2	0
1.73743	826	3	0
1.74262	828	2	0
1.74421	828	2	0
1.75173	828	2	0
1.75266	828	2	0
1.75268	829	3	0
1.75339	831	2	0
1.7566	832	2	0
1.76116	832	2	0
1.7612	832	2	0
1.76298	832	2	0
1.76342	832	2	0
1.7638	833	2	0
1.76469	833	3	0
1.76607	834	4	0
1.76615	835	5	0
1.7662	837	4	0
1.76658	839	3	0
1.76703	839	3	0
1.7673	839	3	0
1.76736	839	3	0
1.76877	839	3	0
1.77456	839	3	0
1.77482	840	3	0
1.77572	840	3	0
1.77585	841	4	0
1.77689	843	3	0
1.78015	843	3	0
1.78099	844	3	0
1.79338	844	3	0
1.79534	844	3	0
1.79902	845	3	0
1.80246	845	3	0
1.80473	846	3	0
1.81541	847	3	0
1.82498	847	3	0
1.82827	847	3	0
1.8315	847	3	0
1.83291	847	3	0
1.83459	847	3	0
1.83517	848	4	0
1.83598	849	4	0
1.83713	851	3	0
1.83804	851	3	0
1.83825	852	4	0
1.84219	854	3	0
1.84235	854	3	0
1.84739	854	4	0
1.84761	854	4	0
1.84795	854	4	0
1.84858	854	4	0
1.84877	855	5	0
1.85163	857	4	0
1.85364	857	4	0
1.85374	857	6	0
1.85374	859	5	0
1.85419	861	4	0
1.85503	863	3	0
1.85549	863	3	0
1.85629	863	3	0
1.85732	864	3	0
1.8574	864	3	0
1.85845	864	3	0
1.85929	864	4	0
1.86008	864	4	0
1.86161	864	4	0
1.86178	865	4	0
1.86181	866	5	0
1.86192	868	4	0
1.86194	868	4	0
1.86239	870	3	0
1.86279	870	3	0
1.86323	870	3	0
1.87596	870	3	0
1.87696	870	3	0
1.87813	870	3	0
1.87999	871	3	0
1.88254	871	3	0
1.89968	872	3	0
1.91596	872	3	0
1.91632	872	3	0
1.91636	872	5	0
1.91656	874	4	0
1.91875	876	3	0
1.91928	876	3	0
1.92356	876	3	0
1.92801	876	3	0
1.92885	877	4	0
1.93034	879	3	0
1.93078	879	3	0
1.93898	879	3	0
1.94807	879	3	0
1.95225	879	3	0
1.95251	879	3	0
1.95254	880	4	0
1.95414	882	3	0
1.96147	882	3	0
1.96467	882	3	0
1.9648	882	3	0
1.96559	884	3	0
1.96613	885	4	0
1.97608	887	3	0
1.9762	887	3	0
1.97716	887	3	0
1.97745	887	3	0
1.97752	887	4	0
1.97768	888	5	0
1.97798	890	4	0
1.97813	890	4	0
1.98748	892	3	0
1.9927	892	3	0
1.99471	892	3	0
1.99479	893	3	0
1.9964	894	4	0
1.99759	896	3	0
1.99994	896	3	0
2.00016	896	3	0
2.00024	897	4	0
2.00108	899	3	0
2.00253	899	3	0
2.00868	899	3	0
2.01531	899	3	0
2.0158	899	3	0
2.02181	900	3	0
2.02224	900	3	0
2.02274	900	4	0
2.02291	901	5	0
2.02323	903	4	0
2.02914	905	3	0
2.03007	907	2	0
2.03116	907	2	0
2.03167	907	2	0
2.03182	907	2	0
2.03197	907	2	0
2.03555	907	2	0
2.03592	907	2	0
2.03671	907	2	0
2.03711	907	2	0
2.03757	908	3	0
2.04964	910	2	0
2.0523	910	2	0
2.05742	910	2	0
2.05952	911	2	0
2.06081	911	2	0
2.06354	911	2	0
2.06537	911	2	0
2.06575	911	2	0
2.06608	911	2	0
2.06652	912	3	0
2.06687	914	2	0
2.06732	915	3	0
2.06987	917	2	0
2.0708	917	2	0
2.07676	917	2	0
2.07758	917	2	0
2.07837	917	2	0
2.07911	917	2	0
2.08307	917	2	0
2.08426	917	2	0
2.08484	917	2	0
2.09255	917	2	0
2.09396	917	2	0
2.09544	917	2	0
2.09774	917	2	0
2.10174	917	2	0
2.10245	917	2	0
2.10969	917	2	0
2.12539	917	2	0
2.12922	917	2	0
2.12923	917	2	0
2.12939	918	3	0
2.12982	918	3	0
2.13082	920	2	0
2.131	920	2	0
2.13137	920	3	0
2.13187	921	4	0
2.13219	923	3	0
2.13678	925	2	0
2.13973	925	2	0
2.14107	925	2	0
2.14111	925	2	0
2.14114	925	4	0
2.1412	927	3	0
2.14128	929	2	0
2.14157	929	2	0
2.14445	929	2	0
2.14469	929	2	0
2.14492	930	3	0
2.14548	932	2	0
2.14738	932	2	0
2.1502	932	3	0
2.1582	934	3	0
2.15839	934	3	0
2.15855	936	2	0
2.16688	936	2	0
2.16877	936	2	0
2.16982	936	2	0
2.17097	936	2	0
2.17137	937	3	0
2.17293	939	2	0
2.17575	939	2	0
2.17614	939	2	0
2.1763	939	2	0
2.17645	939	2	0
2.17654	939	4	0
2.17668	941	3	0
2.17772	943	2	0
2.17914	945	2	0
2.17954	945	2	0
2.18267	945	2	0
2.19166	945	2	0
2.19192	945	2	0
2.19364	946	2	0
2.2001	947	2	0
2.20089	947	2	0
2.20589	949	1	0
2.20602	949	1	0
2.21319	949	1	0
2.21377	949	1	0
2.21436	949	3	0
2.21464	951	2	0
2.21545	953	1	0
2.21555	953	1	0
2.21572	954	2	0
2.21808	956	1	0
2.22011	956	1	0
2.2202	956	3	0
2.22038	958	2	0
2.22283	960	1	0
2.22327	960	1	0
2.22346	961	2	0
2.22479	963	1	0
2.22543	963	1	0
2.22577	964	2	0
2.22742	966	1	0
2.22751	966	1	0
2.22779	966	2	0
2.22811	967	3	0
2.22874	969	2	0
2.22954	971	1	0
2.22957	971	1	0
2.231	971	1	0
2.23127	971	1	0
2.2323	972	2	0
2.24552	974	1	0
2.24552	974	1	0
2.24553	974	3	0
2.2459	976	2	0
2.24685	978	1	0
2.25049	978	1	0
2.25132	978	1	0
2.25135	979	2	0
2.25332	981	1	0
2.25518	981	1	0
2.25645	981	1	0
2.25908	981	1	0
2.25915	982	2	0
2.25932	984	1	0
2.26093	984	1	0
2.26111	984	1	0
2.27403	984	1	0
2.27758	985	1	0
2.27888	986	1	0
2.28258	986	1	0
2.28548	986	1	0
2.28797	986	1	0
2.28826	986	3	0
2.28855	988	2	0
2.2967	990	1	0
2.29941	990	1	0
2.30633	991	1	0
2.31664	991	1	0
2.3214	991	1	0
2.32175	991	1	0
2.32218	991	2	0
2.32232	992	3	0
2.32233	994	2	0
2.33636	996	1	0
2.3367	996	1	0
2.33713	996	3	0
2.33779	998	2	0
2.33983	1000	1	0
2.34672	1000	1	0
2.3531	1000	1	0
2.35313	1000	1	0
2.35383	1001	2	0
2.35532	1003	1	0
2.35671	1004	1	0
2.35859	1004	1	0
2.36224	1004	1	0
2.36402	1004	2	0
2.36407	1004	2	0
2.36421	1005	3	0
2.36424	1007	2	0
2.36589	1009	1	0
2.36768	1009	1	0
2.37785	1009	1	0
2.39218	1009	1	0
2.39503	1009	1	0
2.3994	1009	1	0
2.40196	1009	1	0
2.40253	1009	1	0
2.40275	1009	3	0
2.40282	1011	2	0
2.41629	1013	1	0
2.42331	1013	1	0
2.42502	1013	1	0
2.42601	1013	1	0
2.43426	1013	1	0
2.43514	1013	1	0
2.43517	1014	2	0
2.4375	1016	1	0
2.4376	1016	1	0
2.43815	1017	2	0
2.45701	1019	1	0
2.46667	1019	1	0
2.46977	1020	1	0
2.46997	1020	1	0
2.47	1020	3	0
2.47015	1022	2	0
2.47386	1024	1	0
2.47855	1024	1	0
2.483	1024	1	0
2.4925	1026	1	0
2.49989	1026	1	0
2.51413	1026	1	0
2.51979	1026	1	0
2.52058	1026	1	0
2.5208	1026	2	0
2.52082	1027	3	0
2.52084	1029	2	0
2.54479	1031	1	0
2.54491	1031	1	0
2.54496	1031	1	0
2.5455	1032	2	0
2.54672	1034	1	0
2.55702	1034	1	0
2.55742	1034	1	0
2.55752	1035	2	0
2.56376	1037	1	0
2.56542	1038	1	0
2.56665	1038	1	0
2.57296	1038	1	0
2.57324	1038	1	0
2.5739	1039	2	0
2.57904	1041	1	0
2.5957	1041	1	0
2.60216	1042	1	0
2.61465	1042	1	0
2.61835	1042	1	0
2.62611	1042	1	0
2.62667	1042	1	0
2.62955	1042	1	0
2.63418	1042	1	0
2.63444	1042	1	0
2.63492	1042	1	0
2.63495	1042	3	0
2.63545	1044	2	0
2.63567	1046	1	0
2.6375	1046	1	0
2.63778	1046	1	0
2.63794	1047	1	0
2.64146	1047	1	0
2.64191	1047	1	0
2.64214	1047	1	0
2.64232	1047	2	0
2.64252	1048	3	0
2.64305	1050	2	0
2.64532	1052	1	0
2.65944	1052	1	0
2.66879	1053	1	0
2.66907	1053	1	0
2.66995	1054	2	0
2.68716	1056	1	0
2.68857	1056	1	0
2.6896	1056	1	0
2.70565	1056	1	0
2.70904	1056	1	0
2.71076	1056	1	0
2.7109	1056	2	0
2.71122	1057	3	0
2.71152	1059	2	0
2.7116	1059	2	0
2.7117	1061	1	0
2.72249	1061	1	0
2.72264	1061	1	0
2.73155	1061	1	0
2.73178	1061	1	0
2.7318	1062	2	0
2.735	1064	1	0
2.7372	1064	1	0
2.73861	1064	1	0
2.74023	1064	1	0
2.74033	1065	2	0
2.74618	1067	1	0
2.75289	1067	1	0
2.76343	1067	1	0
2.76401	1067	1	0
2.76505	1067	2	0
2.76547	1068	3	0
2.76572	1070	2	0
2.76626	1072	1	0
2.7688	1072	1	0
2.76907	1073	2	0
2.76996	1075	1	0
2.77327	1075	1	0
2.77345	1075	1	0
2.77388	1075	1	0
2.77397	1075	3	0
2.77489	1077	2	0
2.77527	1079	1	0
2.77555	1080	2	0
2.78585	1082	1	0
2.80919	1082	1	0
2.81396	1082	1	0
2.81538	1082	1	0
2.81561	1082	2	0
2.81581	1083	3	0
2.81599	1083	3	0
2.81607	1085	2	0
2.81653	1086	3	0
2.81661	1088	2	0
2.84638	1090	1	0
2.85498	1091	1	0
2.86023	1091	1	0
2.86176	1091	1	0
2.86279	1092	2	0
2.87164	1094	1	0
2.87229	1094	1	0
2.8726	1095	2	0
2.87349	1097	1	0
2.87619	1097	1	0
2.8781	1097	1	0
2.87829	1097	1	0
2.88585	1097	1	0
2.88682	1097	1	0
2.88761	1098	2	0
2.89677	1100	1	0
2.90288	1101	1	0
2.90354	1101	1	0
2.90364	1102	2	0
2.90633	1104	1	0
2.90994	1104	1	0
2.9173	1104	1	0
2.92896	1104	1	0
2.92958	1104	1	0
2.93184	1104	2	0
2.93196	1104	2	0
2.932	1105	3	0
2.93211	1107	2	0
2.93228	1108	3	0
2.93247	1110	2	0
2.93645	1112	1	0
2.94014	1112	1	0
2.94021	1112	1	0
2.94031	1113	2	0
2.94145	1115	1	0
2.9464	1115	1	0
2.95288	1115	1	0
2.96116	1115	1	0
2.96251	1115	1	0
2.96256	1116	2	0
2.96369	1118	1	0
2.96448	1118	1	0
2.9647	1119	2	0
2.97612	1121	1	0
2.97654	1121	1	0
2.9782	1122	2	0
2.97933	1124	1	0
2.98085	1125	1	0
2.99422	1125	1	0
2.99805	1125	1	0
3.00048	1125	1	0
3.00145	1126	2	0
3.00568	1128	1	0
3.02545	1128	1	0
3.03633	1128	1	0
3.03805	1128	1	0
3.04442	1128	1	0
3.04764	1128	1	0
3.05626	1128	1	0
3.05703	1128	1	0
3.05754	1128	2	0
3.05802	1128	2	0
3.05954	1128	2	0
3.05984	1129	3	0
3.05995	1131	2	0
3.07251	1133	1	0
3.07646	1133	1	0
3.09496	1133	1	0
3.11032	1133	1	0
3.12133	1133	1	0
3.13191	1135	0	0
3.13372	1135	0	0
3.13402	1135	0	0
3.13605	1135	0	0
3.13615	1135	1	0
3.13617	1136	2	0
3.13641	1138	1	0
3.13847	1140	0	0
3.15353	1140	0	0
3.15413	1140	0	0
3.16003	1140	0	0
3.16752	1141	0	0
3.16892	1141	0	0
3.16949	1141	1	0
3.16994	1141	1	0
3.17009	1142	2	0
3.1702	1144	1	0
3.1801	1146	0	0
3.18055	1146	0	0
3.18074	1147	1	0
3.18172	1149	0	0
3.18447	1149	0	0
3.18595	1149	0	0
3.18694	1149	1	0
3.18756	1149	1	0
3.18779	1150	2	0
3.18803	1152	1	0
3.18812	1153	2	0
3.18918	1155	1	0
3.21115	1157	0	0
3.2213	1157	0	0
3.23215	1157	0	0
3.23229	1157	0	0
3.23239	1157	2	0
3.23252	1159	1	0
3.23599	1161	0	0
3.23909	1161	0	0
3.24146	1162	0	0
3.2421	1162	0	0
3.24212	1162	2	0
3.24269	1164	1	0
3.24326	1166	0	0
3.24409	1166	0	0
3.24487	1166	1	0
3.24489	1167	2	0
3.24509	1169	1	0
3.25196	1171	0	0
3.26761	1171	0	0
3.27193	1171	0	0
3.27223	1171	2	0
3.27238	1173	1	0
3.27274	1175	0	0
3.28999	1175	0	0
3.29927	1175	0	0
3.30252	1175	0	0
3.30286	1175	0	0
3.30433	1176	1	0
3.31042	1178	0	0
3.3133	1178	0	0
3.31379	1179	0	0
3.31792	1179	0	0
3.32655	1179	0	0
3.34894	1179	0	0
3.34988	1179	0	0
3.35765	1179	0	0
3.3581	1179	0	0
3.35891	1179	1	0
3.35897	1180	2	0
3.35939	1182	1	0
3.36123	1184	0	0
3.36167	1184	0	0
3.36733	1184	0	0
3.36745	1184	0	0
3.36765	1184	1	0
3.36858	1186	1	0
3.36881	1187	2	0
3.36906	1189	1	0
3.38025	1191	0	0
3.41275	1191	0	0
3.42816	1191	0	0
3.43143	1191	0	0
3.45472	1191	0	0
3.45662	1191	0	0
3.45665	1191	0	0
3.4596	1191	0	0
3.45979	1191	0	0
3.45993	1192	1	0
3.46124	1194	0	0
3.46169	1194	2	0
3.4618	1196	1	0
3.46488	1198	0	0
3.46571	1198	0	0
3.46595	1198	0	0
3.46598	1198	1	0
3.46609	1199	2	0
3.46686	1201	1	0
3.46704	1201	1	0
3.46833	1203	0	0
3.47208	1203	0	0
3.47736	1205	0	0
3.47749	1205	0	0
3.47756	1206	1	0
3.47945	1208	0	0
3.4957	1208	0	0
3.49589	1208	0	0
3.49669	1208	1	0
3.49815	1209	1	0
3.49817	1210	2	0
3.49822	1210	2	0
3.49838	1212	1	0
3.49844	1213	2	0
3.49853	1215	1	0
3.49917	1216	1	0
3.50926	1218	0	0
3.52413	1218	0	0
3.52489	1218	0	0
3.52496	1218	2	0
3.52635	1220	1	0
3.53148	1222	0	0
3.53427	1222	0	0
3.53432	1222	2	0
3.53441	1224	1	0
3.54409	1226	0	0
3.54636	1226	0	0
3.54748	1227	1	0
3.56331	1229	0	0
3.56923	1229	0	0
3.56961	1229	0	0
3.56985	1230	1	0
3.56997	1232	0	0
3.57176	1232	0	0
3.57304	1233	1	0
3.58546	1235	0	0
3.58645	1235	0	0
3.58648	1235	0	0
3.58698	1236	1	0
3.587	1238	0	0
3.59782	1239	1	0
3.59803	1239	1	0
3.59816	1239	1	0
3.59882	1240	2	0
3.61083	1242	1	0
3.61602	1242	1	0
3.61682	1242	1	0
3.61709	1242	1	0
3.62747	1242	2	0
3.62942	1242	2	0
3.6301	1242	2	0
3.66248	1242	2	0
3.66257	1242	2	0
3.66376	1244	1	0
3.66498	1244	2	0
3.66508	1245	3	0
3.66529	1247	2	0
3.66562	1247	2	0
3.6759	1249	1	0
3.67918	1249	1	0
3.67979	1250	2	0
3.6805	1252	1	0
3.6832	1252	1	0
3.68873	1252	1	0
3.70144	1252	1	0
3.70478	1252	1	0
3.70596	1252	2	0
3.70623	1253	3	0
3.70652	1255	2	0
3.71417	1257	1	0
3.71915	1257	1	0
3.71954	1257	1	0
3.72047	1258	2	0
3.72177	1258	2	0
3.72259	1259	3	0
3.72279	1261	2	0
3.72472	1263	1	0
3.72473	1263	1	0
3.74282	1263	1	0
3.74484	1263	1	0
3.74529	1263	1	0
3.74552	1264	2	0
3.74683	1266	1	0
3.75872	1266	1	0
3.77061	1266	1	0
3.77147	1266	1	0
3.77182	1267	2	0
3.77763	1269	1	0
3.78154	1269	1	0
3.785	1269	1	0
3.80313	1269	1	0
3.80523	1269	1	0
3.80682	1269	1	0
3.80786	1269	2	0
3.80787	1270	3	0
3.80842	1272	2	0
3.81569	1274	1	0
3.81703	1274	1	0
3.81752	1274	2	0
3.81785	1275	3	0
3.81813	1277	2	0
3.83847	1279	1	0
3.84017	1279	1	0
3.84036	1279	3	0
3.84111	1281	2	0
3.86002	1283	1	0
3.86018	1283	1	0
3.86109	1283	2	0
3.86112	1284	3	0
3.8614	1286	2	0
3.86802	1288	1	0
3.86805	1288	1	0
3.86885	1289	2	0
3.86992	1291	1	0
3.87019	1291	1	0
3.87021	1292	2	0
3.87119	1294	1	0
3.8729	1294	1	0
3.87297	1294	2	0
3.87319	1295	3	0
3.87326	1297	2	0
3.88558	1299	1	0
3.88971	1301	1	0
3.90375	1301	1	0
3.90424	1301	1	0
3.92894	1301	1	0
3.93641	1301	1	0
3.97393	1301	1	0
3.98207	1301	1	0
3.98395	1301	1	0
3.98582	1301	2	0
3.98594	1301	3	0
3.98612	1301	4	0
3.98795	1303	3	0
3.98845	1303	4	0
3.98986	1305	3	0
3.99003	1306	4	0
3.99016	1308	3	0
3.99054	1310	2	0
4.00191	1312	1	0
4.00402	1312	1	0
4.00487	1313	2	0
4.01507	1315	1	0
4.01576	1315	1	0
4.01585	1315	3	0
4.01746	1317	2	0
4.02805	1319	1	0
4.02916	1319	1	0
4.02923	1320	2	0
4.07219	1322	1	0
4.07457	1322	1	0
4.07835	1322	1	0
4.07838	1322	1	0
4.07858	1323	2	0
4.07977	1325	1	0
4.07993	1326	2	0
4.0986	1328	1	0
4.10041	1328	1	0
4.10092	1329	2	0
4.10147	1331	1	0
4.10547	1331	1	0
4.10655	1331	1	0
4.10661	1331	2	0
4.10675	1332	3	0
4.10729	1334	2	0
4.11048	1336	1	0
4.11075	1336	1	0
4.11084	1337	2	0
4.12097	1339	1	0
4.12193	1339	1	0
4.12213	1339	1	0
4.12231	1340	2	0
4.12798	1342	1	0
4.12821	1342	1	0
4.12824	1342	3	0
4.12853	1344	2	0
4.16988	1346	1	0
4.17198	1346	1	0
4.17227	1346	1	0
4.17397	1346	2	0
4.17414	1347	3	0
4.17475	1349	2	0
4.18556	1351	1	0
4.19667	1351	1	0
4.21044	1351	1	0
4.21146	1351	1	0
4.21158	1351	3	0
4.21168	1353	2	0
4.21802	1355	1	0
4.21973	1355	1	0
4.21995	1355	3	0
4.22002	1357	2	0
4.23773	1359	1	0
4.24835	1359	1	0
4.24843	1359	1	0
4.24964	1360	2	0
4.26291	1362	1	0
4.28693	1362	1	0
4.28732	1362	1	0
4.28765	1362	1	0
4.28824	1363	2	0
4.29075	1365	1	0
4.29081	1366	2	0
4.3036	1368	1	0
4.30709	1368	1	0
4.30776	1368	1	0
4.30851	1369	2	0
4.32726	1371	1	0
4.32862	1371	1	0
4.32876	1371	3	0
4.32894	1373	2	0
4.33316	1375	1	0
4.35616	1375	1	0
4.35632	1375	1	0
4.35713	1376	2	0
4.38488	1378	1	0
4.38681	1378	1	0
4.38701	1379	2	0
4.40178	1381	1	0
4.40376	1381	1	0
4.40405	1382	2	0
4.41473	1384	1	0
4.41622	1384	1	0
4.42151	1384	1	0
4.42164	1384	1	0
4.42194	1385	2	0
4.46696	1387	1	0
4.46784	1387	1	0
4.46804	1388	2	0
4.48223	1390	1	0
4.50961	1390	1	0
4.51107	1390	1	0
4.51152	1390	1	0
4.51352	1390	1	0
4.51434	1391	2	0
4.51493	1391	2	0
4.5151	1393	1	0
4.51518	1393	1	0
4.51528	1393	3	0
4.51531	1395	2	0
4.5324	1397	1	0
4.53355	1397	1	0
4.53536	1398	2	0
4.56288	1400	1	0
4.56361	1400	1	0
4.56368	1401	2	0
4.58449	1403	1	0
4.58489	1403	1	0
4.58571	1403	1	0
4.58639	1403	2	0
4.58646	1404	3	0
4.58675	1406	2	0
4.59645	1408	1	0
4.62695	1408	1	0
4.62835	1408	1	0
4.63079	1408	2	0
4.63086	1409	3	0
4.6311	1411	2	0
4.67176	1413	1	0
4.69378	1413	1	0
4.70534	1413	1	0
4.71835	1413	1	0
4.72996	1413	1	0
4.73005	1413	1	0
4.73023	1414	2	0
4.74631	1416	1	0
4.74777	1416	1	0
4.75022	1416	2	0
4.75128	1417	3	0
4.75166	1419	2	0
4.7653	1421	1	0
4.78294	1421	1	0
4.78354	1421	1	0
4.78359	1421	1	0
4.7836	1421	3	0
4.7838	1423	2	0
4.80304	1425	1	0
4.80363	1425	1	0
4.8048	1425	2	0
4.80552	1426	3	0
4.80578	1428	2	0
4.80755	1430	1	0
4.8093	1430	1	0
4.80956	1430	3	0
4.80968	1432	2	0
4.81265	1434	1	0
4.81378	1434	1	0
4.81688	1434	2	0
4.81721	1435	3	0
4.81733	1437	2	0
4.86903	1439	1	0
4.87111	1439	1	0
4.87125	1440	2	0
4.92556	1442	1	0
4.9319	1442	1	0
4.93437	1442	1	0
4.93442	1442	1	0
4.93479	1443	2	0
4.93534	1445	1	0
4.97623	1445	1	0
4.99394	1445	1	0
4.99551	1445	1	0
4.99563	1446	2	0
5.01436	1448	1	0
5.01822	1448	1	0
5.03389	1448	1	0
5.047	1448	1	0
5.06663	1448	1	0
5.06859	1448	1	0
5.1015	1449	2	0
5.11091	1449	2	0
5.12718	1449	2	0
5.12767	1449	2	0
5.12777	1450	3	0
5.14645	1452	2	0
5.15326	1452	2	0
5.15359	1452	2	0
5.15374	1452	3	0
5.15374	1453	4	0
5.15445	1455	3	0
5.18013	1457	2	0
5.18029	1457	2	0
5.18054	1458	3	0
5.18928	1460	2	0
5.20565	1460	2	0
5.25413	1460	2	0
5.26371	1460	2	0
5.28003	1460	2	0
5.28923	1460	2	0
5.29026	1460	2	0
5.29063	1460	3	0
5.29079	1461	4	0
5.29084	1463	3	0
5.29591	1465	2	0
5.29672	1465	2	0
5.29676	1466	3	0
5.33072	1468	2	0
5.33454	1468	2	0
5.33626	1468	2	0
5.3363	1468	4	0
5.33765	1470	3	0
5.33779	1470	3	0
5.33798	1472	2	0
5.33823	1473	3	0
5.37439	1475	2	0
5.37678	1475	2	0
5.37781	1475	2	0
5.39135	1475	2	0
5.40709	1475	2	0
5.41139	1475	2	0
5.43391	1476	3	0
5.43427	1476	3	0
5.4343	1477	4	0
5.46453	1479	3	0
5.48175	1479	3	0
5.48188	1479	3	0
5.48305	1480	4	0
5.49138	1482	3	0
5.49276	1482	3	0
5.49289	1482	5	0
5.49329	1484	4	0
5.55156	1486	3	0
5.5519	1486	3	0
5.55438	1486	3	0
5.55441	1487	4	0
5.56768	1489	3	0
5.56898	1489	3	0
5.56947	1490	4	0
5.57811	1492	3	0
5.58589	1492	3	0
5.58634	1492	3	0
5.58761	1492	4	0
5.58819	1492	4	0
5.58829	1493	5	0
5.5883	1495	4	0
5.58873	1497	3	0
5.58899	1498	4	0
5.58952	1500	3	0
5.59052	1500	3	0
5.59059	1501	4	0
5.63763	1503	3	0
5.64868	1503	3	0
5.64873	1503	3	0
5.64896	1503	3	0
5.64934	1504	4	0
5.66279	1506	3	0
5.66642	1506	3	0
5.67029	1506	3	0
5.67211	1506	3	0
5.67276	1506	3	0
5.67371	1507	4	0
5.67551	1509	3	0
5.67578	1509	3	0
5.67624	1510	4	0
5.68703	1512	3	0
5.69425	1512	3	0
5.69468	1512	3	0
5.69527	1513	4	0
5.71965	1515	3	0
5.71982	1515	3	0
5.72127	1515	4	0
5.72131	1516	5	0
5.72137	1518	4	0
5.77818	1520	3	0
5.78042	1520	3	0
5.78054	1520	5	0
5.78055	1522	4	0
5.78125	1522	4	0
5.78807	1524	3	0
5.78902	1524	3	0
5.79614	1524	3	0
5.85613	1524	3	0
5.85812	1524	3	0
5.85847	1524	4	0
5.85885	1525	5	0
5.85922	1527	4	0
5.86231	1529	3	0
5.88675	1529	3	0
5.88795	1529	3	0
5.89098	1530	4	0
5.8916	1530	4	0
5.89508	1530	4	0
5.89596	1531	5	0
5.94171	1533	4	0
5.9492	1533	4	0
5.94938	1533	4	0
5.94956	1533	5	0
5.94973	1533	5	0
5.95011	1534	6	0
5.95146	1536	5	0
5.96047	1538	4	0
5.97521	1538	4	0
5.9802	1538	4	0
5.99515	1538	4	0
6.0273	1538	4	0
6.06908	1538	4	0
6.07302	1538	4	0
6.07303	1538	5	0
6.07305	1539	6	0
6.07345	1541	5	0
6.08847	1543	4	0
6.15685	1543	4	0
6.19908	1543	4	0
6.19989	1543	4	0
6.20022	1544	5	0
6.20775	1546	4	0
6.21041	1546	4	0
6.21053	1546	6	0
6.21062	1548	5	0
6.24342	1550	4	0
6.25783	1550	4	0
6.26302	1550	4	0
6.26324	1550	4	0
6.26341	1550	6	0
6.26342	1552	5	0
6.26653	1554	4	0
6.26708	1554	4	0
6.26754	1555	5	0
6.27024	1557	4	0
6.30484	1557	4	0
6.30548	1557	4	0
6.30557	1558	5	0
6.30687	1560	4	0
6.32429	1560	4	0
6.32449	1560	4	0
6.32463	1561	5	0
6.35413	1563	4	0
6.35519	1563	4	0
6.35642	1564	5	0
6.3934	1566	4	0
6.3952	1566	4	0
6.39532	1566	5	0
6.39534	1567	6	0
6.39572	1569	5	0
6.39574	1571	4	0
6.40123	1571	4	0
6.40137	1571	4	0
6.4021	1571	4	0
6.4021	1572	5	0
6.42632	1574	4	0
6.45691	1574	4	0
6.45699	1574	4	0
6.45707	1575	5	0
6.45845	1577	4	0
6.46204	1577	4	0
6.46241	1578	5	0
6.49515	1580	4	0
6.49679	1580	4	0
6.49731	1581	5	0
6.50492	1583	4	0
6.5082	1583	4	0
6.50832	1583	5	0
6.50835	1584	6	0
6.50912	1586	5	0
6.5104	1588	4	0
6.51499	1588	4	0
6.51519	1589	5	0
6.51599	1591	4	0
6.52156	1593	3	0
6.53644	1593	3	0
6.53736	1593	3	0
6.53792	1594	4	0
6.57135	1596	3	0
6.57333	1596	3	0
6.5738	1596	3	0
6.57393	1596	5	0
6.57412	1598	4	0
6.57449	1600	3	0
6.57466	1600	3	0
6.57538	1600	4	0
6.57581	1600	4	0
6.576	1601	5	0
6.57606	1602	6	0
6.57682	1604	5	0
6.57683	1606	4	0
6.57778	1608	3	0
6.57783	1608	3	0
6.57804	1608	4	0
6.57838	1609	5	0
6.57871	1611	4	0
6.59333	1613	3	0
6.6201	1613	3	0
6.65116	1613	3	0
6.65236	1613	3	0
6.6574	1613	4	0
6.65814	1613	4	0
6.6583	1613	5	0
6.65836	1614	6	0
6.65849	1616	5	0
6.67621	1618	4	0
6.67641	1618	4	0
6.67651	1619	5	0
6.71238	1621	4	0
6.71261	1621	4	0
6.7423	1623	3	0
6.7478	1623	3	0
6.74787	1624	4	0
6.74791	1624	4	0
6.77816	1626	3	0
6.7909	1626	3	0
6.79222	1626	3	0
6.79273	1626	4	0
6.79307	1626	4	0
6.79354	1627	5	0
6.79427	1629	4	0
6.81534	1631	3	0
6.81588	1631	3	0
6.81685	1632	4	0
6.81878	1634	3	0
6.81892	1634	3	0
6.81896	1634	5	0
6.81983	1636	4	0
6.82431	1638	3	0
6.82577	1638	3	0
6.82606	1639	4	0
6.85712	1641	3	0
6.86942	1641	3	0
6.87293	1641	3	0
6.87298	1642	4	0
6.88389	1644	3	0
6.89221	1646	2	0
6.89229	1646	2	0
6.89232	1647	3	0
6.90278	1649	2	0
6.9034	1649	2	0
6.90376	1650	3	0
6.91648	1652	2	0
6.91649	1652	2	0
6.91657	1652	3	0
6.91721	1653	4	0
6.91757	1655	3	0
6.92502	1657	2	0
6.93612	1657	2	0
6.93728	1657	2	0
6.93837	1657	3	0
6.93874	1658	4	0
6.94101	1660	3	0
6.94682	1662	2	0
6.94958	1662	2	0
6.95723	1662	2	0
6.95842	1662	2	0
6.95843	1662	4	0
6.9587	1664	3	0
7.11453	1666	2	0
7.11474	1666	2	0
7.11483	1667	3	0
7.23744	1669	2	0
7.23777	1669	2	0
7.23783	1669	4	0
7.23826	1671	3	0
7.34593	1673	2	0
7.348	1673	2	0
7.3486	1674	3	0
7.41091	1676	2	0
7.41256	1676	2	0
7.41273	1677	3	0
7.47848	1679	2	0
7.47951	1679	2	0
7.48005	1679	3	0
7.48007	1680	4	0
7.48055	1682	3	0
7.50229	1684	2	0
7.50259	1684	2	0
7.5028	1684	4	0
7.5037	1686	3	0
7.50922	1688	2	0
7.55227	1688	2	0
7.55928	1688	2	0
7.55982	1688	2	0
7.55986	1689	3	0
7.589	1691	2	0
7.59849	1691	2	0
7.60317	1691	2	0
7.60532	1691	2	0
7.62929	1691	2	0
7.6394	1691	2	0
7.63961	1691	2	0
7.63978	1692	3	0
7.65403	1694	2	0
7.68182	1694	2	0
7.68345	1694	2	0
7.68347	1695	3	0
7.69958	1697	2	0
7.7011	1697	2	0
7.70154	1698	3	0
7.7777	1700	2	0
7.77816	1700	2	0
7.77826	1700	4	0
7.77838	1702	3	0
7.78815	1704	2	0
7.78973	1704	2	0
7.79042	1705	3	0
7.79604	1707	2	0
7.7973	1707	2	0
7.79754	1707	4	0
7.79779	1709	3	0
7.7985	1711	2	0
7.87486	1711	2	0
7.87492	1711	2	0
7.88449	1711	3	0
7.8846	1712	4	0
7.88487	1714	3	0
7.9136	1716	2	0
7.91386	1716	2	0
7.91387	1717	3	0
7.96676	1719	2	0
7.96785	1719	2	0
7.96897	1719	3	0
7.96921	1720	4	0
7.96983	1722	3	0
7.99076	1724	2	0
7.99733	1724	2	0
7.99783	1724	2	0
7.99839	1725	3	0
8.00481	1727	2	0
8.0051	1727	2	0
8.00538	1728	3	0
8.01325	1730	2	0
8.01401	1730	2	0
8.01423	1731	3	0
8.02862	1733	2	0
8.03488	1733	2	0
8.03567	1733	2	0
8.03574	1733	4	0
8.0363	1735	3	0
8.05213	1737	2	0
8.05345	1737	2	0
8.05356	1738	3	0
8.05404	1740	2	0
8.05427	1740	2	0
8.05449	1740	4	0
8.05464	1742	3	0
8.0547	1744	2	0
8.0562	1744	2	0
8.05697	1745	3	0
8.09626	1747	2	0
8.09692	1747	2	0
8.09727	1748	3	0
8.11386	1750	2	0
8.1716	1750	2	0
8.17343	1750	2	0
8.17361	1751	3	0
8.17431	1753	2	0
8.1773	1753	2	0
8.22052	1754	3	0
8.22128	1754	3	0
8.22134	1755	4	0
8.22615	1757	3	0
8.2282	1757	3	0
8.22873	1758	4	0
8.25111	1760	3	0
8.25127	1760	3	0
8.2515	1760	5	0
8.25232	1762	4	0
8.30521	1764	3	0
8.30532	1764	3	0
8.30572	1764	3	0
8.30621	1764	3	0
8.30636	1764	5	0
8.30653	1765	6	0
8.30661	1767	5	0
8.30726	1769	4	0
8.30946	1771	3	0
8.31012	1772	4	0
8.33921	1774	3	0
8.34239	1774	3	0
8.38263	1774	3	0
8.40406	1774	3	0
8.44647	1774	3	0
8.45615	1774	3	0
8.45673	1774	3	0
8.4573	1775	4	0
8.51007	1777	3	0
8.51283	1777	3	0
8.51294	1777	5	0
8.51372	1779	4	0
8.55353	1781	3	0
8.55396	1781	3	0
8.55398	1781	5	0
8.55453	1783	4	0
8.66686	1785	3	0
8.67105	1785	3	0
8.67143	1785	5	0
8.67148	1787	4	0
8.68554	1789	3	0
8.69727	1789	3	0
8.70998	1791	2	0
8.74164	1791	2	0
8.74724	1791	2	0
8.74973	1791	2	0
8.74979	1791	4	0
8.75021	1793	3	0
8.8336	1795	2	0
8.83393	1795	2	0
8.83518	1795	3	0
8.83536	1796	4	0
8.83602	1798	3	0
8.84105	1800	2	0
8.90686	1800	2	0
8.90744	1800	2	0
8.90801	1801	3	0
8.93813	1803	2	0
8.93887	1803	2	0
8.93904	1803	4	0
8.93911	1805	3	0
8.98064	1807	2	0
8.98171	1807	2	0
8.98246	1808	3	0
8.99964	1810	2	0
9.00134	1812	1	0
9.00157	1812	1	0
9.00377	1812	2	0
9.00392	1813	3	0
9.00401	1815	2	0
9.00891	1817	1	0
9.00942	1817	1	0
9.00976	1818	2	0
9.06086	1820	1	0
9.07948	1820	1	0
9.08714	1820	1	0
9.088	1820	1	0
9.08806	1821	2	0
9.08833	1823	1	0
9.09209	1823	1	0
9.09228	1823	3	0
9.09237	1825	2	0
9.09794	1827	1	0
9.09904	1827	1	0
9.09934	1828	2	0
9.10544	1830	1	0
9.10755	1830	1	0
9.10773	1831	2	0
9.13271	1833	1	0
9.13395	1833	1	0
9.13411	1834	2	0
9.1872	1836	1	0
9.18757	1836	1	0
9.18785	1837	2	0
9.22825	1839	1	0
9.2291	1839	1	0
9.22938	1839	3	0
9.22981	1841	2	0
9.30338	1843	1	0
9.30342	1843	1	0
9.30352	1844	2	0
9.32767	1846	1	0
9.3308	1846	1	0
9.3313	1847	2	0
9.34496	1849	1	0
9.34558	1849	1	0
9.34564	1850	2	0
9.36923	1852	1	0
9.37008	1852	1	0
9.37052	1853	2	0
9.4102	1855	1	0
9.4109	1855	1	0
9.41092	1856	2	0
9.41103	1858	1	0
9.41111	1858	1	0
9.4118	1859	2	0
9.433	1861	1	0
9.43336	1861	1	0
9.43815	1861	1	0
9.43823	1861	3	0
9.43833	1863	2	0
9.45594	1865	1	0
9.49813	1867	0	0
9.49855	1867	0	0
9.4994	1868	1	0
9.54014	1870	0	0
9.54113	1870	0	0
9.54122	1871	1	0
9.62599	1873	0	0
9.626	1873	0	0
9.62614	1874	1	0
9.63771	1876	0	0
9.63807	1876	0	0
9.63818	1877	1	0
9.68926	1879	0	0
9.68959	1879	0	0
9.70095	1880	1	0
9.70381	1880	1	0
9.70472	1881	2	0
9.71979	1883	1	0
9.72084	1883	1	0
9.72104	1884	2	0
9.7933	1886	1	0
9.83753	1886	1	0
9.83759	1886	1	0
9.84255	1886	1	0
9.84272	1887	2	0
9.86358	1889	1	0
9.86484	1889	1	0
9.86528	1890	2	0
9.9279	1892	1	0
9.93084	1892	1	0
9.93118	1893	2	0
9.97765	1895	1	0
9.9779	1895	1	0
9.97809	1896	2	0
10.1228	1898	1	0
10.1232	1898	1	0
10.1238	1899	2	0
10.1266	1901	1	0
10.1628	1901	1	0
10.1641	1901	1	0
10.1669	1902	2	0
10.2039	1904	1	0
10.2063	1904	1	0
10.2063	1904	3	0
10.2068	1906	2	0
10.2588	1908	1	0
10.2588	1908	1	0
10.2591	1908	2	0
10.2593	1909	3	0
10.2596	1911	2	0
10.3121	1913	1	0
10.3143	1913	1	0
10.3143	1913	3	0
10.3144	1915	2	0
10.3314	1917	1	0
10.3349	1917	1	0
10.335	1917	2	0
10.3353	1918	3	0
10.3354	1920	2	0
10.3686	1922	1	0
10.3686	1922	1	0
10.3779	1923	2	0
10.3798	1923	2	0
10.3799	1924	3	0
10.3984	1926	2	0
10.4006	1926	2	0
10.4016	1926	4	0
10.402	1928	3	0
10.5144	1930	2	0
10.5374	1930	2	0
10.5379	1930	2	0
10.538	1931	3	0
10.5553	1933	2	0
10.5557	1933	2	0
10.5589	1933	3	0
10.5591	1934	4	0
10.5592	1936	3	0
10.6198	1938	2	0
10.6199	1938	2	0
10.6203	1939	3	0
10.6208	1941	2	0
10.6208	1941	2	0
10.6209	1942	3	0
10.6278	1944	2	0
10.628	1944	2	0
10.6283	1944	4	0
10.629	1946	3	0
10.658	1948	2	0
10.6582	1948	2	0
10.6587	1949	3	0
10.7396	1951	2	0
10.7398	1951	2	0
10.7403	1951	3	0
10.7406	1952	4	0
10.7409	1954	3	0
10.842	1956	2	0
10.8425	1956	2	0
10.8426	1957	3	0
10.852	1959	2	0
10.8527	1959	2	0
10.8527	1960	3	0
10.8837	1962	2	0
10.8845	1962	2	0
10.8857	1963	3	0
10.9702	1965	2	0
10.9702	1965	2	0
10.9703	1965	4	0
10.9707	1967	3	0
10.988	1969	2	0
10.9905	1969	2	0
10.9906	1970	3	0
10.9916	1972	2	0
10.9928	1972	2	0
10.9931	1972	3	0
10.9935	1973	4	0
10.9935	1975	3	0
11.1342	1977	2	0
11.1343	1977	2	0
11.1346	1977	4	0
11.1351	1979	3	0
11.1828	1981	2	0
11.2683	1981	2	0
11.4135	1981	2	0
11.4141	1981	2	0
11.4147	1982	3	0
11.4411	1984	2	0
11.4495	1984	2	0
11.4506	1984	2	0
11.4511	1985	3	0
11.5269	1987	2	0
11.5275	1987	2	0
11.5275	1987	3	0
11.5279	1988	4	0
11.5279	1990	3	0
11.5738	1992	2	0
11.5751	1992	2	0
11.576	1993	3	0
11.6291	1995	2	0
11.6308	1995	2	0
11.6308	1996	3	0
11.7329	1998	2	0
11.7482	2000	1	0
11.7484	2000	1	0
11.801	2001	2	0
11.8866	2001	2	0
12.0578	2001	2	0
12.0579	2001	2	0
12.0583	2002	3	0
12.0654	2004	2	0
12.0952	2004	2	0
12.2165	2004	2	0
12.2169	2004	2	0
12.217	2005	3	0
12.289	2007	2	0
12.2899	2007	2	0
12.2901	2007	4	0
12.291	2009	3	0
12.3528	2011	2	0
12.3803	2011	2	0
12.3809	2011	2	0
12.3811	2011	4	0
12.3811	2013	3	0
12.3992	2015	2	0
12.3994	2015	2	0
12.3996	2015	4	0
12.4001	2017	3	0
12.4209	2019	2	0
12.4212	2019	2	0
12.4213	2020	3	0
12.4218	2022	2	0
12.4238	2022	2	0
12.4359	2023	3	0
12.4362	2023	3	0
12.4367	2023	4	0
12.4368	2024	5	0
12.4375	2026	4	0
12.5632	2028	3	0
12.5643	2028	3	0
12.565	2029	4	0
12.6024	2031	3	0
12.6029	2031	3	0
12.6037	2032	4	0
12.6819	2034	3	0
12.6833	2034	3	0
12.6852	2034	5	0
12.6853	2036	4	0
12.7627	2038	3	0
12.7738	2040	2	0
12.7756	2040	2	0
12.7764	2041	3	0
12.8437	2043	2	0
12.8439	2043	2	0
12.8442	2044	3	0
12.9065	2046	2	0
12.9082	2046	2	0
12.9083	2047	3	0
12.9578	2049	2	0
12.958	2049	2	0
12.9585	2050	3	0
12.9619	2052	2	0
12.9622	2052	2	0
12.9622	2052	4	0
12.9624	2054	3	0
12.9705	2056	2	0
12.9711	2056	2	0
12.9711	2057	3	0
13.0147	2059	2	0
13.0162	2059	2	0
13.0182	2059	3	0
13.0185	2060	4	0
13.0186	2062	3	0
13.029	2064	2	0
13.0297	2064	2	0
13.0304	2064	4	0
13.0308	2066	3	0
13.0518	2068	2	0
13.0533	2068	2	0
13.0534	2068	4	0
13.0534	2068	4	0
13.0535	2070	3	0
13.0538	2072	2	0
13.0543	2072	4	0
13.0547	2074	3	0
13.1016	2076	2	0
13.103	2076	2	0
13.103	2076	4	0
13.1043	2078	3	0
13.1538	2080	2	0
13.1549	2080	2	0
13.1555	2081	3	0
13.2371	2083	2	0
13.2386	2083	2	0
13.2391	2084	3	0
13.3774	2086	2	0
13.3775	2086	2	0
13.3782	2087	3	0
13.3818	2089	2	0
13.3828	2089	2	0
13.3832	2089	3	0
13.3832	2090	4	0
13.3834	2092	3	0
13.4655	2094	2	0
13.4679	2094	2	0
13.4683	2094	4	0
13.4692	2096	3	0
13.6041	2098	2	0
13.6065	2098	2	0
13.6076	2098	3	0
13.6077	2099	4	0
13.6083	2101	3	0
13.6875	2103	2	0
13.6928	2103	2	0
13.6928	2104	3	0
13.9088	2106	2	0
13.9095	2106	2	0
13.9096	2107	3	0
13.9201	2109	2	0
13.9208	2109	2	0
13.9209	2109	4	0
13.9211	2111	3	0
13.9854	2113	2	0
13.9865	2113	2	0
13.9873	2114	3	0
13.9883	2116	2	0
13.9888	2116	2	0
13.9889	2116	4	0
14.0172	2118	3	0
14.0194	2118	3	0
14.0195	2118	5	0
14.0203	2120	4	0
14.1154	2122	3	0
14.1165	2122	3	0
14.1171	2123	4	0
14.1302	2125	3	0
14.1306	2125	3	0
14.1308	2126	4	0
14.148	2128	3	0
14.1485	2128	3	0
14.2317	2128	4	0
14.2322	2128	4	0
14.2322	2129	5	0
14.2328	2131	4	0
14.256	2133	3	0
14.258	2133	3	0
14.2586	2134	4	0
14.3339	2136	3	0
14.3346	2136	3	0
14.3351	2137	4	0
14.3477	2139	3	0
14.3479	2139	3	0
14.348	2139	5	0
14.3484	2141	4	0
14.3911	2143	3	0
14.3919	2143	3	0
14.3924	2144	4	0
14.4611	2146	3	0
14.4639	2146	3	0
14.4641	2146	5	0
14.4644	2148	4	0
14.6409	2150	3	0
14.641	2150	3	0
14.642	2151	4	0
14.8313	2153	3	0
14.9082	2155	2	0
14.9096	2155	2	0
14.9097	2155	4	0
14.9101	2157	3	0
15.2065	2159	2	0
15.2073	2159	2	0
15.2391	2160	3	0
15.2399	2160	3	0
15.24	2160	5	0
15.2411	2162	4	0
15.4047	2164	3	0
15.4053	2164	3	0
15.4058	2164	5	0
15.4059	2166	4	0
15.4261	2168	3	0
15.4275	2168	3	0
15.4276	2168	5	0
15.4278	2170	4	0
15.445	2172	3	0
15.4452	2172	3	0
15.4452	2172	5	0
15.4453	2174	4	0
15.4532	2176	3	0
15.4534	2176	3	0
15.4857	2177	4	0
15.4938	2177	4	0
15.8788	2179	3	0
15.8795	2179	3	0
15.8798	2180	4	0
15.8825	2182	3	0
15.8825	2182	3	0
15.8829	2182	5	0
15.8838	2184	4	0
16.1284	2186	3	0
16.1292	2186	3	0
16.1295	2187	4	0
16.1765	2189	3	0
16.1767	2189	3	0
16.177	2190	4	0
16.3466	2192	3	0
16.3491	2192	3	0
16.3565	2192	4	0
16.3572	2193	5	0
16.3584	2195	4	0
16.4349	2197	3	0
16.4353	2197	3	0
16.4355	2197	5	0
16.4357	2199	4	0
16.5633	2201	3	0
16.5637	2201	3	0
16.5638	2201	4	0
16.5643	2202	5	0
16.5643	2204	4	0
16.7797	2206	3	0
16.7806	2206	3	0
16.7806	2206	5	0
16.7811	2208	4	0
16.8006	2210	3	0
16.8801	2212	2	0
17.0101	2214	1	0
17.0113	2214	1	0
17.0126	2214	3	0
17.1269	2216	2	0
17.1272	2216	2	0
17.1272	2216	4	0
17.1277	2218	3	0
17.5111	2220	2	0
17.5115	2220	2	0
17.5118	2221	3	0
17.7984	2223	2	0
17.7987	2223	2	0
17.799	2223	3	0
17.7991	2224	4	0
17.7994	2226	3	0
17.8171	2228	2	0
17.8786	2228	2	0
17.8787	2228	2	0
18.3608	2229	3	0
18.3609	2229	3	0
18.3622	2230	4	0
18.7123	2232	3	0
18.7131	2232	3	0
18.7131	2233	4	0
18.8931	2235	3	0
18.8938	2235	3	0
18.9683	2236	4	0
18.9688	2236	4	0
18.9688	2236	6	0
18.969	2238	5	0
18.9923	2240	4	0
18.9935	2240	4	0
18.994	2240	6	0
18.9944	2242	5	0
18.9978	2244	4	0
18.9982	2244	4	0
19.0174	2245	5	0
19.0181	2245	5	0
19.0185	2246	6	0
19.1123	2248	5	0
19.1154	2248	5	0
19.1166	2248	6	0
19.1168	2249	7	0
19.1172	2251	6	0
19.2864	2253	5	0
19.7004	2255	4	0
19.7005	2255	4	0
19.7005	2255	6	0
19.701	2257	5	0
19.7248	2259	4	0
19.9013	2261	3	0
19.9769	2263	2	0
19.9771	2263	2	0
19.9774	2263	4	0
19.9776	2265	3	0
19.9897	2267	2	0
19.9899	2267	2	0
19.9908	2267	3	0
19.9908	2268	4	0
19.9913	2270	3	0
20.1807	2272	2	0
20.4249	2274	1	0
20.5947	2274	1	0
20.5959	2274	1	0
20.596	2274	3	0
20.5963	2276	2	0
20.6509	2278	1	0
20.6613	2278	1	0
20.6614	2278	1	0
20.6616	2278	3	0
20.6628	2280	2	0
21.0484	2282	1	0
21.0485	2282	1	0
21.0488	2282	3	0
21.0498	2284	2	0
21.0946	2286	1	0
21.0954	2286	1	0
21.0956	2286	3	0
21.0956	2288	2	0
21.1889	2290	1	0
21.1897	2290	1	0
21.19	2291	2	0
21.5185	2293	1	0
21.5191	2293	1	0
21.5192	2294	2	0
21.6766	2296	1	0
21.677	2296	1	0
21.6773	2297	2	0
21.7519	2299	1	0
21.752	2299	1	0
21.7522	2299	3	0
21.7522	2301	2	0
22.1399	2303	1	0
22.4722	2303	1	0
22.916	2305	0	0
22.9179	2305	0	0
22.9185	2305	1	0
22.9191	2306	2	0
22.9196	2308	1	0
23.099	2310	0	0
23.0992	2310	0	0
23.0994	2310	2	0
23.0997	2310	2	0
23.0997	2312	1	0
23.0999	2314	0	0
23.0999	2314	2	0
23.1003	2316	1	0
23.1285	2318	0	0
23.129	2318	0	0
23.1292	2318	2	0
23.1295	2320	1	0
23.793	2322	0	0
23.7934	2322	0	0
23.7934	2322	2	0
23.7935	2324	1	0
23.9098	2326	0	0
23.91	2326	0	0
23.9101	2326	2	0
23.9111	2328	1	0
23.9138	2330	0	0
23.9139	2330	0	0
23.9139	2331	1	0
24.1805	2333	0	0
24.1808	2333	0	0
24.1808	2333	2	0
24.1808	2335	1	0
24.4214	2337	0	0
24.4233	2337	0	0
24.4238	2338	1	0
24.6799	2340	0	0
24.68	2340	0	0
24.6801	2340	2	0
24.6811	2342	1	0
24.707	2344	0	0
24.7075	2344	0	0
24.7079	2344	2	0
24.7079	2346	1	0
24.9529	2348	0	0
25.4873	2348	0	0
25.4886	2348	0	0
25.4893	2348	2	0
25.4912	2350	1	0
26.3631	2352	0	0
26.3634	2352	0	0
26.364	2352	2	0
26.3642	2354	1	0
26.8811	2356	0	0
26.8821	2356	0	0
26.8823	2356	2	0
26.8824	2358	1	0
26.9673	2360	0	0
26.9681	2360	0	0
26.9688	2360	2	0
26.9713	2362	1	0
26.9764	2362	1	0
26.9766	2362	3	0
26.9767	2364	2	0
27.725	2366	1	0
27.7277	2366	1	0
27.7278	2366	3	0
27.7294	2368	2	0
29.0635	2370	1	0
29.065	2370	1	0
29.1056	2371	2	0
