5.38719e-09	0	0	0
2.50315e-08	0	0	0
4.46518e-08	0	0	0
4.53596e-08	0	0	0
4.61898e-08	0	0	0
8.29747e-08	0	0	0
1.55645e-07	0	0	0
1.68903e-07	0	0	0
1.71816e-07	0	0	0
1.7868e-07	0	0	0
2.6507e-07	0	0	0
7.07927e-07	0	0	0
3.45584e-06	0	0	0
5.24643e-06	0	0	0
5.30194e-06	0	0	0
5.47987e-06	0	0	0
5.83259e-06	0	0	0
7.22844e-06	0	0	0
7.83918e-06	0	0	0
8.56188e-06	0	0	0
8.88272e-06	0	0	0
9.66338e-06	0	0	0
9.867e-06	0	0	0
1.00587e-05	0	0	0
1.00921e-05	0	0	0
1.02319e-05	0	0	0
1.04896e-05	0	0	0
1.11616e-05	0	0	0
1.15075e-05	0	0	0
1.15127e-05	0	0	0
1.20426e-05	0	0	0
1.20687e-05	0	0	0
1.3094e-05	0	0	0
1.3482e-05	0	0	0
1.5983e-05	0	0	0
1.68677e-05	0	0	0
1.80071e-05	0	0	0
1.87359e-05	0	0	0
2.07594e-05	0	0	0
2.09621e-05	0	0	0
2.13854e-05	0	0	0
2.23519e-05	0	0	0
2.24349e-05	0	0	0
2.31052e-05	0	0	0
2.32268e-05	0	0	0
2.36317e-05	0	0	0
2.43223e-05	0	0	0
2.57614e-05	0	0	0
2.60578e-05	0	0	0
2.70687e-05	0	0	0
2.8391e-05	0	0	0
2.84544e-05	0	0	0
2.87698e-05	0	0	0
2.91192e-05	0	0	0
2.98885e-05	0	0	0
3.026e-05	0	0	0
3.04868e-05	0	0	0
3.0668e-05	0	0	0
3.13601e-05	0	0	0
3.3604e-05	0	0	0
3.53043e-05	0	0	0
3.76714e-05	0	0	0
3.78467e-05	0	0	0
3.81216e-05	0	0	0
4.08229e-05	0	0	0
4.08642e-05	0	0	0
4.37982e-05	0	0	0
4.40999e-05	0	0	0
4.48432e-05	0	0	0
4.50403e-05	0	0	0
4.50837e-05	0	0	0
4.52368e-05	0	0	0
4.65534e-05	0	0	0
4.65814e-05	0	0	0
4.78571e-05	0	0	0
4.8138e-05	0	0	0
4.84088e-05	0	0	0
4.91679e-05	0	0	0
4.91824e-05	0	0	0
4.92876e-05	0	0	0
5.01184e-05	0	0	0
5.04105e-05	0	0	0
5.11278e-05	0	0	0
5.26784e-05	0	0	0
5.33143e-05	0	0	0
5.48452e-05	0	0	0
5.72639e-05	0	0	0
5.792e-05	0	0	0
5.88305e-05	0	0	0
5.94281e-05	0	0	0
5.97218e-05	0	0	0
6.02512e-05	0	0	0
6.21213e-05	0	0	0
6.24279e-05	0	0	0
6.27145e-05	0	0	0
6.28487e-05	0	0	0
6.34135e-05	0	0	0
6.37155e-05	0	0	0
6.52811e-05	0	0	0
6.67077e-05	0	0	0
6.86987e-05	0	0	0
6.96662e-05	0	0	0
7.00142e-05	0	0	0
7.01109e-05	0	0	0
7.08861e-05	0	0	0
7.13376e-05	0	0	0
7.21869e-05	0	0	0
7.27782e-05	0	0	0
7.38554e-05	0	0	0
7.47827e-05	0	0	0
7.59708e-05	0	0	0
7.6418e-05	0	0	0
7.64419e-05	0	0	0
7.68598e-05	0	0	0
7.72577e-05	0	0	0
7.82778e-05	0	0	0
7.86e-05	0	0	0
7.8922e-05	0	0	0
8.02118e-05	0	0	0
8.13491e-05	0	0	0
8.17186e-05	0	0	0
8.57163e-05	0	0	0
8.81751e-05	0	0	0
8.82595e-05	0	0	0
8.98721e-05	0	0	0
9.00816e-05	0	0	0
9.07752e-05	0	0	0
9.40171e-05	0	0	0
9.40516e-05	0	0	0
9.72167e-05	0	0	0
9.85706e-05	0	0	0
0.000102101	0	0	0
0.00010488	0	0	0
0.000105217	0	0	0
0.000105315	0	0	0
0.000112186	0	0	0
0.000113542	0	0	0
0.000115527	0	0	0
0.000118344	0	0	0
0.000118733	0	0	0
0.000120812	0	0	0
0.00012104	0	0	0
0.000121722	0	0	0
0.000122684	0	0	0
0.000122812	0	0	0
0.000125692	0	0	0
0.000128072	0	0	0
0.000132719	0	0	0
0.000136762	0	0	0
0.000138563	0	0	0
0.000140899	0	0	0
0.000140954	0	0	0
0.000141718	0	0	0
0.000142815	0	0	0
0.000142819	0	0	0
0.000142926	0	0	0
0.000143881	0	0	0
0.000144853	0	0	0
0.000145192	0	0	0
0.000145804	0	0	0
0.000145917	0	0	0
0.000146979	0	0	0
0.00014825	0	0	0
0.000148566	0	0	0
0.00015023	0	0	0
0.000151306	0	0	0
0.000151858	0	0	0
0.00015255	0	0	0
0.000153242	0	0	0
0.000156154	0	0	0
0.00015753	0	0	0
0.000158561	0	0	0
0.000160951	0	0	0
0.00016108	0	0	0
0.00016331	0	0	0
0.00016508	0	0	0
0.000166023	0	0	0
0.000166637	0	0	0
0.000170057	0	0	0
0.000172905	0	0	0
0.000172959	0	0	0
0.000176848	0	0	0
0.000178579	0	0	0
0.000182618	0	0	0
0.000183243	0	0	0
0.000183854	0	0	0
0.000185874	0	0	0
0.00018812	0	0	0
0.00018869	0	0	0
0.000191503	0	0	0
0.000192779	0	0	0
0.0001929	0	0	0
0.000193198	0	0	0
0.000195363	0	0	0
0.000196247	0	0	0
0.000196997	0	0	0
0.000197628	0	0	0
0.00019786	0	0	0
0.000202919	0	0	0
0.000203382	0	0	0
0.000204182	0	0	0
0.000204622	0	0	0
0.000207172	0	0	0
0.000208633	0	0	0
0.000209331	0	0	0
0.000210851	0	0	0
0.00021132	0	0	0
0.000211453	0	0	0
0.000213742	0	0	0
0.000214083	0	0	0
0.000216502	0	0	0
0.000219972	0	0	0
0.000223947	0	0	0
0.000225321	0	0	0
0.00022855	0	0	0
0.000231961	0	0	0
0.000236059	0	0	0
0.000238394	0	0	0
0.000240958	0	0	0
0.000244752	0	0	0
0.000244846	0	0	0
0.000250026	0	0	0
0.000251119	0	0	0
0.000252935	0	0	0
0.000253926	0	0	0
0.00025608	0	0	0
0.000259769	0	0	0
0.000260817	0	0	0
0.000261255	0	0	0
0.000266571	0	0	0
0.000266939	0	0	0
0.000272831	0	0	0
0.000277363	0	0	0
0.000277873	0	0	0
0.000278387	0	0	0
0.000279569	0	0	0
0.00028228	0	0	0
0.000282401	0	0	0
0.000282776	0	0	0
0.000283909	0	0	0
0.000283938	0	0	0
0.000289458	0	0	0
0.000290219	0	0	0
0.000291389	0	0	0
0.000291583	0	0	0
0.000293415	0	0	0
0.000297543	0	0	0
0.000301334	0	0	0
0.000312559	0	0	0
0.000312668	0	0	0
0.000313833	0	0	0
0.000320956	0	0	0
0.000326364	0	0	0
0.000327654	0	0	0
0.000327998	0	0	0
0.000328096	0	0	0
0.000329061	0	0	0
0.000333658	0	0	0
0.00033957	0	0	0
0.000344965	0	0	0
0.000355715	0	0	0
0.00035655	0	0	0
0.000358221	0	0	0
0.000361637	0	0	0
0.000362881	0	0	0
0.000372812	0	0	0
0.000385858	0	0	0
0.000386176	0	0	0
0.000386207	0	0	0
0.000389513	0	0	0
0.0003918	0	0	0
0.000402085	0	0	0
0.000431015	0	0	0
0.000444168	0	0	0
0.000445643	0	0	0
0.000447556	0	0	0
0.000448802	0	0	0
0.000480476	0	0	0
0.000481185	0	0	0
0.00049637	0	0	0
0.000509435	0	0	0
0.000519373	0	0	0
0.000520837	0	0	0
0.000522596	0	0	0
0.000525046	0	0	0
0.000529291	0	0	0
0.000533931	0	0	0
0.00053541	0	0	0
0.00055366	0	0	0
0.000565722	0	0	0
0.000567998	0	0	0
0.00058139	0	0	0
0.000582388	0	0	0
0.000591009	0	0	0
0.000606108	0	0	0
0.000611459	0	0	0
0.000649276	0	0	0
0.000651807	0	0	0
0.000654458	0	0	0
0.000661421	0	0	0
0.000669423	0	0	0
0.000674077	0	0	0
0.000688617	0	0	0
0.000704702	0	0	0
0.000712214	0	0	0
0.000721672	0	0	0
0.000721868	0	0	0
0.00075577	0	0	0
0.000765504	0	0	0
0.000778466	0	0	0
0.000780958	0	0	0
0.000781359	0	0	0
0.000813135	0	0	0
0.000814549	0	0	0
0.000856056	0	0	0
0.000888871	0	0	0
0.000897538	0	0	0
0.00091978	0	0	0
0.000929915	0	0	0
0.000942149	0	0	0
0.000959465	0	0	0
0.000974222	0	0	0
0.000974324	0	0	0
0.00100532	0	0	0
0.00104825	0	0	0
0.00113236	0	0	0
0.00115687	0	0	0
0.00115783	0	0	0
0.00119166	0	0	0
0.00124441	0	0	0
0.00125929	0	0	0
0.00139582	0	0	0
0.00145504	0	0	0
0.00147646	0	0	0
0.00147795	0	0	0
0.0015526	0	0	0
0.00164313	0	0	0
0.00201462	0	0	0
0.00239841	0	0	0
0.00263589	0	0	0
0.00287841	0	0	0
0.00325226	0	0	0
0.00416092	0	0	0
0.00458342	0	0	0
0.00498268	0	0	0
0.00505525	0	0	0
0.00526475	0	0	0
0.00535974	0	0	0
0.0055778	0	0	0
0.00570523	0	0	0
0.00577647	0	0	0
0.00597235	0	0	0
0.00603753	0	0	0
0.00655122	0	0	0
0.00677274	0	0	0
0.00686757	0	0	0
0.0072051	0	0	0
0.00732735	0	0	0
0.00739432	0	0	0
0.00763794	0	0	0
0.00882079	0	0	0
0.00886413	0	0	0
0.00910678	0	0	0
0.00914261	0	0	0
0.00915198	0	0	0
0.00949256	0	0	0
0.00952923	0	0	0
0.00958624	0	0	0
0.00962633	0	0	0
0.00963337	0	0	0
0.00967659	0	0	0
0.00989177	0	0	0
0.010177	0	0	0
0.010243	0	0	0
0.0104705	0	0	0
0.0108792	0	0	0
0.0108863	0	0	0
0.0111212	0	0	0
0.0113857	0	0	0
0.0113974	0	0	0
0.011557	0	0	0
0.0117404	0	0	0
0.0121521	0	0	0
0.0123976	0	0	0
0.0124264	1	0	0
0.0128605	1	0	0
0.0128809	1	0	0
0.0129873	1	0	0
0.0131118	1	0	0
0.013438	1	0	0
0.0136347	1	0	0
0.0136683	1	0	0
0.0136871	1	0	0
0.0138263	1	0	0
0.0138826	1	0	0
0.0140033	1	0	0
0.0140351	1	0	0
0.0142398	1	0	0
0.0144473	1	0	0
0.0146493	1	0	0
0.0147296	1	0	0
0.0149328	1	0	0
0.015402	1	0	0
0.0154295	1	0	0
0.0154733	1	0	0
0.0159762	1	0	0
0.0161653	1	2	0
0.0165443	3	1	0
0.0168909	3	1	0
0.0169526	5	0	0
0.0171888	5	0	0
0.0173949	5	0	0
0.0175867	5	0	0
0.0177017	5	0	0
0.017723	5	0	0
0.0178468	5	0	0
0.0178897	5	0	0
0.0182367	5	0	0
0.0183669	5	0	0
0.018379	5	0	0
0.018568	5	0	0
0.0192745	5	0	0
0.0193805	5	0	0
0.0198093	5	0	0
0.0199558	5	0	0
0.0200139	5	0	0
0.0200922	5	0	0
0.0203084	5	0	0
0.0206272	5	0	0
0.0206598	5	0	0
0.020738	5	0	0
0.0209851	5	0	0
0.0210323	5	2	0
0.0210682	7	1	0
0.0212733	7	1	0
0.0212781	9	0	0
0.0213319	9	0	0
0.0217158	9	0	0
0.0219808	9	0	0
0.0220015	9	0	0
0.0220677	9	0	0
0.0225724	9	0	0
0.0226134	9	0	0
0.0229881	9	0	0
0.0230956	9	0	0
0.0231023	9	0	0
0.0231176	9	0	0
0.0233271	10	0	0
0.0235644	10	0	0
0.0237357	10	0	0
0.0237987	10	0	0
0.0238862	10	0	0
0.0239354	10	1	0
0.0240845	10	1	0
0.0242415	11	2	0
0.0244884	13	1	0
0.0246169	13	1	0
0.02472	13	1	0
0.0251449	15	0	0
0.0251928	15	0	0
0.0254933	15	0	0
0.0255088	15	0	0
0.0257518	15	0	0
0.0259057	15	0	0
0.0263214	15	0	0
0.0264411	15	0	0
0.0265096	15	0	0
0.0265973	15	0	0
0.0266658	15	0	0
0.0267198	15	0	0
0.0272131	15	0	0
0.0274698	15	0	0
0.0276063	15	0	0
0.0276317	15	2	0
0.0277546	17	1	0
0.0282245	17	1	0
0.0285817	19	0	0
0.0290808	19	0	0
0.0293209	20	0	0
0.0300185	20	0	0
0.030238	20	0	0
0.0306521	20	0	0
0.0306923	20	0	0
0.0309568	20	0	0
0.0316814	20	0	0
0.0320478	20	0	0
0.0326778	20	0	0
0.0328438	20	0	0
0.0331297	20	0	0
0.0332097	20	0	0
0.0339216	20	0	0
0.034017	20	0	0
0.0346999	20	0	0
0.0347079	20	0	0
0.0350884	20	0	0
0.0355701	20	0	0
0.0355825	20	0	0
0.0357861	20	0	0
0.0359598	20	0	0
0.0359854	20	0	0
0.0360242	20	0	0
0.0362146	21	0	0
0.0366259	21	0	0
0.0368316	21	0	0
0.0374946	21	0	0
0.037511	21	0	0
0.0377734	21	0	0
0.0378078	21	0	0
0.0378346	21	0	0
0.0388122	21	0	0
0.0389777	21	0	0
0.0390717	21	0	0
0.0395297	21	0	0
0.0396094	21	0	0
0.0396492	21	0	0
0.0396978	21	0	0
0.0402394	21	0	0
0.0403597	21	0	0
0.0405339	21	0	0
0.0405737	21	0	0
0.0410823	21	1	0
0.0410881	21	1	0
0.0411021	22	2	0
0.041141	22	2	0
0.0412392	24	1	0
0.0412804	24	1	0
0.0413123	24	1	0
0.0421776	26	0	0
0.0423023	26	0	0
0.0426686	26	0	0
0.0434777	26	0	0
0.0436313	26	0	0
0.0436353	26	0	0
0.0437044	26	0	0
0.0439779	26	0	0
0.0448939	26	0	0
0.044976	26	0	0
0.0450288	26	0	0
0.0455326	26	0	0
0.0459916	26	0	0
0.0462496	26	0	0
0.0462929	26	0	0
0.0464235	26	0	0
0.0472218	26	0	0
0.0473567	26	0	0
0.047529	26	0	0
0.0475717	26	0	0
0.0477567	26	0	0
0.0477635	26	0	0
0.0481437	26	0	0
0.0484892	27	0	0
0.0484895	27	0	0
0.0487182	27	0	0
0.0488707	27	0	0
0.0489341	28	0	0
0.0490408	28	0	0
0.0494932	28	0	0
0.0495662	28	0	0
0.049857	28	0	0
0.0499164	28	0	0
0.0499406	28	0	0
0.0500093	28	0	0
0.0500499	28	0	0
0.0501737	28	0	0
0.0507254	28	0	0
0.0515803	28	0	0
0.0521716	28	0	0
0.0522534	28	0	0
0.0523181	28	0	0
0.0524048	28	0	0
0.052447	28	0	0
0.0527038	28	0	0
0.052937	28	0	0
0.0532417	28	0	0
0.0532435	28	0	0
0.0534358	29	0	0
0.0534998	29	0	0
0.0538298	29	0	0
0.053899	29	0	0
0.0539233	30	0	0
0.0543575	30	0	0
0.0551087	30	0	0
0.0552592	30	0	0
0.055473	30	0	0
0.0556797	30	0	0
0.0559898	30	0	0
0.0560688	30	0	0
0.0562421	30	0	0
0.0570215	31	1	0
0.0572206	33	0	0
0.0574904	34	0	0
0.0578039	34	0	0
0.0581058	35	0	0
0.0584424	35	0	0
0.0590223	35	0	0
0.0593342	35	1	0
0.0594035	35	1	0
0.0595059	35	1	0
0.0596026	35	1	0
0.0601203	35	1	0
0.0601674	35	1	0
0.0602632	35	1	0
0.060282	35	1	0
0.0605656	35	1	0
0.060581	35	1	0
0.060592	35	1	0
0.0607256	35	1	0
0.0608033	35	1	0
0.0608694	35	1	0
0.061439	35	1	0
0.0615312	36	2	0
0.0617039	38	1	0
0.0621092	38	1	0
0.062191	38	1	0
0.0623191	38	1	0
0.0625398	38	1	0
0.0626639	38	1	0
0.062802	38	1	0
0.0629815	38	1	0
0.0631264	38	1	0
0.063484	38	1	0
0.064171	38	1	0
0.0645473	38	1	0
0.0645788	38	1	0
0.0647595	38	1	0
0.0648464	38	1	0
0.0649938	38	1	0
0.0660311	38	1	0
0.0664666	38	1	0
0.0668343	38	1	0
0.0669662	38	1	0
0.0670335	38	1	0
0.0673853	39	2	0
0.067482	39	2	0
0.0675112	39	2	0
0.0675977	39	2	0
0.0678422	41	1	0
0.0678489	41	1	0
0.0679243	41	1	0
0.0681007	41	1	0
0.0682281	41	1	0
0.0688765	41	1	0
0.0691612	41	1	0
0.0694815	41	1	0
0.0695172	41	1	0
0.069631	41	1	0
0.0698323	41	1	0
0.0698608	41	1	0
0.0699931	41	1	0
0.0702774	41	1	0
0.0707385	41	1	0
0.0708894	41	1	0
0.0709605	42	1	0
0.0713118	42	1	0
0.0713237	42	1	0
0.0714024	42	1	0
0.0714547	42	1	0
0.0717455	42	1	0
0.0721056	42	2	0
0.0723988	42	2	0
0.0724064	42	2	0
0.0725892	43	3	0
0.0726935	45	2	0
0.0733073	47	1	0
0.073433	47	1	0
0.0734869	47	1	0
0.0735857	47	1	0
0.0739728	48	1	0
0.0741962	49	1	0
0.0743634	50	1	0
0.0748201	50	1	0
0.0751622	50	1	0
0.0753332	50	1	0
0.0753727	50	1	0
0.0754178	51	1	0
0.075905	51	1	0
0.0763366	51	1	0
0.077057	51	1	0
0.0772401	51	1	0
0.077475	51	1	0
0.0777432	51	1	0
0.0777759	51	1	0
0.0785686	51	1	0
0.0786144	51	1	0
0.0786996	52	1	0
0.0789554	52	1	0
0.0792177	52	1	0
0.079345	52	1	0
0.0794918	53	1	0
0.0795708	53	1	0
0.0799082	53	1	0
0.0799311	53	1	0
0.0800609	53	1	0
0.0801137	53	1	0
0.080515	53	1	0
0.0806109	53	1	0
0.0806711	53	1	0
0.0813605	53	1	0
0.0814732	53	1	0
0.082147	53	1	0
0.0822601	53	1	0
0.0823184	53	1	0
0.0826016	53	1	0
0.0829926	53	1	0
0.0835467	53	1	0
0.0837236	53	1	0
0.0852561	53	1	0
0.0855346	53	1	0
0.0858545	53	1	0
0.085949	53	1	0
0.0859647	53	1	0
0.086219	53	1	0
0.0862897	53	1	0
0.0863849	53	1	0
0.0864501	53	1	0
0.0864589	53	1	0
0.086846	53	1	0
0.0876784	53	1	0
0.0881522	53	1	0
0.0882904	53	1	0
0.0884126	53	1	0
0.0887607	53	1	0
0.0893783	53	1	0
0.0894502	53	1	0
0.0898073	53	1	0
0.0899772	53	1	0
0.0903453	53	1	0
0.0905283	53	1	0
0.0908278	54	1	0
0.0908939	54	1	0
0.0914616	54	1	0
0.0915319	54	1	0
0.0916062	55	1	0
0.0917555	55	1	0
0.091815	55	1	0
0.0918703	55	1	0
0.0919664	56	1	0
0.0922602	56	1	0
0.0923117	56	1	0
0.0923615	56	1	0
0.0926505	56	1	0
0.0927111	56	1	0
0.0927658	56	1	0
0.0933679	56	1	0
0.0940469	56	1	0
0.0943267	56	1	0
0.0943778	56	1	0
0.0946273	56	1	0
0.0948314	57	1	0
0.0949813	57	1	0
0.0950946	57	1	0
0.095235	57	1	0
0.0953639	57	1	0
0.095426	57	1	0
0.0954544	57	1	0
0.0957092	57	1	0
0.0960859	57	1	0
0.0964455	58	1	0
0.0966733	58	1	0
0.0968056	58	1	0
0.096921	58	1	0
0.0969531	58	1	0
0.097216	60	0	0
0.0974914	60	0	0
0.0976399	60	0	0
0.0980532	60	0	0
0.0983038	60	0	0
0.0987187	60	0	0
0.0987386	61	0	0
0.0989423	61	0	0
0.0991497	61	0	0
0.0991646	61	0	0
0.0994755	61	0	0
0.0997431	61	0	0
0.100127	61	0	0
0.100388	61	0	0
0.100694	61	0	0
0.101418	61	0	0
0.101713	61	0	0
0.101877	61	0	0
0.102184	61	0	0
0.10365	61	0	0
0.103852	61	0	0
0.10451	61	0	0
0.104652	61	0	0
0.104816	61	0	0
0.105069	61	0	0
0.105267	61	0	0
0.105533	61	0	0
0.10589	61	0	0
0.106353	61	0	0
0.106466	61	0	0
0.107496	61	0	0
0.107706	61	0	0
0.107721	61	0	0
0.107968	62	0	0
0.108234	63	0	0
0.109679	63	0	0
0.109693	63	0	0
0.109989	63	0	0
0.110751	63	0	0
0.110831	63	0	0
0.110955	63	0	0
0.111107	63	0	0
0.11118	63	0	0
0.111233	63	0	0
0.11143	63	0	0
0.111613	63	0	0
0.11175	63	1	0
0.111817	63	1	0
0.111819	64	2	0
0.112003	64	2	0
0.112324	64	2	0
0.112722	64	2	0
0.112754	64	2	0
0.113059	66	1	0
0.113311	68	0	0
0.113356	68	0	0
0.113936	68	0	0
0.114358	68	0	0
0.114471	69	0	0
0.115415	69	0	0
0.115705	70	0	0
0.11645	70	0	0
0.116512	70	0	0
0.11664	70	0	0
0.116812	70	0	0
0.116849	70	0	0
0.116877	70	0	0
0.116952	70	0	0
0.117733	70	0	0
0.117823	70	0	0
0.11796	70	0	0
0.118221	70	0	0
0.118248	71	0	0
0.118401	71	0	0
0.118551	71	0	0
0.11867	71	0	0
0.118942	71	0	0
0.120052	71	0	0
0.121122	71	0	0
0.121395	72	0	0
0.121519	72	0	0
0.121611	72	0	0
0.121868	72	0	0
0.122028	73	0	0
0.122342	73	0	0
0.123759	73	0	0
0.123987	73	0	0
0.12473	73	0	0
0.12479	73	0	0
0.124843	73	0	0
0.125047	73	0	0
0.125089	73	0	0
0.125275	74	0	0
0.125357	74	0	0
0.125537	74	0	0
0.125893	74	0	0
0.126053	74	0	0
0.126241	74	0	0
0.126254	74	0	0
0.126341	74	0	0
0.126893	74	0	0
0.127253	74	0	0
0.127262	74	0	0
0.127342	74	0	0
0.127345	74	0	0
0.127588	74	0	0
0.127611	75	0	0
0.128076	75	0	0
0.128343	75	1	0
0.128358	75	1	0
0.128809	75	1	0
0.128815	75	1	0
0.129012	75	1	0
0.129386	76	1	0
0.129924	76	1	0
0.130076	76	1	0
0.130161	76	1	0
0.130197	77	2	0
0.130222	79	1	0
0.131122	81	0	0
0.131168	81	0	0
0.132102	81	0	0
0.132314	82	0	0
0.132315	82	0	0
0.132756	82	0	0
0.132843	82	0	0
0.133309	84	0	0
0.133406	84	0	0
0.133506	84	0	0
0.133528	84	0	0
0.133779	84	0	0
0.133965	84	0	0
0.134333	84	0	0
0.1344	84	0	0
0.134988	84	0	0
0.135218	84	0	0
0.135232	84	0	0
0.135376	84	0	0
0.135787	84	0	0
0.136197	85	0	0
0.136646	85	0	0
0.136873	85	0	0
0.137016	85	0	0
0.137036	85	0	0
0.137059	86	0	0
0.137671	86	0	0
0.138417	86	0	0
0.138625	86	0	0
0.138815	86	0	0
0.139105	86	0	0
0.139128	86	0	0
0.139365	86	0	0
0.139378	86	0	0
0.140095	86	0	0
0.140265	86	0	0
0.140388	86	0	0
0.140489	86	0	0
0.14249	86	0	0
0.142649	86	0	0
0.142675	86	0	0
0.143126	86	0	0
0.143193	86	0	0
0.143217	86	0	0
0.143241	86	0	0
0.143436	86	0	0
0.143606	86	0	0
0.14456	86	1	0
0.144682	86	1	0
0.144684	87	2	0
0.144753	89	1	0
0.145278	91	0	0
0.145475	91	0	0
0.145566	91	0	0
0.145748	92	0	0
0.145897	93	1	0
0.145909	95	1	0
0.146076	95	1	0
0.146091	95	1	0
0.146163	96	2	0
0.146316	98	1	0
0.14652	98	1	0
0.146567	98	1	0
0.146945	100	0	0
0.147142	100	0	0
0.147303	101	0	0
0.147337	101	0	0
0.147405	101	0	0
0.147714	102	0	0
0.147838	102	0	0
0.147893	102	0	0
0.147975	102	0	0
0.148178	102	0	0
0.148715	102	0	0
0.148783	102	0	0
0.149095	102	0	0
0.149176	103	1	0
0.149278	103	1	0
0.149535	103	1	0
0.149571	104	1	0
0.149629	106	0	0
0.149815	106	0	0
0.149918	106	0	0
0.149945	107	0	0
0.150126	107	0	0
0.150168	107	0	0
0.150175	107	0	0
0.1511	108	0	0
0.151142	108	0	0
0.151168	108	0	0
0.151683	109	0	0
0.152288	109	0	0
0.152902	109	0	0
0.153817	109	0	0
0.154584	109	0	0
0.15479	109	0	0
0.155238	109	0	0
0.155249	109	0	0
0.156007	109	0	0
0.156021	109	0	0
0.15612	109	0	0
0.156241	109	0	0
0.15666	109	0	0
0.156824	109	0	0
0.157184	109	0	0
0.157459	109	0	0
0.157544	109	0	0
0.157943	109	0	0
0.158218	109	1	0
0.158638	109	1	0
0.158899	109	1	0
0.158912	109	1	0
0.159068	109	1	0
0.159131	111	1	0
0.159137	111	1	0
0.15933	111	1	0
0.159458	111	1	0
0.159484	111	1	0
0.159541	111	1	0
0.159567	111	1	0
0.159804	111	1	0
0.159997	112	2	0
0.160181	112	2	0
0.160271	112	2	0
0.160392	114	1	0
0.160405	116	0	0
0.160574	116	0	0
0.16069	117	0	0
0.160705	117	0	0
0.16089	117	0	0
0.161002	117	0	0
0.161422	117	0	0
0.161465	117	0	0
0.161975	117	0	0
0.162105	118	0	0
0.162227	118	0	0
0.162475	118	0	0
0.162919	118	0	0
0.16319	118	0	0
0.1633	119	0	0
0.163807	120	0	0
0.163912	121	0	0
0.163943	121	0	0
0.164397	121	0	0
0.164988	121	0	0
0.165576	121	0	0
0.165634	121	0	0
0.166302	121	0	0
0.167109	121	0	0
0.167291	121	0	0
0.167348	121	0	0
0.16751	121	0	0
0.167661	121	0	0
0.167708	121	0	0
0.167808	121	0	0
0.168033	122	0	0
0.1687	122	0	0
0.16872	122	0	0
0.168935	122	0	0
0.169041	122	0	0
0.169103	122	0	0
0.169842	123	0	0
0.170183	123	0	0
0.17033	123	0	0
0.170846	123	0	0
0.170959	123	0	0
0.171134	123	0	0
0.171211	123	0	0
0.171275	124	0	0
0.171326	124	0	0
0.171961	124	0	0
0.17205	124	0	0
0.17227	124	0	0
0.172341	124	0	0
0.17271	124	0	0
0.172798	124	0	0
0.172828	124	0	0
0.172967	124	0	0
0.172985	124	0	0
0.173908	124	0	0
0.173996	124	0	0
0.174474	125	0	0
0.17471	125	0	0
0.175115	125	0	0
0.17513	125	0	0
0.175333	125	0	0
0.175419	125	0	0
0.175724	125	0	0
0.175882	126	0	0
0.176133	126	0	0
0.176183	126	0	0
0.176289	126	0	0
0.176502	127	0	0
0.177413	128	0	0
0.177557	128	0	0
0.177745	128	0	0
0.177787	128	0	0
0.178408	128	0	0
0.17955	128	0	0
0.179792	128	0	0
0.180015	128	0	0
0.180018	128	0	0
0.180301	128	0	0
0.180738	128	0	0
0.180918	128	0	0
0.181286	128	0	0
0.18223	128	0	0
0.182693	129	0	0
0.182955	130	0	0
0.183366	130	0	0
0.183842	130	0	0
0.183948	131	0	0
0.183976	131	0	0
0.184342	131	0	0
0.184504	131	0	0
0.1848	131	0	0
0.184937	131	0	0
0.185846	131	0	0
0.185858	131	0	0
0.185912	131	0	0
0.186258	131	0	0
0.186765	131	0	0
0.186871	131	0	0
0.18704	131	0	0
0.187696	131	0	0
0.188025	131	0	0
0.188143	131	0	0
0.188243	131	0	0
0.188337	132	0	0
0.188391	133	0	0
0.189141	133	0	0
0.189192	133	0	0
0.18951	133	0	0
0.189801	133	0	0
0.189841	133	0	0
0.190203	133	0	0
0.190277	133	0	0
0.190315	134	0	0
0.190532	134	0	0
0.190827	134	0	0
0.190869	134	0	0
0.191057	135	0	0
0.192216	136	0	0
0.193183	136	0	0
0.193734	136	0	0
0.193919	136	0	0
0.194022	136	0	0
0.194476	136	0	0
0.194614	136	0	0
0.194798	136	2	0
0.194859	136	2	0
0.19506	138	1	0
0.195112	138	1	0
0.195214	138	1	0
0.195217	138	1	0
0.195471	139	1	0
0.195534	139	1	0
0.195667	141	0	0
0.195731	141	0	0
0.196224	141	0	0
0.19659	141	0	0
0.196992	141	0	0
0.197568	141	0	0
0.197728	141	0	0
0.197799	141	0	0
0.197849	141	0	0
0.197981	141	0	0
0.198543	141	0	0
0.198629	141	0	0
0.198826	141	0	0
0.199175	141	0	0
0.199195	142	0	0
0.199241	142	0	0
0.199427	142	0	0
0.199431	142	0	0
0.199726	142	0	0
0.199987	142	0	0
0.200497	143	0	0
0.20051	143	0	0
0.200534	143	0	0
0.200542	143	0	0
0.20074	143	0	0
0.201151	143	0	0
0.201406	143	0	0
0.202035	143	0	0
0.202243	144	1	0
0.203069	146	0	0
0.203295	146	0	0
0.204386	147	0	0
0.205096	147	0	0
0.205136	147	0	0
0.205734	147	0	0
0.205896	147	0	0
0.206659	148	0	0
0.207137	148	0	0
0.207266	149	0	0
0.207398	149	0	0
0.208263	149	0	0
0.208272	149	0	0
0.208563	149	0	0
0.210991	150	0	0
0.211035	150	0	0
0.211197	151	0	0
0.211306	151	0	0
0.21168	152	0	0
0.211789	152	0	0
0.211842	152	0	0
0.2119	152	0	0
0.211983	152	0	0
0.212015	152	0	0
0.212193	152	0	0
0.212536	152	0	0
0.212937	152	0	0
0.21318	152	0	0
0.213274	152	0	0
0.21333	152	0	0
0.213358	152	0	0
0.213557	152	0	0
0.21417	152	0	0
0.214458	152	0	0
0.21488	152	0	0
0.215102	152	0	0
0.215439	152	0	0
0.215643	153	0	0
0.215729	154	0	0
0.215775	154	0	0
0.215791	154	0	0
0.21593	154	0	0
0.216313	154	0	0
0.216314	155	1	0
0.216377	156	1	0
0.21665	156	1	0
0.216846	156	1	0
0.217052	156	1	0
0.217785	158	0	0
0.218015	158	0	0
0.218636	158	0	0
0.218798	159	0	0
0.219859	159	0	0
0.220114	159	0	0
0.220132	159	0	0
0.220567	159	0	0
0.220591	160	0	0
0.22069	161	0	0
0.221017	161	0	0
0.221495	161	0	0
0.221667	161	0	0
0.221709	161	0	0
0.221829	161	0	0
0.222844	161	0	0
0.222931	162	0	0
0.223248	162	0	0
0.223352	162	0	0
0.223368	162	0	0
0.223535	162	0	0
0.223708	162	0	0
0.224072	162	0	0
0.224303	162	0	0
0.224436	162	0	0
0.225365	162	0	0
0.225507	162	0	0
0.225638	162	0	0
0.225881	162	0	0
0.226076	163	0	0
0.22639	163	0	0
0.226551	163	0	0
0.226789	164	0	0
0.226807	164	0	0
0.22681	165	1	0
0.226846	166	1	0
0.226978	167	1	0
0.227139	167	1	0
0.227779	169	0	0
0.228517	169	0	0
0.228618	170	0	0
0.229064	170	0	0
0.229201	170	0	0
0.229616	170	0	0
0.230071	170	0	0
0.230356	170	0	0
0.230525	170	0	0
0.230577	170	0	0
0.231253	170	0	0
0.231301	171	0	0
0.231671	171	0	0
0.231991	172	0	0
0.232146	172	0	0
0.23281	172	0	0
0.232847	173	1	0
0.23325	173	1	0
0.233392	175	0	0
0.23346	175	0	0
0.233653	175	0	0
0.234108	175	0	0
0.234256	175	0	0
0.234416	175	0	0
0.234567	175	0	0
0.234763	175	0	0
0.234914	175	0	0
0.234942	175	0	0
0.235032	175	0	0
0.235051	175	0	0
0.235128	176	0	0
0.235173	176	0	0
0.235319	176	0	0
0.235549	176	0	0
0.235612	176	0	0
0.235693	176	0	0
0.235991	176	0	0
0.23611	176	0	0
0.237082	176	0	0
0.237265	176	0	0
0.237687	177	0	0
0.238817	177	0	0
0.239029	177	0	0
0.239126	177	0	0
0.239681	178	0	0
0.239701	178	0	0
0.240081	178	0	0
0.240662	179	0	0
0.240807	179	0	0
0.241501	179	0	0
0.241627	179	0	0
0.242133	179	0	0
0.24266	180	0	0
0.243132	181	0	0
0.243633	182	0	0
0.243649	183	0	0
0.243673	183	0	0
0.243917	183	0	0
0.244237	183	0	0
0.244343	183	0	0
0.244721	183	0	0
0.244748	183	0	0
0.24498	183	0	0
0.245543	183	0	0
0.245732	183	0	0
0.245873	184	0	0
0.245897	184	0	0
0.245928	184	0	0
0.246026	185	0	0
0.24732	185	0	0
0.247641	185	0	0
0.248628	185	1	0
0.248886	186	1	0
0.249669	186	1	0
0.249695	187	2	0
0.24983	189	1	0
0.250092	191	0	0
0.251517	191	0	0
0.251587	191	0	0
0.252353	192	0	0
0.252487	192	0	0
0.25266	193	0	0
0.252888	193	0	0
0.253228	193	0	0
0.253573	193	0	0
0.25358	193	0	0
0.254169	193	0	0
0.25444	193	0	0
0.254446	193	0	0
0.254528	193	0	0
0.255121	194	0	0
0.25583	194	0	0
0.255895	195	0	0
0.256019	195	0	0
0.256802	195	0	0
0.256864	195	0	0
0.256892	195	0	0
0.25734	195	0	0
0.257925	195	0	0
0.258003	195	0	0
0.258131	195	0	0
0.258692	195	0	0
0.259784	196	0	0
0.259813	196	0	0
0.260372	196	0	0
0.260484	196	0	0
0.260763	196	0	0
0.261836	196	0	0
0.262372	197	0	0
0.26272	197	0	0
0.262964	198	0	0
0.263078	198	0	0
0.263472	198	0	0
0.263655	198	0	0
0.26407	198	0	0
0.264293	198	0	0
0.264757	199	0	0
0.264795	199	0	0
0.26488	199	0	0
0.265146	199	0	0
0.26517	199	0	0
0.265288	201	0	0
0.265319	201	0	0
0.265841	201	0	0
0.267396	201	0	0
0.26746	201	0	0
0.267686	201	0	0
0.267793	201	0	0
0.267865	201	0	0
0.269098	201	0	0
0.269232	201	0	0
0.269435	201	0	0
0.269897	201	0	0
0.270219	202	0	0
0.270237	202	0	0
0.270324	202	0	0
0.270499	202	0	0
0.270564	202	0	0
0.27059	202	0	0
0.270843	203	0	0
0.270954	203	0	0
0.271676	203	0	0
0.271991	203	0	0
0.272468	204	0	0
0.272753	204	0	0
0.27285	204	0	0
0.273042	204	0	0
0.273115	205	0	0
0.273386	205	0	0
0.273439	205	0	0
0.273807	205	0	0
0.274604	206	0	0
0.274677	206	0	0
0.275539	206	0	0
0.275604	206	0	0
0.275633	206	0	0
0.275704	206	0	0
0.276063	206	0	0
0.276112	206	0	0
0.276414	206	0	0
0.276425	206	0	0
0.27654	206	0	0
0.276793	206	0	0
0.277637	206	0	0
0.277858	206	0	0
0.277868	206	0	0
0.277943	206	0	0
0.277956	206	0	0
0.278785	206	0	0
0.278877	206	0	0
0.279253	206	0	0
0.279707	206	0	0
0.280344	207	0	0
0.28099	207	0	0
0.282472	207	0	0
0.282878	207	0	0
0.282955	208	0	0
0.28297	208	0	0
0.283165	209	0	0
0.283587	210	0	0
0.283686	210	0	0
0.283798	211	0	0
0.283973	211	0	0
0.284509	211	0	0
0.285242	211	0	0
0.285978	212	0	0
0.286162	212	0	0
0.286376	212	0	0
0.286517	212	0	0
0.286563	212	0	0
0.286915	213	0	0
0.28758	214	0	0
0.287822	214	0	0
0.288235	215	0	0
0.290279	215	0	0
0.29051	215	0	0
0.290666	216	0	0
0.290854	216	0	0
0.290864	217	0	0
0.291547	217	0	0
0.291721	217	0	0
0.291876	217	0	0
0.292133	217	0	0
0.292951	217	0	0
0.293599	217	0	0
0.294443	218	0	0
0.294519	218	0	0
0.295068	219	0	0
0.295409	219	0	0
0.295481	220	0	0
0.29553	220	0	0
0.295892	220	0	0
0.295908	220	0	0
0.296161	220	0	0
0.296987	220	0	0
0.29727	220	0	0
0.297277	220	0	0
0.297453	220	0	0
0.297616	220	0	0
0.297633	220	0	0
0.297761	220	0	0
0.297811	221	0	0
0.298541	221	0	0
0.298618	222	0	0
0.299273	222	0	0
0.300343	222	0	0
0.300391	223	0	0
0.300401	224	0	0
0.300495	224	0	0
0.300538	225	0	0
0.300744	225	0	0
0.301039	225	0	0
0.301178	226	0	0
0.301586	226	0	0
0.301716	226	0	0
0.302235	226	0	0
0.302237	226	0	0
0.302431	226	0	0
0.303471	226	0	0
0.304752	226	0	0
0.305245	226	0	0
0.305262	226	0	0
0.305341	226	0	0
0.305558	227	0	0
0.305632	227	0	0
0.305756	227	0	0
0.305805	228	0	0
0.305928	228	0	0
0.307481	228	0	0
0.30771	228	0	0
0.308073	228	0	0
0.308097	228	0	0
0.308373	228	0	0
0.308841	228	0	0
0.308861	228	0	0
0.309074	228	0	0
0.309598	228	0	0
0.309901	228	0	0
0.31	228	0	0
0.310617	228	0	0
0.310623	229	0	0
0.311069	229	0	0
0.31115	230	0	0
0.31146	230	0	0
0.311478	230	0	0
0.311654	231	0	0
0.311857	231	0	0
0.312527	231	0	0
0.314088	232	0	0
0.314268	232	0	0
0.31481	232	0	0
0.314811	232	0	0
0.31615	233	0	0
0.316298	233	0	0
0.316303	233	0	0
0.316531	233	0	0
0.317217	233	0	0
0.317683	233	0	0
0.317901	234	0	0
0.317969	234	0	0
0.318321	235	0	0
0.318356	235	0	0
0.318578	236	0	0
0.319054	236	0	0
0.319087	236	0	0
0.319323	236	0	0
0.32032	237	0	0
0.320413	237	0	0
0.320837	237	0	0
0.321466	237	0	0
0.321589	237	0	0
0.32166	237	0	0
0.321735	237	0	0
0.321899	237	0	0
0.322011	238	0	0
0.322225	238	0	0
0.322244	238	0	0
0.322317	238	0	0
0.322335	238	0	0
0.322527	238	0	0
0.323172	238	0	0
0.32378	238	0	0
0.324232	238	0	0
0.325271	238	0	0
0.325625	238	0	0
0.325833	238	0	0
0.326265	240	0	0
0.326629	240	0	0
0.326983	240	0	0
0.327454	240	0	0
0.327708	240	0	0
0.328002	240	0	0
0.328885	240	0	0
0.32889	241	0	0
0.3289	242	0	0
0.3293	243	0	0
0.3294	243	0	0
0.329442	243	0	0
0.330062	243	0	0
0.330256	243	0	0
0.330304	243	0	0
0.330425	243	1	0
0.33054	243	1	0
0.330587	243	1	0
0.330696	243	1	0
0.331171	244	2	0
0.331641	246	1	0
0.331652	246	1	0
0.331819	247	1	0
0.332169	249	0	0
0.332348	249	0	0
0.332383	249	0	0
0.332922	250	0	0
0.333142	250	0	0
0.333292	250	0	0
0.333431	250	0	0
0.333537	250	0	0
0.333595	250	0	0
0.333613	250	0	0
0.33428	250	0	0
0.334791	251	0	0
0.335051	251	0	0
0.335859	251	0	0
0.335958	251	0	0
0.336208	252	0	0
0.336209	252	0	0
0.336266	252	0	0
0.33627	252	0	0
0.33631	252	0	0
0.336686	252	0	0
0.336747	253	0	0
0.336921	254	1	0
0.338067	256	0	0
0.338333	256	0	0
0.339516	256	0	0
0.339691	257	0	0
0.340041	257	0	0
0.341033	258	0	0
0.341254	258	0	0
0.341822	258	0	0
0.342052	259	0	0
0.342133	260	1	0
0.342372	262	0	0
0.342398	262	0	0
0.342904	262	0	0
0.344042	262	0	0
0.344279	263	0	0
0.344332	263	0	0
0.344681	263	0	0
0.344855	263	0	0
0.345203	263	0	0
0.345288	265	0	0
0.345696	265	0	0
0.346177	266	0	0
0.34618	268	0	0
0.346327	268	0	0
0.346376	268	0	0
0.346668	268	0	0
0.347344	268	0	0
0.347412	268	0	0
0.347474	268	0	0
0.348139	269	0	0
0.350725	269	0	0
0.350938	270	0	0
0.351453	270	0	0
0.351922	271	0	0
0.351928	272	0	0
0.351936	273	0	0
0.352051	273	0	0
0.352181	273	0	0
0.352281	273	0	0
0.352504	273	0	0
0.352551	273	0	0
0.352612	274	0	0
0.353269	274	0	0
0.353481	274	0	0
0.353594	275	1	0
0.353768	275	1	0
0.354284	277	0	0
0.354725	277	0	0
0.355046	277	0	0
0.355703	277	0	0
0.355985	278	0	0
0.356661	278	0	0
0.357412	278	0	0
0.358713	278	0	0
0.358979	278	0	0
0.359114	278	0	0
0.359122	278	0	0
0.359543	278	0	0
0.360027	278	0	0
0.360154	278	0	0
0.360176	278	0	0
0.360494	278	0	0
0.361002	278	0	0
0.36101	279	0	0
0.361387	279	0	0
0.361412	279	0	0
0.361521	279	0	0
0.361881	279	0	0
0.362284	280	0	0
0.362305	281	0	0
0.36244	281	0	0
0.362911	281	0	0
0.363474	281	0	0
0.363848	281	0	0
0.364064	281	0	0
0.364404	281	0	0
0.364706	281	0	0
0.364791	281	0	0
0.365654	281	0	0
0.365654	281	0	0
0.366294	281	0	0
0.366836	281	0	0
0.366841	281	0	0
0.367124	281	0	0
0.368774	281	0	0
0.369146	281	0	0
0.369149	281	0	0
0.369758	281	0	0
0.369899	281	0	0
0.36991	282	0	0
0.370152	282	0	0
0.370933	282	0	0
0.371174	282	0	0
0.371446	282	0	0
0.371501	282	0	0
0.371694	282	0	0
0.372798	282	0	0
0.373149	283	0	0
0.373382	284	0	0
0.373681	285	0	0
0.373978	285	0	0
0.374008	286	0	0
0.375283	288	0	0
0.375476	288	0	0
0.376288	289	0	0
0.376495	289	0	0
0.376656	289	0	0
0.376665	289	0	0
0.376929	290	1	0
0.376969	290	1	0
0.377377	291	1	0
0.37769	291	1	0
0.377741	293	0	0
0.378134	293	0	0
0.378201	294	0	0
0.378658	294	0	0
0.378678	294	0	0
0.379706	294	0	0
0.37991	294	0	0
0.38013	294	0	0
0.380173	294	0	0
0.380196	295	1	0
0.380461	295	1	0
0.380623	295	1	0
0.380668	296	1	0
0.380944	298	0	0
0.380998	298	0	0
0.381214	298	0	0
0.381248	298	0	0
0.381431	298	0	0
0.38211	299	0	0
0.382385	299	0	0
0.383333	299	0	0
0.383739	299	0	0
0.383744	299	0	0
0.383807	299	0	0
0.385086	299	0	0
0.385106	300	0	0
0.38517	300	0	0
0.385184	300	0	0
0.38523	300	0	0
0.385342	300	0	0
0.38536	300	0	0
0.38621	301	0	0
0.386226	302	0	0
0.386995	303	0	0
0.387363	303	0	0
0.388193	303	0	0
0.388675	304	0	0
0.389115	304	0	0
0.389147	304	0	0
0.389578	304	0	0
0.389756	304	0	0
0.390407	305	1	0
0.390618	307	0	0
0.390671	307	0	0
0.390805	308	0	0
0.390951	308	0	0
0.390958	308	0	0
0.391147	308	0	0
0.391458	308	0	0
0.391793	308	0	0
0.392869	308	0	0
0.39384	308	0	0
0.3941	309	0	0
0.394203	309	0	0
0.397351	309	0	0
0.398519	310	0	0
0.398923	310	0	0
0.399062	310	0	0
0.399443	311	0	0
0.399482	311	0	0
0.399667	311	0	0
0.399744	311	0	0
0.399924	312	0	0
0.400273	312	0	0
0.400503	312	0	0
0.400703	312	0	0
0.400725	312	0	0
0.400972	313	0	0
0.401156	313	0	0
0.401763	313	0	0
0.402292	314	0	0
0.402297	315	0	0
0.402912	315	0	0
0.403216	316	0	0
0.403521	317	0	0
0.405394	319	0	0
0.405474	320	0	0
0.40646	321	0	0
0.407277	322	0	0
0.407387	323	0	0
0.408271	323	0	0
0.408587	323	0	0
0.408654	324	0	0
0.408675	325	0	0
0.408707	325	0	0
0.409007	325	0	0
0.409926	325	0	0
0.4101	325	0	0
0.410178	325	0	0
0.41022	326	0	0
0.412093	326	0	0
0.412174	326	0	0
0.412375	326	0	0
0.41238	326	0	0
0.41321	327	0	0
0.413729	328	0	0
0.413735	329	0	0
0.414229	329	0	0
0.4157	329	0	0
0.416163	329	0	0
0.416707	329	0	0
0.417053	330	0	0
0.417927	330	0	0
0.418161	331	0	0
0.418225	331	0	0
0.418868	332	0	0
0.419231	332	0	0
0.420312	332	0	0
0.420353	333	0	0
0.420381	334	0	0
0.420904	334	0	0
0.421223	334	0	0
0.421606	335	0	0
0.421863	335	0	0
0.423674	335	0	0
0.423965	335	0	0
0.42397	336	0	0
0.424889	338	0	0
0.42575	338	0	0
0.425756	338	0	0
0.425992	338	0	0
0.42617	338	0	0
0.426323	338	0	0
0.426675	339	0	0
0.42711	339	0	0
0.427243	339	0	0
0.42734	339	0	0
0.427777	339	0	0
0.427944	339	0	0
0.428698	339	0	0
0.429177	339	0	0
0.429903	339	0	0
0.430031	340	0	0
0.430282	340	0	0
0.430372	341	1	0
0.430497	343	0	0
0.430512	343	0	0
0.43054	344	0	0
0.431131	344	1	0
0.431282	345	1	0
0.431558	346	1	0
0.431625	347	1	0
0.431649	348	1	0
0.432088	350	1	0
0.432218	352	1	0
0.432308	353	1	0
0.432381	353	1	0
0.432401	355	1	0
0.43257	355	1	0
0.432616	357	1	0
0.433365	357	1	0
0.433489	357	1	0
0.434521	357	1	0
0.435151	358	1	0
0.435282	358	1	0
0.436333	359	1	0
0.436366	359	1	0
0.436402	359	1	0
0.436573	359	3	0
0.436671	361	2	0
0.436908	363	1	0
0.437035	363	1	0
0.437742	363	1	0
0.438506	363	1	0
0.438615	363	1	0
0.438903	363	1	0
0.43943	365	0	0
0.440765	367	0	0
0.441369	367	0	0
0.442213	368	0	0
0.443419	368	0	0
0.443679	368	0	0
0.444043	369	0	0
0.444579	370	0	0
0.444603	370	0	0
0.44472	370	0	0
0.444977	370	0	0
0.445396	370	0	0
0.445586	370	0	0
0.445619	370	0	0
0.44599	370	0	0
0.446419	371	0	0
0.446527	371	0	0
0.446613	371	0	0
0.446849	372	0	0
0.446875	373	0	0
0.44693	373	0	0
0.447172	374	1	0
0.448018	376	0	0
0.448303	376	0	0
0.448602	376	0	0
0.449178	377	0	0
0.449581	377	0	0
0.450129	377	0	0
0.450309	377	0	0
0.450605	377	0	0
0.450718	377	0	0
0.450945	377	0	0
0.451069	378	0	0
0.451391	379	0	0
0.4519	380	0	0
0.453385	381	0	0
0.454226	381	0	0
0.454256	381	0	0
0.454376	381	0	0
0.45475	383	0	0
0.455025	384	0	0
0.456283	384	0	0
0.456577	384	0	0
0.456731	384	0	0
0.457153	384	0	0
0.457192	385	0	0
0.457473	385	0	0
0.457833	385	0	0
0.458183	386	0	0
0.459353	387	0	0
0.4597	387	0	0
0.46054	387	0	0
0.460544	387	0	0
0.461194	387	0	0
0.461378	388	1	0
0.461516	388	1	0
0.461809	389	1	0
0.461826	389	1	0
0.462039	390	1	0
0.462549	391	1	0
0.462647	391	1	0
0.463015	393	0	0
0.463386	394	0	0
0.463639	394	0	0
0.463949	394	0	0
0.464589	396	0	0
0.464932	396	0	0
0.465352	396	1	0
0.465356	397	1	0
0.465945	397	1	0
0.465983	398	1	0
0.466851	400	0	0
0.466857	400	0	0
0.467021	401	0	0
0.467121	401	0	0
0.467501	401	0	0
0.467775	401	0	0
0.468801	401	0	0
0.469108	401	0	0
0.46933	403	0	0
0.469514	404	0	0
0.469809	404	0	0
0.470053	405	0	0
0.470287	406	0	0
0.470324	407	0	0
0.470466	407	0	0
0.470537	407	0	0
0.470756	407	0	0
0.470789	408	0	0
0.470894	408	0	0
0.471204	409	0	0
0.472186	409	0	0
0.474005	411	0	0
0.47434	411	0	0
0.475576	411	0	0
0.476025	412	0	0
0.476593	412	0	0
0.477262	412	0	0
0.477442	413	0	0
0.477842	413	0	0
0.477848	414	0	0
0.478707	415	0	0
0.479039	415	0	0
0.479143	416	1	0
0.47922	418	0	0
0.479879	419	0	0
0.480122	419	0	0
0.480456	419	0	0
0.481861	419	0	0
0.482094	420	0	0
0.482305	420	0	0
0.482593	420	0	0
0.483442	420	0	0
0.484106	420	0	0
0.48434	420	0	0
0.484599	420	0	0
0.485041	421	0	0
0.485222	422	1	0
0.48524	424	0	0
0.485988	424	0	0
0.486104	424	0	0
0.486543	425	0	0
0.486777	425	0	0
0.486928	426	0	0
0.487049	427	0	0
0.487309	428	0	0
0.487851	428	0	0
0.488745	429	0	0
0.488892	429	0	0
0.488899	430	0	0
0.488951	430	0	0
0.489996	430	0	0
0.491731	430	0	0
0.491849	430	0	0
0.493154	430	0	0
0.493581	431	0	0
0.493947	431	0	0
0.494034	431	0	0
0.494149	431	0	0
0.49436	431	0	0
0.49485	431	0	0
0.495607	432	0	0
0.49567	432	0	0
0.495825	432	0	0
0.496059	432	0	0
0.496084	432	0	0
0.496391	432	0	0
0.496606	433	0	0
0.496829	433	0	0
0.497049	433	0	0
0.497061	433	0	0
0.497223	434	0	0
0.497464	434	0	0
0.498119	435	1	0
0.498301	435	1	0
0.499065	435	1	0
0.499212	436	1	0
0.499293	438	0	0
0.499461	438	0	0
0.499946	439	0	0
0.500151	440	0	0
0.500642	441	0	0
0.500786	442	0	0
0.501375	442	0	0
0.50151	442	0	0
0.501525	442	0	0
0.50208	442	0	0
0.503099	443	0	0
0.504629	443	0	0
0.504969	444	0	0
0.505468	444	0	0
0.505866	444	0	0
0.505867	445	0	0
0.506113	445	0	0
0.506255	445	0	0
0.50661	445	0	0
0.50681	445	0	0
0.50686	446	0	0
0.506919	446	0	0
0.507398	446	0	0
0.507503	446	0	0
0.507707	446	0	0
0.508418	446	0	0
0.508747	446	0	0
0.508893	447	0	0
0.509442	447	0	0
0.509486	447	0	0
0.509684	448	0	0
0.51063	448	0	0
0.511796	449	0	0
0.512707	449	0	0
0.513008	450	0	0
0.513177	452	0	0
0.513192	452	0	0
0.513306	452	0	0
0.513419	452	0	0
0.513591	452	0	0
0.513593	452	0	0
0.513833	453	0	0
0.513841	454	1	0
0.514438	455	1	0
0.514579	456	1	0
0.515873	458	0	0
0.515944	458	0	0
0.516214	458	0	0
0.516327	459	0	0
0.516719	460	0	0
0.517227	461	0	0
0.517722	462	0	0
0.51777	462	0	0
0.518217	463	0	0
0.518674	463	0	0
0.518734	463	0	0
0.520004	463	0	0
0.52011	464	0	0
0.520199	464	0	0
0.520786	465	0	0
0.521108	465	0	0
0.521148	466	0	0
0.521445	466	0	0
0.521715	467	0	0
0.52238	467	0	0
0.522935	467	0	0
0.523536	467	0	0
0.524644	468	0	0
0.52492	468	0	0
0.525226	469	0	0
0.52557	469	0	0
0.526108	469	0	0
0.526776	469	0	0
0.527159	469	0	0
0.52727	469	0	0
0.527603	469	0	0
0.528536	469	0	0
0.528542	470	0	0
0.52864	470	0	0
0.529296	471	0	0
0.529389	471	0	0
0.530137	472	0	0
0.530159	472	0	0
0.530576	473	0	0
0.530698	473	0	0
0.532632	473	0	0
0.532777	473	0	0
0.533301	474	1	0
0.533725	475	1	0
0.533924	475	1	0
0.534547	475	1	0
0.534985	475	1	0
0.535717	475	1	0
0.535961	475	1	0
0.535988	476	1	0
0.536661	477	1	0
0.536935	477	1	0
0.537425	478	1	0
0.53821	478	1	0
0.538538	478	1	0
0.539157	479	1	0
0.539522	479	1	0
0.540705	480	1	0
0.541226	480	1	0
0.541582	480	1	0
0.541668	480	1	0
0.542178	480	1	0
0.542254	481	1	0
0.542331	481	1	0
0.542501	481	1	0
0.54265	482	1	0
0.542675	482	1	0
0.54278	483	1	0
0.543244	483	1	0
0.543714	484	1	0
0.545257	484	1	0
0.546456	485	1	0
0.54654	485	1	0
0.546974	485	1	0
0.547085	485	1	0
0.547582	485	1	0
0.547739	485	1	0
0.548023	485	1	0
0.548257	486	1	0
0.548294	487	1	0
0.548697	487	1	0
0.5494	488	1	0
0.550176	488	1	0
0.550324	489	1	0
0.550464	489	1	0
0.551368	489	1	0
0.551454	489	1	0
0.552512	489	1	0
0.553227	490	1	0
0.553254	490	1	0
0.553321	491	1	0
0.553415	491	1	0
0.55381	491	1	0
0.555176	491	1	0
0.555765	491	1	0
0.558061	492	1	0
0.559285	492	1	0
0.559635	492	1	0
0.559819	494	1	0
0.561351	495	1	0
0.561734	496	1	0
0.561842	497	1	0
0.562117	497	1	0
0.562182	497	1	0
0.563306	497	1	0
0.563352	498	1	0
0.563645	498	1	0
0.56415	498	1	0
0.564334	498	1	0
0.564843	498	1	0
0.566809	499	1	0
0.567511	499	1	0
0.568316	500	1	0
0.569326	500	1	0
0.569359	500	1	0
0.569605	500	1	0
0.570012	500	1	0
0.570393	501	1	0
0.570803	501	1	0
0.571429	501	1	0
0.572021	501	1	0
0.573425	501	1	0
0.573759	501	1	0
0.574023	502	1	0
0.577407	502	1	0
0.577825	504	1	0
0.578042	504	1	0
0.578146	505	1	0
0.578274	506	1	0
0.578641	506	1	0
0.579009	506	1	0
0.57907	506	1	0
0.580185	507	1	0
0.5806	507	1	0
0.580625	507	1	0
0.580731	508	1	0
0.580888	508	1	0
0.581036	508	1	0
0.581693	508	1	0
0.582127	508	1	0
0.583375	510	1	0
0.583435	510	1	0
0.583633	510	1	0
0.583784	510	1	0
0.584405	511	1	0
0.584425	511	1	0
0.584993	511	1	0
0.585767	512	1	0
0.587341	513	1	0
0.587617	514	1	0
0.587695	515	1	0
0.588356	515	1	0
0.589569	515	1	0
0.5899	515	1	0
0.589961	515	1	0
0.59001	515	1	0
0.590403	516	1	0
0.591133	516	1	0
0.591337	518	1	0
0.591364	518	1	0
0.591614	518	1	0
0.591858	518	1	0
0.59209	519	1	0
0.593788	519	1	0
0.594197	519	1	0
0.595171	521	1	0
0.595626	521	1	0
0.596824	521	1	0
0.59691	521	1	0
0.596978	522	1	0
0.59701	522	1	0
0.597142	524	1	0
0.597729	524	1	0
0.597825	526	1	0
0.598405	526	1	0
0.598603	527	1	0
0.598769	528	1	0
0.598966	529	1	0
0.599214	529	1	0
0.600211	531	1	0
0.600359	532	1	0
0.600562	532	1	0
0.600633	532	1	0
0.601317	532	1	0
0.602342	532	1	0
0.602513	534	1	0
0.603845	534	1	0
0.604058	535	1	0
0.604225	535	1	0
0.604744	535	1	0
0.604829	535	1	0
0.605514	536	1	0
0.605925	536	1	0
0.606382	536	1	0
0.606854	536	1	0
0.606954	536	1	0
0.607893	536	1	0
0.608404	537	1	0
0.608664	537	1	0
0.60879	537	1	0
0.608796	537	1	0
0.608921	537	1	0
0.609036	537	1	0
0.610481	538	1	0
0.610561	538	1	0
0.610661	540	1	0
0.611309	541	1	0
0.612201	541	1	0
0.612323	541	1	0
0.61395	541	1	0
0.614505	541	1	0
0.614517	542	1	0
0.615284	543	1	0
0.615598	543	1	0
0.6157	543	1	0
0.616056	543	2	0
0.616078	545	2	0
0.616093	545	2	0
0.617342	546	2	0
0.617516	546	2	0
0.617565	546	2	0
0.61777	546	2	0
0.617946	546	4	0
0.617991	547	4	0
0.618288	547	4	0
0.61895	549	3	0
0.61965	550	3	0
0.619957	550	3	0
0.621395	551	3	0
0.623185	551	3	0
0.623957	551	3	0
0.624255	552	3	0
0.62472	553	3	0
0.624889	554	3	0
0.624992	556	3	0
0.625419	557	3	0
0.625769	558	3	0
0.625792	558	3	0
0.626083	559	4	0
0.626503	559	4	0
0.627882	561	3	0
0.630545	562	3	0
0.630674	562	3	0
0.631304	562	3	0
0.631734	563	3	0
0.632033	564	3	0
0.632653	565	3	0
0.633531	567	3	0
0.633532	567	3	0
0.633993	567	3	0
0.635261	567	3	0
0.635922	567	3	0
0.635942	567	3	0
0.636148	567	3	0
0.636512	567	3	0
0.636731	567	3	0
0.637067	567	3	0
0.637082	567	3	0
0.638498	567	3	0
0.638604	568	3	0
0.638711	568	3	0
0.639125	570	2	0
0.639526	570	2	0
0.640534	570	2	0
0.64072	571	2	0
0.640955	571	2	0
0.640989	571	2	0
0.641092	572	3	0
0.641128	574	2	0
0.641262	574	2	0
0.642216	574	2	0
0.642614	574	2	0
0.644099	574	2	0
0.644806	575	2	0
0.644925	575	2	0
0.645451	575	2	0
0.645507	577	2	0
0.645771	577	2	0
0.647997	577	2	0
0.648028	577	2	0
0.648881	577	2	0
0.649681	577	2	0
0.650093	577	2	0
0.650805	578	2	0
0.650994	578	2	0
0.6522	578	2	0
0.652402	578	2	0
0.652929	578	2	0
0.652981	578	2	0
0.653878	579	2	0
0.654837	580	2	0
0.655037	580	2	0
0.655054	580	2	0
0.655377	580	2	0
0.655493	580	2	0
0.656114	581	2	0
0.657936	582	2	0
0.658601	583	2	0
0.658684	584	2	0
0.658772	584	2	0
0.65954	584	2	0
0.660615	584	2	0
0.661314	584	2	0
0.662309	584	2	0
0.662669	584	2	0
0.662835	584	2	0
0.663165	584	2	0
0.663857	584	2	0
0.664199	584	2	0
0.664272	585	2	0
0.664423	585	2	0
0.664534	585	2	0
0.664937	586	2	0
0.665386	586	2	0
0.665542	587	2	0
0.66581	587	2	0
0.665966	587	2	0
0.665978	589	2	0
0.666698	591	2	0
0.667851	592	2	0
0.668228	593	2	0
0.668717	593	2	0
0.668984	593	2	0
0.669331	593	2	0
0.669468	593	2	0
0.669678	593	2	0
0.669963	595	2	0
0.670373	595	3	0
0.670646	595	3	0
0.671627	595	3	0
0.671726	596	4	0
0.671825	598	3	0
0.672261	600	2	0
0.674936	600	2	0
0.675231	601	2	0
0.675391	601	2	0
0.675476	601	2	0
0.675987	601	2	0
0.676666	601	2	0
0.677227	601	2	0
0.677284	602	2	0
0.678087	602	2	0
0.678343	603	2	0
0.678665	603	2	0
0.678938	604	2	0
0.678943	604	2	0
0.679283	604	2	0
0.679313	605	2	0
0.680549	606	2	0
0.68091	607	2	0
0.681062	607	2	0
0.681286	608	2	0
0.682969	608	2	0
0.683773	608	2	0
0.683773	609	2	0
0.68405	609	2	0
0.68418	610	2	0
0.685462	612	2	0
0.68739	613	2	0
0.687477	614	2	0
0.687667	614	2	0
0.687901	615	2	0
0.68794	616	2	0
0.688716	617	2	0
0.68882	618	2	0
0.689219	618	2	0
0.689811	618	2	0
0.690228	618	2	0
0.690274	619	2	0
0.690369	619	3	0
0.690408	620	3	0
0.690794	621	4	0
0.690922	623	3	0
0.691241	625	2	0
0.691384	625	2	0
0.691444	626	2	0
0.692459	626	2	0
0.693717	627	2	0
0.693818	628	2	0
0.694757	629	2	0
0.695375	629	2	0
0.696118	630	2	0
0.696266	631	2	0
0.697992	631	2	0
0.699207	631	2	0
0.699342	631	2	0
0.700163	632	2	0
0.700952	632	2	0
0.703089	632	2	0
0.703384	633	2	0
0.703527	633	2	0
0.703602	634	2	0
0.704077	634	2	0
0.704419	635	2	0
0.704852	636	2	0
0.705748	637	2	0
0.706061	637	2	0
0.707	637	2	0
0.707389	638	2	0
0.708072	638	2	0
0.708654	639	2	0
0.70905	640	2	0
0.709844	640	2	0
0.710285	640	2	0
0.710954	640	2	0
0.711692	640	2	0
0.711794	640	2	0
0.712169	641	2	0
0.712847	642	2	0
0.71341	643	2	0
0.714606	643	2	0
0.715971	643	2	0
0.716885	644	2	0
0.717771	645	2	0
0.717924	645	2	0
0.717929	646	2	0
0.717973	647	2	0
0.718776	647	2	0
0.718845	647	4	0
0.718989	649	3	0
0.719762	651	2	0
0.719762	652	2	0
0.72057	652	2	0
0.720987	652	2	0
0.721019	652	2	0
0.721371	653	2	0
0.722056	654	2	0
0.722553	655	2	0
0.723359	656	2	0
0.725321	656	2	0
0.726488	657	2	0
0.727169	657	2	0
0.72718	658	2	0
0.728034	658	2	0
0.729145	658	2	0
0.729496	659	2	0
0.730018	659	2	0
0.73049	660	2	0
0.730711	661	2	0
0.730879	661	2	0
0.732365	661	2	0
0.732552	661	2	0
0.732945	661	2	0
0.733549	661	2	0
0.733806	663	2	0
0.734064	664	2	0
0.734506	665	2	0
0.734555	665	2	0
0.734581	666	2	0
0.735478	666	2	0
0.735679	666	2	0
0.73627	666	2	0
0.736329	667	2	0
0.73676	667	2	0
0.738348	668	2	0
0.73884	668	2	0
0.739566	670	2	0
0.739578	670	2	0
0.74028	670	2	0
0.740385	670	4	0
0.740715	672	3	0
0.741476	674	2	0
0.743328	674	2	0
0.744294	674	2	0
0.744347	674	2	0
0.744436	675	2	0
0.744735	675	2	0
0.745251	677	2	0
0.746434	679	2	0
0.746486	679	2	0
0.74683	680	2	0
0.747111	682	2	0
0.749113	683	2	0
0.74923	684	2	0
0.750796	685	2	0
0.751847	685	2	0
0.753352	686	2	0
0.753677	687	2	0
0.754676	687	2	0
0.754697	687	2	0
0.754963	687	2	0
0.755247	689	2	0
0.755353	691	2	0
0.755673	691	2	0
0.755938	691	2	0
0.756359	691	2	0
0.757027	691	2	0
0.757218	692	2	0
0.757981	693	2	0
0.758198	694	2	0
0.758275	694	2	0
0.758669	695	2	0
0.759324	696	2	0
0.759802	696	2	0
0.760139	697	2	0
0.760744	698	2	0
0.76143	698	2	0
0.761579	699	2	0
0.761752	700	2	0
0.762059	701	2	0
0.762551	701	2	0
0.762954	701	2	0
0.763942	701	2	0
0.764819	701	2	0
0.765313	703	2	0
0.766041	704	2	0
0.766741	704	2	0
0.767417	704	2	0
0.767966	704	2	0
0.768113	705	2	0
0.769253	706	2	0
0.769654	707	2	0
0.772091	708	2	0
0.772723	708	2	0
0.773258	709	2	0
0.774381	710	2	0
0.775406	710	2	0
0.775668	711	2	0
0.776432	711	2	0
0.776945	711	2	0
0.777342	711	2	0
0.7774	711	2	0
0.777706	712	2	0
0.778014	713	3	0
0.778525	713	3	0
0.778615	713	3	0
0.779632	715	2	0
0.780313	715	2	0
0.780589	716	2	0
0.781403	717	2	0
0.781977	718	2	0
0.782916	718	2	0
0.783681	718	2	0
0.784133	718	2	0
0.784633	719	2	0
0.786134	719	2	0
0.786605	719	2	0
0.786982	719	2	0
0.788031	719	2	0
0.78822	720	2	0
0.788243	721	2	0
0.78888	721	2	0
0.789858	721	2	0
0.791472	722	2	0
0.791949	723	2	0
0.792783	723	2	0
0.793612	723	2	0
0.795703	724	2	0
0.797634	725	2	0
0.797817	725	2	0
0.798252	725	2	0
0.798354	726	2	0
0.799107	727	2	0
0.801109	728	2	0
0.801942	728	2	0
0.80216	729	2	0
0.803339	729	2	0
0.803892	730	2	0
0.804953	731	2	0
0.80499	732	2	0
0.806859	733	2	0
0.80709	734	2	0
0.807151	735	2	0
0.807984	736	2	0
0.808321	737	2	0
0.808476	737	2	0
0.808639	739	2	0
0.808696	739	2	0
0.808859	739	2	0
0.808969	740	2	0
0.810013	740	2	0
0.810527	741	2	0
0.810749	742	2	0
0.811279	742	2	0
0.812595	743	2	0
0.813113	743	2	0
0.815189	744	2	0
0.81623	744	2	0
0.816741	744	2	0
0.817075	744	2	0
0.818195	744	2	0
0.818716	745	2	0
0.819393	745	2	0
0.819625	745	2	0
0.819753	745	2	0
0.820182	746	3	0
0.820258	748	2	0
0.82045	748	2	0
0.820811	749	2	0
0.821527	750	2	0
0.821739	751	2	0
0.823037	751	2	0
0.823612	751	2	0
0.823806	751	2	0
0.824823	752	2	0
0.825246	752	2	0
0.825737	753	2	0
0.825975	754	2	0
0.826038	755	2	0
0.826482	755	2	0
0.827373	756	2	0
0.82814	756	2	0
0.828287	756	2	0
0.82838	757	2	0
0.82901	757	2	0
0.830398	758	2	0
0.83057	758	2	0
0.830627	758	2	0
0.83074	758	2	0
0.831066	759	2	0
0.832058	760	2	0
0.832679	761	2	0
0.832924	761	2	0
0.833258	761	2	0
0.83347	763	2	0
0.833798	763	2	0
0.834826	764	2	0
0.834945	765	3	0
0.835186	767	2	0
0.835221	767	2	0
0.835699	767	2	0
0.836083	767	2	0
0.836083	767	2	0
0.836305	768	2	0
0.836496	769	3	0
0.836862	771	2	0
0.837004	772	2	0
0.837299	773	2	0
0.837362	774	2	0
0.838007	774	2	0
0.83875	774	2	0
0.838813	774	2	0
0.839409	775	2	0
0.841409	775	2	0
0.842231	775	2	0
0.844383	775	2	0
0.845664	775	2	0
0.84779	775	2	0
0.848083	775	2	0
0.848099	775	2	0
0.848527	775	2	0
0.848585	775	2	0
0.84914	775	3	0
0.849191	775	3	0
0.849364	776	4	0
0.850129	778	3	0
0.850623	780	2	0
0.851857	781	2	0
0.85195	783	2	0
0.852855	784	2	0
0.853425	784	2	0
0.854332	785	2	0
0.85466	786	2	0
0.855657	786	2	0
0.855791	786	2	0
0.855968	788	2	0
0.856721	788	2	0
0.859585	789	2	0
0.859889	789	2	0
0.860894	790	2	0
0.861354	791	2	0
0.861418	791	2	0
0.862011	791	2	0
0.862065	792	2	0
0.862243	792	2	0
0.863475	792	2	0
0.863719	793	2	0
0.864165	793	2	0
0.864804	794	2	0
0.865115	794	2	0
0.86528	794	2	0
0.865994	794	2	0
0.86672	795	2	0
0.86778	795	2	0
0.868418	796	2	0
0.868454	797	2	0
0.86929	797	2	0
0.869375	798	2	0
0.869676	798	2	0
0.870093	799	2	0
0.870252	800	2	0
0.870675	801	2	0
0.87238	802	2	0
0.87278	803	2	0
0.872885	803	2	0
0.872974	803	2	0
0.872985	803	2	0
0.873412	804	2	0
0.873614	805	2	0
0.8744	805	2	0
0.875106	805	2	0
0.875901	805	2	0
0.876499	806	2	0
0.877195	807	2	0
0.877747	808	2	0
0.879319	809	2	0
0.879534	809	2	0
0.879694	810	2	0
0.880247	811	2	0
0.880424	812	2	0
0.880602	812	2	0
0.880702	812	2	0
0.881446	812	2	0
0.88274	813	2	0
0.883898	815	2	0
0.883948	815	2	0
0.884375	816	2	0
0.884612	816	2	0
0.885043	817	2	0
0.887125	817	2	0
0.889495	818	2	0
0.890381	818	2	0
0.890435	819	2	0
0.890695	819	2	0
0.891726	819	2	0
0.892559	820	2	0
0.893789	821	2	0
0.895833	821	2	0
0.896162	822	2	0
0.896493	822	2	0
0.896638	823	2	0
0.897177	823	2	0
0.897436	824	2	0
0.900111	824	2	0
0.90208	825	2	0
0.902109	825	2	0
0.903913	825	2	0
0.904318	825	2	0
0.904616	825	2	0
0.905198	825	2	0
0.90588	825	2	0
0.906786	826	2	0
0.907774	827	2	0
0.907938	827	2	0
0.909011	828	2	0
0.909084	828	2	0
0.909571	828	2	0
0.909658	828	2	0
0.910572	828	2	0
0.911929	828	2	0
0.912186	828	2	0
0.912448	829	2	0
0.913249	829	2	0
0.913708	830	2	0
0.913792	830	2	0
0.914074	831	2	0
0.914074	831	2	0
0.91427	831	2	0
0.915479	831	2	0
0.916865	833	2	0
0.918186	833	2	0
0.918414	833	2	0
0.918649	833	2	0
0.919106	833	2	0
0.919867	833	2	0
0.921116	833	2	0
0.922276	833	2	0
0.922883	834	2	0
0.923146	834	2	0
0.923438	835	2	0
0.92357	836	2	0
0.923763	837	2	0
0.925854	837	2	0
0.925969	838	2	0
0.926557	839	2	0
0.926834	841	2	0
0.926893	841	2	0
0.927192	841	2	0
0.927827	841	2	0
0.928248	842	2	0
0.928409	843	2	0
0.932035	844	2	0
0.932779	844	2	0
0.933018	845	3	0
0.933934	847	2	0
0.934062	848	2	0
0.937053	849	2	0
0.937211	850	2	0
0.937755	851	2	0
0.93805	851	2	0
0.938262	852	3	0
0.938416	853	3	0
0.938898	855	2	0
0.939362	856	2	0
0.93943	856	2	0
0.939437	856	2	0
0.939665	856	2	0
0.940069	856	2	0
0.940134	857	2	0
0.941639	858	2	0
0.942824	860	2	0
0.943665	861	2	0
0.94446	861	2	0
0.946125	861	2	0
0.946159	862	2	0
0.947099	862	2	0
0.948827	862	2	0
0.94915	862	2	0
0.949688	862	2	0
0.949697	863	2	0
0.950177	864	2	0
0.950516	865	2	0
0.950588	865	2	0
0.955311	865	2	0
0.955475	865	2	0
0.955586	865	2	0
0.96082	865	2	0
0.961108	866	2	0
0.961524	867	2	0
0.961677	867	2	0
0.962191	869	2	0
0.964019	869	2	0
0.964643	869	2	0
0.964653	871	2	0
0.965379	871	2	0
0.965766	871	2	0
0.965974	871	2	0
0.966126	872	2	0
0.966699	873	2	0
0.967915	873	2	0
0.967954	874	2	0
0.971318	875	2	0
0.971865	875	2	0
0.972146	875	2	0
0.972774	876	2	0
0.973444	876	2	0
0.973723	877	3	0
0.973808	879	2	0
0.973876	881	2	0
0.97407	881	2	0
0.975	881	2	0
0.975004	881	4	0
0.975168	881	4	0
0.975255	883	3	0
0.975699	883	3	0
0.975873	885	2	0
0.97658	886	2	0
0.97663	887	2	0
0.977594	887	2	0
0.978034	887	2	0
0.978547	887	2	0
0.980585	888	2	0
0.980641	888	2	0
0.98171	888	2	0
0.982653	888	2	0
0.982685	888	2	0
0.986543	889	2	0
0.987201	889	2	0
0.987306	889	2	0
0.987402	891	2	0
0.987509	891	2	0
0.988495	891	3	0
0.988591	892	4	0
0.988913	894	3	0
0.98936	896	2	0
0.989586	897	2	0
0.991623	898	2	0
0.991912	899	2	0
0.993971	900	2	0
0.994597	900	2	0
0.996678	900	2	0
0.997493	901	2	0
0.99794	902	2	0
0.998693	903	2	0
1.00034	904	2	0
1.00135	904	2	0
1.00269	906	2	0
1.00281	907	2	0
1.00315	907	2	0
1.00339	907	2	0
1.00511	908	2	0
1.0052	909	2	0
1.00532	910	2	0
1.00616	911	2	0
1.00707	912	2	0
1.00849	913	2	0
1.00968	913	2	0
1.01068	913	2	0
1.01176	915	2	0
1.01299	915	2	0
1.01461	917	2	0
1.01527	917	2	0
1.01684	917	2	0
1.01688	917	2	0
1.01728	918	2	0
1.02065	918	2	0
1.02227	918	2	0
1.02337	919	2	0
1.02354	919	2	0
1.02359	920	3	0
1.02367	920	3	0
1.02385	922	2	0
1.02543	922	2	0
1.02546	923	2	0
1.02565	924	2	0
1.02683	925	2	0
1.02701	926	2	0
1.02803	927	2	0
1.02861	927	2	0
1.02921	927	2	0
1.02923	928	2	0
1.02983	929	2	0
1.02991	929	2	0
1.03002	929	2	0
1.03107	930	2	0
1.03191	930	2	0
1.03262	931	2	0
1.03302	932	2	0
1.03371	932	2	0
1.03563	932	2	0
1.03584	933	2	0
1.03653	934	3	0
1.03664	935	3	0
1.03714	935	3	0
1.03747	935	3	0
1.03864	936	3	0
1.03962	937	3	0
1.03975	938	3	0
1.04156	938	3	0
1.04161	938	3	0
1.0417	940	3	0
1.0425	940	3	0
1.04286	940	3	0
1.04402	942	3	0
1.04418	943	3	0
1.04604	943	3	0
1.04746	943	3	0
1.0477	944	3	0
1.04816	944	3	0
1.0488	946	3	0
1.04994	946	3	0
1.05099	946	3	0
1.05179	946	3	0
1.05212	947	3	0
1.05275	947	3	0
1.05309	947	3	0
1.05379	947	3	0
1.05738	948	3	0
1.05778	949	3	0
1.05826	949	3	0
1.05851	949	3	0
1.05921	949	3	0
1.05957	949	3	0
1.06205	949	3	0
1.0623	949	3	0
1.06262	949	3	0
1.06285	949	3	0
1.06292	950	3	0
1.06327	951	4	0
1.0661	953	3	0
1.06722	954	3	0
1.06736	955	3	0
1.06767	955	3	0
1.07341	956	3	0
1.0775	956	3	0
1.07837	956	3	0
1.07874	956	3	0
1.0803	956	3	0
1.08033	956	3	0
1.08118	957	3	0
1.08142	957	3	0
1.08145	958	3	0
1.08177	959	3	0
1.08234	959	3	0
1.08269	960	4	0
1.0829	961	4	0
1.08321	963	3	0
1.08331	963	3	0
1.08395	963	3	0
1.08456	963	3	0
1.08519	963	3	0
1.08887	963	3	0
1.0895	963	3	0
1.08978	964	3	0
1.09097	965	3	0
1.09097	965	3	0
1.09129	966	3	0
1.09152	967	3	0
1.09189	968	4	0
1.09213	970	3	0
1.09272	970	3	0
1.09301	970	3	0
1.094	970	3	0
1.0951	970	3	0
1.09749	972	3	0
1.09764	973	3	0
1.09808	973	3	0
1.10027	974	3	0
1.10097	975	3	0
1.10144	975	3	0
1.10199	975	3	0
1.10224	977	3	0
1.10337	979	3	0
1.1043	979	3	0
1.10461	981	3	0
1.10555	981	3	0
1.10641	981	3	0
1.10694	982	3	0
1.10775	982	3	0
1.10933	983	3	0
1.11109	984	3	0
1.11153	984	3	0
1.11167	985	3	0
1.11266	986	3	0
1.11337	987	3	0
1.11384	987	3	0
1.11464	988	3	0
1.11473	989	3	0
1.11549	989	3	0
1.11806	990	3	0
1.11882	990	3	0
1.1213	991	3	0
1.1215	991	3	0
1.12263	991	3	0
1.12269	992	3	0
1.12285	992	3	0
1.12294	993	4	0
1.12307	994	4	0
1.12351	996	3	0
1.12475	997	3	0
1.12549	997	3	0
1.12564	997	3	0
1.12607	999	3	0
1.12645	999	3	0
1.12694	999	3	0
1.12724	999	3	0
1.12736	1000	4	0
1.12763	1002	3	0
1.12778	1004	3	0
1.12804	1004	3	0
1.12834	1004	3	0
1.12842	1004	3	0
1.12878	1004	3	0
1.1297	1005	3	0
1.13187	1006	3	0
1.13495	1006	3	0
1.13585	1007	3	0
1.13649	1007	3	0
1.13655	1008	4	0
1.13706	1010	3	0
1.13714	1010	3	0
1.13724	1010	3	0
1.13807	1010	3	0
1.1405	1010	3	0
1.14223	1011	3	0
1.14268	1012	3	0
1.14291	1014	3	0
1.14326	1014	3	0
1.14422	1014	3	0
1.14549	1014	3	0
1.14701	1015	3	0
1.14871	1015	3	0
1.14982	1017	3	0
1.15135	1017	3	0
1.15293	1018	3	0
1.15385	1018	3	0
1.15387	1020	3	0
1.15417	1021	3	0
1.15477	1021	3	0
1.15508	1022	3	0
1.15557	1024	3	0
1.15587	1026	3	0
1.15608	1026	3	0
1.15638	1026	3	0
1.15698	1027	3	0
1.15714	1027	3	0
1.15719	1028	3	0
1.15755	1028	4	0
1.15787	1028	4	0
1.15798	1029	5	0
1.1596	1031	4	0
1.16003	1031	4	0
1.16006	1033	4	0
1.16041	1034	5	0
1.16064	1036	4	0
1.16415	1038	3	0
1.16757	1038	3	0
1.16817	1039	3	0
1.16817	1040	3	0
1.16867	1040	3	0
1.16913	1041	3	0
1.1695	1042	3	0
1.17109	1042	3	0
1.17355	1042	3	0
1.17468	1042	3	0
1.17564	1042	3	0
1.17619	1042	3	0
1.17879	1043	3	0
1.1792	1043	3	0
1.18143	1043	3	0
1.18243	1044	3	0
1.1832	1045	3	0
1.18406	1047	3	0
1.18571	1048	3	0
1.18694	1048	3	0
1.18734	1048	3	0
1.18835	1048	3	0
1.18964	1049	3	0
1.19044	1050	3	0
1.19046	1050	3	0
1.19246	1051	3	0
1.19363	1052	3	0
1.19568	1053	3	0
1.19764	1054	3	0
1.19831	1054	3	0
1.20001	1055	3	0
1.20117	1055	3	0
1.20192	1055	3	0
1.20277	1055	4	0
1.20682	1055	4	0
1.20688	1056	4	0
1.2093	1057	4	0
1.21038	1058	4	0
1.21052	1059	4	0
1.21088	1059	4	0
1.21103	1060	4	0
1.21142	1060	4	0
1.21152	1061	4	0
1.21364	1062	4	0
1.21412	1063	4	0
1.2175	1064	4	0
1.21919	1064	4	0
1.21938	1064	4	0
1.22206	1064	4	0
1.22244	1064	4	0
1.22254	1065	4	0
1.22396	1066	4	0
1.224	1066	4	0
1.226	1066	4	0
1.22832	1066	4	0
1.22994	1066	4	0
1.23008	1066	4	0
1.23121	1066	4	0
1.23284	1067	4	0
1.23297	1067	4	0
1.23301	1067	4	0
1.2332	1069	3	0
1.2348	1069	4	0
1.2349	1070	5	0
1.23509	1072	4	0
1.23531	1074	3	0
1.23566	1074	3	0
1.23632	1075	3	0
1.24045	1075	3	0
1.24236	1076	3	0
1.24237	1076	3	0
1.24248	1076	3	0
1.24402	1076	3	0
1.24402	1077	3	0
1.24651	1078	3	0
1.24688	1080	3	0
1.24721	1080	3	0
1.25172	1080	3	0
1.25227	1080	3	0
1.25233	1081	3	0
1.25265	1082	3	0
1.2535	1082	3	0
1.25515	1082	3	0
1.25557	1082	3	0
1.25587	1082	4	0
1.25603	1082	4	0
1.25689	1083	5	0
1.25698	1085	4	0
1.25852	1087	3	0
1.25882	1087	3	0
1.25892	1087	3	0
1.25946	1088	3	0
1.26165	1088	3	0
1.26167	1089	3	0
1.26321	1089	3	0
1.26382	1091	3	0
1.2671	1091	3	0
1.26825	1091	3	0
1.26878	1092	3	0
1.26912	1093	3	0
1.27023	1094	3	0
1.27031	1096	3	0
1.27226	1098	3	0
1.27406	1098	3	0
1.27466	1100	3	0
1.27565	1101	3	0
1.27588	1102	3	0
1.2772	1103	3	0
1.27736	1103	3	0
1.27763	1104	3	0
1.27804	1104	3	0
1.27951	1105	3	0
1.27999	1105	3	0
1.28064	1106	3	0
1.28114	1107	3	0
1.2815	1107	3	0
1.28161	1108	3	0
1.28745	1109	3	0
1.28794	1110	3	0
1.28904	1111	3	0
1.28926	1111	3	0
1.29069	1111	3	0
1.29073	1111	3	0
1.2915	1111	4	0
1.29177	1112	4	0
1.29203	1112	4	0
1.29225	1112	4	0
1.29348	1112	4	0
1.29785	1112	4	0
1.29954	1112	4	0
1.30083	1112	4	0
1.30107	1112	4	0
1.30231	1113	4	0
1.30646	1114	4	0
1.30648	1114	4	0
1.30659	1114	4	0
1.30667	1116	3	0
1.30681	1116	3	0
1.30855	1117	3	0
1.31016	1117	3	0
1.31075	1117	3	0
1.31084	1117	3	0
1.31287	1119	2	0
1.31472	1120	2	0
1.31491	1120	2	0
1.31502	1121	2	0
1.3184	1121	2	0
1.31883	1121	2	0
1.31916	1121	2	0
1.32123	1123	2	0
1.32546	1124	2	0
1.32654	1124	2	0
1.32897	1124	2	0
1.32903	1125	2	0
1.32996	1126	2	0
1.33318	1127	2	0
1.33369	1128	2	0
1.33541	1129	2	0
1.33675	1130	2	0
1.33945	1131	2	0
1.34014	1132	2	0
1.3419	1132	2	0
1.34338	1132	2	0
1.34376	1132	2	0
1.34381	1132	2	0
1.34445	1133	2	0
1.34495	1133	2	0
1.34588	1134	2	0
1.34757	1134	2	0
1.349	1135	2	0
1.34971	1136	2	0
1.35023	1136	2	0
1.35064	1136	2	0
1.35266	1137	2	0
1.35486	1137	2	0
1.35649	1137	2	0
1.35786	1138	2	0
1.35847	1138	2	0
1.3591	1139	2	0
1.36004	1140	2	0
1.36078	1140	2	0
1.36087	1142	2	0
1.36209	1143	2	0
1.36305	1143	2	0
1.36322	1144	2	0
1.36377	1146	2	0
1.36387	1148	2	0
1.36456	1149	2	0
1.36473	1150	2	0
1.36543	1150	2	0
1.36749	1152	2	0
1.368	1152	2	0
1.36895	1154	2	0
1.37047	1155	2	0
1.37072	1155	2	0
1.37323	1155	2	0
1.37362	1155	2	0
1.37369	1155	2	0
1.37394	1157	2	0
1.37404	1157	2	0
1.37412	1157	2	0
1.37455	1157	2	0
1.37611	1158	2	0
1.37699	1159	2	0
1.37715	1159	2	0
1.37718	1159	2	0
1.37752	1161	2	0
1.37963	1161	2	0
1.3799	1162	2	0
1.38089	1163	2	0
1.38284	1165	2	0
1.3842	1165	2	0
1.38451	1165	2	0
1.38602	1165	2	0
1.38743	1165	2	0
1.38963	1165	2	0
1.38977	1166	2	0
1.3931	1167	2	0
1.39346	1168	2	0
1.39372	1168	2	0
1.39633	1168	2	0
1.39675	1169	2	0
1.39784	1169	2	0
1.39836	1170	2	0
1.39953	1171	2	0
1.40136	1171	2	0
1.40326	1173	2	0
1.40514	1173	2	0
1.40674	1173	2	0
1.40674	1173	2	0
1.40767	1173	2	0
1.40908	1175	2	0
1.40998	1176	2	0
1.41467	1177	2	0
1.41985	1177	2	0
1.42227	1177	2	0
1.42252	1177	2	0
1.4239	1177	2	0
1.42444	1178	2	0
1.42514	1179	2	0
1.4252	1180	2	0
1.4256	1180	2	0
1.42561	1180	4	0
1.42566	1182	3	0
1.42592	1184	2	0
1.42682	1184	2	0
1.42704	1185	2	0
1.42743	1185	4	0
1.42753	1187	3	0
1.42888	1189	2	0
1.42897	1189	2	0
1.42988	1190	2	0
1.4302	1191	2	0
1.43061	1191	2	0
1.4309	1191	2	0
1.43204	1192	2	0
1.43309	1193	2	0
1.43322	1193	2	0
1.43346	1193	2	0
1.43623	1195	2	0
1.43761	1197	2	0
1.43847	1199	2	0
1.44205	1200	2	0
1.44243	1201	2	0
1.44262	1201	2	0
1.44405	1203	2	0
1.44573	1203	2	0
1.44676	1203	2	0
1.44716	1203	2	0
1.44739	1203	3	0
1.44849	1205	2	0
1.44851	1206	2	0
1.44895	1206	2	0
1.44985	1208	2	0
1.45022	1208	2	0
1.45132	1208	2	0
1.45166	1209	2	0
1.45283	1209	2	0
1.45378	1209	2	0
1.45459	1210	2	0
1.45565	1210	2	0
1.45698	1212	2	0
1.45708	1212	2	0
1.4571	1213	2	0
1.45896	1213	2	0
1.45931	1215	2	0
1.46042	1216	2	0
1.4605	1216	2	0
1.46139	1217	2	0
1.46401	1217	2	0
1.46531	1219	2	0
1.46683	1219	2	0
1.46745	1219	2	0
1.46776	1220	2	0
1.46901	1220	2	0
1.46972	1220	2	0
1.47024	1220	2	0
1.47145	1220	2	0
1.47219	1221	2	0
1.47346	1223	2	0
1.47848	1223	2	0
1.47915	1224	2	0
1.48091	1225	2	0
1.48167	1225	2	0
1.48176	1225	2	0
1.48246	1226	2	0
1.48273	1226	2	0
1.48295	1226	2	0
1.48306	1226	2	0
1.4834	1228	2	0
1.4834	1228	2	0
1.48404	1228	2	0
1.48557	1228	2	0
1.48925	1228	2	0
1.49046	1228	2	0
1.49062	1229	3	0
1.49293	1231	2	0
1.49572	1231	2	0
1.4961	1231	2	0
1.4962	1232	2	0
1.49642	1232	2	0
1.49659	1232	2	0
1.49842	1232	2	0
1.50256	1232	2	0
1.50473	1233	2	0
1.50612	1233	2	0
1.50669	1233	2	0
1.50757	1233	2	0
1.50773	1234	3	0
1.50786	1236	2	0
1.50788	1237	2	0
1.50853	1238	2	0
1.51028	1238	2	0
1.51059	1239	2	0
1.51066	1239	2	0
1.51316	1240	2	0
1.51331	1240	2	0
1.51597	1240	2	0
1.51956	1241	2	0
1.51977	1242	2	0
1.52263	1242	2	0
1.5233	1243	2	0
1.52442	1243	2	0
1.52549	1243	2	0
1.52679	1243	2	0
1.52781	1243	2	0
1.53089	1243	2	0
1.53129	1243	2	0
1.53148	1244	2	0
1.53176	1245	2	0
1.54238	1245	2	0
1.54378	1245	2	0
1.5438	1245	2	0
1.54457	1246	2	0
1.54464	1247	2	0
1.54487	1247	2	0
1.54517	1248	3	0
1.54718	1250	2	0
1.54791	1250	2	0
1.54994	1250	2	0
1.55034	1250	2	0
1.55088	1251	3	0
1.55304	1253	2	0
1.55623	1255	2	0
1.55717	1255	2	0
1.55789	1255	2	0
1.55937	1255	2	0
1.56165	1255	2	0
1.56261	1256	2	0
1.56396	1256	2	0
1.56623	1257	2	0
1.56946	1258	2	0
1.57175	1258	2	0
1.5719	1259	2	0
1.57191	1260	2	0
1.57272	1260	2	0
1.57394	1261	2	0
1.5752	1262	2	0
1.57551	1262	2	0
1.57822	1262	2	0
1.57847	1262	2	0
1.58152	1263	2	0
1.58278	1263	2	0
1.58286	1263	2	0
1.58341	1263	2	0
1.585	1263	2	0
1.58545	1264	2	0
1.58637	1264	2	0
1.59282	1264	2	0
1.59482	1265	2	0
1.5981	1266	2	0
1.59834	1267	2	0
1.59871	1269	2	0
1.6	1271	2	0
1.60041	1271	2	0
1.60147	1271	2	0
1.60168	1271	2	0
1.60478	1271	2	0
1.60511	1271	2	0
1.6079	1271	2	0
1.60823	1271	2	0
1.60836	1271	2	0
1.60922	1271	2	0
1.60983	1272	2	0
1.61564	1273	2	0
1.61567	1274	2	0
1.61775	1274	2	0
1.61935	1274	2	0
1.61978	1274	2	0
1.62031	1274	2	0
1.6211	1275	3	0
1.62127	1277	2	0
1.62733	1277	2	0
1.62924	1277	2	0
1.62988	1277	2	0
1.63033	1278	3	0
1.63334	1278	3	0
1.63478	1278	3	0
1.64131	1279	3	0
1.64555	1279	3	0
1.6476	1280	3	0
1.64884	1280	3	0
1.65018	1280	3	0
1.65444	1280	3	0
1.65902	1281	3	0
1.65933	1282	3	0
1.65973	1284	2	0
1.66051	1284	2	0
1.66073	1284	2	0
1.66076	1284	2	0
1.66087	1284	2	0
1.66133	1285	3	0
1.66226	1287	2	0
1.66326	1287	2	0
1.66415	1287	2	0
1.66489	1288	2	0
1.66532	1288	3	0
1.66548	1289	4	0
1.66625	1291	3	0
1.66654	1293	2	0
1.66925	1294	2	0
1.66938	1294	2	0
1.67002	1294	2	0
1.67068	1294	2	0
1.6715	1295	2	0
1.67252	1295	2	0
1.68143	1295	2	0
1.68148	1296	2	0
1.68249	1297	2	0
1.68442	1298	2	0
1.6881	1299	2	0
1.68853	1299	2	0
1.69436	1300	2	0
1.69459	1300	2	0
1.69465	1301	3	0
1.69742	1303	2	0
1.69773	1304	2	0
1.69825	1306	2	0
1.69874	1306	2	0
1.70037	1308	2	0
1.70382	1308	2	0
1.70484	1308	2	0
1.7052	1308	2	0
1.70595	1308	2	0
1.70642	1308	2	0
1.70879	1308	2	0
1.71102	1309	2	0
1.71277	1309	2	0
1.72158	1309	2	0
1.72175	1311	2	0
1.72524	1311	2	0
1.72547	1311	2	0
1.72741	1313	2	0
1.73153	1313	2	0
1.7337	1314	2	0
1.73512	1314	2	0
1.73604	1315	2	0
1.73851	1315	2	0
1.73954	1315	2	0
1.73987	1316	2	0
1.74062	1317	2	0
1.74762	1317	3	0
1.74813	1317	3	0
1.74862	1318	3	0
1.75446	1318	3	0
1.75621	1318	3	0
1.75689	1319	3	0
1.75786	1319	3	0
1.76093	1320	3	0
1.76141	1321	3	0
1.76145	1321	3	0
1.76166	1321	3	0
1.76167	1323	2	0
1.76189	1324	2	0
1.7677	1325	2	0
1.76801	1326	2	0
1.77458	1326	2	0
1.77487	1326	2	0
1.775	1328	2	0
1.77669	1329	2	0
1.77748	1329	2	0
1.77756	1331	2	0
1.78074	1331	2	0
1.78085	1331	2	0
1.78349	1331	3	0
1.78479	1332	3	0
1.78595	1332	3	0
1.78762	1332	3	0
1.78945	1332	3	0
1.79067	1333	3	0
1.79074	1335	3	0
1.79432	1335	3	0
1.79576	1336	3	0
1.79718	1338	2	0
1.7973	1340	2	0
1.79731	1340	2	0
1.79914	1340	2	0
1.7998	1341	2	0
1.80061	1342	2	0
1.80652	1342	2	0
1.80671	1343	2	0
1.80866	1343	2	0
1.8111	1344	2	0
1.8139	1344	2	0
1.81441	1344	2	0
1.81684	1344	2	0
1.81729	1345	3	0
1.81962	1347	2	0
1.82163	1347	2	0
1.8238	1349	2	0
1.82416	1349	2	0
1.82597	1350	2	0
1.83665	1351	2	0
1.84332	1351	2	0
1.84361	1352	2	0
1.84517	1352	2	0
1.84572	1353	2	0
1.84576	1353	2	0
1.84592	1354	3	0
1.84666	1356	2	0
1.84873	1357	3	0
1.85116	1357	3	0
1.8535	1358	3	0
1.8592	1358	3	0
1.8603	1359	3	0
1.86128	1359	3	0
1.86179	1359	3	0
1.86487	1360	3	0
1.86551	1360	3	0
1.86555	1360	3	0
1.86579	1360	3	0
1.86657	1360	3	0
1.86694	1360	5	0
1.86698	1360	5	0
1.86711	1362	4	0
1.86808	1364	3	0
1.86835	1364	3	0
1.87072	1365	3	0
1.87128	1365	3	0
1.87146	1366	3	0
1.8723	1366	3	0
1.87331	1366	3	0
1.87353	1367	4	0
1.87488	1369	3	0
1.87796	1370	3	0
1.87835	1371	3	0
1.8807	1371	3	0
1.88198	1371	3	0
1.88198	1372	4	0
1.88261	1374	3	0
1.88383	1375	3	0
1.88525	1377	3	0
1.88579	1377	3	0
1.88658	1378	3	0
1.88691	1378	3	0
1.8913	1378	3	0
1.89171	1378	3	0
1.89275	1378	3	0
1.89623	1379	3	0
1.89683	1379	3	0
1.89704	1379	5	0
1.89724	1381	4	0
1.89777	1383	3	0
1.9011	1383	3	0
1.90524	1383	3	0
1.91067	1385	3	0
1.91081	1385	3	0
1.91254	1386	3	0
1.91278	1386	3	0
1.91356	1387	4	0
1.91475	1389	3	0
1.92039	1389	3	0
1.92172	1390	3	0
1.92248	1390	3	0
1.92419	1391	3	0
1.92467	1391	3	0
1.92523	1392	3	0
1.92576	1392	4	0
1.92577	1393	5	0
1.92578	1395	4	0
1.92652	1397	3	0
1.92783	1399	3	0
1.93134	1399	3	0
1.93175	1399	3	0
1.93177	1399	5	0
1.93182	1401	4	0
1.93234	1403	3	0
1.9339	1404	3	0
1.93854	1405	3	0
1.9419	1406	3	0
1.94286	1407	3	0
1.94298	1407	3	0
1.94384	1407	3	0
1.9439	1408	3	0
1.94464	1408	4	0
1.9447	1409	5	0
1.94613	1411	4	0
1.94642	1413	3	0
1.94831	1414	3	0
1.95266	1415	3	0
1.9552	1416	3	0
1.95603	1417	3	0
1.95614	1417	3	0
1.96065	1419	3	0
1.96705	1420	3	0
1.96785	1420	3	0
1.96818	1421	3	0
1.96835	1421	5	0
1.96886	1422	5	0
1.96892	1424	4	0
1.97455	1426	3	0
1.97641	1426	3	0
1.9769	1426	3	0
1.97759	1427	4	0
1.98101	1429	3	0
1.98114	1429	3	0
1.98145	1430	4	0
1.98146	1432	4	0
1.98542	1434	3	0
1.98633	1435	3	0
1.98695	1435	3	0
1.99063	1436	3	0
1.99084	1436	3	0
1.99122	1437	4	0
1.99225	1439	3	0
1.99268	1439	3	0
1.99269	1439	3	0
1.99334	1440	4	0
1.99339	1442	3	0
1.99411	1442	3	0
1.99459	1443	3	0
1.99471	1444	3	0
1.99525	1445	3	0
1.99525	1445	3	0
1.99542	1446	3	0
1.99684	1447	3	0
1.99779	1447	3	0
1.99821	1447	3	0
1.99884	1447	3	0
2.00307	1449	3	0
2.00623	1449	3	0
2.00692	1449	3	0
2.0085	1450	3	0
2.01056	1450	3	0
2.01168	1450	3	0
2.01183	1451	4	0
2.01475	1453	3	0
2.01508	1454	3	0
2.01544	1454	3	0
2.01551	1454	3	0
2.01583	1455	4	0
2.02139	1457	3	0
2.02243	1457	3	0
2.02533	1458	3	0
2.02867	1458	3	0
2.02904	1458	3	0
2.02907	1459	3	0
2.0302	1459	3	0
2.03158	1460	3	0
2.03309	1460	3	0
2.03537	1460	3	0
2.04205	1460	3	0
2.04233	1460	3	0
2.04382	1460	3	0
2.04486	1460	3	0
2.04645	1462	3	0
2.04672	1462	3	0
2.04693	1463	4	0
2.04721	1465	3	0
2.0488	1466	3	0
2.05288	1466	3	0
2.05475	1467	3	0
2.05749	1468	3	0
2.0576	1469	3	0
2.06095	1470	3	0
2.06179	1470	3	0
2.06842	1470	3	0
2.06919	1470	3	0
2.06953	1470	3	0
2.07008	1470	3	0
2.07051	1470	4	0
2.07071	1471	5	0
2.07088	1473	4	0
2.07168	1475	3	0
2.07189	1475	4	0
2.07213	1476	5	0
2.07222	1478	4	0
2.0742	1478	4	0
2.08168	1480	3	0
2.0852	1481	3	0
2.08587	1481	3	0
2.09445	1481	3	0
2.09565	1482	3	0
2.09687	1483	3	0
2.09828	1483	3	0
2.09946	1483	3	0
2.09958	1484	4	0
2.1001	1486	3	0
2.10298	1486	3	0
2.10368	1486	3	0
2.10959	1486	3	0
2.10986	1488	3	0
2.1099	1488	3	0
2.11021	1488	3	0
2.11022	1489	4	0
2.11044	1490	4	0
2.11255	1492	3	0
2.1131	1492	3	0
2.12001	1492	3	0
2.1255	1492	3	0
2.13015	1492	3	0
2.13242	1492	3	0
2.1327	1492	3	0
2.13353	1493	4	0
2.13438	1495	3	0
2.13454	1495	3	0
2.13515	1496	4	0
2.13912	1498	3	0
2.1396	1499	3	0
2.14423	1500	3	0
2.14485	1502	3	0
2.14579	1503	3	0
2.14703	1504	3	0
2.1495	1505	3	0
2.15017	1505	3	0
2.15027	1506	3	0
2.15053	1506	3	0
2.15154	1506	4	0
2.15181	1506	4	0
2.15191	1507	5	0
2.15205	1509	4	0
2.15213	1510	5	0
2.15258	1512	4	0
2.15688	1514	3	0
2.15886	1514	3	0
2.15984	1515	3	0
2.16212	1516	3	0
2.1658	1516	3	0
2.16591	1516	4	0
2.16594	1517	5	0
2.16619	1519	4	0
2.16633	1519	4	0
2.16657	1519	4	0
2.17917	1521	3	0
2.17972	1521	3	0
2.18206	1523	3	0
2.18394	1524	3	0
2.18691	1525	3	0
2.18725	1525	3	0
2.18939	1525	4	0
2.18989	1525	4	0
2.19031	1526	5	0
2.19114	1528	4	0
2.19625	1530	3	0
2.19847	1530	3	0
2.20215	1530	3	0
2.20256	1530	3	0
2.2029	1531	4	0
2.20325	1533	3	0
2.2054	1533	3	0
2.20689	1533	3	0
2.21154	1533	3	0
2.21167	1533	3	0
2.21604	1533	3	0
2.21871	1535	3	0
2.22419	1535	3	0
2.2253	1535	3	0
2.22681	1537	3	0
2.2293	1537	4	0
2.22989	1538	4	0
2.23501	1538	4	0
2.23552	1538	4	0
2.2367	1539	4	0
2.23707	1539	4	0
2.23822	1539	4	0
2.24086	1540	4	0
2.24166	1540	4	0
2.24179	1540	4	0
2.25467	1542	4	0
2.25477	1542	4	0
2.25741	1544	3	0
2.25776	1544	3	0
2.26124	1544	3	0
2.26365	1544	3	0
2.26627	1544	3	0
2.26887	1544	3	0
2.27237	1544	3	0
2.27243	1545	3	0
2.2767	1545	3	0
2.28359	1546	3	0
2.28443	1547	3	0
2.2889	1547	3	0
2.2891	1547	3	0
2.29172	1547	3	0
2.29498	1548	3	0
2.29747	1548	3	0
2.29922	1548	3	0
2.30016	1548	3	0
2.30106	1548	3	0
2.30345	1549	3	0
2.30756	1550	3	0
2.3091	1550	3	0
2.30981	1550	3	0
2.31161	1551	3	0
2.31636	1551	3	0
2.31897	1552	3	0
2.32561	1554	3	0
2.32729	1554	3	0
2.33317	1554	3	0
2.34515	1554	3	0
2.34567	1555	3	0
2.34813	1556	3	0
2.34977	1556	3	0
2.34999	1557	4	0
2.35104	1559	3	0
2.35996	1559	3	0
2.36395	1559	3	0
2.3647	1559	3	0
2.37042	1559	3	0
2.37203	1559	3	0
2.37364	1559	3	0
2.37727	1559	3	0
2.39979	1559	3	0
2.40073	1559	3	0
2.40106	1560	4	0
2.4075	1562	3	0
2.40787	1562	3	0
2.40844	1563	3	0
2.41052	1563	3	0
2.41352	1564	3	0
2.41794	1565	3	0
2.42104	1565	3	0
2.42261	1565	3	0
2.42422	1565	3	0
2.42444	1566	4	0
2.43152	1568	3	0
2.44168	1569	3	0
2.44334	1571	3	0
2.4451	1571	3	0
2.4502	1572	3	0
2.45243	1573	3	0
2.45499	1573	3	0
2.45726	1574	3	0
2.45759	1574	3	0
2.45908	1574	3	0
2.46026	1574	3	0
2.46069	1574	3	0
2.46108	1575	4	0
2.46258	1577	3	0
2.46487	1577	3	0
2.46576	1579	3	0
2.46813	1580	3	0
2.46935	1580	3	0
2.47385	1580	3	0
2.47435	1581	3	0
2.47627	1583	3	0
2.47826	1583	3	0
2.47958	1584	4	0
2.48529	1586	3	0
2.48545	1587	3	0
2.48947	1588	3	0
2.48997	1588	3	0
2.4908	1588	3	0
2.49115	1588	5	0
2.49234	1590	4	0
2.49308	1592	3	0
2.49315	1592	3	0
2.49443	1593	3	0
2.49671	1593	3	0
2.49788	1593	3	0
2.49946	1593	3	0
2.50396	1593	3	0
2.50515	1593	3	0
2.50889	1594	3	0
2.50889	1594	3	0
2.50905	1594	5	0
2.50934	1596	4	0
2.51112	1598	3	0
2.52688	1599	3	0
2.52952	1599	3	0
2.53191	1600	4	0
2.53289	1600	4	0
2.53382	1602	3	0
2.53531	1602	3	0
2.54106	1602	3	0
2.54358	1602	3	0
2.54639	1602	3	0
2.54914	1603	3	0
2.55199	1603	3	0
2.5546	1604	3	0
2.55547	1604	3	0
2.55571	1604	3	0
2.55741	1604	3	0
2.57217	1604	3	0
2.5726	1604	3	0
2.57446	1604	3	0
2.57474	1604	5	0
2.57588	1606	4	0
2.57705	1608	3	0
2.57738	1608	3	0
2.57761	1608	5	0
2.5782	1610	4	0
2.5857	1612	3	0
2.59089	1612	3	0
2.59366	1613	3	0
2.59556	1613	3	0
2.60686	1614	3	0
2.60899	1614	3	0
2.61307	1614	3	0
2.61494	1615	3	0
2.61835	1615	3	0
2.61837	1616	3	0
2.62201	1616	3	0
2.62326	1616	3	0
2.62457	1616	3	0
2.62484	1616	3	0
2.62545	1616	3	0
2.62664	1616	4	0
2.627	1616	4	0
2.62713	1617	5	0
2.62843	1619	4	0
2.62874	1620	5	0
2.62877	1622	4	0
2.62897	1624	3	0
2.63167	1625	3	0
2.63544	1625	3	0
2.6436	1625	3	0
2.65186	1625	3	0
2.65659	1625	3	0
2.66748	1626	3	0
2.66782	1627	3	0
2.67935	1628	3	0
2.68105	1630	3	0
2.68319	1632	3	0
2.68752	1632	3	0
2.68964	1632	3	0
2.70196	1632	3	0
2.70865	1632	3	0
2.70959	1633	3	0
2.71439	1633	3	0
2.7149	1633	3	0
2.71944	1633	3	0
2.72284	1633	3	0
2.72346	1633	3	0
2.72461	1634	4	0
2.72467	1635	4	0
2.72708	1637	3	0
2.72771	1637	3	0
2.73243	1637	3	0
2.74338	1638	3	0
2.74991	1638	3	0
2.75205	1639	3	0
2.75383	1640	3	0
2.76349	1641	3	0
2.76394	1642	3	0
2.76424	1643	3	0
2.77256	1643	3	0
2.77675	1644	3	0
2.77698	1644	3	0
2.78048	1644	3	0
2.7875	1645	3	0
2.78868	1645	3	0
2.78913	1645	3	0
2.78915	1645	5	0
2.78926	1647	4	0
2.79021	1649	3	0
2.79241	1649	3	0
2.79358	1649	3	0
2.79679	1649	3	0
2.80285	1649	3	0
2.80461	1649	3	0
2.80695	1649	3	0
2.81148	1649	3	0
2.85349	1649	3	0
2.85821	1650	3	0
2.85975	1650	3	0
2.86031	1650	3	0
2.86193	1650	3	0
2.86366	1651	3	0
2.86372	1651	3	0
2.86994	1651	3	0
2.87714	1651	3	0
2.87753	1651	3	0
2.87782	1652	4	0
2.8859	1654	3	0
2.8973	1654	3	0
2.9017	1655	3	0
2.90302	1655	3	0
2.90594	1655	3	0
2.90658	1655	3	0
2.91337	1655	3	0
2.91371	1655	3	0
2.91395	1656	4	0
2.93417	1658	3	0
2.93652	1660	3	0
2.93736	1660	3	0
2.93812	1661	4	0
2.94043	1663	3	0
2.94203	1664	3	0
2.94938	1664	3	0
2.95128	1664	3	0
2.95198	1664	4	0
2.95537	1666	3	0
2.95562	1666	3	0
2.95656	1667	4	0
2.96111	1669	3	0
2.97418	1669	3	0
2.97612	1669	3	0
2.99163	1669	3	0
2.99572	1669	3	0
3.0025	1669	3	0
3.00392	1669	3	0
3.00397	1669	5	0
3.00421	1671	4	0
3.00664	1673	3	0
3.01997	1673	3	0
3.0205	1673	3	0
3.02088	1673	4	0
3.02948	1675	3	0
3.02991	1676	3	0
3.03961	1677	3	0
3.04012	1677	3	0
3.04038	1677	4	0
3.04048	1678	5	0
3.04055	1680	4	0
3.0449	1682	3	0
3.05006	1682	3	0
3.0574	1683	3	0
3.05841	1683	3	0
3.05906	1683	3	0
3.05906	1683	5	0
3.0594	1685	4	0
3.06103	1687	3	0
3.08838	1688	3	0
3.09447	1688	3	0
3.1042	1688	3	0
3.10803	1688	3	0
3.11562	1688	3	0
3.11567	1688	3	0
3.11595	1689	4	0
3.12711	1691	3	0
3.12769	1691	3	0
3.12868	1693	2	0
3.13575	1693	2	0
3.14264	1693	2	0
3.14357	1693	2	0
3.1436	1694	3	0
3.15094	1696	2	0
3.15409	1697	2	0
3.16182	1698	2	0
3.18482	1698	2	0
3.18507	1698	2	0
3.18652	1698	2	0
3.19388	1699	2	0
3.19495	1699	2	0
3.19698	1699	2	0
3.20059	1700	2	0
3.20125	1700	2	0
3.21551	1700	2	0
3.21758	1701	2	0
3.22488	1701	2	0
3.22769	1701	2	0
3.24028	1701	2	0
3.24197	1701	2	0
3.25222	1701	2	0
3.25271	1701	2	0
3.26724	1701	2	0
3.27338	1701	2	0
3.27454	1702	2	0
3.2806	1702	2	0
3.28433	1702	2	0
3.29121	1702	2	0
3.30151	1702	2	0
3.30299	1702	2	0
3.30532	1703	2	0
3.31132	1703	2	0
3.32844	1703	2	0
3.33715	1703	2	0
3.36085	1703	2	0
3.36542	1703	2	0
3.3678	1705	1	0
3.37001	1705	1	0
3.37047	1705	1	0
3.38229	1706	2	0
3.39571	1706	2	0
3.39653	1706	2	0
3.39674	1706	2	0
3.39726	1707	2	0
3.39738	1707	4	0
3.39795	1709	3	0
3.41538	1711	2	0
3.4175	1711	2	0
3.41767	1711	2	0
3.41857	1711	2	0
3.41879	1712	3	0
3.42067	1714	2	0
3.4306	1714	2	0
3.43186	1714	2	0
3.43256	1714	2	0
3.43431	1716	2	0
3.43472	1716	2	0
3.43488	1717	3	0
3.43509	1718	4	0
3.43589	1720	3	0
3.44099	1722	2	0
3.4414	1722	2	0
3.44206	1722	3	0
3.44236	1722	3	0
3.44237	1723	4	0
3.44249	1725	3	0
3.47809	1727	2	0
3.47856	1727	2	0
3.47878	1727	3	0
3.47888	1728	4	0
3.47899	1730	3	0
3.49213	1732	2	0
3.49684	1732	2	0
3.49691	1732	2	0
3.49693	1732	4	0
3.49725	1734	3	0
3.51134	1736	2	0
3.51364	1736	2	0
3.51955	1737	2	0
3.51965	1737	2	0
3.52031	1737	3	0
3.52056	1738	4	0
3.52094	1740	3	0
3.52588	1742	2	0
3.53118	1742	2	0
3.53289	1743	2	0
3.53394	1744	2	0
3.53473	1744	2	0
3.53479	1745	3	0
3.55157	1747	2	0
3.55203	1747	2	0
3.55311	1747	2	0
3.55346	1747	3	0
3.55359	1748	4	0
3.55364	1750	3	0
3.56661	1752	2	0
3.56725	1752	2	0
3.5675	1752	3	0
3.57416	1752	3	0
3.5745	1752	3	0
3.57494	1753	4	0
3.57723	1753	4	0
3.59085	1754	4	0
3.59098	1754	4	0
3.59477	1756	3	0
3.59635	1756	3	0
3.59721	1756	3	0
3.62282	1756	4	0
3.62339	1756	4	0
3.6236	1757	5	0
3.62531	1759	4	0
3.63579	1759	4	0
3.63586	1759	4	0
3.63784	1760	4	0
3.64109	1760	4	0
3.64128	1760	4	0
3.64457	1762	3	0
3.6482	1762	3	0
3.65414	1764	2	0
3.66154	1764	2	0
3.66304	1764	2	0
3.66336	1765	3	0
3.67403	1767	2	0
3.67435	1767	2	0
3.67455	1768	3	0
3.68067	1770	2	0
3.69679	1770	2	0
3.70398	1770	2	0
3.70408	1770	2	0
3.70412	1770	4	0
3.70419	1772	3	0
3.70563	1774	2	0
3.71049	1774	2	0
3.72095	1774	2	0
3.72423	1774	2	0
3.72477	1774	2	0
3.76314	1774	3	0
3.76384	1774	3	0
3.76404	1776	2	0
3.76405	1777	3	0
3.76464	1779	2	0
3.76507	1779	2	0
3.76575	1780	3	0
3.76793	1782	2	0
3.77086	1782	2	0
3.77145	1782	3	0
3.78376	1782	3	0
3.79829	1782	3	0
3.79839	1782	3	0
3.80707	1784	2	0
3.82303	1784	2	0
3.82322	1784	2	0
3.82338	1784	4	0
3.82533	1786	3	0
3.82695	1788	2	0
3.83167	1788	2	0
3.83955	1788	2	0
3.86006	1788	2	0
3.86038	1788	2	0
3.86091	1789	3	0
3.8633	1791	2	0
3.86337	1791	2	0
3.86345	1792	2	0
3.86364	1792	3	0
3.86384	1793	4	0
3.86565	1795	3	0
3.86732	1797	2	0
3.87	1797	2	0
3.89802	1797	2	0
3.89884	1797	2	0
3.90602	1797	2	0
3.91824	1797	2	0
3.91825	1797	2	0
3.91839	1798	3	0
3.92025	1800	2	0
3.9208	1800	2	0
3.92265	1800	2	0
3.92342	1800	3	0
3.92455	1800	3	0
3.9248	1801	4	0
3.92484	1803	3	0
3.92651	1805	2	0
3.92664	1805	2	0
3.92687	1805	3	0
3.92695	1806	4	0
3.92738	1808	3	0
3.93205	1810	2	0
3.93631	1810	2	0
3.94262	1811	2	0
3.9687	1812	2	0
3.97075	1813	2	0
3.97224	1813	2	0
3.97282	1813	4	0
3.97335	1815	3	0
3.97716	1817	2	0
3.97734	1818	2	0
3.97754	1818	2	0
3.97803	1819	3	0
3.98126	1821	2	0
3.98683	1822	2	0
3.99021	1823	2	0
3.99485	1823	2	0
4.01154	1823	2	0
4.02234	1823	2	0
4.03897	1823	2	0
4.04783	1823	2	0
4.0515	1823	2	0
4.05649	1823	2	0
4.06641	1824	2	0
4.07546	1825	2	0
4.07912	1825	2	0
4.08168	1825	2	0
4.09855	1826	2	0
4.11332	1828	2	0
4.11372	1828	2	0
4.11506	1829	3	0
4.11909	1831	2	0
4.13515	1831	2	0
4.13516	1831	2	0
4.13565	1832	3	0
4.14526	1834	2	0
4.15034	1834	2	0
4.1505	1834	2	0
4.15073	1834	4	0
4.15102	1836	3	0
4.15496	1838	2	0
4.16211	1838	2	0
4.18583	1838	2	0
4.19692	1838	2	0
4.19768	1838	2	0
4.19872	1838	2	0
4.20004	1838	2	0
4.2003	1839	3	0
4.21929	1841	2	0
4.22029	1841	2	0
4.22034	1842	3	0
4.23166	1844	2	0
4.23173	1844	2	0
4.23205	1844	4	0
4.23252	1846	3	0
4.23464	1848	2	0
4.23595	1848	2	0
4.23743	1848	2	0
4.23756	1848	4	0
4.2376	1850	3	0
4.24494	1852	2	0
4.24554	1852	2	0
4.24568	1853	3	0
4.24925	1855	2	0
4.24936	1855	2	0
4.24964	1856	3	0
4.25471	1858	2	0
4.25626	1858	2	0
4.25661	1859	3	0
4.27058	1861	2	0
4.28688	1861	2	0
4.29012	1861	2	0
4.30857	1861	2	0
4.3086	1861	2	0
4.3088	1862	3	0
4.30927	1864	2	0
4.30976	1864	2	0
4.31757	1864	2	0
4.31957	1864	2	0
4.32763	1865	2	0
4.32773	1865	2	0
4.3278	1866	3	0
4.3282	1868	2	0
4.32911	1868	2	0
4.32925	1869	3	0
4.33266	1871	2	0
4.35819	1873	1	0
4.35898	1873	1	0
4.35909	1873	1	0
4.3605	1874	2	0
4.36558	1876	1	0
4.36711	1877	1	0
4.37363	1877	1	0
4.37805	1877	1	0
4.39294	1877	1	0
4.43457	1877	1	0
4.44254	1877	1	0
4.44452	1877	1	0
4.44519	1878	2	0
4.44711	1880	1	0
4.44869	1880	1	0
4.45106	1880	1	0
4.45571	1880	1	0
4.45714	1881	1	0
4.47101	1882	1	0
4.4759	1882	1	0
4.49391	1882	1	0
4.50697	1882	1	0
4.51369	1883	1	0
4.51413	1883	1	0
4.51482	1883	3	0
4.5156	1885	2	0
4.52425	1887	1	0
4.52429	1887	1	0
4.53566	1887	1	0
4.53907	1887	1	0
4.54019	1887	1	0
4.5404	1887	1	0
4.54041	1887	3	0
4.54044	1889	2	0
4.58202	1891	1	0
4.59619	1892	1	0
4.60226	1892	1	0
4.64537	1892	1	0
4.65771	1893	1	0
4.66218	1893	1	0
4.66273	1893	1	0
4.66281	1894	2	0
4.67523	1896	1	0
4.6967	1898	1	0
4.71397	1898	1	0
4.72159	1899	1	0
4.72193	1899	1	0
4.72294	1899	1	0
4.72343	1899	3	0
4.72365	1901	2	0
4.74099	1903	1	0
4.74519	1903	1	0
4.746	1903	1	0
4.74617	1904	2	0
4.74862	1906	1	0
4.74968	1906	1	0
4.75019	1907	2	0
4.75975	1909	1	0
4.77051	1909	1	0
4.77383	1909	1	0
4.7855	1909	1	0
4.78675	1909	1	0
4.78755	1909	2	0
4.78772	1910	3	0
4.78784	1912	2	0
4.80005	1914	1	0
4.80022	1914	1	0
4.80046	1915	2	0
4.84162	1917	1	0
4.87029	1917	1	0
4.87229	1917	1	0
4.89073	1917	1	0
4.89757	1917	1	0
4.91139	1917	1	0
4.91267	1917	1	0
4.91363	1917	2	0
4.91557	1917	2	0
4.91617	1918	3	0
4.91639	1919	4	0
4.91644	1921	3	0
4.93095	1923	2	0
4.93439	1925	2	0
4.96954	1925	2	0
4.99591	1925	2	0
5.04364	1925	2	0
5.05341	1925	2	0
5.11185	1925	2	0
5.17524	1925	2	0
5.18684	1925	2	0
5.18801	1925	2	0
5.18811	1926	3	0
5.20833	1928	2	0
5.20853	1928	2	0
5.20859	1929	3	0
5.21011	1931	2	0
5.21535	1931	2	0
5.22418	1931	2	0
5.25084	1931	2	0
5.25329	1931	2	0
5.25449	1931	2	0
5.2546	1932	3	0
5.31579	1934	2	0
5.3199	1934	2	0
5.342	1934	2	0
5.34482	1934	2	0
5.3449	1934	4	0
5.34623	1936	3	0
5.36714	1938	2	0
5.41786	1938	2	0
5.42444	1938	2	0
5.44301	1938	2	0
5.44369	1938	2	0
5.444	1939	3	0
5.44523	1941	2	0
5.452	1941	2	0
5.46019	1941	2	0
5.51666	1941	2	0
5.51841	1941	2	0
5.51851	1941	3	0
5.5188	1942	4	0
5.51889	1944	3	0
5.52896	1946	2	0
5.52908	1946	2	0
5.52986	1946	3	0
5.53006	1947	4	0
5.53028	1949	3	0
5.53068	1949	3	0
5.53205	1951	2	0
5.53336	1951	2	0
5.53337	1952	3	0
5.53375	1954	2	0
5.64928	1955	2	0
5.6643	1955	2	0
5.68369	1955	2	0
5.68665	1955	2	0
5.68667	1955	2	0
5.68692	1955	2	0
5.68704	1956	3	0
5.6872	1956	4	0
5.68827	1958	3	0
5.68844	1959	4	0
5.68928	1961	3	0
5.69222	1963	2	0
5.70117	1963	2	0
5.76524	1963	2	0
5.76724	1963	2	0
5.76779	1963	4	0
5.76807	1965	3	0
5.777	1967	2	0
5.82536	1967	2	0
5.82587	1967	2	0
5.8265	1968	3	0
5.82979	1970	2	0
5.8313	1970	2	0
5.83132	1970	4	0
5.83135	1972	3	0
5.86452	1974	2	0
5.94196	1974	2	0
5.94238	1974	2	0
5.94243	1974	3	0
5.94254	1975	4	0
5.94283	1977	3	0
5.95127	1979	2	0
6.0495	1979	2	0
6.05693	1979	2	0
6.0605	1979	2	0
6.06387	1979	2	0
6.06859	1979	2	0
6.07146	1979	2	0
6.07155	1979	4	0
6.07204	1981	3	0
6.09704	1983	2	0
6.09832	1983	2	0
6.10043	1983	4	0
6.10058	1985	3	0
6.10146	1985	3	0
6.10156	1986	4	0
6.10843	1988	3	0
6.11397	1988	3	0
6.11434	1988	3	0
6.11644	1988	4	0
6.11646	1989	5	0
6.11729	1991	4	0
6.14598	1993	3	0
6.14666	1993	3	0
6.20568	1993	3	0
6.20702	1993	3	0
6.20702	1993	5	0
6.20727	1995	4	0
6.21268	1997	3	0
6.23388	1997	3	0
6.23473	1997	3	0
6.23474	1997	5	0
6.24654	1999	4	0
6.31247	1999	4	0
6.31572	1999	4	0
6.31595	2000	5	0
6.32337	2002	4	0
6.34118	2002	4	0
6.3422	2002	4	0
6.34346	2003	5	0
6.38629	2005	4	0
6.38679	2005	4	0
6.38689	2006	5	0
6.40746	2008	4	0
6.45432	2008	4	0
6.47179	2008	4	0
6.47329	2008	4	0
6.47333	2008	6	0
6.4738	2010	5	0
6.47751	2012	4	0
6.50025	2012	4	0
6.50206	2012	4	0
6.50209	2013	5	0
6.56327	2015	4	0
6.56491	2015	4	0
6.56503	2016	5	0
6.57934	2018	4	0
6.58587	2018	4	0
6.58591	2018	4	0
6.58622	2019	5	0
6.61702	2021	4	0
6.61762	2021	4	0
6.618	2022	5	0
6.62786	2024	4	0
6.62815	2024	4	0
6.62902	2024	5	0
6.62945	2025	6	0
6.6299	2027	5	0
6.64404	2029	4	0
6.66085	2029	4	0
6.66106	2029	4	0
6.66234	2030	5	0
6.66596	2030	5	0
6.66662	2031	6	0
6.84267	2033	5	0
6.8533	2033	5	0
6.85677	2033	5	0
6.94698	2033	6	0
6.947	2033	6	0
6.94705	2034	7	0
6.94728	2036	6	0
6.9786	2038	5	0
6.9789	2038	5	0
6.97896	2038	7	0
6.97903	2040	6	0
6.98226	2042	5	0
6.98342	2042	5	0
6.98384	2043	6	0
6.98645	2045	5	0
6.98674	2045	5	0
6.9869	2045	7	0
6.98761	2047	6	0
6.98965	2049	5	0
6.99124	2049	5	0
6.99189	2049	7	0
6.99239	2051	6	0
6.99578	2053	5	0
6.99984	2053	5	0
7	2054	6	0
7.01207	2056	5	0
7.0143	2056	5	0
7.01484	2056	6	0
7.01485	2057	7	0
7.01507	2059	6	0
7.04522	2061	5	0
7.04914	2061	5	0
7.04933	2062	6	0
7.07765	2064	5	0
7.08889	2064	5	0
7.08937	2064	5	0
7.08951	2065	6	0
7.11152	2067	5	0
7.11282	2067	5	0
7.12874	2068	6	0
7.13414	2068	6	0
7.16754	2070	5	0
7.16761	2070	5	0
7.16862	2071	6	0
7.16975	2073	5	0
7.17003	2073	5	0
7.17038	2074	6	0
7.1851	2076	5	0
7.18539	2076	5	0
7.18548	2076	7	0
7.18596	2078	6	0
7.21265	2080	5	0
7.21342	2080	5	0
7.21497	2080	6	0
7.2151	2081	7	0
7.21516	2083	6	0
7.26294	2085	5	0
7.45876	2087	4	0
7.46039	2087	4	0
7.46075	2087	5	0
7.46083	2088	6	0
7.46115	2090	5	0
7.48319	2092	4	0
7.48329	2092	4	0
7.48352	2093	5	0
7.485	2095	4	0
7.49177	2095	4	0
7.49475	2095	4	0
7.49485	2096	5	0
7.55626	2098	4	0
7.56838	2098	4	0
7.57236	2098	4	0
7.57271	2098	6	0
7.57335	2100	5	0
7.57439	2102	4	0
7.57497	2102	4	0
7.57504	2103	5	0
7.57743	2105	4	0
7.60398	2105	4	0
7.61692	2105	4	0
7.61784	2105	4	0
7.61797	2106	5	0
7.62979	2108	4	0
7.63071	2108	4	0
7.63094	2109	5	0
7.64153	2111	4	0
7.65456	2111	4	0
7.65456	2111	4	0
7.65504	2112	5	0
7.6865	2114	4	0
7.73619	2114	4	0
7.80079	2114	4	0
7.85461	2114	4	0
7.88535	2114	4	0
7.88625	2114	4	0
7.88782	2114	5	0
7.88796	2115	6	0
7.88847	2117	5	0
7.90786	2119	4	0
7.91824	2119	4	0
7.94086	2119	4	0
7.94172	2119	4	0
7.94196	2120	5	0
7.95397	2122	4	0
7.96968	2122	4	0
7.99693	2122	4	0
7.99806	2122	4	0
8.02631	2123	5	0
8.04966	2123	5	0
8.05587	2123	5	0
8.16779	2123	5	0
8.16809	2123	5	0
8.16836	2124	6	0
8.18357	2126	5	0
8.1842	2126	5	0
8.1847	2127	6	0
8.20751	2129	5	0
8.22	2131	4	0
8.22069	2131	4	0
8.2212	2131	6	0
8.2216	2133	5	0
8.24849	2135	4	0
8.27092	2135	4	0
8.27492	2135	4	0
8.27519	2135	6	0
8.27717	2137	5	0
8.31601	2139	4	0
8.34485	2139	4	0
8.34645	2141	3	0
8.34713	2141	3	0
8.38492	2142	4	0
8.42441	2142	4	0
8.42558	2142	4	0
8.42561	2142	6	0
8.42577	2144	5	0
8.45525	2146	4	0
8.49329	2146	4	0
8.56209	2148	3	0
8.57296	2150	2	0
8.57455	2150	2	0
8.57521	2151	3	0
8.60668	2153	2	0
8.60678	2153	2	0
8.62182	2154	3	0
8.66689	2154	3	0
8.67293	2154	3	0
8.70124	2154	3	0
8.70244	2154	3	0
8.70313	2154	4	0
8.70342	2155	5	0
8.70347	2157	4	0
8.76494	2159	3	0
8.77674	2161	2	0
8.77676	2161	2	0
8.7775	2162	3	0
8.82228	2164	2	0
8.88161	2164	2	0
8.92838	2166	1	0
8.93028	2166	1	0
8.93034	2167	2	0
8.96607	2169	1	0
8.96627	2169	1	0
8.96636	2170	2	0
8.9852	2172	1	0
9.05726	2172	1	0
9.06139	2172	1	0
9.08186	2173	2	0
9.08278	2173	2	0
9.08292	2174	3	0
9.10833	2174	3	0
9.12235	2174	3	0
9.14728	2174	3	0
9.14839	2174	3	0
9.14843	2174	5	0
9.14857	2176	4	0
9.1981	2178	3	0
9.19843	2178	3	0
9.19871	2179	4	0
9.34841	2181	3	0
9.37194	2181	3	0
9.37209	2181	3	0
9.37215	2182	4	0
9.37748	2184	3	0
9.39883	2184	3	0
9.39901	2184	3	0
9.39902	2185	4	0
9.41877	2187	3	0
9.43866	2187	3	0
9.43872	2187	3	0
9.44005	2188	4	0
9.4532	2190	3	0
9.55373	2190	3	0
9.68717	2190	3	0
9.68788	2190	3	0
9.68792	2190	5	0
9.68805	2192	4	0
9.79511	2194	3	0
9.79517	2194	3	0
9.79575	2195	4	0
9.79746	2197	3	0
9.84268	2197	3	0
9.85318	2197	3	0
9.85762	2197	3	0
9.86973	2197	4	0
9.96335	2197	4	0
9.96348	2197	4	0
10.0842	2199	3	0
10.0846	2199	3	0
10.0846	2199	5	0
10.0848	2201	4	0
10.1803	2203	3	0
10.1806	2203	3	0
10.181	2203	4	0
10.1815	2204	5	0
10.1816	2206	4	0
10.2146	2208	3	0
10.2392	2210	2	0
10.2399	2210	2	0
10.2402	2211	3	0
10.2978	2213	2	0
10.3006	2213	2	0
10.3012	2214	3	0
10.4669	2216	2	0
10.5009	2216	2	0
10.5011	2216	2	0
10.5015	2217	3	0
10.6591	2219	2	0
10.6616	2219	2	0
10.6618	2220	3	0
10.7246	2222	2	0
10.7247	2222	2	0
10.7255	2223	3	0
10.793	2225	2	0
10.7936	2225	2	0
10.7938	2225	4	0
10.7946	2227	3	0
10.8404	2229	2	0
10.8937	2229	2	0
10.8938	2229	2	0
10.894	2230	3	0
10.949	2232	2	0
10.9525	2232	2	0
10.9526	2232	2	0
11.0092	2232	2	0
11.0102	2232	2	0
11.0106	2232	4	0
11.0111	2234	3	0
11.0915	2236	2	0
11.0926	2236	2	0
11.093	2236	4	0
11.0933	2238	3	0
11.1006	2240	2	0
11.1014	2242	1	0
11.102	2242	1	0
11.1022	2243	2	0
11.1708	2245	1	0
11.2212	2245	1	0
11.222	2245	1	0
11.2326	2245	2	0
11.233	2245	2	0
11.2331	2245	4	0
11.3274	2247	3	0
11.3278	2247	3	0
11.328	2247	4	0
11.3283	2249	3	0
11.3285	2250	4	0
11.3286	2252	3	0
11.3317	2254	2	0
11.3345	2254	2	0
11.3351	2254	3	0
11.3353	2255	4	0
11.3358	2257	3	0
11.3361	2259	2	0
11.3363	2259	2	0
11.3364	2260	3	0
11.3757	2262	2	0
11.3774	2262	2	0
11.4208	2263	3	0
11.4232	2265	2	0
11.4232	2265	2	0
11.4236	2265	3	0
11.4239	2266	4	0
11.4243	2268	3	0
11.43	2270	2	0
11.4626	2270	2	0
11.4627	2270	2	0
11.4628	2270	4	0
11.6869	2272	3	0
11.6884	2272	3	0
11.6892	2272	4	0
11.6894	2273	5	0
11.6898	2275	4	0
11.73	2277	3	0
11.7313	2277	3	0
11.7313	2278	4	0
11.8044	2280	3	0
11.8046	2280	3	0
11.8056	2281	4	0
11.8316	2283	3	0
11.8318	2283	3	0
11.8323	2283	5	0
11.833	2285	4	0
11.8792	2287	3	0
11.8799	2287	3	0
11.8799	2288	4	0
11.8922	2290	3	0
11.8938	2290	3	0
11.8941	2291	4	0
12.1613	2293	3	0
12.1629	2293	3	0
12.1633	2293	5	0
12.1638	2295	4	0
12.3666	2297	3	0
12.367	2297	3	0
12.3708	2297	4	0
12.3709	2298	5	0
12.3736	2300	4	0
12.3981	2302	3	0
12.3981	2302	3	0
12.5117	2302	4	0
12.5119	2302	4	0
12.5177	2304	3	0
12.5757	2304	4	0
12.5759	2304	4	0
12.5759	2304	6	0
12.5762	2306	5	0
12.5763	2308	4	0
12.5863	2310	3	0
12.5864	2310	3	0
12.5865	2311	4	0
12.5871	2313	3	0
12.6698	2315	2	0
12.6707	2315	2	0
12.6708	2315	4	0
12.671	2317	3	0
12.7487	2319	2	0
12.7487	2319	2	0
12.7488	2319	4	0
12.7489	2321	3	0
12.9443	2323	2	0
13.1938	2323	2	0
13.3367	2323	2	0
13.3528	2323	2	0
13.354	2323	2	0
13.3586	2323	3	0
13.3587	2323	3	0
13.3587	2323	5	0
13.3596	2325	4	0
13.4631	2327	3	0
13.4633	2327	3	0
13.7279	2329	2	0
13.7282	2329	2	0
13.7284	2330	3	0
13.7764	2332	2	0
13.7773	2332	2	0
13.7774	2332	2	0
13.7774	2332	4	0
13.7777	2334	3	0
13.7777	2334	5	0
13.7781	2336	4	0
13.7784	2338	3	0
13.9538	2340	2	0
13.9765	2342	1	0
13.9769	2342	1	0
13.9774	2343	2	0
13.9844	2343	2	0
13.9941	2343	2	0
13.9981	2343	2	0
13.9991	2343	3	0
13.9993	2344	4	0
13.9993	2346	3	0
14.0512	2348	2	0
14.2022	2348	2	0
14.2026	2348	2	0
14.2034	2349	3	0
14.2897	2351	2	0
14.2942	2351	2	0
14.2952	2352	3	0
14.3381	2354	2	0
14.339	2354	2	0
14.4001	2355	3	0
14.4004	2355	3	0
14.4011	2355	4	0
14.4012	2356	5	0
14.4013	2358	4	0
14.546	2360	3	0
14.5671	2362	2	0
14.5736	2364	1	0
14.5737	2364	1	0
14.5743	2365	2	0
14.8447	2367	1	0
14.845	2367	1	0
14.8458	2367	3	0
14.847	2369	2	0
14.9419	2371	1	0
14.9421	2371	1	0
14.9422	2371	3	0
14.9422	2373	2	0
14.9881	2375	1	0
14.9882	2375	1	0
14.9886	2375	2	0
14.9886	2376	3	0
14.9891	2378	2	0
15.0092	2380	1	0
15.0099	2380	1	0
15.0099	2380	3	0
15.0101	2382	2	0
15.2708	2384	1	0
15.279	2384	1	0
15.279	2385	2	0
15.3363	2387	1	0
15.5901	2387	1	0
15.5906	2387	1	0
15.6192	2388	2	0
15.6195	2388	2	0
15.6197	2388	3	0
15.6201	2389	4	0
15.6202	2391	3	0
15.8402	2393	2	0
15.8415	2393	2	0
15.8416	2393	4	0
15.8433	2395	3	0
16.0653	2397	2	0
16.1918	2397	2	0
16.1923	2397	2	0
16.562	2398	3	0
16.5628	2398	3	0
16.5628	2398	5	0
16.5634	2400	4	0
16.7901	2402	3	0
17.0198	2402	3	0
17.0199	2402	3	0
17.0204	2403	4	0
17.451	2405	3	0
17.4516	2405	3	0
17.7767	2406	4	0
17.7773	2406	4	0
17.7774	2406	6	0
17.7775	2408	5	0
17.964	2410	4	0
17.9642	2410	4	0
17.9643	2411	5	0
18.1272	2413	4	0
18.1279	2413	4	0
18.1284	2414	5	0
18.2165	2416	4	0
18.3498	2418	3	0
18.5012	2420	2	0
18.5018	2420	2	0
18.502	2420	4	0
18.5025	2422	3	0
19.0896	2424	2	0
19.4022	2426	1	0
19.441	2428	0	0
19.4413	2428	0	0
19.4425	2429	1	0
19.5664	2431	0	0
19.5667	2431	0	0
19.5669	2432	1	0
20.1194	2434	0	0
20.1196	2434	0	0
20.1202	2434	2	0
20.1692	2436	1	0
20.1711	2436	1	0
20.1712	2437	2	0
20.5834	2439	1	0
20.5839	2439	1	0
20.8769	2439	2	0
20.8775	2439	2	0
20.8782	2441	1	0
21.2704	2442	2	0
21.7311	2444	1	0
21.7312	2444	1	0
21.7316	2444	3	0
21.7464	2446	2	0
21.8604	2448	1	0
21.8607	2448	1	0
21.8607	2448	3	0
21.8616	2450	2	0
22.0007	2452	1	0
23.8484	2454	0	0
23.8486	2454	0	0
23.8489	2455	1	0
24.6301	2457	0	0
25.721	2457	0	0
25.8162	2458	0	0
25.8169	2458	0	0
25.8175	2458	2	0
25.819	2460	1	0
26.0969	2462	0	0
26.097	2462	0	0
26.4241	2463	1	0
26.5186	2465	0	0
26.5193	2465	0	0
26.5197	2465	2	0
26.5201	2467	1	0
26.6509	2469	0	0
26.6517	2469	0	0
26.6518	2469	2	0
26.652	2471	1	0
26.6614	2473	0	0
26.6652	2473	0	0
26.6662	2474	1	0
27.2751	2476	0	0
27.4052	2476	0	0
27.4072	2476	0	0
27.4075	2477	1	0
27.5161	2479	0	0
27.5161	2479	0	0
27.5167	2479	2	0
27.5167	2481	1	0
27.7211	2483	0	0
27.7215	2483	0	0
27.7216	2483	2	0
27.7223	2485	1	0
29.4531	2487	0	0
29.4531	2487	0	0
29.4532	2487	2	0
29.4537	2489	1	0
29.783	2491	0	0
29.7848	2491	0	0
29.7858	2492	1	0
