3.67582e-08	0	0	0
5.56564e-08	0	0	0
5.60144e-08	0	0	0
6.16838e-08	0	0	0
7.96071e-08	0	0	0
9.76432e-08	0	0	0
1.00338e-07	0	0	0
1.19062e-07	0	0	0
1.54538e-07	0	0	0
1.55359e-07	0	0	0
1.58948e-07	0	0	0
1.68057e-07	0	0	0
2.08328e-07	0	0	0
2.44313e-07	0	0	0
2.64498e-07	0	0	0
3.54149e-07	0	0	0
3.8639e-07	0	0	0
7.26468e-07	0	0	0
8.97184e-07	0	0	0
1.4976e-06	0	0	0
1.57786e-06	0	0	0
1.67914e-06	0	0	0
1.72413e-06	0	0	0
1.78199e-06	0	0	0
1.93064e-06	0	0	0
2.54111e-06	0	0	0
2.9978e-06	0	0	0
3.53752e-06	0	0	0
3.78953e-06	0	0	0
3.9058e-06	0	0	0
5.53447e-06	0	0	0
5.56153e-06	0	0	0
5.83531e-06	0	0	0
5.87999e-06	0	0	0
6.45358e-06	0	0	0
6.51384e-06	0	0	0
6.64739e-06	0	0	0
6.82999e-06	0	0	0
7.53507e-06	0	0	0
7.79888e-06	0	0	0
7.8792e-06	0	0	0
8.43299e-06	0	0	0
8.69247e-06	0	0	0
8.80266e-06	0	0	0
8.83239e-06	0	0	0
8.95195e-06	0	0	0
9.53997e-06	0	0	0
9.87112e-06	0	0	0
1.00651e-05	0	0	0
1.02764e-05	0	0	0
1.0655e-05	0	0	0
1.07829e-05	0	0	0
1.07892e-05	0	0	0
1.08727e-05	0	0	0
1.08818e-05	0	0	0
1.11397e-05	0	0	0
1.16871e-05	0	0	0
1.18486e-05	0	0	0
1.20253e-05	0	0	0
1.21087e-05	0	0	0
1.29749e-05	0	0	0
1.34451e-05	0	0	0
1.38914e-05	0	0	0
1.39191e-05	0	0	0
1.43247e-05	0	0	0
1.45503e-05	0	0	0
1.46315e-05	0	0	0
1.46877e-05	0	0	0
1.49645e-05	0	0	0
1.59326e-05	0	0	0
1.61487e-05	0	0	0
1.63103e-05	0	0	0
1.69139e-05	0	0	0
1.69522e-05	0	0	0
1.69693e-05	0	0	0
1.70848e-05	0	0	0
1.75301e-05	0	0	0
1.75802e-05	0	0	0
1.78255e-05	0	0	0
1.79496e-05	0	0	0
1.85042e-05	0	0	0
1.86767e-05	0	0	0
1.87315e-05	0	0	0
1.90204e-05	0	0	0
1.95319e-05	0	0	0
1.99888e-05	0	0	0
2.01058e-05	0	0	0
2.0612e-05	0	0	0
2.07506e-05	0	0	0
2.10311e-05	0	0	0
2.12385e-05	0	0	0
2.24861e-05	0	0	0
2.34027e-05	0	0	0
2.35864e-05	0	0	0
2.36259e-05	0	0	0
2.39067e-05	0	0	0
2.42928e-05	0	0	0
2.47021e-05	0	0	0
2.5057e-05	0	0	0
2.5359e-05	0	0	0
2.67007e-05	0	0	0
2.67446e-05	0	0	0
2.71823e-05	0	0	0
2.72656e-05	0	0	0
2.73027e-05	0	0	0
2.78135e-05	0	0	0
2.79507e-05	0	0	0
2.84461e-05	0	0	0
2.84758e-05	0	0	0
2.86736e-05	0	0	0
2.9679e-05	0	0	0
3.01012e-05	0	0	0
3.11793e-05	0	0	0
3.15812e-05	0	0	0
3.20231e-05	0	0	0
3.20818e-05	0	0	0
3.24768e-05	0	0	0
3.29651e-05	0	0	0
3.32057e-05	0	0	0
3.41128e-05	0	0	0
3.49719e-05	0	0	0
3.56154e-05	0	0	0
3.59827e-05	0	0	0
3.60361e-05	0	0	0
3.64773e-05	0	0	0
3.66457e-05	0	0	0
3.68727e-05	0	0	0
3.71022e-05	0	0	0
3.82457e-05	0	0	0
3.8602e-05	0	0	0
3.87273e-05	0	0	0
3.99828e-05	0	0	0
4.00343e-05	0	0	0
4.0942e-05	0	0	0
4.15363e-05	0	0	0
4.16527e-05	0	0	0
4.20283e-05	0	0	0
4.22969e-05	0	0	0
4.28951e-05	0	0	0
4.53934e-05	0	0	0
4.65033e-05	0	0	0
4.65388e-05	0	0	0
4.75871e-05	0	0	0
4.77313e-05	0	0	0
4.78177e-05	0	0	0
4.85876e-05	0	0	0
4.97364e-05	0	0	0
4.996e-05	0	0	0
5.04461e-05	0	0	0
5.11135e-05	0	0	0
5.16258e-05	0	0	0
5.24637e-05	0	0	0
5.26579e-05	0	0	0
5.31032e-05	0	0	0
5.37776e-05	0	0	0
5.41334e-05	0	0	0
5.44158e-05	0	0	0
5.45704e-05	0	0	0
5.52386e-05	0	0	0
5.54172e-05	0	0	0
5.58938e-05	0	0	0
5.62071e-05	0	0	0
5.77811e-05	0	0	0
5.85646e-05	0	0	0
5.87161e-05	0	0	0
5.894e-05	0	0	0
5.89416e-05	0	0	0
5.91083e-05	0	0	0
5.96924e-05	0	0	0
5.96981e-05	0	0	0
5.98919e-05	0	0	0
6.00371e-05	0	0	0
6.05421e-05	0	0	0
6.09874e-05	0	0	0
6.14621e-05	0	0	0
6.2253e-05	0	0	0
6.30789e-05	0	0	0
6.31252e-05	0	0	0
6.34146e-05	0	0	0
6.34476e-05	0	0	0
6.40054e-05	0	0	0
6.46439e-05	0	0	0
6.53073e-05	0	0	0
6.54958e-05	0	0	0
6.57874e-05	0	0	0
6.65065e-05	0	0	0
6.69084e-05	0	0	0
6.69867e-05	0	0	0
6.77356e-05	0	0	0
6.81601e-05	0	0	0
6.82182e-05	0	0	0
6.89773e-05	0	0	0
6.91169e-05	0	0	0
6.99753e-05	0	0	0
7.04117e-05	0	0	0
7.04679e-05	0	0	0
7.07704e-05	0	0	0
7.10178e-05	0	0	0
7.20355e-05	0	0	0
7.26829e-05	0	0	0
7.32298e-05	0	0	0
7.33196e-05	0	0	0
7.43404e-05	0	0	0
7.46998e-05	0	0	0
7.47817e-05	0	0	0
7.53251e-05	0	0	0
7.5734e-05	0	0	0
7.58977e-05	0	0	0
7.73507e-05	0	0	0
7.80311e-05	0	0	0
7.95839e-05	0	0	0
8.15364e-05	0	0	0
8.4025e-05	0	0	0
8.51311e-05	0	0	0
8.62386e-05	0	0	0
8.68868e-05	0	0	0
8.72092e-05	0	0	0
8.73675e-05	0	0	0
8.77585e-05	0	0	0
8.97518e-05	0	0	0
9.07214e-05	0	0	0
9.18928e-05	0	0	0
9.19395e-05	0	0	0
9.24504e-05	0	0	0
9.26516e-05	0	0	0
9.3085e-05	0	0	0
9.32099e-05	0	0	0
9.41998e-05	0	0	0
9.55177e-05	0	0	0
9.59258e-05	0	0	0
9.6366e-05	0	0	0
9.63803e-05	0	0	0
9.77194e-05	0	0	0
9.83629e-05	0	0	0
9.84831e-05	0	0	0
9.88434e-05	0	0	0
9.90929e-05	0	0	0
0.000100018	0	0	0
0.000100046	0	0	0
0.000100211	0	0	0
0.000101767	0	0	0
0.000102136	0	0	0
0.000102528	0	0	0
0.000102773	0	0	0
0.000104621	0	0	0
0.000104695	0	0	0
0.000105003	0	0	0
0.000105516	0	0	0
0.00010617	0	0	0
0.000106346	0	0	0
0.000106558	0	0	0
0.000108353	0	0	0
0.000108389	0	0	0
0.000109451	0	0	0
0.000109897	0	0	0
0.000111095	0	0	0
0.000112357	0	0	0
0.00011277	0	0	0
0.000112994	0	0	0
0.000113111	0	0	0
0.000113715	0	0	0
0.000113841	0	0	0
0.000114347	0	0	0
0.000114785	0	0	0
0.000115458	0	0	0
0.000117603	0	0	0
0.000117775	0	0	0
0.000118065	0	0	0
0.000118551	0	0	0
0.000120796	0	0	0
0.000123235	0	0	0
0.000124168	0	0	0
0.000125198	0	0	0
0.000126043	0	0	0
0.000126294	0	0	0
0.000127586	0	0	0
0.000127701	0	0	0
0.000128945	0	0	0
0.000129002	0	0	0
0.00012905	0	0	0
0.00012973	0	0	0
0.000130339	0	0	0
0.000130791	0	0	0
0.000131146	0	0	0
0.000131459	0	0	0
0.000131569	0	0	0
0.000132387	0	0	0
0.00013312	0	0	0
0.000133801	0	0	0
0.00013406	0	0	0
0.000134402	0	0	0
0.000135032	0	0	0
0.000135296	0	0	0
0.000135596	0	0	0
0.000137521	0	0	0
0.000137636	0	0	0
0.000138783	0	0	0
0.00013947	0	0	0
0.00014017	0	0	0
0.000140367	0	0	0
0.000140687	0	0	0
0.000141309	0	0	0
0.000142102	0	0	0
0.000143437	0	0	0
0.000143498	0	0	0
0.000143801	0	0	0
0.000144461	0	0	0
0.000145131	0	0	0
0.000145607	0	0	0
0.000145985	0	0	0
0.000146205	0	0	0
0.000148705	0	0	0
0.000148784	0	0	0
0.000148795	0	0	0
0.000148859	0	0	0
0.00014921	0	0	0
0.000151054	0	0	0
0.000152481	0	0	0
0.000152954	0	0	0
0.00015362	0	0	0
0.000154719	0	0	0
0.000154914	0	0	0
0.000155521	0	0	0
0.000155896	0	0	0
0.000156304	0	0	0
0.00015794	0	0	0
0.000158155	0	0	0
0.000159897	0	0	0
0.000161454	0	0	0
0.000161822	0	0	0
0.000161887	0	0	0
0.000161993	0	0	0
0.000163068	0	0	0
0.000163326	0	0	0
0.000164843	0	0	0
0.000167239	0	0	0
0.000168708	0	0	0
0.00016894	0	0	0
0.000169806	0	0	0
0.000170413	0	0	0
0.000171455	0	0	0
0.000172026	0	0	0
0.000172793	0	0	0
0.000173222	0	0	0
0.000174512	0	0	0
0.000174925	0	0	0
0.000177535	0	0	0
0.000178364	0	0	0
0.000180448	0	0	0
0.000181712	0	0	0
0.000184113	0	0	0
0.000187105	0	0	0
0.000188038	0	0	0
0.000188634	0	0	0
0.000189629	0	0	0
0.000189906	0	0	0
0.000190611	0	0	0
0.000192143	0	0	0
0.00019234	0	0	0
0.000195874	0	0	0
0.000196527	0	0	0
0.000196732	0	0	0
0.000198338	0	0	0
0.000201412	0	0	0
0.000201689	0	0	0
0.000203221	0	0	0
0.000203762	0	0	0
0.000203856	0	0	0
0.000205715	0	0	0
0.000207429	0	0	0
0.000207617	0	0	0
0.000209641	0	0	0
0.000209825	0	0	0
0.000210064	0	0	0
0.000211474	0	0	0
0.000212072	0	0	0
0.000213063	0	0	0
0.000213255	0	0	0
0.000214715	0	0	0
0.000215203	0	0	0
0.000219234	0	0	0
0.000219511	0	0	0
0.00021965	0	0	0
0.000223693	0	0	0
0.000223928	0	0	0
0.000224848	0	0	0
0.000225607	0	0	0
0.000226552	0	0	0
0.000230311	0	0	0
0.000230688	0	0	0
0.000231023	0	0	0
0.000232506	0	0	0
0.000235005	0	0	0
0.000238325	0	0	0
0.000238535	0	0	0
0.000238829	0	0	0
0.000240109	0	0	0
0.000240307	0	0	0
0.000242353	0	0	0
0.000243966	0	0	0
0.000244217	0	0	0
0.000247555	0	0	0
0.000247814	0	0	0
0.000248216	0	0	0
0.000251731	0	0	0
0.000255713	0	0	0
0.000257494	0	0	0
0.000258431	0	0	0
0.000258771	0	0	0
0.000259391	0	0	0
0.000261535	0	0	0
0.000265869	0	0	0
0.000266644	0	0	0
0.000267253	0	0	0
0.000267492	0	0	0
0.000267855	0	0	0
0.000268012	0	0	0
0.000268397	0	0	0
0.000269091	0	0	0
0.000269301	0	0	0
0.000271643	0	0	0
0.000272133	0	0	0
0.000274357	0	0	0
0.000275049	0	0	0
0.000277512	0	0	0
0.000279346	0	0	0
0.000280853	0	0	0
0.00028152	0	0	0
0.000283484	0	0	0
0.000289406	0	0	0
0.000289571	0	0	0
0.000290035	0	0	0
0.000290232	0	0	0
0.000294505	0	0	0
0.000295725	0	0	0
0.000297164	0	0	0
0.000299574	0	0	0
0.000303535	0	0	0
0.00030359	0	0	0
0.000304316	0	0	0
0.000307095	0	0	0
0.000308378	0	0	0
0.000310672	0	0	0
0.000310712	0	0	0
0.000310739	0	0	0
0.00031554	0	0	0
0.000316309	0	0	0
0.000317107	0	0	0
0.000319149	0	0	0
0.000319796	0	0	0
0.000322743	0	0	0
0.000323154	0	0	0
0.000325197	0	0	0
0.00032526	0	0	0
0.00032527	0	0	0
0.000326062	0	0	0
0.000327256	0	0	0
0.000334952	0	0	0
0.000347437	0	0	0
0.000352323	0	0	0
0.000352724	0	0	0
0.000353301	0	0	0
0.000353331	0	0	0
0.000355235	0	0	0
0.000359488	0	0	0
0.000359754	0	0	0
0.000360409	0	0	0
0.000361525	0	0	0
0.000365571	0	0	0
0.000366652	0	0	0
0.000367893	0	0	0
0.000372463	0	0	0
0.000375271	0	0	0
0.000379978	0	0	0
0.000382921	0	0	0
0.000384857	0	0	0
0.000389311	0	0	0
0.000390079	0	0	0
0.000396455	0	0	0
0.000397091	0	0	0
0.000398224	0	0	0
0.000405019	0	0	0
0.000406752	0	0	0
0.000409455	0	0	0
0.000410855	0	0	0
0.000411612	0	0	0
0.000417049	0	0	0
0.000420006	0	0	0
0.000439421	0	0	0
0.000443012	0	0	0
0.000447985	0	0	0
0.000449739	0	0	0
0.00045053	0	0	0
0.000458189	0	0	0
0.00046033	0	0	0
0.000460636	0	0	0
0.000460864	0	0	0
0.000461477	0	0	0
0.000468353	0	0	0
0.00047043	0	0	0
0.000471585	0	0	0
0.000479084	0	0	0
0.000481013	0	0	0
0.000484295	0	0	0
0.000499715	0	0	0
0.000500125	0	0	0
0.000502481	0	0	0
0.000505311	0	0	0
0.000507759	0	0	0
0.000511582	0	0	0
0.000515409	0	0	0
0.000533929	0	0	0
0.000535726	0	0	0
0.000536003	0	0	0
0.000539726	0	0	0
0.000541378	0	0	0
0.000544551	0	0	0
0.00054457	0	0	0
0.000545886	0	0	0
0.000549328	0	0	0
0.000549482	0	0	0
0.000556974	0	0	0
0.000557614	0	0	0
0.000558985	0	0	0
0.000568189	0	0	0
0.00057128	0	0	0
0.000572365	0	0	0
0.000576921	0	0	0
0.000578313	0	0	0
0.000579868	0	0	0
0.000580909	0	0	0
0.000590727	0	0	0
0.000594316	0	0	0
0.000594888	0	0	0
0.000595139	0	0	0
0.000597085	0	0	0
0.000603888	0	0	0
0.000604243	0	0	0
0.000607058	0	0	0
0.000619089	0	0	0
0.000624276	0	0	0
0.000632618	0	0	0
0.000633477	0	0	0
0.000643509	0	0	0
0.000652584	0	0	0
0.00065516	0	0	0
0.00065974	0	0	0
0.00066109	0	0	0
0.00066359	0	0	0
0.000668927	0	0	0
0.000674897	0	0	0
0.000682503	0	0	0
0.000687542	0	0	0
0.000697332	0	0	0
0.000699906	0	0	0
0.000708563	0	0	0
0.000726571	0	0	0
0.000726581	0	0	0
0.000734315	0	0	0
0.000734859	0	0	0
0.000744528	0	0	0
0.000770469	0	0	0
0.000788282	0	0	0
0.000798351	0	0	0
0.000798859	0	0	0
0.000801467	0	0	0
0.000807323	0	0	0
0.000819424	0	0	0
0.000839731	0	0	0
0.000856838	0	0	0
0.000871431	0	0	0
0.000874191	0	0	0
0.000880879	0	0	0
0.000888946	0	0	0
0.000905843	0	0	0
0.000912135	0	0	0
0.000915989	0	0	0
0.000938977	0	0	0
0.000940124	0	0	0
0.000955968	0	0	0
0.000965633	0	0	0
0.000986393	0	0	0
0.000994347	0	0	0
0.00102041	0	0	0
0.00104215	0	0	0
0.00105404	0	0	0
0.00106226	0	0	0
0.00106835	0	0	0
0.00109862	0	0	0
0.00114566	0	0	0
0.00121798	0	0	0
0.00124096	0	0	0
0.00124476	0	0	0
0.00126727	0	0	0
0.00131266	0	0	0
0.00133835	0	0	0
0.00134746	0	0	0
0.00136431	0	0	0
0.00164601	0	0	0
0.00165688	0	0	0
0.00170307	0	0	0
0.0017453	0	0	0
0.00225857	0	0	0
0.00226558	0	0	0
0.00230717	0	0	0
0.00236185	0	0	0
0.00238928	0	0	0
0.00239011	0	0	0
0.00248135	1	0	0
0.00250804	1	0	0
0.00251167	1	0	0
0.00254147	1	0	0
0.00279135	1	0	0
0.00279719	1	0	0
0.0028281	1	0	0
0.00294807	1	0	0
0.00307384	1	0	0
0.00319124	1	0	0
0.00322815	1	0	0
0.00345749	1	0	0
0.00346115	1	0	0
0.00407242	1	0	0
0.00505047	1	0	0
0.00510708	1	0	0
0.00549409	1	0	0
0.00701808	1	0	0
0.00732135	1	0	0
0.00763719	1	0	0
0.00767289	1	0	0
0.00919726	1	0	0
0.01072	1	0	0
0.0108768	1	0	0
0.0108771	1	0	0
0.011168	1	0	0
0.011368	1	0	0
0.0114719	1	0	0
0.0124567	1	0	0
0.0124643	1	0	0
0.0126786	1	0	0
0.0140286	1	0	0
0.0141851	1	0	0
0.0142213	1	0	0
0.0142873	1	0	0
0.0144142	1	0	0
0.0151989	1	0	0
0.0152945	2	1	0
0.0157838	4	0	0
0.0163088	4	0	0
0.0170989	4	0	0
0.0178223	4	0	0
0.0181626	4	0	0
0.0190735	4	0	0
0.019472	4	0	0
0.0202947	4	0	0
0.0209633	4	0	0
0.0210134	4	0	0
0.0211254	4	0	0
0.0214093	4	0	0
0.0214748	4	0	0
0.0227937	4	0	0
0.0237388	4	0	0
0.0242457	4	0	0
0.0245683	4	0	0
0.0248298	4	0	0
0.0250188	4	0	0
0.0254812	4	0	0
0.0260303	4	0	0
0.026072	4	0	0
0.026572	4	0	0
0.0267167	4	0	0
0.0267426	4	2	0
0.0269995	6	1	0
0.0273416	8	0	0
0.0280971	8	0	0
0.0296211	8	0	0
0.0299698	8	0	0
0.0301862	8	0	0
0.0303194	8	0	0
0.0308234	8	0	0
0.0310115	8	0	0
0.0312335	8	0	0
0.0321873	8	0	0
0.0322304	8	0	0
0.0326646	8	0	0
0.0328859	8	0	0
0.0331935	9	1	0
0.033296	9	1	0
0.0346747	11	0	0
0.0350144	11	0	0
0.0353429	11	0	0
0.0354685	11	2	0
0.0360553	13	1	0
0.0362901	13	1	0
0.037574	15	0	0
0.0382908	15	0	0
0.0394091	15	0	0
0.0399829	15	0	0
0.0400438	15	0	0
0.0402083	16	1	0
0.0408319	18	0	0
0.0409101	18	0	0
0.0413224	18	0	0
0.0413656	18	0	0
0.0423612	18	0	0
0.0424324	18	0	0
0.0425215	18	0	0
0.0425674	19	1	0
0.0426448	20	1	0
0.0426551	22	0	0
0.0427862	23	1	0
0.0430457	25	0	0
0.0436783	25	0	0
0.0439662	25	0	0
0.0451764	25	0	0
0.0452663	25	0	0
0.045999	25	0	0
0.0468132	25	0	0
0.047119	25	0	0
0.0483913	25	0	0
0.0485667	26	1	0
0.0489797	26	1	0
0.0492893	28	0	0
0.049542	28	0	0
0.0500035	28	0	0
0.0501458	28	0	0
0.0508715	28	0	0
0.0513518	28	0	0
0.0513596	28	0	0
0.0515538	28	0	0
0.0515877	29	1	0
0.0516907	31	0	0
0.0519545	31	0	0
0.0522035	32	1	0
0.0523445	32	1	0
0.0531062	34	0	0
0.0531263	34	0	0
0.0539574	34	0	0
0.0542001	34	0	0
0.0543812	34	0	0
0.0551391	34	0	0
0.0553194	34	0	0
0.0553933	34	0	0
0.0554454	35	1	0
0.0556796	37	0	0
0.0563737	37	0	0
0.0572221	37	0	0
0.0585398	37	0	0
0.0586552	37	0	0
0.0590902	37	0	0
0.0591519	37	0	0
0.0603315	37	0	0
0.0603982	37	0	0
0.0608816	37	0	0
0.0608973	38	1	0
0.0613282	40	0	0
0.0621414	40	0	0
0.0622189	40	0	0
0.0631767	40	0	0
0.0640555	40	0	0
0.0644325	40	0	0
0.0644403	40	0	0
0.0645963	40	0	0
0.0662065	40	0	0
0.0671113	40	0	0
0.0673954	40	0	0
0.0677133	40	0	0
0.0690655	40	0	0
0.0702467	40	0	0
0.0703824	40	0	0
0.0709767	40	0	0
0.0717379	40	0	0
0.0725987	40	0	0
0.0729811	40	0	0
0.0730993	40	0	0
0.0734658	40	0	0
0.0734954	40	0	0
0.0735055	40	0	0
0.0736412	40	0	0
0.0744046	40	1	0
0.0744363	40	1	0
0.0745851	41	2	0
0.0752525	43	1	0
0.0754433	45	0	0
0.075519	45	0	0
0.0755359	45	0	0
0.0764913	45	0	0
0.0767609	45	0	0
0.077185	45	0	0
0.0776201	45	0	0
0.0776691	45	1	0
0.0777722	46	2	0
0.0778916	48	1	0
0.0779084	50	0	0
0.0783659	50	0	0
0.0792025	50	0	0
0.0793305	50	0	0
0.0806859	50	0	0
0.0817519	50	0	0
0.0818582	51	1	0
0.0839127	53	0	0
0.0855979	53	0	0
0.0869093	53	0	0
0.0869931	53	0	0
0.087077	53	0	0
0.0873146	53	0	0
0.0874167	53	2	0
0.0883175	55	1	0
0.0916247	57	0	0
0.0916714	57	0	0
0.0922999	57	0	0
0.0924987	57	0	0
0.0932761	57	0	0
0.0934084	57	0	0
0.0965873	57	0	0
0.0969903	57	0	0
0.0971245	57	0	0
0.0971271	57	0	0
0.0977296	57	0	0
0.0980434	57	0	0
0.0986964	57	0	0
0.0990084	57	0	0
0.0990574	57	0	0
0.0997318	57	0	0
0.0998083	57	0	0
0.0998163	57	0	0
0.0999356	57	0	0
0.101751	57	0	0
0.101795	57	0	0
0.102394	57	0	0
0.102397	57	0	0
0.102854	57	0	0
0.10515	57	0	0
0.105356	57	0	0
0.106946	57	0	0
0.110223	57	0	0
0.111362	57	0	0
0.111844	57	0	0
0.113102	57	0	0
0.113278	57	0	0
0.113931	57	0	0
0.114024	57	0	0
0.115051	57	0	0
0.115624	57	0	0
0.115763	57	0	0
0.117426	57	0	0
0.117601	57	0	0
0.120186	57	0	0
0.120525	57	0	0
0.120618	57	0	0
0.120865	58	0	0
0.121661	58	0	0
0.122313	58	0	0
0.122349	58	2	0
0.122382	60	1	0
0.122752	62	0	0
0.122953	62	0	0
0.123106	62	0	0
0.123165	63	1	0
0.123883	65	0	0
0.125194	65	0	0
0.125259	66	1	0
0.126082	68	0	0
0.126183	68	0	0
0.126248	68	0	0
0.126307	68	0	0
0.126855	68	0	0
0.127101	68	0	0
0.127197	69	0	0
0.127464	69	0	0
0.12868	69	0	0
0.130424	69	0	0
0.13076	69	0	0
0.13145	69	0	0
0.134292	69	0	0
0.134782	69	0	0
0.135095	69	0	0
0.135202	69	0	0
0.135653	69	0	0
0.1378	69	0	0
0.137999	69	0	0
0.139567	69	0	0
0.139623	69	0	0
0.139642	69	0	0
0.140045	69	0	0
0.140328	69	0	0
0.14066	69	0	0
0.141442	69	0	0
0.141628	69	0	0
0.141676	69	0	0
0.142023	69	0	0
0.142098	70	0	0
0.142466	70	0	0
0.142813	70	0	0
0.142928	71	0	0
0.143296	72	0	0
0.143445	72	0	0
0.143593	72	0	0
0.144425	73	1	0
0.145025	73	1	0
0.145182	73	1	0
0.146623	75	0	0
0.147258	75	0	0
0.147626	75	0	0
0.149141	75	1	0
0.149273	75	1	0
0.149518	75	1	0
0.149869	75	1	0
0.149971	75	1	0
0.150201	75	2	0
0.150521	75	2	0
0.150868	75	2	0
0.150913	76	3	0
0.151442	78	2	0
0.151813	80	1	0
0.152226	81	1	0
0.152241	82	1	0
0.15249	82	1	0
0.152753	82	1	0
0.153181	82	1	0
0.153196	82	3	0
0.153299	82	3	0
0.153329	83	4	0
0.153333	85	3	0
0.153385	87	2	0
0.153551	89	1	0
0.153973	91	0	0
0.155673	91	0	0
0.155784	91	0	0
0.15604	91	0	0
0.156255	91	0	0
0.157601	91	0	0
0.157873	91	0	0
0.159104	91	0	0
0.159533	91	0	0
0.159553	91	0	0
0.159981	91	0	0
0.161064	91	0	0
0.163239	91	0	0
0.163446	91	0	0
0.164039	91	0	0
0.164367	91	0	0
0.164932	91	0	0
0.165112	91	0	0
0.16584	91	0	0
0.166641	91	0	0
0.166886	91	0	0
0.16704	91	0	0
0.167682	91	0	0
0.167867	91	0	0
0.168518	91	0	0
0.168909	91	0	0
0.169567	91	0	0
0.169601	91	0	0
0.169672	91	0	0
0.170377	91	0	0
0.17046	92	1	0
0.170543	92	1	0
0.170781	92	1	0
0.171998	94	0	0
0.172418	94	0	0
0.17266	94	0	0
0.174514	94	0	0
0.175299	94	0	0
0.175402	95	1	0
0.176047	97	0	0
0.176779	97	0	0
0.177858	97	0	0
0.178131	97	0	0
0.178167	97	0	0
0.178645	97	0	0
0.17898	97	0	0
0.179316	97	0	0
0.179981	97	0	0
0.180576	97	0	0
0.180763	97	0	0
0.181284	97	0	0
0.181886	97	0	0
0.184317	97	0	0
0.184333	97	0	0
0.184346	97	0	0
0.184425	98	1	0
0.184998	98	1	0
0.18505	100	0	0
0.185753	102	0	0
0.18601	103	0	0
0.186573	103	0	0
0.187432	103	0	0
0.187435	103	0	0
0.187537	103	0	0
0.187793	103	0	0
0.188782	103	0	0
0.189459	103	0	0
0.190153	103	0	0
0.190363	103	0	0
0.19153	103	0	0
0.191602	103	0	0
0.191678	103	2	0
0.19215	103	2	0
0.192659	105	1	0
0.193046	107	0	0
0.195141	107	0	0
0.196415	107	0	0
0.197785	107	0	0
0.197938	107	0	0
0.198371	107	0	0
0.199572	107	0	0
0.200148	107	0	0
0.200442	107	0	0
0.200465	107	0	0
0.201866	107	0	0
0.20208	107	0	0
0.202271	107	2	0
0.202357	109	1	0
0.203734	111	0	0
0.204208	111	0	0
0.204364	111	0	0
0.20622	111	0	0
0.206263	111	0	0
0.207112	111	0	0
0.208452	111	0	0
0.208653	111	0	0
0.209723	111	0	0
0.21196	111	0	0
0.2121	111	0	0
0.212354	111	0	0
0.21293	111	0	0
0.213241	111	0	0
0.213789	111	0	0
0.214839	111	0	0
0.21624	111	0	0
0.216546	111	0	0
0.216574	111	0	0
0.217371	111	0	0
0.219266	111	0	0
0.219345	111	0	0
0.219654	113	0	0
0.219739	113	0	0
0.21992	114	1	0
0.220649	116	0	0
0.221598	116	0	0
0.221629	116	0	0
0.221686	117	1	0
0.222958	119	0	0
0.22385	119	0	0
0.224488	119	0	0
0.225014	119	0	0
0.2255	119	0	0
0.225509	119	0	0
0.225571	120	1	0
0.225816	120	1	0
0.226192	122	0	0
0.227661	123	0	0
0.228148	123	0	0
0.22877	123	0	0
0.230667	123	0	0
0.230749	123	0	0
0.230958	123	0	0
0.231207	124	1	0
0.231502	124	1	0
0.232548	126	0	0
0.233741	126	0	0
0.235633	126	0	0
0.236459	126	0	0
0.237069	126	0	0
0.237423	126	0	0
0.237461	126	0	0
0.23772	126	0	0
0.238176	127	0	0
0.238616	127	0	0
0.239185	127	0	0
0.240519	127	0	0
0.241915	127	0	0
0.242052	127	0	0
0.24265	127	0	0
0.24343	127	0	0
0.243557	127	0	0
0.244163	128	1	0
0.244256	130	0	0
0.245427	130	1	0
0.245628	130	1	0
0.245848	131	2	0
0.24619	133	1	0
0.246195	135	0	0
0.246994	135	0	0
0.247308	135	0	0
0.247602	135	0	0
0.248458	135	0	0
0.249062	135	0	0
0.249907	135	0	0
0.250902	135	0	0
0.251119	135	0	0
0.251326	135	0	0
0.251384	135	0	0
0.251442	135	0	0
0.251677	135	0	0
0.251709	135	1	0
0.251768	135	1	0
0.252091	135	2	0
0.252699	136	3	0
0.25275	137	4	0
0.252863	139	3	0
0.252917	141	2	0
0.253174	141	2	0
0.253191	143	1	0
0.253416	143	3	0
0.253922	145	2	0
0.254024	147	1	0
0.254093	147	1	0
0.254247	147	1	0
0.254278	147	1	0
0.255639	149	0	0
0.256298	149	0	0
0.256616	149	0	0
0.256975	149	0	0
0.25702	149	0	0
0.257037	149	0	0
0.2575	149	0	0
0.257873	149	0	0
0.258397	149	0	0
0.259124	150	0	0
0.259465	150	0	0
0.259975	150	0	0
0.260679	150	0	0
0.261353	150	0	0
0.2614	150	0	0
0.261901	150	0	0
0.262241	150	0	0
0.262596	150	0	0
0.262854	150	0	0
0.262985	150	0	0
0.263036	150	0	0
0.263265	151	1	0
0.263958	153	0	0
0.263988	153	0	0
0.266006	153	0	0
0.266014	153	0	0
0.26659	153	0	0
0.267546	153	0	0
0.267643	153	0	0
0.269802	154	0	0
0.269873	154	0	0
0.269895	155	0	0
0.270541	156	0	0
0.270861	156	0	0
0.271105	156	0	0
0.271614	156	1	0
0.27192	156	1	0
0.272167	156	1	0
0.27228	157	2	0
0.273098	159	1	0
0.273147	161	1	0
0.276501	163	0	0
0.277074	163	0	0
0.277258	163	0	0
0.277918	163	0	0
0.280367	163	0	0
0.283981	164	0	0
0.284769	164	0	0
0.285805	164	0	0
0.28612	164	2	0
0.286758	164	2	0
0.287128	166	1	0
0.288271	168	0	0
0.288728	168	0	0
0.290371	168	0	0
0.290382	168	0	0
0.29169	168	0	0
0.291982	168	1	0
0.292223	169	2	0
0.292283	171	1	0
0.292839	173	0	0
0.293241	173	0	0
0.293824	173	0	0
0.296225	173	0	0
0.297192	173	0	0
0.298976	173	0	0
0.299042	173	0	0
0.299476	173	0	0
0.299782	174	1	0
0.300216	176	0	0
0.30115	176	0	0
0.302175	176	0	0
0.302635	176	0	0
0.302701	176	0	0
0.302783	176	0	0
0.302807	176	0	0
0.303268	176	0	0
0.303291	177	0	0
0.303502	177	2	0
0.303545	177	2	0
0.30372	177	2	0
0.304501	179	1	0
0.304942	181	0	0
0.305335	181	0	0
0.306084	181	0	0
0.307325	181	0	0
0.307367	181	0	0
0.307414	181	0	0
0.308504	181	0	0
0.308726	181	0	0
0.309166	181	0	0
0.309341	181	0	0
0.309402	182	1	0
0.309623	184	0	0
0.309803	184	0	0
0.310658	184	0	0
0.311855	185	0	0
0.312907	185	0	0
0.312968	185	0	0
0.313058	186	1	0
0.314552	188	0	0
0.314716	188	0	0
0.315782	188	0	0
0.31724	188	0	0
0.317363	188	0	0
0.318126	188	0	0
0.318317	188	0	0
0.320582	188	0	0
0.320653	189	0	0
0.322947	190	0	0
0.323464	192	0	0
0.323817	192	0	0
0.324155	192	0	0
0.324325	193	1	0
0.324365	193	1	0
0.324404	195	0	0
0.324422	195	0	0
0.325384	195	0	0
0.325408	195	0	0
0.325856	195	0	0
0.326112	195	0	0
0.326425	196	1	0
0.326558	196	1	0
0.326768	198	0	0
0.326954	198	0	0
0.327128	198	0	0
0.327315	198	0	0
0.327735	198	0	0
0.328845	198	0	0
0.328885	198	0	0
0.329107	198	0	0
0.329386	199	1	0
0.329887	201	0	0
0.330434	201	0	0
0.333259	201	0	0
0.333358	201	0	0
0.33345	201	0	0
0.333466	201	0	0
0.333881	202	1	0
0.334269	204	0	0
0.334724	204	0	0
0.335434	204	0	0
0.33632	204	0	0
0.336375	204	0	0
0.33851	204	0	0
0.339039	204	0	0
0.339453	204	0	0
0.34024	204	0	0
0.340531	205	1	0
0.340867	207	0	0
0.341092	208	0	0
0.341307	208	0	0
0.341826	208	0	0
0.34296	208	0	0
0.344075	208	0	0
0.344982	209	0	0
0.345438	209	0	0
0.347622	209	0	0
0.348536	209	0	0
0.349553	209	0	0
0.350179	209	0	0
0.350379	209	0	0
0.350989	209	0	0
0.352521	209	1	0
0.352947	210	1	0
0.355699	210	1	0
0.355728	210	1	0
0.357597	210	1	0
0.358281	210	1	0
0.35865	210	1	0
0.359773	210	1	0
0.36059	210	1	0
0.361642	210	1	0
0.361933	210	1	0
0.36231	210	1	0
0.362549	210	1	0
0.363239	210	1	0
0.363614	210	1	0
0.36367	210	1	0
0.364164	211	1	0
0.364832	211	1	0
0.365368	211	1	0
0.367621	211	1	0
0.369065	211	1	0
0.370745	211	1	0
0.371075	211	1	0
0.371616	211	1	0
0.371878	212	2	0
0.372563	212	2	0
0.372739	212	2	0
0.372893	212	2	0
0.373381	212	2	0
0.373752	212	2	0
0.374455	212	2	0
0.374651	214	1	0
0.375274	214	1	0
0.375889	215	1	0
0.375989	215	1	0
0.376228	215	1	0
0.376616	215	1	0
0.377318	215	1	0
0.3775	215	1	0
0.377698	217	0	0
0.377807	218	0	0
0.378631	218	0	0
0.378668	218	0	0
0.3807	218	0	0
0.382168	219	0	0
0.384207	219	0	0
0.384712	220	0	0
0.389632	220	0	0
0.392687	220	0	0
0.394612	220	0	0
0.394906	220	0	0
0.394993	221	0	0
0.395402	221	0	0
0.395742	221	0	0
0.396692	221	0	0
0.396907	221	0	0
0.397441	221	0	0
0.398015	221	0	0
0.398457	221	0	0
0.398616	221	0	0
0.398695	222	1	0
0.398935	222	1	0
0.398944	222	1	0
0.399437	224	0	0
0.400881	225	0	0
0.401345	225	0	0
0.401897	225	0	0
0.403525	225	0	0
0.40445	225	0	0
0.40449	225	0	0
0.404578	225	0	0
0.405923	225	0	0
0.406059	225	0	0
0.40714	225	0	0
0.409885	225	0	0
0.41004	225	0	0
0.410237	225	0	0
0.410274	226	1	0
0.410514	226	1	0
0.410528	227	2	0
0.410545	229	1	0
0.410884	231	0	0
0.411002	231	2	0
0.411177	231	2	0
0.411471	233	1	0
0.411599	233	1	0
0.412347	235	0	0
0.413007	235	0	0
0.413018	235	0	0
0.413149	235	0	0
0.413836	235	0	0
0.41415	235	0	0
0.414284	236	1	0
0.415729	238	0	0
0.416406	238	0	0
0.41858	238	0	0
0.419478	238	0	0
0.420177	238	0	0
0.422214	238	0	0
0.423599	238	0	0
0.423857	238	0	0
0.424158	238	0	0
0.429366	238	0	0
0.430148	238	0	0
0.432199	238	0	0
0.432785	238	0	0
0.432986	238	0	0
0.43357	239	1	0
0.434166	241	0	0
0.434541	242	1	0
0.43515	244	0	0
0.435231	244	0	0
0.436611	244	0	0
0.436937	244	0	0
0.437363	244	0	0
0.437633	244	0	0
0.439387	244	0	0
0.439847	244	0	0
0.440392	245	0	0
0.440671	245	0	0
0.442843	245	0	0
0.442959	245	0	0
0.44312	245	0	0
0.443597	245	0	0
0.443633	245	0	0
0.444943	245	0	0
0.445559	245	0	0
0.44557	246	1	0
0.44584	246	1	0
0.447859	248	0	0
0.447891	248	0	0
0.449283	248	0	0
0.450061	248	0	0
0.451104	248	0	0
0.458963	248	0	0
0.459243	248	0	0
0.460167	248	0	0
0.46049	248	0	0
0.460596	248	0	0
0.461983	248	0	0
0.462201	248	0	0
0.462236	248	0	0
0.462688	248	1	0
0.464318	248	1	0
0.465082	248	1	0
0.465163	248	1	0
0.466002	248	1	0
0.466169	249	2	0
0.466388	251	1	0
0.467014	253	0	0
0.467895	254	0	0
0.468169	254	0	0
0.471637	254	0	0
0.471722	254	0	0
0.472926	254	0	0
0.473036	254	0	0
0.4733	254	0	0
0.473777	254	0	0
0.474798	254	0	0
0.47507	255	1	0
0.475346	257	0	0
0.476073	257	0	0
0.476141	257	0	0
0.476309	257	0	0
0.476458	257	0	0
0.477163	257	0	0
0.478124	257	0	0
0.478318	257	0	0
0.479447	257	0	0
0.481762	257	0	0
0.481832	257	0	0
0.482289	258	1	0
0.483472	260	0	0
0.484812	260	0	0
0.485009	260	0	0
0.48619	260	0	0
0.486245	260	0	0
0.488138	260	0	0
0.489546	260	0	0
0.48967	261	0	0
0.490052	262	0	0
0.490606	262	0	0
0.493299	262	0	0
0.495565	263	0	0
0.497167	263	0	0
0.497679	263	0	0
0.499942	263	0	0
0.501153	263	0	0
0.50233	263	0	0
0.50638	263	0	0
0.506811	263	0	0
0.507067	263	0	0
0.507082	263	0	0
0.507348	263	0	0
0.508224	263	0	0
0.508691	263	0	0
0.508721	263	0	0
0.508859	264	1	0
0.509281	266	0	0
0.509561	266	2	0
0.509616	268	1	0
0.509693	268	3	0
0.510085	270	2	0
0.510233	272	1	0
0.511063	272	1	0
0.511876	274	0	0
0.514324	274	0	0
0.515516	274	0	0
0.516037	275	1	0
0.516532	277	0	0
0.516831	277	0	0
0.517023	277	0	0
0.51706	277	0	0
0.517095	277	0	0
0.517134	278	1	0
0.517268	278	1	0
0.517956	278	1	0
0.518678	278	1	0
0.520884	279	1	0
0.522847	279	1	0
0.523774	279	1	0
0.523939	279	1	0
0.526223	279	1	0
0.5266	279	1	0
0.527095	280	1	0
0.527162	280	1	0
0.52942	280	1	0
0.532224	280	1	0
0.532263	280	1	0
0.532678	280	1	0
0.533472	280	1	0
0.534911	280	1	0
0.534996	280	1	0
0.535533	282	1	0
0.535877	282	1	0
0.537537	283	1	0
0.53763	283	1	0
0.53832	283	1	0
0.538392	283	1	0
0.539834	283	1	0
0.541078	283	1	0
0.541087	283	1	0
0.541242	283	1	0
0.541864	283	1	0
0.542399	283	1	0
0.54367	283	1	0
0.543686	283	1	0
0.544595	283	1	0
0.545216	283	1	0
0.545348	283	1	0
0.545559	283	1	0
0.54613	284	1	0
0.5467	284	1	0
0.546958	284	1	0
0.548683	284	1	0
0.548954	284	1	0
0.549232	284	1	0
0.549422	284	1	0
0.549863	284	2	0
0.551382	285	2	0
0.551845	285	2	0
0.553083	286	2	0
0.554209	286	2	0
0.554627	286	2	0
0.554773	286	2	0
0.554982	287	2	0
0.556011	287	2	0
0.558969	287	2	0
0.559385	287	2	0
0.559864	287	2	0
0.560359	287	2	0
0.561344	288	2	0
0.562482	289	2	0
0.563143	291	2	0
0.563176	291	2	0
0.563323	291	2	0
0.563806	291	2	0
0.565911	291	2	0
0.567523	292	2	0
0.567552	292	2	0
0.568259	292	2	0
0.568572	292	2	0
0.568967	292	2	0
0.569134	292	2	0
0.569617	292	2	0
0.573205	292	2	0
0.57355	292	2	0
0.576379	292	2	0
0.577222	292	3	0
0.578113	293	3	0
0.580434	293	3	0
0.580447	294	4	0
0.580492	296	3	0
0.580899	298	2	0
0.584547	298	2	0
0.584784	298	3	0
0.584865	298	3	0
0.585774	300	2	0
0.585973	301	3	0
0.586015	303	2	0
0.586639	303	2	0
0.587158	305	1	0
0.587343	305	1	0
0.588886	305	1	0
0.589005	305	1	0
0.592403	305	1	0
0.592509	305	1	0
0.593026	305	1	0
0.593045	306	1	0
0.596823	306	1	0
0.597116	306	1	0
0.5974	306	1	0
0.597566	306	1	0
0.598066	306	1	0
0.598357	306	1	0
0.598569	306	1	0
0.598739	306	1	0
0.598802	307	1	0
0.59903	308	2	0
0.599517	308	2	0
0.601062	310	1	0
0.601943	311	1	0
0.603092	311	1	0
0.604364	311	1	0
0.607395	311	1	0
0.60808	311	1	0
0.60988	311	1	0
0.610821	311	1	0
0.611038	311	1	0
0.611216	311	1	0
0.611598	311	1	0
0.6125	311	1	0
0.613072	312	2	0
0.613199	314	1	0
0.614976	315	1	0
0.616873	315	1	0
0.617177	316	1	0
0.619697	316	1	0
0.623608	316	1	0
0.623887	316	1	0
0.625942	316	2	0
0.625962	317	3	0
0.626099	319	2	0
0.626156	319	2	0
0.629356	321	1	0
0.630394	321	1	0
0.631529	321	1	0
0.631925	321	1	0
0.633284	321	1	0
0.633341	321	1	0
0.634853	321	2	0
0.63553	321	2	0
0.635961	322	3	0
0.636569	324	2	0
0.636634	326	1	0
0.640712	326	1	0
0.641154	326	1	0
0.642699	326	1	0
0.643894	327	1	0
0.645155	327	1	0
0.645998	328	2	0
0.649526	330	1	0
0.649546	330	1	0
0.649786	331	2	0
0.650738	333	1	0
0.652099	333	1	0
0.653109	333	1	0
0.65327	333	1	0
0.653273	333	1	0
0.653478	333	1	0
0.65418	334	2	0
0.655909	336	1	0
0.656623	336	1	0
0.657033	336	1	0
0.657328	336	1	0
0.657474	336	1	0
0.657925	336	1	0
0.657956	336	1	0
0.660082	336	1	0
0.661245	336	1	0
0.661263	336	1	0
0.661931	337	1	0
0.664001	337	1	0
0.664374	337	1	0
0.665368	337	1	0
0.665521	337	1	0
0.666115	337	1	0
0.666307	338	2	0
0.666451	338	2	0
0.670271	340	1	0
0.672947	341	1	0
0.673128	341	1	0
0.6736	341	1	0
0.674827	341	1	0
0.675393	341	1	0
0.676069	342	1	0
0.676267	343	1	0
0.677347	343	1	0
0.677586	343	1	0
0.678056	343	1	0
0.678148	344	1	0
0.680741	344	1	0
0.68152	344	1	0
0.682021	344	1	0
0.682376	344	1	0
0.683771	344	2	0
0.683908	345	2	0
0.684612	345	2	0
0.684969	345	2	0
0.685389	345	2	0
0.686903	345	2	0
0.687671	346	3	0
0.687767	346	3	0
0.690102	348	2	0
0.690165	349	2	0
0.690619	349	2	0
0.691797	350	2	0
0.692262	350	2	0
0.693868	350	2	0
0.695175	350	2	0
0.695921	350	2	0
0.696459	350	2	0
0.697169	350	2	0
0.697374	350	3	0
0.697406	351	4	0
0.697455	353	3	0
0.698402	355	2	0
0.698656	355	2	0
0.704436	357	2	0
0.705373	357	2	0
0.706152	357	2	0
0.706779	358	3	0
0.707111	360	2	0
0.707155	360	2	0
0.708268	360	2	0
0.70848	360	2	0
0.708624	361	3	0
0.708816	363	2	0
0.712312	363	2	0
0.712511	363	2	0
0.712779	363	2	0
0.712847	363	2	0
0.71545	365	1	0
0.718765	365	1	0
0.721807	365	1	0
0.722043	365	1	0
0.722813	365	1	0
0.723957	365	1	0
0.72442	365	1	0
0.724604	366	2	0
0.725824	368	1	0
0.725927	368	1	0
0.726579	369	1	0
0.726581	370	2	0
0.726713	372	1	0
0.727203	372	1	0
0.72792	372	1	0
0.73007	372	1	0
0.730826	372	1	0
0.731716	372	1	0
0.733692	372	2	0
0.733877	373	3	0
0.734	373	3	0
0.734427	375	2	0
0.734568	375	4	0
0.734995	377	3	0
0.73511	379	2	0
0.73597	381	1	0
0.736489	381	1	0
0.736976	381	1	0
0.737106	382	2	0
0.737662	384	1	0
0.737704	385	1	0
0.741881	385	1	0
0.742286	385	1	0
0.743535	385	1	0
0.743679	385	1	0
0.743998	385	1	0
0.745184	385	1	0
0.746034	387	1	0
0.746928	388	1	0
0.749054	388	1	0
0.74957	389	1	0
0.750996	389	1	0
0.751062	389	1	0
0.752012	390	1	0
0.753738	390	1	0
0.754929	390	1	0
0.755845	390	1	0
0.755968	390	1	0
0.756242	390	1	0
0.756392	391	1	0
0.756545	391	1	0
0.756772	391	2	0
0.756887	392	3	0
0.758205	394	2	0
0.758791	396	1	0
0.760661	396	1	0
0.760776	396	1	0
0.761886	396	1	0
0.762608	396	1	0
0.762816	397	1	0
0.762832	397	1	0
0.763509	397	1	0
0.767303	397	1	0
0.767741	397	1	0
0.768225	398	1	0
0.769231	398	2	0
0.770269	398	2	0
0.77032	399	3	0
0.770474	401	2	0
0.772607	403	1	0
0.773282	403	1	0
0.773733	403	1	0
0.780067	403	1	0
0.783005	403	1	0
0.784182	403	1	0
0.787999	403	1	0
0.792274	403	1	0
0.792804	403	1	0
0.79538	403	1	0
0.796577	403	1	0
0.796638	404	2	0
0.797546	406	1	0
0.798192	406	1	0
0.798222	408	1	0
0.799972	408	1	0
0.800047	409	1	0
0.800853	410	1	0
0.802304	410	1	0
0.802719	410	1	0
0.805864	412	1	0
0.80699	413	1	0
0.807962	413	1	0
0.809572	413	1	0
0.809677	414	2	0
0.810105	416	1	0
0.813208	416	1	0
0.814394	416	1	0
0.814473	416	1	0
0.814877	417	1	0
0.815217	418	2	0
0.819049	420	1	0
0.81913	420	1	0
0.830328	420	1	0
0.835884	420	1	0
0.837796	420	1	0
0.838193	421	1	0
0.841385	421	1	0
0.84304	421	1	0
0.844075	421	1	0
0.845622	421	1	0
0.845853	421	1	0
0.845877	422	2	0
0.845912	423	2	0
0.847063	425	1	0
0.847115	426	1	0
0.847532	426	1	0
0.848346	426	1	0
0.849271	426	1	0
0.849498	427	1	0
0.849511	427	1	0
0.849709	427	1	0
0.850857	427	1	0
0.853279	427	1	0
0.855956	427	1	0
0.856118	429	1	0
0.859043	429	1	0
0.859743	429	1	0
0.86029	429	1	0
0.860377	430	2	0
0.861519	432	1	0
0.86257	432	1	0
0.863895	432	1	0
0.864173	433	1	0
0.864782	433	1	0
0.864864	433	3	0
0.864998	434	3	0
0.865238	436	2	0
0.866124	438	1	0
0.868755	438	1	0
0.870804	439	1	0
0.871763	439	1	0
0.872603	440	1	0
0.873253	440	1	0
0.873751	440	1	0
0.874283	440	1	0
0.875564	440	2	0
0.875871	441	3	0
0.875984	443	2	0
0.876097	443	2	0
0.876481	445	1	0
0.877995	445	1	0
0.883667	445	1	0
0.883859	445	1	0
0.884468	445	1	0
0.885229	445	1	0
0.885247	445	1	0
0.886501	446	1	0
0.886565	447	1	0
0.886819	447	2	0
0.886904	448	3	0
0.886918	448	4	0
0.887084	450	3	0
0.889164	452	2	0
0.889206	452	2	0
0.889363	453	3	0
0.890055	455	2	0
0.890273	457	1	0
0.891227	457	1	0
0.891583	458	1	0
0.895439	459	1	0
0.896354	459	1	0
0.896713	459	1	0
0.896948	460	2	0
0.899019	462	1	0
0.899628	462	1	0
0.900134	462	1	0
0.901896	462	1	0
0.902976	462	1	0
0.903187	462	1	0
0.903538	463	2	0
0.905598	465	1	0
0.905754	465	1	0
0.905981	465	1	0
0.906418	465	2	0
0.906596	465	2	0
0.907371	465	2	0
0.907671	466	3	0
0.907677	468	2	0
0.907685	470	1	0
0.907985	470	1	0
0.910325	470	1	0
0.911645	471	1	0
0.912062	472	2	0
0.912209	472	2	0
0.912483	474	1	0
0.915089	476	1	0
0.920325	477	1	0
0.920886	477	1	0
0.921436	477	1	0
0.923865	477	1	0
0.92495	477	1	0
0.92547	477	1	0
0.925624	478	2	0
0.925994	480	1	0
0.927872	480	1	0
0.928049	480	1	0
0.929005	480	1	0
0.930182	481	1	0
0.930324	481	1	0
0.930372	481	1	0
0.930609	482	2	0
0.93073	484	1	0
0.931154	484	1	0
0.932357	484	1	0
0.932844	485	2	0
0.934311	487	1	0
0.934477	487	1	0
0.934681	487	1	0
0.935582	488	2	0
0.936182	490	1	0
0.93625	490	1	0
0.93696	491	2	0
0.937327	493	1	0
0.940286	493	1	0
0.940525	493	1	0
0.941093	493	1	0
0.941348	493	1	0
0.944349	493	1	0
0.94442	493	1	0
0.946683	493	1	0
0.946813	493	1	0
0.946884	493	1	0
0.946908	494	2	0
0.948052	494	2	0
0.948609	496	1	0
0.949504	496	1	0
0.950917	497	1	0
0.951159	497	1	0
0.95281	498	1	0
0.953835	498	1	0
0.95814	500	1	0
0.961374	500	1	0
0.963789	500	1	0
0.965122	500	1	0
0.965866	500	1	0
0.966822	500	1	0
0.96749	500	1	0
0.971593	500	1	0
0.971725	500	1	0
0.973504	500	1	0
0.975071	500	1	0
0.976322	500	1	0
0.976599	500	1	0
0.978291	500	1	0
0.979212	500	1	0
0.981413	500	1	0
0.98261	500	1	0
0.982726	500	1	0
0.984519	500	1	0
0.984836	500	1	0
0.985178	501	2	0
0.985468	502	2	0
0.985675	504	1	0
0.98658	504	1	0
0.989981	505	1	0
0.992843	506	1	0
0.993167	507	1	0
0.99326	507	1	0
0.993614	507	1	0
0.994205	507	1	0
0.997383	507	2	0
0.998604	507	2	0
0.998753	507	2	0
0.999227	508	3	0
1.00405	510	2	0
1.00415	510	2	0
1.00605	510	2	0
1.01148	510	2	0
1.01225	510	2	0
1.01255	512	1	0
1.01533	512	1	0
1.01583	512	1	0
1.01735	512	1	0
1.0188	512	1	0
1.02293	512	1	0
1.0235	512	1	0
1.02761	512	1	0
1.02881	512	1	0
1.0299	512	1	0
1.03161	512	1	0
1.03198	512	1	0
1.0358	512	1	0
1.03674	512	1	0
1.04181	512	1	0
1.04185	512	1	0
1.04309	514	1	0
1.0476	515	1	0
1.04905	515	1	0
1.0512	515	1	0
1.05406	515	1	0
1.05444	515	1	0
1.05444	515	2	0
1.05632	515	2	0
1.05642	516	3	0
1.05674	516	3	0
1.05679	518	2	0
1.05761	520	1	0
1.06009	520	1	0
1.06194	520	1	0
1.0648	520	1	0
1.0655	520	1	0
1.06722	520	1	0
1.07107	522	0	0
1.07218	522	0	0
1.07425	522	0	0
1.07455	522	0	0
1.07517	522	2	0
1.0753	522	2	0
1.0756	524	1	0
1.07594	524	1	0
1.07616	524	1	0
1.07624	526	0	0
1.07682	526	0	0
1.07874	526	0	0
1.07962	526	0	0
1.07981	526	0	0
1.08151	526	0	0
1.083	526	0	0
1.08335	526	0	0
1.08336	527	1	0
1.0841	527	1	0
1.08498	527	1	0
1.08545	529	0	0
1.08821	530	0	0
1.08908	530	0	0
1.09005	530	0	0
1.09152	530	0	0
1.09383	530	0	0
1.09597	530	0	0
1.09859	531	0	0
1.10046	531	0	0
1.10361	531	0	0
1.10394	531	0	0
1.104	532	1	0
1.10407	534	0	0
1.10763	534	0	0
1.10965	534	0	0
1.11062	534	0	0
1.11832	534	0	0
1.11995	534	0	0
1.12229	534	0	0
1.12235	534	0	0
1.12276	534	1	0
1.12282	535	2	0
1.12282	537	1	0
1.12486	539	0	0
1.12535	539	0	0
1.12724	539	0	0
1.12756	539	0	0
1.1287	539	0	0
1.12896	539	0	0
1.12929	540	1	0
1.12933	540	1	0
1.12964	542	0	0
1.13076	542	0	0
1.13093	542	0	0
1.13136	542	0	0
1.1318	543	1	0
1.1319	543	1	0
1.1323	545	0	0
1.13332	545	0	0
1.13503	545	0	0
1.13722	545	0	0
1.13806	545	0	0
1.13872	545	0	0
1.13873	546	1	0
1.13983	548	0	0
1.14423	548	0	0
1.1448	548	0	0
1.14516	548	1	0
1.1454	549	2	0
1.14547	551	1	0
1.14668	553	0	0
1.14801	553	0	0
1.14829	553	0	0
1.14968	553	0	0
1.15001	553	0	0
1.15057	553	0	0
1.15089	553	0	0
1.15256	553	0	0
1.15265	553	0	0
1.15295	553	0	0
1.15305	554	1	0
1.15345	556	0	0
1.15631	556	0	0
1.15871	556	0	0
1.15877	556	0	0
1.15886	556	1	0
1.15891	556	1	0
1.15937	556	1	0
1.15953	557	2	0
1.15959	558	3	0
1.15965	560	2	0
1.16013	562	1	0
1.16497	564	0	0
1.16763	564	0	0
1.16787	564	0	0
1.16844	564	0	0
1.16866	565	1	0
1.16876	566	2	0
1.16989	568	1	0
1.17999	570	0	0
1.18012	570	0	0
1.18025	570	0	0
1.18041	571	1	0
1.18137	573	0	0
1.18309	573	0	0
1.18382	573	0	0
1.18512	574	1	0
1.18963	574	1	0
1.19039	574	1	0
1.1907	574	2	0
1.19075	575	3	0
1.19116	577	2	0
1.19324	579	1	0
1.19357	579	1	0
1.19358	580	2	0
1.19523	582	1	0
1.19613	582	1	0
1.19698	582	1	0
1.19699	583	2	0
1.19703	585	1	0
1.19947	585	1	0
1.20346	585	1	0
1.20467	585	1	0
1.20565	586	1	0
1.20787	586	1	0
1.21424	586	1	0
1.21552	586	1	0
1.21566	586	1	0
1.21917	586	2	0
1.22411	586	2	0
1.22606	586	2	0
1.22649	586	2	0
1.22652	587	3	0
1.22669	589	2	0
1.22858	589	2	0
1.229	589	2	0
1.23015	589	2	0
1.23101	589	2	0
1.23296	589	2	0
1.23377	589	2	0
1.23436	589	2	0
1.23978	589	2	0
1.24051	590	2	0
1.24461	592	1	0
1.24635	592	1	0
1.24639	592	1	0
1.24862	592	1	0
1.24878	592	1	0
1.25641	592	1	0
1.25757	592	1	0
1.25811	593	2	0
1.268	595	1	0
1.27136	595	1	0
1.27145	595	1	0
1.27327	595	1	0
1.27353	596	1	0
1.27355	597	2	0
1.27373	597	2	0
1.27692	599	1	0
1.27921	599	1	0
1.27928	599	1	0
1.28001	599	1	0
1.28024	600	2	0
1.28139	602	1	0
1.28143	602	1	0
1.28302	602	1	0
1.28332	602	1	0
1.28341	603	2	0
1.2835	605	1	0
1.28356	605	1	0
1.28466	605	1	0
1.28473	605	2	0
1.28481	606	3	0
1.28502	608	2	0
1.28522	608	2	0
1.28695	610	1	0
1.28879	610	1	0
1.28947	611	1	0
1.29724	611	1	0
1.29919	612	1	0
1.30136	612	1	0
1.30308	612	1	0
1.3042	612	1	0
1.30497	612	1	0
1.30506	613	1	0
1.3153	613	1	0
1.31776	613	1	0
1.31796	613	1	0
1.31803	614	2	0
1.3192	616	1	0
1.32073	616	1	0
1.3209	617	2	0
1.32505	619	1	0
1.32615	619	1	0
1.32687	619	1	0
1.32856	619	1	0
1.32912	619	1	0
1.32953	620	2	0
1.33208	622	1	0
1.33212	622	1	0
1.33263	622	1	0
1.33336	622	1	0
1.34086	622	1	0
1.34109	623	1	0
1.34974	624	1	0
1.3503	624	1	0
1.35285	624	2	0
1.353	624	2	0
1.35427	624	2	0
1.3549	624	2	0
1.35531	625	3	0
1.35631	627	2	0
1.35744	627	2	0
1.35995	627	2	0
1.36009	628	3	0
1.36308	630	2	0
1.36646	632	2	0
1.36961	633	2	0
1.37049	633	2	0
1.37342	633	2	0
1.37348	633	2	0
1.37405	635	1	0
1.3781	636	1	0
1.37877	636	1	0
1.38126	636	1	0
1.38238	636	1	0
1.38258	636	1	0
1.38775	636	1	0
1.38867	636	1	0
1.3887	637	2	0
1.38913	639	1	0
1.39024	639	1	0
1.39109	639	1	0
1.39307	639	2	0
1.39329	639	2	0
1.39375	639	2	0
1.39376	640	3	0
1.39409	640	3	0
1.39414	642	2	0
1.39463	644	1	0
1.39798	644	1	0
1.40259	644	1	0
1.40268	644	1	0
1.40308	644	1	0
1.40327	645	2	0
1.40795	647	1	0
1.40809	647	1	0
1.41307	648	1	0
1.41557	648	1	0
1.41683	648	1	0
1.41687	648	3	0
1.41702	650	2	0
1.42107	652	1	0
1.42613	652	1	0
1.42714	652	1	0
1.42799	652	1	0
1.43046	652	1	0
1.43333	652	1	0
1.43565	652	1	0
1.43585	652	1	0
1.43668	652	1	0
1.43812	652	1	0
1.43953	652	1	0
1.43956	652	2	0
1.4396	653	3	0
1.4398	655	2	0
1.4402	656	2	0
1.44244	658	1	0
1.4444	658	1	0
1.44559	658	1	0
1.44764	659	1	0
1.45723	659	1	0
1.459	659	1	0
1.47398	659	1	0
1.47529	659	1	0
1.47657	661	1	0
1.48061	661	1	0
1.4807	661	1	0
1.48247	662	1	0
1.48627	662	1	0
1.48681	662	1	0
1.48702	662	1	0
1.48717	662	2	0
1.48744	663	3	0
1.48802	665	2	0
1.49245	667	1	0
1.49443	667	1	0
1.49726	667	1	0
1.4977	667	1	0
1.50192	667	1	0
1.50893	667	1	0
1.51726	667	1	0
1.51763	667	1	0
1.51793	667	1	0
1.51805	668	2	0
1.51809	668	2	0
1.52278	670	1	0
1.52497	670	1	0
1.52576	671	1	0
1.53282	671	1	0
1.5349	672	1	0
1.53735	673	1	0
1.53957	673	1	0
1.53978	673	1	0
1.54051	673	1	0
1.54128	673	1	0
1.54155	674	2	0
1.54353	676	1	0
1.54514	676	1	0
1.54708	676	1	0
1.54736	676	3	0
1.54818	678	2	0
1.5485	680	1	0
1.55211	680	1	0
1.55555	680	1	0
1.55829	681	1	0
1.55848	681	1	0
1.55874	681	1	0
1.55889	682	2	0
1.56324	684	1	0
1.56328	684	1	0
1.5634	684	2	0
1.56345	685	3	0
1.56391	687	2	0
1.56575	689	1	0
1.56647	689	1	0
1.56698	689	1	0
1.56875	689	1	0
1.56894	689	1	0
1.56902	689	1	0
1.56954	689	2	0
1.56955	690	3	0
1.56978	692	2	0
1.56985	692	2	0
1.57065	694	1	0
1.57099	695	2	0
1.57109	695	2	0
1.57271	697	1	0
1.57597	697	1	0
1.57618	697	1	0
1.59144	697	1	0
1.59221	697	1	0
1.59372	697	1	0
1.59434	697	2	0
1.59452	698	3	0
1.59472	700	2	0
1.5998	702	1	0
1.60102	702	1	0
1.60155	702	1	0
1.60189	703	2	0
1.60191	705	2	0
1.60775	707	1	0
1.61699	707	1	0
1.62223	707	1	0
1.62261	709	1	0
1.62303	710	1	0
1.6235	710	1	0
1.62362	710	3	0
1.62436	712	2	0
1.62846	714	1	0
1.63333	714	1	0
1.63777	715	1	0
1.63952	715	1	0
1.64428	716	1	0
1.64624	716	1	0
1.64721	717	1	0
1.64829	717	1	0
1.6501	717	1	0
1.66287	717	1	0
1.66754	717	1	0
1.66901	717	1	0
1.66929	717	1	0
1.67022	717	1	0
1.67032	717	3	0
1.67061	719	2	0
1.6785	721	1	0
1.68143	721	1	0
1.68473	721	1	0
1.68555	721	1	0
1.68904	721	1	0
1.68956	722	1	0
1.68958	722	1	0
1.68973	722	2	0
1.68985	722	2	0
1.6901	722	2	0
1.69012	723	3	0
1.69064	725	2	0
1.69204	727	1	0
1.69386	727	1	0
1.69901	727	1	0
1.69946	727	1	0
1.69982	728	1	0
1.7002	728	2	0
1.70021	728	2	0
1.70029	729	3	0
1.70053	731	2	0
1.70117	733	1	0
1.7034	733	1	0
1.70662	733	1	0
1.70672	733	1	0
1.70715	734	2	0
1.70754	735	2	0
1.70872	737	1	0
1.70889	737	1	0
1.71034	737	1	0
1.71739	737	1	0
1.71767	738	1	0
1.7236	738	1	0
1.72537	738	1	0
1.72774	738	1	0
1.72989	739	1	0
1.73064	739	1	0
1.73064	740	2	0
1.73124	742	1	0
1.73155	742	1	0
1.73308	742	1	0
1.73386	742	1	0
1.7339	743	2	0
1.73462	743	2	0
1.74286	745	1	0
1.74691	745	1	0
1.74714	745	1	0
1.74716	745	1	0
1.74744	745	1	0
1.74778	745	1	0
1.74835	745	1	0
1.74919	745	2	0
1.74965	745	2	0
1.75094	745	2	0
1.75095	746	3	0
1.75095	748	2	0
1.75101	750	1	0
1.75226	752	0	0
1.75446	752	0	0
1.76731	752	0	0
1.7736	752	0	0
1.7747	754	0	0
1.77474	754	0	0
1.77534	755	1	0
1.77908	757	0	0
1.78049	757	0	0
1.78173	757	0	0
1.78258	757	0	0
1.78265	758	1	0
1.7876	760	0	0
1.79308	760	0	0
1.79339	760	0	0
1.79357	761	1	0
1.79774	763	0	0
1.79792	763	0	0
1.79823	764	1	0
1.80168	766	0	0
1.80188	766	0	0
1.80652	767	0	0
1.80654	767	0	0
1.807	767	0	0
1.81474	767	0	0
1.815	767	0	0
1.81543	767	0	0
1.81643	767	0	0
1.81668	767	0	0
1.81776	767	0	0
1.81857	768	1	0
1.82002	770	0	0
1.8239	770	0	0
1.83226	770	0	0
1.83241	770	0	0
1.83352	770	0	0
1.83518	770	0	0
1.83566	770	0	0
1.83859	770	0	0
1.84425	770	0	0
1.85144	770	0	0
1.85869	770	0	0
1.85995	770	0	0
1.86075	770	0	0
1.86694	771	0	0
1.88029	771	0	0
1.88083	771	0	0
1.88085	771	0	0
1.88189	771	0	0
1.8823	771	0	0
1.88231	771	0	0
1.88264	771	2	0
1.88275	773	1	0
1.88325	774	1	0
1.88373	776	0	0
1.88422	776	0	0
1.88477	777	1	0
1.88751	779	0	0
1.89075	780	0	0
1.89159	780	0	0
1.89171	780	2	0
1.89182	781	2	0
1.89232	783	1	0
1.89509	785	0	0
1.90379	786	0	0
1.90447	786	0	0
1.90455	786	0	0
1.90604	786	0	0
1.9074	786	0	0
1.90935	787	0	0
1.9094	787	0	0
1.91803	787	0	0
1.92145	787	0	0
1.92217	787	0	0
1.92229	788	1	0
1.92557	790	0	0
1.92946	792	0	0
1.92992	792	0	0
1.92994	793	1	0
1.93536	795	0	0
1.93648	795	0	0
1.93986	795	0	0
1.94634	795	0	0
1.95693	795	0	0
1.95823	796	0	0
1.96451	796	0	0
1.96549	796	0	0
1.96668	796	0	0
1.96928	796	0	0
1.97201	796	0	0
1.97509	796	0	0
1.9755	797	1	0
1.98567	799	0	0
1.98594	801	0	0
1.9874	801	0	0
1.98918	801	0	0
1.99004	801	0	0
2.0026	801	0	0
2.00326	801	0	0
2.00329	802	1	0
2.01217	804	0	0
2.02505	804	0	0
2.0254	804	0	0
2.02791	804	0	0
2.02807	804	2	0
2.02807	806	1	0
2.02849	808	0	0
2.03455	808	0	0
2.03593	808	0	0
2.03608	809	1	0
2.04211	811	0	0
2.04441	811	0	0
2.04553	812	0	0
2.04559	813	0	0
2.04565	814	1	0
2.04653	814	1	0
2.04664	816	0	0
2.04819	816	0	0
2.05109	816	0	0
2.05511	816	0	0
2.05542	816	0	0
2.05549	817	1	0
2.05566	819	0	0
2.05654	819	0	0
2.05802	820	1	0
2.05842	822	0	0
2.05855	822	0	0
2.06007	822	1	0
2.06009	823	2	0
2.06071	825	1	0
2.0648	827	0	0
2.06584	827	0	0
2.06587	827	0	0
2.06597	828	1	0
2.06949	830	0	0
2.07885	831	0	0
2.08066	831	0	0
2.08373	832	0	0
2.08687	832	0	0
2.08751	832	0	0
2.11511	832	0	0
2.11983	832	0	0
2.12088	832	1	0
2.12095	833	2	0
2.12098	835	1	0
2.12641	837	0	0
2.12703	837	0	0
2.12801	837	0	0
2.12806	837	0	0
2.12893	837	1	0
2.12896	838	2	0
2.12901	840	1	0
2.12902	840	1	0
2.12969	842	0	0
2.13098	842	0	0
2.13285	842	0	0
2.13309	842	0	0
2.13392	842	2	0
2.13404	844	1	0
2.14439	846	0	0
2.14859	846	0	0
2.14912	846	0	0
2.15378	846	1	0
2.16139	847	1	0
2.16625	847	1	0
2.16722	847	1	0
2.17271	847	1	0
2.17984	848	1	0
2.18994	848	1	0
2.19026	848	1	0
2.19061	850	0	0
2.19082	851	1	0
2.19654	853	0	0
2.19762	853	0	0
2.20009	853	0	0
2.20214	853	0	0
2.20914	853	1	0
2.20996	853	1	0
2.21764	854	1	0
2.2183	854	1	0
2.21881	856	0	0
2.21993	857	0	0
2.22019	857	0	0
2.22062	858	1	0
2.22302	860	0	0
2.22312	860	0	0
2.22356	860	0	0
2.22567	860	1	0
2.22626	861	2	0
2.22658	863	1	0
2.22754	865	0	0
2.23035	866	0	0
2.24048	866	0	0
2.24175	866	0	0
2.24193	867	1	0
2.24244	869	0	0
2.24296	869	0	0
2.24763	869	0	0
2.25491	870	0	0
2.25564	870	0	0
2.25932	870	0	0
2.25961	870	0	0
2.26101	870	0	0
2.26155	871	1	0
2.26621	873	0	0
2.26855	873	0	0
2.27491	873	0	0
2.27534	873	0	0
2.28049	873	0	0
2.28069	873	0	0
2.28134	873	0	0
2.28252	874	1	0
2.28444	876	0	0
2.28942	876	0	0
2.29076	876	0	0
2.2928	876	0	0
2.29524	877	0	0
2.2954	878	1	0
2.29543	880	0	0
2.29727	880	0	0
2.29938	880	0	0
2.30285	881	0	0
2.3029	881	0	0
2.30297	881	2	0
2.30302	883	1	0
2.308	885	0	0
2.31889	885	0	0
2.31902	885	0	0
2.32324	885	0	0
2.32393	885	0	0
2.32427	886	1	0
2.32427	888	0	0
2.32504	888	0	0
2.32742	888	0	0
2.33232	888	0	0
2.33237	888	0	0
2.35098	888	0	0
2.35221	888	0	0
2.35238	889	1	0
2.36408	891	0	0
2.36521	891	0	0
2.36651	891	0	0
2.36702	891	0	0
2.36783	892	1	0
2.3689	894	0	0
2.36903	894	2	0
2.36971	896	1	0
2.37008	898	0	0
2.37012	899	1	0
2.37462	901	0	0
2.37709	901	0	0
2.37805	901	0	0
2.37853	901	0	0
2.37875	902	1	0
2.37945	904	0	0
2.38502	904	0	0
2.38849	906	0	0
2.38935	906	0	0
2.38955	906	0	0
2.38972	906	2	0
2.38982	908	2	0
2.39003	910	1	0
2.39006	910	1	0
2.39346	912	0	0
2.39773	912	0	0
2.40328	912	0	0
2.40605	913	0	0
2.40984	913	0	0
2.4112	913	0	0
2.41126	913	2	0
2.41135	915	1	0
2.41161	917	0	0
2.41198	917	0	0
2.41217	918	1	0
2.41302	920	0	0
2.42339	920	0	0
2.43045	922	0	0
2.43227	922	0	0
2.43777	923	0	0
2.43955	923	0	0
2.43959	924	1	0
2.44012	924	1	0
2.4446	926	0	0
2.45676	926	0	0
2.45815	926	0	0
2.45836	926	0	0
2.45935	926	1	0
2.4594	927	2	0
2.45943	929	1	0
2.4597	931	0	0
2.45992	931	2	0
2.45995	933	1	0
2.46691	935	0	0
2.46877	937	0	0
2.47486	937	0	0
2.47501	937	0	0
2.47507	938	0	0
2.47524	939	1	0
2.47632	941	0	0
2.47922	941	0	0
2.48079	942	0	0
2.48986	942	0	0
2.49494	942	0	0
2.49569	942	0	0
2.49595	943	1	0
2.51328	945	0	0
2.51393	945	0	0
2.51411	945	0	0
2.51461	946	1	0
2.52361	948	0	0
2.52477	948	0	0
2.52712	948	0	0
2.52765	948	0	0
2.52771	949	1	0
2.53008	951	0	0
2.53097	951	0	0
2.53247	951	0	0
2.53346	951	0	0
2.53443	952	1	0
2.53955	954	0	0
2.5416	954	0	0
2.5431	954	0	0
2.54319	954	2	0
2.54324	956	1	0
2.54327	958	1	0
2.56319	960	0	0
2.56715	960	0	0
2.56863	960	0	0
2.58475	960	0	0
2.58738	960	0	0
2.58962	960	0	0
2.59473	960	0	0
2.60061	960	0	0
2.60216	960	0	0
2.60303	960	1	0
2.60323	960	1	0
2.60345	961	2	0
2.60358	963	1	0
2.62492	965	0	0
2.63656	965	0	0
2.63841	965	0	0
2.63926	966	1	0
2.64535	968	0	0
2.64584	968	0	0
2.64603	969	1	0
2.66035	971	0	0
2.662	971	0	0
2.66395	971	0	0
2.66438	972	1	0
2.66468	974	0	0
2.6662	974	0	0
2.66985	975	0	0
2.673	975	0	0
2.67657	975	0	0
2.68231	975	0	0
2.69417	975	0	0
2.70574	975	0	0
2.71321	975	0	0
2.71585	975	0	0
2.71606	975	0	0
2.72753	975	0	0
2.72942	976	0	0
2.72959	976	0	0
2.7297	977	1	0
2.73898	979	0	0
2.73902	979	0	0
2.73912	979	2	0
2.73912	981	1	0
2.74149	983	0	0
2.75914	983	0	0
2.76035	983	0	0
2.76059	984	1	0
2.76287	986	0	0
2.77482	986	0	0
2.79395	986	0	0
2.80571	986	0	0
2.80877	986	0	0
2.80909	986	0	0
2.81053	986	0	0
2.8106	987	1	0
2.81313	989	0	0
2.81347	989	0	0
2.81359	990	1	0
2.81424	992	0	0
2.81522	993	0	0
2.82251	993	0	0
2.82494	993	0	0
2.8253	993	0	0
2.82552	994	1	0
2.82807	996	0	0
2.82913	996	0	0
2.82928	997	1	0
2.83165	999	0	0
2.8321	999	0	0
2.8323	1000	1	0
2.83413	1002	0	0
2.83487	1002	0	0
2.83491	1003	1	0
2.83757	1005	0	0
2.8419	1005	0	0
2.84628	1005	0	0
2.85382	1005	0	0
2.87559	1007	0	0
2.87781	1007	0	0
2.87819	1008	1	0
2.88236	1010	0	0
2.88668	1010	0	0
2.88679	1010	0	0
2.88696	1011	1	0
2.88835	1013	0	0
2.8902	1013	0	0
2.8904	1013	0	0
2.89045	1013	2	0
2.89058	1015	1	0
2.89691	1017	0	0
2.89743	1017	0	0
2.90014	1017	0	0
2.90127	1017	1	0
2.90234	1017	1	0
2.90271	1018	2	0
2.90306	1020	1	0
2.9054	1022	0	0
2.90796	1022	0	0
2.91379	1022	0	0
2.91431	1022	0	0
2.91446	1022	2	0
2.91472	1024	1	0
2.9166	1026	0	0
2.91699	1026	0	0
2.91781	1027	1	0
2.91865	1029	0	0
2.91874	1030	0	0
2.92738	1030	0	0
2.92872	1030	0	0
2.93493	1030	0	0
2.93502	1030	0	0
2.93534	1030	1	0
2.93638	1031	2	0
2.93644	1033	1	0
2.93891	1035	0	0
2.96029	1035	0	0
2.97342	1035	0	0
2.97786	1035	0	0
2.97898	1035	0	0
2.98924	1035	0	0
3.0011	1035	0	0
3.00447	1035	0	0
3.0059	1035	0	0
3.00644	1036	1	0
3.016	1038	0	0
3.01713	1038	0	0
3.01731	1038	0	0
3.01784	1038	0	0
3.01823	1039	1	0
3.01991	1041	0	0
3.0234	1041	0	0
3.03545	1041	0	0
3.03546	1041	0	0
3.03576	1042	1	0
3.03776	1044	0	0
3.03783	1044	0	0
3.03791	1045	1	0
3.04329	1047	0	0
3.04411	1048	0	0
3.04512	1048	0	0
3.04512	1049	1	0
3.05118	1051	0	0
3.05138	1051	0	0
3.0516	1052	1	0
3.0594	1054	0	0
3.06058	1054	0	0
3.0617	1054	1	0
3.06192	1055	2	0
3.06235	1057	1	0
3.07631	1059	0	0
3.07853	1060	0	0
3.08117	1060	0	0
3.09768	1060	0	0
3.09842	1060	0	0
3.099	1061	1	0
3.09924	1061	1	0
3.10005	1063	0	0
3.10041	1064	1	0
3.10361	1066	0	0
3.10649	1067	0	0
3.10803	1067	0	0
3.12017	1067	0	0
3.1242	1067	0	0
3.13494	1067	0	0
3.13572	1067	0	0
3.13609	1068	1	0
3.13759	1070	0	0
3.1464	1070	0	0
3.14752	1070	0	0
3.14775	1070	0	0
3.14782	1070	1	0
3.14797	1071	2	0
3.14798	1073	1	0
3.15078	1075	0	0
3.15147	1075	0	0
3.15152	1075	0	0
3.15244	1075	1	0
3.15253	1075	2	0
3.15282	1076	3	0
3.15286	1078	2	0
3.15373	1080	1	0
3.15404	1082	0	0
3.15588	1082	0	0
3.15988	1082	1	0
3.16038	1082	1	0
3.1612	1082	1	0
3.16207	1083	2	0
3.17037	1085	1	0
3.20104	1085	1	0
3.20154	1085	1	0
3.20483	1087	0	0
3.20508	1087	0	0
3.20536	1087	2	0
3.20615	1089	1	0
3.20823	1091	0	0
3.21482	1091	0	0
3.21482	1091	0	0
3.21564	1092	1	0
3.2302	1094	0	0
3.23575	1094	0	0
3.23677	1094	0	0
3.23688	1094	2	0
3.23702	1096	1	0
3.24135	1098	0	0
3.24202	1098	0	0
3.24206	1099	1	0
3.2451	1101	0	0
3.24548	1101	0	0
3.24759	1101	1	0
3.2479	1102	2	0
3.24842	1104	1	0
3.249	1106	0	0
3.26046	1106	0	0
3.26753	1106	0	0
3.26902	1106	0	0
3.26903	1107	1	0
3.27205	1109	0	0
3.27253	1109	0	0
3.27281	1110	1	0
3.28601	1112	0	0
3.28891	1112	0	0
3.30063	1112	0	0
3.30078	1112	0	0
3.30157	1113	1	0
3.3045	1115	0	0
3.30934	1115	0	0
3.30965	1116	1	0
3.31952	1118	0	0
3.32325	1118	0	0
3.32379	1118	0	0
3.32483	1118	1	0
3.32489	1119	2	0
3.32521	1121	1	0
3.32759	1123	0	0
3.34445	1123	0	0
3.34483	1123	0	0
3.34521	1123	0	0
3.3469	1123	1	0
3.34753	1123	1	0
3.34792	1124	2	0
3.3493	1126	1	0
3.35183	1126	1	0
3.35247	1126	1	0
3.35254	1128	0	0
3.35255	1128	2	0
3.35257	1130	1	0
3.36687	1132	0	0
3.36736	1132	0	0
3.36782	1133	1	0
3.37812	1135	0	0
3.37856	1135	0	0
3.38147	1135	0	0
3.38443	1135	0	0
3.38461	1135	0	0
3.40206	1135	1	0
3.40231	1135	1	0
3.40237	1136	2	0
3.40485	1138	1	0
3.41397	1138	1	0
3.41461	1138	1	0
3.41498	1138	1	0
3.41651	1140	0	0
3.41652	1141	1	0
3.41804	1143	0	0
3.41812	1143	0	0
3.41819	1144	1	0
3.42617	1146	0	0
3.42637	1146	0	0
3.42642	1146	0	0
3.42659	1147	1	0
3.42755	1149	0	0
3.42767	1149	2	0
3.42832	1151	1	0
3.42989	1153	0	0
3.43634	1153	0	0
3.43637	1153	0	0
3.43675	1154	1	0
3.44376	1156	0	0
3.44403	1156	0	0
3.44477	1157	1	0
3.4474	1159	0	0
3.45826	1159	0	0
3.45858	1159	0	0
3.45867	1160	1	0
3.46762	1162	0	0
3.46896	1162	0	0
3.47079	1163	1	0
3.47337	1163	1	0
3.47599	1165	1	0
3.48137	1165	1	0
3.5021	1165	1	0
3.50778	1165	1	0
3.50913	1165	1	0
3.51037	1165	1	0
3.51076	1166	2	0
3.51907	1168	1	0
3.51945	1168	1	0
3.5205	1168	2	0
3.52109	1169	3	0
3.52118	1171	2	0
3.52877	1173	1	0
3.53439	1173	1	0
3.53516	1173	1	0
3.53552	1174	2	0
3.53983	1176	1	0
3.54272	1176	1	0
3.54277	1177	2	0
3.54997	1179	1	0
3.55693	1179	1	0
3.55733	1179	1	0
3.55802	1180	2	0
3.56016	1182	1	0
3.5607	1182	1	0
3.56143	1183	2	0
3.5627	1185	1	0
3.57092	1185	1	0
3.57125	1186	1	0
3.57147	1186	1	0
3.57471	1186	1	0
3.5753	1187	2	0
3.57684	1189	1	0
3.57798	1189	1	0
3.57907	1189	2	0
3.57922	1190	3	0
3.57938	1192	2	0
3.58286	1194	1	0
3.5831	1194	1	0
3.58352	1195	2	0
3.58711	1197	1	0
3.58986	1197	1	0
3.59029	1197	1	0
3.59099	1197	3	0
3.59181	1199	2	0
3.60165	1201	1	0
3.60199	1201	1	0
3.60202	1201	3	0
3.60216	1203	2	0
3.60247	1205	1	0
3.60355	1205	1	0
3.60423	1205	1	0
3.60432	1206	2	0
3.60655	1208	1	0
3.60708	1208	3	0
3.60709	1210	2	0
3.61555	1212	1	0
3.61696	1212	1	0
3.617	1213	2	0
3.62093	1215	1	0
3.62255	1215	1	0
3.65594	1215	1	0
3.65961	1215	1	0
3.66114	1215	1	0
3.66128	1215	2	0
3.66128	1216	3	0
3.66135	1218	2	0
3.66186	1220	1	0
3.6626	1220	1	0
3.66268	1221	2	0
3.6668	1223	1	0
3.67087	1223	1	0
3.67107	1223	1	0
3.67151	1224	2	0
3.67195	1226	1	0
3.67428	1226	1	0
3.67719	1226	1	0
3.67731	1226	1	0
3.67761	1227	2	0
3.67761	1229	1	0
3.67765	1229	1	0
3.67766	1230	2	0
3.68272	1232	1	0
3.69	1232	1	0
3.69659	1232	1	0
3.69732	1232	1	0
3.69752	1232	3	0
3.69779	1234	2	0
3.71678	1236	1	0
3.71882	1236	1	0
3.7189	1237	2	0
3.75168	1239	1	0
3.75171	1239	1	0
3.75229	1240	2	0
3.75955	1242	1	0
3.76173	1242	1	0
3.77011	1242	1	0
3.77192	1242	1	0
3.77236	1243	2	0
3.80488	1245	1	0
3.81218	1245	1	0
3.81686	1245	1	0
3.83175	1245	1	0
3.83195	1245	1	0
3.83705	1245	2	0
3.83728	1246	3	0
3.8379	1248	2	0
3.85185	1250	1	0
3.85331	1250	1	0
3.85562	1250	2	0
3.85571	1251	3	0
3.85599	1253	2	0
3.85635	1253	2	0
3.85642	1255	1	0
3.85778	1255	1	0
3.85893	1255	2	0
3.85905	1255	3	0
3.85914	1255	4	0
3.85992	1257	3	0
3.85994	1257	4	0
3.86142	1259	3	0
3.86155	1259	4	0
3.86196	1261	3	0
3.86226	1262	4	0
3.86294	1264	3	0
3.86316	1266	2	0
3.89088	1268	1	0
3.89414	1268	1	0
3.90962	1268	1	0
3.91034	1268	1	0
3.91091	1269	2	0
3.9136	1271	1	0
3.92161	1271	1	0
3.92581	1271	1	0
3.92652	1271	1	0
3.92653	1271	3	0
3.92707	1273	2	0
3.93196	1275	1	0
3.95691	1277	1	0
3.98164	1277	1	0
3.98731	1277	1	0
3.99688	1277	1	0
3.99728	1277	1	0
3.9973	1278	2	0
3.99947	1280	1	0
3.99951	1280	1	0
3.99952	1280	1	0
4.00026	1281	2	0
4.00479	1283	1	0
4.01167	1283	1	0
4.02128	1283	1	0
4.05691	1284	1	0
4.05877	1284	1	0
4.05958	1284	1	0
4.05967	1285	2	0
4.09387	1287	1	0
4.0942	1287	1	0
4.09484	1287	1	0
4.09582	1288	2	0
4.11481	1290	1	0
4.11885	1290	1	0
4.13455	1290	1	0
4.13935	1290	1	0
4.15118	1290	1	0
4.15701	1290	1	0
4.15756	1290	1	0
4.16006	1290	2	0
4.1601	1291	3	0
4.16029	1293	2	0
4.16192	1295	1	0
4.16415	1295	1	0
4.16451	1295	1	0
4.16502	1295	2	0
4.1652	1296	3	0
4.1657	1298	2	0
4.17788	1300	1	0
4.17999	1300	1	0
4.18001	1300	3	0
4.18001	1302	2	0
4.20306	1304	1	0
4.20378	1304	1	0
4.20436	1305	2	0
4.20689	1307	1	0
4.227	1308	1	0
4.23671	1308	1	0
4.24041	1308	1	0
4.24818	1308	1	0
4.24913	1308	1	0
4.24915	1308	3	0
4.24916	1310	2	0
4.26578	1312	1	0
4.26597	1312	1	0
4.26653	1313	2	0
4.26815	1315	1	0
4.26996	1315	1	0
4.27084	1316	2	0
4.27412	1318	1	0
4.28012	1318	1	0
4.28452	1318	1	0
4.28569	1318	1	0
4.28577	1319	2	0
4.31381	1321	1	0
4.34458	1321	1	0
4.34771	1321	1	0
4.34796	1321	3	0
4.34892	1323	2	0
4.35631	1325	1	0
4.3567	1325	1	0
4.35769	1326	2	0
4.37987	1328	1	0
4.38247	1328	1	0
4.38299	1329	2	0
4.39858	1331	1	0
4.40063	1331	1	0
4.40388	1331	1	0
4.40567	1331	1	0
4.40589	1331	1	0
4.40623	1332	2	0
4.42415	1334	1	0
4.42954	1334	1	0
4.43118	1334	1	0
4.43191	1335	2	0
4.43474	1337	1	0
4.43519	1337	1	0
4.43537	1338	2	0
4.43728	1340	1	0
4.45091	1340	1	0
4.45107	1340	1	0
4.4512	1341	2	0
4.45267	1343	1	0
4.45532	1343	1	0
4.45565	1343	3	0
4.4559	1345	2	0
4.45645	1347	1	0
4.45764	1347	1	0
4.47808	1347	1	0
4.47853	1347	1	0
4.47942	1347	1	0
4.47952	1348	2	0
4.4892	1350	1	0
4.49079	1350	1	0
4.49084	1350	3	0
4.49231	1352	2	0
4.50403	1354	1	0
4.50434	1354	1	0
4.50446	1354	1	0
4.50456	1354	3	0
4.50562	1356	2	0
4.52383	1358	1	0
4.5336	1358	1	0
4.53412	1358	1	0
4.53415	1358	3	0
4.5342	1360	2	0
4.56325	1362	1	0
4.58171	1362	1	0
4.58329	1362	1	0
4.58545	1362	1	0
4.58664	1363	2	0
4.62175	1365	1	0
4.62196	1365	1	0
4.62249	1365	1	0
4.62264	1366	2	0
4.62284	1368	1	0
4.62291	1369	2	0
4.63756	1371	1	0
4.63796	1371	1	0
4.63808	1371	3	0
4.6382	1373	2	0
4.63855	1373	2	0
4.64904	1375	1	0
4.64984	1375	1	0
4.65006	1375	3	0
4.65024	1377	2	0
4.67721	1379	1	0
4.67789	1379	1	0
4.678	1380	2	0
4.68792	1382	1	0
4.69856	1382	1	0
4.70943	1382	1	0
4.70962	1382	1	0
4.70975	1383	2	0
4.72414	1385	1	0
4.72464	1385	1	0
4.72474	1385	2	0
4.72476	1386	3	0
4.72524	1388	2	0
4.74098	1390	1	0
4.75442	1390	1	0
4.79479	1390	1	0
4.798	1390	1	0
4.79916	1390	1	0
4.79931	1390	3	0
4.79935	1392	2	0
4.8233	1394	1	0
4.82412	1394	1	0
4.82436	1394	1	0
4.82437	1395	2	0
4.82444	1397	1	0
4.82453	1397	3	0
4.82455	1399	2	0
4.82728	1401	1	0
4.82775	1401	1	0
4.82879	1401	1	0
4.82885	1402	2	0
4.83113	1404	1	0
4.83127	1404	1	0
4.83168	1405	2	0
4.84414	1407	1	0
4.85635	1407	1	0
4.85833	1407	1	0
4.85839	1408	2	0
4.86539	1410	1	0
4.8657	1410	1	0
4.86753	1411	2	0
4.86914	1413	1	0
4.87471	1413	1	0
4.87482	1413	1	0
4.87527	1414	2	0
4.88349	1416	1	0
4.90063	1416	1	0
4.90247	1416	1	0
4.90416	1416	1	0
4.90554	1416	1	0
4.90572	1416	2	0
4.90574	1417	3	0
4.9064	1419	2	0
4.91261	1421	1	0
4.92918	1423	0	0
4.92934	1423	0	0
4.9301	1423	1	0
4.93054	1424	2	0
4.93099	1426	1	0
4.93373	1428	0	0
4.97005	1428	0	0
4.97162	1428	0	0
4.9718	1429	1	0
4.98058	1431	0	0
4.99847	1431	0	0
5.00984	1431	0	0
5.01521	1431	0	0
5.01676	1431	0	0
5.01779	1432	1	0
5.03421	1434	0	0
5.03919	1434	0	0
5.04035	1434	0	0
5.04063	1435	1	0
5.04091	1437	0	0
5.06681	1437	0	0
5.06704	1437	0	0
5.06724	1438	1	0
5.08818	1440	0	0
5.08894	1440	0	0
5.08901	1440	2	0
5.08901	1442	1	0
5.09756	1444	0	0
5.09873	1444	0	0
5.09891	1444	2	0
5.09979	1446	1	0
5.10748	1448	0	0
5.10807	1448	0	0
5.11688	1448	0	0
5.11694	1449	1	0
5.13603	1451	0	0
5.13786	1451	0	0
5.1381	1451	2	0
5.13956	1453	1	0
5.17238	1455	0	0
5.17335	1455	0	0
5.17345	1456	1	0
5.18095	1458	0	0
5.18212	1458	0	0
5.18309	1459	1	0
5.19515	1461	0	0
5.19927	1461	0	0
5.19955	1461	0	0
5.20062	1462	1	0
5.20816	1464	0	0
5.20938	1464	0	0
5.21064	1464	0	0
5.2117	1464	1	0
5.21225	1465	2	0
5.21236	1467	1	0
5.21396	1469	0	0
5.21428	1469	0	0
5.21514	1470	1	0
5.22431	1472	0	0
5.22516	1472	0	0
5.22692	1472	1	0
5.2272	1473	2	0
5.22746	1475	1	0
5.23869	1477	0	0
5.27776	1477	0	0
5.27834	1477	0	0
5.27907	1477	0	0
5.27945	1477	2	0
5.27954	1479	1	0
5.28144	1481	0	0
5.2824	1481	0	0
5.28303	1481	1	0
5.28308	1482	2	0
5.28339	1484	1	0
5.30037	1486	0	0
5.305	1486	0	0
5.30551	1486	0	0
5.30646	1486	0	0
5.30648	1486	0	0
5.30668	1487	1	0
5.30727	1489	0	0
5.3074	1490	1	0
5.33354	1492	0	0
5.34121	1492	0	0
5.41472	1492	0	0
5.41477	1492	0	0
5.41478	1492	2	0
5.41517	1494	1	0
5.42925	1496	0	0
5.46176	1496	0	0
5.4621	1496	0	0
5.46263	1496	0	0
5.46284	1497	1	0
5.47138	1499	0	0
5.47257	1499	0	0
5.47344	1499	1	0
5.47348	1500	2	0
5.47455	1502	1	0
5.50381	1504	0	0
5.5042	1504	0	0
5.50502	1505	1	0
5.5081	1507	0	0
5.51038	1507	0	0
5.52413	1507	0	0
5.54055	1507	0	0
5.56484	1507	0	0
5.56611	1507	0	0
5.56642	1508	1	0
5.56986	1510	0	0
5.58218	1510	0	0
5.58302	1510	0	0
5.58371	1511	1	0
5.58726	1513	0	0
5.59655	1513	0	0
5.63021	1513	0	0
5.70277	1513	0	0
5.70285	1513	0	0
5.70329	1513	1	0
5.70359	1514	2	0
5.70422	1516	1	0
5.7112	1518	0	0
5.73335	1518	0	0
5.73337	1518	0	0
5.73346	1519	1	0
5.82152	1521	0	0
5.84996	1521	0	0
5.89577	1523	0	0
5.94691	1523	0	0
5.94773	1523	0	0
5.9481	1523	2	0
5.94818	1525	1	0
5.96128	1527	0	0
5.96883	1527	0	0
5.96931	1527	0	0
5.96961	1527	2	0
5.97033	1529	1	0
5.99268	1531	0	0
5.99298	1531	0	0
5.99322	1531	0	0
5.99329	1532	1	0
6.01401	1534	0	0
6.04584	1534	0	0
6.04591	1534	0	0
6.04724	1535	1	0
6.06504	1537	0	0
6.06795	1537	0	0
6.06808	1538	1	0
6.08022	1540	0	0
6.08051	1540	0	0
6.08205	1540	1	0
6.08293	1541	2	0
6.08397	1543	1	0
6.11359	1545	0	0
6.11444	1545	0	0
6.11542	1546	1	0
6.11906	1548	0	0
6.11915	1548	0	0
6.11968	1549	1	0
6.12253	1551	0	0
6.12299	1551	0	0
6.12322	1551	2	0
6.12341	1553	1	0
6.12498	1555	0	0
6.13228	1555	0	0
6.15045	1555	0	0
6.1509	1555	0	0
6.151	1556	1	0
6.17723	1558	0	0
6.18363	1558	0	0
6.18367	1559	1	0
6.19558	1561	0	0
6.19589	1561	0	0
6.19603	1561	2	0
6.19616	1563	1	0
6.19706	1565	0	0
6.19918	1565	0	0
6.19944	1565	1	0
6.1995	1566	2	0
6.20018	1568	1	0
6.22146	1570	0	0
6.22171	1570	0	0
6.22239	1571	1	0
6.22951	1573	0	0
6.23021	1573	0	0
6.23022	1573	2	0
6.23022	1575	1	0
6.32284	1577	0	0
6.32321	1577	0	0
6.32442	1577	1	0
6.3251	1578	2	0
6.32517	1580	1	0
6.36581	1582	0	0
6.36689	1582	0	0
6.367	1583	1	0
6.3674	1583	1	0
6.36811	1585	0	0
6.36836	1586	1	0
6.37772	1588	0	0
6.37801	1588	0	0
6.37857	1589	1	0
6.40322	1591	0	0
6.40455	1591	0	0
6.40506	1592	1	0
6.43013	1594	0	0
6.4608	1594	0	0
6.46101	1594	0	0
6.46129	1595	1	0
6.47154	1597	0	0
6.51525	1597	0	0
6.51578	1597	0	0
6.51595	1597	1	0
6.51596	1598	2	0
6.51615	1600	1	0
6.53508	1602	0	0
6.56099	1602	0	0
6.56231	1602	0	0
6.56252	1602	0	0
6.56259	1603	1	0
6.57719	1605	0	0
6.57912	1605	0	0
6.58008	1606	1	0
6.60753	1608	0	0
6.61104	1608	0	0
6.61139	1608	0	0
6.6117	1609	1	0
6.65577	1611	0	0
6.65579	1611	0	0
6.65604	1611	0	0
6.65606	1611	2	0
6.65672	1612	3	0
6.65678	1614	2	0
6.6578	1616	1	0
6.66105	1618	0	0
6.66143	1618	0	0
6.66195	1618	0	0
6.6621	1619	1	0
6.66223	1619	1	0
6.6636	1621	0	0
6.66458	1622	1	0
6.68997	1624	0	0
6.69669	1624	0	0
6.72396	1624	0	0
6.72397	1624	0	0
6.72399	1625	1	0
6.73932	1627	0	0
6.74044	1627	0	0
6.74058	1627	2	0
6.7406	1629	1	0
6.77791	1631	0	0
6.77836	1631	0	0
6.77849	1632	1	0
6.80475	1634	0	0
6.80481	1634	0	0
6.8055	1635	1	0
6.81046	1637	0	0
6.84828	1637	0	0
6.84888	1637	0	0
6.84893	1638	1	0
6.85186	1640	0	0
6.85222	1640	0	0
6.85254	1641	1	0
6.85685	1643	0	0
6.86048	1643	0	0
6.86067	1643	2	0
6.86124	1645	1	0
6.89253	1647	0	0
6.93421	1647	0	0
7.02569	1647	0	0
7.0313	1647	0	0
7.03243	1647	0	0
7.03427	1648	1	0
7.04101	1650	0	0
7.04192	1650	0	0
7.04194	1650	2	0
7.04258	1652	1	0
7.04555	1654	0	0
7.04651	1654	0	0
7.04657	1654	2	0
7.04698	1656	1	0
7.05397	1658	0	0
7.05425	1658	0	0
7.05453	1658	1	0
7.05494	1659	2	0
7.05512	1661	1	0
7.05576	1663	0	0
7.05666	1663	0	0
7.11773	1663	0	0
7.11868	1663	0	0
7.12292	1663	1	0
7.12298	1664	2	0
7.12354	1666	1	0
7.15476	1668	0	0
7.15554	1668	0	0
7.15622	1669	1	0
7.19216	1671	0	0
7.19225	1671	0	0
7.19254	1671	2	0
7.19265	1673	1	0
7.20012	1675	0	0
7.20384	1675	0	0
7.204	1675	2	0
7.20407	1677	1	0
7.21166	1679	0	0
7.21201	1679	0	0
7.21217	1680	1	0
7.21637	1682	0	0
7.21715	1682	0	0
7.21733	1682	2	0
7.21766	1684	1	0
7.2309	1686	0	0
7.23654	1686	0	0
7.23665	1687	1	0
7.27565	1689	0	0
7.31176	1689	0	0
7.31259	1689	0	0
7.31298	1690	1	0
7.33571	1692	0	0
7.33825	1692	0	0
7.33835	1692	2	0
7.33874	1694	1	0
7.3702	1696	0	0
7.37787	1696	0	0
7.38006	1696	0	0
7.38037	1696	2	0
7.38084	1698	1	0
7.41704	1700	0	0
7.42008	1700	0	0
7.42027	1701	1	0
7.42109	1703	0	0
7.42121	1703	0	0
7.4213	1704	1	0
7.42773	1706	0	0
7.42775	1706	0	0
7.42913	1706	1	0
7.42928	1707	2	0
7.43068	1709	1	0
7.45527	1711	0	0
7.48591	1711	0	0
7.48726	1711	0	0
7.48846	1711	0	0
7.4887	1712	1	0
7.49479	1714	0	0
7.49506	1714	0	0
7.49534	1714	2	0
7.49624	1716	1	0
7.50575	1718	0	0
7.50654	1718	0	0
7.52589	1719	1	0
7.52622	1719	1	0
7.52755	1719	2	0
7.52766	1720	3	0
7.5278	1722	2	0
7.59018	1724	1	0
7.5905	1724	1	0
7.59179	1725	2	0
7.59577	1727	1	0
7.59584	1727	1	0
7.59596	1727	3	0
7.59628	1729	2	0
7.61177	1731	1	0
7.65059	1731	1	0
7.65517	1731	1	0
7.69487	1731	1	0
7.70614	1731	1	0
7.71715	1731	1	0
7.73753	1731	1	0
7.75173	1731	1	0
7.75516	1731	1	0
7.75519	1731	3	0
7.75531	1733	2	0
7.78075	1735	1	0
7.78108	1735	1	0
7.78115	1736	2	0
7.79322	1738	1	0
7.81441	1738	1	0
7.82095	1738	1	0
7.82712	1738	1	0
7.82811	1738	1	0
7.82836	1739	2	0
7.83991	1741	1	0
7.85272	1741	1	0
7.85301	1741	1	0
7.85307	1741	3	0
7.85538	1743	2	0
7.8564	1745	1	0
7.85759	1745	1	0
7.85821	1746	2	0
7.86452	1748	1	0
7.86556	1748	1	0
7.87137	1748	2	0
7.87143	1749	3	0
7.87147	1751	2	0
7.87855	1753	1	0
7.88214	1753	1	0
7.90346	1753	1	0
7.90389	1753	1	0
7.90424	1754	2	0
7.96144	1756	1	0
8.05647	1756	1	0
8.05686	1756	1	0
8.05769	1756	2	0
8.05772	1757	3	0
8.05853	1759	2	0
8.06321	1761	1	0
8.06428	1761	1	0
8.06473	1762	2	0
8.06745	1764	1	0
8.06758	1764	1	0
8.0677	1765	2	0
8.07249	1767	1	0
8.07504	1767	1	0
8.07533	1767	1	0
8.07606	1768	2	0
8.0761	1768	4	0
8.07614	1770	3	0
8.07619	1772	2	0
8.08372	1774	1	0
8.08443	1774	1	0
8.08443	1775	2	0
8.09902	1777	1	0
8.09939	1777	1	0
8.09966	1778	2	0
8.2654	1780	1	0
8.26667	1780	1	0
8.26706	1781	2	0
8.30593	1783	1	0
8.31194	1783	1	0
8.31213	1784	2	0
8.31526	1786	1	0
8.31528	1786	1	0
8.31548	1787	2	0
8.34134	1789	1	0
8.34139	1789	1	0
8.34209	1789	2	0
8.34209	1790	3	0
8.3433	1792	2	0
8.35708	1794	1	0
8.36043	1794	1	0
8.36047	1794	1	0
8.36075	1795	2	0
8.36081	1796	3	0
8.36107	1798	2	0
8.37465	1800	1	0
8.37484	1800	1	0
8.37631	1801	2	0
8.41285	1803	1	0
8.41702	1803	1	0
8.41749	1804	2	0
8.47797	1806	1	0
8.47888	1806	1	0
8.47888	1806	2	0
8.47894	1807	3	0
8.47898	1809	2	0
8.52084	1811	1	0
8.52399	1811	1	0
8.52543	1811	1	0
8.52563	1811	2	0
8.52572	1812	3	0
8.52672	1814	2	0
8.53855	1816	1	0
8.53934	1816	1	0
8.5396	1816	3	0
8.53996	1818	2	0
8.55393	1820	1	0
8.55398	1820	1	0
8.55445	1820	2	0
8.55481	1821	3	0
8.55557	1823	2	0
8.5866	1825	1	0
8.6089	1825	1	0
8.69004	1825	1	0
8.69047	1825	1	0
8.69103	1826	2	0
8.69917	1828	1	0
8.70027	1828	1	0
8.70032	1829	2	0
8.71124	1831	1	0
8.71176	1831	1	0
8.71224	1832	2	0
8.72149	1834	1	0
8.72733	1834	1	0
8.72745	1834	3	0
8.7275	1836	2	0
8.74848	1838	1	0
8.7616	1840	0	0
8.82716	1840	0	0
8.83743	1840	0	0
8.83824	1840	0	0
8.83882	1841	1	0
8.84985	1843	0	0
8.85086	1843	0	0
8.85099	1844	1	0
8.86347	1846	0	0
8.86405	1846	0	0
8.86479	1847	1	0
8.86654	1849	0	0
8.89713	1849	0	0
8.89746	1849	0	0
8.8978	1849	2	0
8.89804	1851	1	0
8.91053	1853	0	0
8.91156	1853	0	0
8.91182	1854	1	0
8.9282	1856	0	0
8.92997	1856	0	0
8.92998	1857	1	0
8.95002	1859	0	0
8.98907	1859	0	0
8.99056	1859	0	0
8.99096	1860	1	0
9.02521	1862	0	0
9.02626	1862	0	0
9.02645	1863	1	0
9.10265	1865	0	0
9.10317	1865	0	0
9.10319	1865	2	0
9.10319	1867	1	0
9.12065	1869	0	0
9.13079	1869	0	0
9.13089	1869	0	0
9.13124	1869	1	0
9.13138	1870	2	0
9.13172	1872	1	0
9.18767	1874	0	0
9.18786	1874	0	0
9.18863	1875	1	0
9.20531	1877	0	0
9.20537	1877	0	0
9.20568	1877	2	0
9.20597	1879	1	0
9.21272	1881	0	0
9.22299	1881	0	0
9.22364	1881	0	0
9.22366	1882	1	0
9.22567	1884	0	0
9.30469	1884	0	0
9.30609	1884	0	0
9.30633	1885	1	0
9.33304	1887	0	0
9.33559	1887	0	0
9.33574	1887	2	0
9.33676	1889	1	0
9.45216	1891	0	0
9.4798	1891	0	0
9.48045	1891	0	0
9.48066	1891	2	0
9.48089	1893	1	0
9.51355	1895	0	0
9.61003	1895	0	0
9.61117	1895	0	0
9.61118	1895	2	0
9.61169	1897	1	0
9.62773	1899	0	0
9.62779	1899	0	0
9.62834	1900	1	0
9.66874	1902	0	0
9.6722	1902	0	0
9.67239	1902	0	0
9.67242	1902	2	0
9.67334	1904	1	0
9.70688	1906	0	0
9.75304	1906	0	0
9.75322	1906	0	0
9.7544	1906	1	0
9.75492	1907	2	0
9.75511	1909	1	0
9.75664	1911	0	0
9.75732	1911	0	0
9.75761	1912	1	0
9.77366	1914	0	0
9.77401	1914	0	0
9.77402	1914	2	0
9.77402	1916	1	0
9.77553	1918	0	0
9.80855	1918	0	0
9.82803	1918	0	0
9.83047	1918	0	0
9.8307	1918	1	0
9.83074	1919	2	0
9.83077	1921	1	0
9.91108	1923	0	0
9.91217	1923	0	0
9.9122	1923	2	0
9.91265	1925	1	0
9.93064	1927	0	0
9.93176	1927	0	0
9.9318	1928	1	0
9.93848	1930	0	0
9.93858	1930	0	0
9.94017	1931	1	0
9.97852	1933	0	0
9.97999	1933	0	0
9.98001	1934	1	0
9.98465	1936	0	0
9.98531	1936	0	0
10.0171	1937	1	0
10.019	1937	1	0
10.0192	1937	3	0
10.0192	1939	2	0
10.0337	1941	1	0
10.0362	1941	1	0
10.0371	1942	2	0
10.1429	1944	1	0
10.1434	1944	1	0
10.1439	1945	2	0
10.1647	1947	1	0
10.2342	1947	1	0
10.2347	1947	1	0
10.2348	1948	2	0
10.2667	1950	1	0
10.2679	1950	1	0
10.2679	1950	3	0
10.2688	1952	2	0
10.4595	1954	1	0
10.4613	1954	1	0
10.4614	1955	2	0
10.5863	1957	1	0
10.5989	1959	0	0
10.5996	1959	0	0
10.6001	1959	2	0
10.6007	1961	1	0
10.683	1963	0	0
10.6843	1963	0	0
10.7313	1963	1	0
10.7314	1963	1	0
10.7316	1963	3	0
10.7317	1965	2	0
10.7319	1967	1	0
10.7375	1969	0	0
10.7379	1969	0	0
10.7384	1970	1	0
10.9417	1972	0	0
10.942	1972	0	0
10.9424	1973	1	0
10.9741	1975	0	0
10.9746	1975	0	0
10.9748	1976	1	0
11.0611	1978	0	0
11.0615	1978	0	0
11.062	1979	1	0
11.0808	1981	0	0
11.0814	1981	0	0
11.0814	1981	2	0
11.0815	1983	1	0
11.2844	1985	0	0
11.2854	1985	0	0
11.2888	1985	1	0
11.2916	1985	2	0
11.292	1985	3	0
11.294	1987	2	0
11.2944	1987	3	0
11.2953	1989	2	0
11.2955	1989	3	0
11.2963	1991	2	0
11.2967	1991	3	0
11.2975	1993	2	0
11.2976	1993	3	0
11.3013	1995	2	0
11.3018	1995	3	0
11.3024	1997	2	0
11.3045	1997	2	0
11.3049	1997	3	0
11.3054	1999	2	0
11.3065	1999	2	0
11.3068	2000	3	0
11.3097	2002	2	0
11.31	2002	3	0
11.3105	2004	2	0
11.3109	2004	3	0
11.311	2004	4	0
11.3112	2006	3	0
11.3112	2008	2	0
11.3118	2010	1	0
11.327	2012	0	0
11.3272	2012	0	0
11.3276	2013	1	0
11.3359	2015	0	0
11.4155	2015	0	0
11.4486	2015	0	0
11.4488	2015	0	0
11.4488	2015	1	0
11.4488	2016	2	0
11.4502	2018	1	0
11.4551	2020	0	0
11.4559	2020	0	0
11.4562	2020	2	0
11.4565	2022	1	0
11.4812	2024	0	0
11.4813	2024	0	0
11.4839	2024	1	0
11.484	2025	2	0
11.4852	2027	1	0
11.5847	2029	0	0
11.5872	2029	0	0
11.5874	2029	2	0
11.5886	2031	1	0
11.7277	2033	0	0
11.728	2033	0	0
11.7281	2033	2	0
11.7285	2035	1	0
11.7872	2037	0	0
11.7873	2037	0	0
11.7878	2037	1	0
11.7879	2038	2	0
11.7884	2040	1	0
11.8734	2042	0	0
11.8734	2042	0	0
11.8748	2043	1	0
11.8952	2045	0	0
11.8965	2045	0	0
11.8973	2045	2	0
11.972	2047	1	0
11.9726	2047	1	0
11.9727	2048	2	0
12.0867	2050	1	0
12.0888	2050	1	0
12.0888	2050	3	0
12.091	2052	2	0
12.1004	2054	1	0
12.1005	2054	1	0
12.1138	2055	2	0
12.2785	2055	2	0
12.2786	2055	2	0
12.2793	2055	4	0
12.2794	2057	3	0
12.3362	2059	2	0
12.3366	2059	2	0
12.3366	2059	4	0
12.3367	2061	3	0
12.3531	2063	2	0
12.3539	2063	2	0
12.354	2063	4	0
12.3543	2065	3	0
12.4	2067	2	0
12.4304	2067	2	0
12.4305	2067	2	0
12.4306	2067	4	0
12.4306	2069	3	0
12.5997	2071	2	0
12.5999	2071	2	0
12.6	2072	3	0
12.6401	2074	2	0
12.6418	2074	2	0
12.6424	2074	4	0
12.7513	2076	3	0
12.7547	2076	3	0
12.7548	2077	4	0
12.7562	2079	3	0
12.7583	2079	3	0
12.7585	2080	4	0
12.7994	2082	3	0
12.7995	2082	3	0
12.8	2082	5	0
12.8003	2084	4	0
12.8452	2086	3	0
12.8455	2086	3	0
12.8457	2087	4	0
12.8656	2089	3	0
12.8661	2089	3	0
12.8677	2090	4	0
12.9311	2092	3	0
12.9945	2094	2	0
12.9952	2094	2	0
12.9956	2095	3	0
13.159	2097	2	0
13.1616	2097	2	0
13.1617	2098	3	0
13.1875	2100	2	0
13.2169	2100	2	0
13.2193	2100	2	0
13.2196	2100	4	0
13.2204	2102	3	0
13.2748	2104	2	0
13.3359	2104	2	0
13.3365	2104	2	0
13.3366	2104	4	0
13.3372	2106	3	0
13.3544	2108	2	0
13.3582	2108	2	0
13.3582	2109	3	0
13.4853	2111	2	0
13.7523	2111	2	0
13.7524	2111	2	0
13.7535	2111	4	0
13.7545	2113	3	0
13.7608	2115	2	0
13.7638	2115	2	0
13.7639	2115	4	0
13.7642	2117	3	0
13.825	2119	2	0
13.8271	2119	2	0
13.8275	2119	3	0
13.8277	2120	4	0
13.829	2122	3	0
13.8348	2124	2	0
13.835	2124	2	0
13.835	2124	4	0
13.8353	2126	3	0
14.2555	2128	2	0
14.2573	2128	2	0
14.2581	2128	4	0
14.2583	2130	3	0
14.2891	2132	2	0
14.2903	2132	2	0
14.2905	2132	4	0
14.2906	2134	3	0
14.3022	2136	2	0
14.3447	2136	2	0
14.3448	2136	2	0
14.3451	2137	3	0
14.4668	2139	2	0
14.6369	2139	2	0
14.6384	2139	2	0
14.6387	2139	4	0
14.6393	2141	3	0
14.6774	2143	2	0
14.6801	2143	2	0
14.6805	2144	3	0
14.7548	2146	2	0
14.7561	2146	2	0
14.7564	2146	4	0
14.7565	2148	3	0
14.8024	2150	2	0
14.8032	2150	2	0
14.8032	2151	3	0
14.9619	2153	2	0
14.9625	2153	2	0
14.9842	2154	3	0
14.9845	2154	3	0
14.9848	2154	5	0
14.985	2156	4	0
15.0594	2158	3	0
15.0607	2158	3	0
15.0608	2158	5	0
15.0614	2160	4	0
15.2503	2162	3	0
15.2515	2162	3	0
15.2517	2162	5	0
15.2519	2164	4	0
15.2733	2166	3	0
15.2735	2166	3	0
15.2739	2167	4	0
15.5907	2169	3	0
15.5909	2169	3	0
15.5913	2170	4	0
15.8744	2172	3	0
15.8745	2172	3	0
15.8746	2172	5	0
15.8749	2174	4	0
15.9308	2176	3	0
15.9334	2176	3	0
15.9337	2176	5	0
15.9342	2178	4	0
15.9763	2180	3	0
15.9769	2180	3	0
15.9773	2180	5	0
15.9774	2182	4	0
16.2174	2184	3	0
16.6304	2186	2	0
16.6307	2186	2	0
16.6705	2187	3	0
16.6724	2187	3	0
16.6724	2188	4	0
16.6738	2190	3	0
16.6764	2190	3	0
16.6778	2190	4	0
16.678	2191	5	0
16.6785	2193	4	0
16.6999	2195	3	0
16.7023	2195	3	0
16.7028	2196	4	0
16.9944	2198	3	0
16.9952	2198	3	0
16.9959	2199	4	0
17.3833	2201	3	0
17.385	2201	3	0
17.385	2201	5	0
17.3854	2203	4	0
17.4301	2205	3	0
17.6591	2205	3	0
17.6595	2205	3	0
17.6595	2205	5	0
17.6595	2207	4	0
17.8734	2209	3	0
17.877	2209	3	0
18.0997	2209	4	0
18.0998	2209	4	0
18.1026	2211	3	0
18.1027	2211	5	0
18.1034	2213	4	0
18.1556	2215	3	0
18.1556	2215	3	0
18.1557	2216	4	0
18.1791	2218	3	0
18.3398	2218	3	0
18.3405	2218	3	0
18.3406	2218	5	0
18.341	2220	4	0
18.491	2222	3	0
18.4921	2222	3	0
18.4925	2222	4	0
18.4925	2223	5	0
18.4932	2225	4	0
18.5361	2227	3	0
18.6245	2229	2	0
18.6273	2229	2	0
18.6281	2229	4	0
18.6283	2231	3	0
18.7154	2233	2	0
18.809	2235	1	0
18.8095	2235	1	0
18.8097	2236	2	0
18.8558	2238	1	0
18.8569	2238	1	0
18.8575	2238	3	0
18.858	2240	2	0
19.2465	2242	1	0
19.2481	2242	1	0
19.2486	2243	2	0
19.2913	2245	1	0
19.6385	2245	1	0
19.6386	2245	1	0
19.6387	2245	3	0
19.639	2247	2	0
19.7008	2249	1	0
19.7024	2249	1	0
19.7025	2249	3	0
19.7034	2251	2	0
20.0924	2253	1	0
20.0949	2253	1	0
20.0951	2254	2	0
20.312	2256	1	0
20.3135	2256	1	0
20.3135	2256	3	0
20.3136	2258	2	0
20.3534	2260	1	0
20.3542	2260	1	0
21.1018	2260	2	0
21.1021	2260	2	0
21.1025	2262	1	0
21.1026	2263	2	0
21.3007	2265	1	0
21.3021	2265	1	0
21.3022	2265	3	0
21.3023	2267	2	0
21.3191	2269	1	0
21.6006	2271	0	0
21.6027	2271	0	0
21.6028	2271	2	0
21.603	2273	1	0
21.9933	2275	0	0
21.9934	2275	0	0
21.9944	2275	2	0
21.9948	2277	1	0
22.0354	2279	0	0
22.0358	2279	0	0
22.0359	2279	2	0
22.0367	2281	1	0
22.1585	2283	0	0
22.1591	2283	0	0
22.1594	2283	2	0
22.1609	2285	1	0
22.2336	2287	0	0
22.2358	2287	0	0
22.2358	2287	2	0
22.2358	2289	1	0
22.7126	2291	0	0
22.7717	2291	0	0
22.7738	2291	0	0
22.7739	2291	2	0
22.7741	2293	1	0
22.8957	2295	0	0
22.8964	2295	0	0
22.8964	2295	2	0
22.8967	2297	1	0
22.9308	2299	0	0
22.931	2299	0	0
22.9311	2299	2	0
22.9313	2301	1	0
22.9416	2303	0	0
23.008	2303	0	0
23.0095	2303	0	0
23.0096	2303	2	0
23.0096	2305	1	0
23.2765	2307	0	0
23.277	2307	0	0
24.0634	2308	1	0
24.1389	2310	0	0
24.1403	2310	0	0
24.298	2311	1	0
24.2994	2311	1	0
24.3012	2311	2	0
24.3014	2311	3	0
24.3021	2313	2	0
24.3076	2315	1	0
24.3083	2315	1	0
24.3085	2316	2	0
24.4541	2318	1	0
24.4546	2318	1	0
24.4549	2318	3	0
24.4552	2320	2	0
25.2182	2322	1	0
25.2189	2322	1	0
25.2195	2322	3	0
25.2196	2324	2	0
25.8104	2326	1	0
25.8118	2326	1	0
25.812	2326	3	0
25.8128	2328	2	0
25.9359	2330	1	0
26.0129	2332	0	0
26.0159	2332	0	0
26.0165	2332	2	0
26.0169	2334	1	0
26.0573	2336	0	0
26.0582	2336	0	0
26.0582	2336	2	0
26.0585	2338	1	0
26.2853	2340	0	0
26.2866	2340	0	0
26.2874	2340	2	0
26.2878	2342	1	0
26.7847	2344	0	0
26.8598	2344	0	0
26.8602	2344	0	0
27.0905	2345	1	0
27.092	2345	1	0
27.0921	2345	3	0
27.0926	2347	2	0
27.1979	2349	1	0
27.5079	2349	1	0
27.5103	2349	1	0
27.5104	2349	3	0
27.5105	2351	2	0
27.7369	2353	1	0
27.7369	2353	1	0
27.7375	2354	2	0
27.8268	2356	1	0
28.2323	2358	0	0
28.2328	2358	0	0
28.2329	2358	2	0
28.2334	2360	1	0
28.4744	2362	0	0
28.4746	2362	0	0
28.4748	2362	2	0
28.4749	2364	1	0
28.8579	2366	0	0
28.8596	2366	0	0
28.8601	2367	1	0
29.5095	2369	0	0
29.51	2369	0	0
29.5103	2369	2	0
29.5114	2371	1	0
29.9052	2373	0	0
29.906	2373	0	0
