6.99083e-09	0	0	0
1.7132e-08	0	0	0
2.26812e-08	0	0	0
3.97722e-08	0	0	0
7.23322e-08	0	0	0
8.48342e-08	0	0	0
9.14055e-08	0	0	0
1.03188e-07	0	0	0
1.1419e-07	0	0	0
1.26906e-07	0	0	0
1.3163e-07	0	0	0
1.39565e-07	0	0	0
2.00092e-07	0	0	0
2.42525e-07	0	0	0
2.50962e-07	0	0	0
3.10167e-07	0	0	0
3.18012e-07	0	0	0
3.20869e-07	0	0	0
9.30615e-07	0	0	0
9.39247e-07	0	0	0
1.05435e-06	0	0	0
1.34578e-06	0	0	0
1.48031e-06	0	0	0
1.99472e-06	0	0	0
2.09001e-06	0	0	0
2.21597e-06	0	0	0
2.74951e-06	0	0	0
2.84277e-06	0	0	0
3.15955e-06	0	0	0
3.19089e-06	0	0	0
3.46301e-06	0	0	0
3.98073e-06	0	0	0
4.08682e-06	0	0	0
4.23327e-06	0	0	0
4.50594e-06	0	0	0
4.87924e-06	0	0	0
5.67311e-06	0	0	0
5.75146e-06	0	0	0
6.03147e-06	0	0	0
6.64159e-06	0	0	0
6.69558e-06	0	0	0
7.29465e-06	0	0	0
7.51639e-06	0	0	0
8.25817e-06	0	0	0
8.36466e-06	0	0	0
8.46001e-06	0	0	0
8.55234e-06	0	0	0
8.88706e-06	0	0	0
9.51651e-06	0	0	0
1.04008e-05	0	0	0
1.07012e-05	0	0	0
1.11145e-05	0	0	0
1.12259e-05	0	0	0
1.18294e-05	0	0	0
1.24162e-05	0	0	0
1.32724e-05	0	0	0
1.32853e-05	0	0	0
1.40072e-05	0	0	0
1.41945e-05	0	0	0
1.42757e-05	0	0	0
1.47004e-05	0	0	0
1.49496e-05	0	0	0
1.49759e-05	0	0	0
1.54232e-05	0	0	0
1.61427e-05	0	0	0
1.65061e-05	0	0	0
1.68081e-05	0	0	0
1.70158e-05	0	0	0
1.71927e-05	0	0	0
1.74666e-05	0	0	0
1.76264e-05	0	0	0
1.80274e-05	0	0	0
1.88234e-05	0	0	0
1.89112e-05	0	0	0
1.92952e-05	0	0	0
2.01037e-05	0	0	0
2.01486e-05	0	0	0
2.05229e-05	0	0	0
2.05805e-05	0	0	0
2.06186e-05	0	0	0
2.06892e-05	0	0	0
2.08545e-05	0	0	0
2.10071e-05	0	0	0
2.11453e-05	0	0	0
2.23397e-05	0	0	0
2.26511e-05	0	0	0
2.31337e-05	0	0	0
2.36637e-05	0	0	0
2.43116e-05	0	0	0
2.44061e-05	0	0	0
2.54073e-05	0	0	0
2.57555e-05	0	0	0
2.6015e-05	0	0	0
2.64234e-05	0	0	0
2.64649e-05	0	0	0
2.64839e-05	0	0	0
2.65199e-05	0	0	0
2.66162e-05	0	0	0
2.68605e-05	0	0	0
2.72117e-05	0	0	0
2.80468e-05	0	0	0
2.85744e-05	0	0	0
2.87316e-05	0	0	0
2.9011e-05	0	0	0
2.90887e-05	0	0	0
2.91479e-05	0	0	0
2.9295e-05	0	0	0
2.93771e-05	0	0	0
2.98651e-05	0	0	0
2.99334e-05	0	0	0
3.04945e-05	0	0	0
3.08655e-05	0	0	0
3.09489e-05	0	0	0
3.10639e-05	0	0	0
3.17489e-05	0	0	0
3.33241e-05	0	0	0
3.49098e-05	0	0	0
3.5282e-05	0	0	0
3.62419e-05	0	0	0
3.63387e-05	0	0	0
3.70616e-05	0	0	0
3.83311e-05	0	0	0
3.85698e-05	0	0	0
3.88231e-05	0	0	0
3.95345e-05	0	0	0
3.95956e-05	0	0	0
3.96645e-05	0	0	0
3.99155e-05	0	0	0
4.15432e-05	0	0	0
4.16945e-05	0	0	0
4.19305e-05	0	0	0
4.21242e-05	0	0	0
4.25669e-05	0	0	0
4.30742e-05	0	0	0
4.3139e-05	0	0	0
4.34266e-05	0	0	0
4.34746e-05	0	0	0
4.36194e-05	0	0	0
4.49923e-05	0	0	0
4.57885e-05	0	0	0
4.68319e-05	0	0	0
4.73247e-05	0	0	0
4.79678e-05	0	0	0
4.85214e-05	0	0	0
4.85648e-05	0	0	0
4.9328e-05	0	0	0
4.95124e-05	0	0	0
4.97123e-05	0	0	0
5.03499e-05	0	0	0
5.07784e-05	0	0	0
5.08697e-05	0	0	0
5.10383e-05	0	0	0
5.10789e-05	0	0	0
5.19427e-05	0	0	0
5.23876e-05	0	0	0
5.28666e-05	0	0	0
5.28705e-05	0	0	0
5.29132e-05	0	0	0
5.29635e-05	0	0	0
5.30046e-05	0	0	0
5.3239e-05	0	0	0
5.42442e-05	0	0	0
5.50256e-05	0	0	0
5.50701e-05	0	0	0
5.54147e-05	0	0	0
5.54888e-05	0	0	0
5.56934e-05	0	0	0
5.57769e-05	0	0	0
5.60763e-05	0	0	0
5.9059e-05	0	0	0
5.93737e-05	0	0	0
5.9529e-05	0	0	0
6.00359e-05	0	0	0
6.00628e-05	0	0	0
6.03401e-05	0	0	0
6.12423e-05	0	0	0
6.16682e-05	0	0	0
6.1708e-05	0	0	0
6.19869e-05	0	0	0
6.2625e-05	0	0	0
6.30255e-05	0	0	0
6.31089e-05	0	0	0
6.36437e-05	0	0	0
6.43817e-05	0	0	0
6.50089e-05	0	0	0
6.58187e-05	0	0	0
6.66149e-05	0	0	0
6.78417e-05	0	0	0
6.81267e-05	0	0	0
6.81691e-05	0	0	0
6.99191e-05	0	0	0
7.00339e-05	0	0	0
7.07266e-05	0	0	0
7.1301e-05	0	0	0
7.18321e-05	0	0	0
7.19548e-05	0	0	0
7.31306e-05	0	0	0
7.36327e-05	0	0	0
7.41128e-05	0	0	0
7.63482e-05	0	0	0
7.77133e-05	0	0	0
7.77946e-05	0	0	0
7.78162e-05	0	0	0
7.79618e-05	0	0	0
7.81289e-05	0	0	0
8.02434e-05	0	0	0
8.03249e-05	0	0	0
8.0829e-05	0	0	0
8.10884e-05	0	0	0
8.1546e-05	0	0	0
8.16313e-05	0	0	0
8.26278e-05	0	0	0
8.28219e-05	0	0	0
8.30533e-05	0	0	0
8.37761e-05	0	0	0
8.39834e-05	0	0	0
8.52777e-05	0	0	0
8.56559e-05	0	0	0
8.623e-05	0	0	0
8.68139e-05	0	0	0
8.74579e-05	0	0	0
8.82734e-05	0	0	0
8.85212e-05	0	0	0
8.87397e-05	0	0	0
8.90522e-05	0	0	0
8.96529e-05	0	0	0
9.0496e-05	0	0	0
9.24074e-05	0	0	0
9.269e-05	0	0	0
9.41987e-05	0	0	0
9.46145e-05	0	0	0
9.50022e-05	0	0	0
9.65391e-05	0	0	0
9.70769e-05	0	0	0
9.78774e-05	0	0	0
9.8198e-05	0	0	0
9.88334e-05	0	0	0
9.91713e-05	0	0	0
0.000100087	0	0	0
0.00010184	0	0	0
0.000102458	0	0	0
0.000103531	0	0	0
0.000103625	0	0	0
0.000104117	0	0	0
0.000104214	0	0	0
0.000104446	0	0	0
0.000106068	0	0	0
0.000106921	0	0	0
0.000107816	0	0	0
0.000108975	0	0	0
0.000109867	0	0	0
0.000110233	0	0	0
0.000110891	0	0	0
0.000111083	0	0	0
0.000111866	0	0	0
0.000112077	0	0	0
0.000112137	0	0	0
0.000112573	0	0	0
0.000113889	0	0	0
0.000115383	0	0	0
0.000115587	0	0	0
0.000116178	0	0	0
0.000116514	0	0	0
0.000116658	0	0	0
0.000116953	0	0	0
0.000117567	0	0	0
0.000120156	0	0	0
0.000121572	0	0	0
0.000121652	0	0	0
0.00012393	0	0	0
0.000125235	0	0	0
0.000125262	0	0	0
0.000128768	0	0	0
0.000129548	0	0	0
0.000130057	0	0	0
0.000130173	0	0	0
0.000131282	0	0	0
0.000131707	0	0	0
0.000132121	0	0	0
0.000133191	0	0	0
0.00013433	0	0	0
0.000134463	0	0	0
0.000136101	0	0	0
0.000136436	0	0	0
0.000136607	0	0	0
0.000136904	0	0	0
0.000137152	0	0	0
0.000140422	0	0	0
0.000141084	0	0	0
0.000141845	0	0	0
0.000141922	0	0	0
0.000141971	0	0	0
0.000142784	0	0	0
0.000144244	0	0	0
0.000145049	0	0	0
0.000145421	0	0	0
0.000147429	0	0	0
0.000148604	0	0	0
0.000149359	0	0	0
0.000149548	0	0	0
0.000153495	0	0	0
0.000154639	0	0	0
0.000154944	0	0	0
0.000156824	0	0	0
0.000157274	0	0	0
0.000157414	0	0	0
0.000157795	0	0	0
0.000158308	0	0	0
0.000158912	0	0	0
0.000159251	0	0	0
0.000159691	0	0	0
0.000160419	0	0	0
0.000160625	0	0	0
0.000160735	0	0	0
0.000164945	0	0	0
0.000164977	0	0	0
0.000166291	0	0	0
0.000166555	0	0	0
0.000168764	0	0	0
0.000171034	0	0	0
0.000172013	0	0	0
0.000172204	0	0	0
0.000173	0	0	0
0.000173013	0	0	0
0.000173572	0	0	0
0.000174299	0	0	0
0.000176595	0	0	0
0.000177168	0	0	0
0.000177556	0	0	0
0.000180994	0	0	0
0.000182789	0	0	0
0.000183396	0	0	0
0.000183456	0	0	0
0.000183892	0	0	0
0.000184128	0	0	0
0.000185591	0	0	0
0.000187306	0	0	0
0.000187687	0	0	0
0.000187843	0	0	0
0.000188994	0	0	0
0.000189014	0	0	0
0.000189611	0	0	0
0.000193301	0	0	0
0.00019343	0	0	0
0.000196686	0	0	0
0.000197139	0	0	0
0.000199762	0	0	0
0.000200204	0	0	0
0.000200947	0	0	0
0.000201662	0	0	0
0.0002023	0	0	0
0.000202816	0	0	0
0.000203494	0	0	0
0.000204276	0	0	0
0.000205302	0	0	0
0.000206089	0	0	0
0.000206152	0	0	0
0.000207422	0	0	0
0.000207467	0	0	0
0.000207736	0	0	0
0.000208006	0	0	0
0.000209687	0	0	0
0.00021198	0	0	0
0.000213924	0	0	0
0.000215009	0	0	0
0.000215326	0	0	0
0.000215375	0	0	0
0.00021578	0	0	0
0.000216358	0	0	0
0.000217767	0	0	0
0.000219169	0	0	0
0.000219219	0	0	0
0.000223123	0	0	0
0.000224399	0	0	0
0.000224501	0	0	0
0.000224796	0	0	0
0.000225553	0	0	0
0.000231465	0	0	0
0.000231497	0	0	0
0.000231592	0	0	0
0.000232097	0	0	0
0.000232195	0	0	0
0.000232246	0	0	0
0.000233195	0	0	0
0.000234928	0	0	0
0.000236171	0	0	0
0.000237262	0	0	0
0.000237323	0	0	0
0.000238982	0	0	0
0.000240972	0	0	0
0.000242525	0	0	0
0.00024416	0	0	0
0.000245791	0	0	0
0.000248311	0	0	0
0.000248653	0	0	0
0.000252429	0	0	0
0.000253103	0	0	0
0.000253127	0	0	0
0.000255314	0	0	0
0.000255815	0	0	0
0.000257304	0	0	0
0.000258403	0	0	0
0.000258618	0	0	0
0.000258678	0	0	0
0.000259179	0	0	0
0.000259914	0	0	0
0.000259935	0	0	0
0.000260608	0	0	0
0.000260977	0	0	0
0.000262874	0	0	0
0.000263511	0	0	0
0.000263664	0	0	0
0.000265323	0	0	0
0.000267252	0	0	0
0.000267303	0	0	0
0.000267444	0	0	0
0.000269913	0	0	0
0.000270365	0	0	0
0.000272111	0	0	0
0.000277675	0	0	0
0.000280676	0	0	0
0.000285055	0	0	0
0.000288158	0	0	0
0.000288197	0	0	0
0.000292932	0	0	0
0.000297974	0	0	0
0.000304428	0	0	0
0.000304786	0	0	0
0.000305049	0	0	0
0.000306258	0	0	0
0.00031065	0	0	0
0.000312024	0	0	0
0.000312867	0	0	0
0.000315864	0	0	0
0.000316713	0	0	0
0.000318691	0	0	0
0.000319375	0	0	0
0.000321256	0	0	0
0.000323435	0	0	0
0.000324187	0	0	0
0.000324233	0	0	0
0.000327672	0	0	0
0.000329951	0	0	0
0.000331257	0	0	0
0.000337123	0	0	0
0.000340225	0	0	0
0.000343435	0	0	0
0.000347689	0	0	0
0.000348166	0	0	0
0.000350999	0	0	0
0.000351911	0	0	0
0.000353645	0	0	0
0.000357267	0	0	0
0.000359495	0	0	0
0.000364363	0	0	0
0.000366519	0	0	0
0.000366851	0	0	0
0.000369947	0	0	0
0.000371889	0	0	0
0.000373618	0	0	0
0.000373698	0	0	0
0.00037534	0	0	0
0.000379454	0	0	0
0.000379477	0	0	0
0.000379747	0	0	0
0.000385698	0	0	0
0.000387242	0	0	0
0.00038773	0	0	0
0.000389188	0	0	0
0.000391452	0	0	0
0.000394687	0	0	0
0.000395955	0	0	0
0.000395981	0	0	0
0.000400187	0	0	0
0.000401315	0	0	0
0.000402212	0	0	0
0.000407486	0	0	0
0.000413891	0	0	0
0.000414465	0	0	0
0.000414785	0	0	0
0.000415928	0	0	0
0.000419545	0	0	0
0.000422005	0	0	0
0.000425974	0	0	0
0.000430413	0	0	0
0.000432411	0	0	0
0.000435257	0	0	0
0.000438966	0	0	0
0.000441557	0	0	0
0.000443397	0	0	0
0.000446095	0	0	0
0.000446944	0	0	0
0.00045187	0	0	0
0.000453148	0	0	0
0.000454515	0	0	0
0.000454813	0	0	0
0.000457419	0	0	0
0.000458276	0	0	0
0.000462735	0	0	0
0.000467465	0	0	0
0.000474883	0	0	0
0.000475766	0	0	0
0.000476638	0	0	0
0.000479264	0	0	0
0.000481507	0	0	0
0.000487384	0	0	0
0.000491255	0	0	0
0.000491376	0	0	0
0.000493129	0	0	0
0.000494759	0	0	0
0.000500104	0	0	0
0.00050169	0	0	0
0.000504557	0	0	0
0.000506465	0	0	0
0.000511227	0	0	0
0.000514125	0	0	0
0.000514142	0	0	0
0.000515733	0	0	0
0.000522305	0	0	0
0.00053358	0	0	0
0.000534278	0	0	0
0.000546128	0	0	0
0.000555006	0	0	0
0.000555835	0	0	0
0.000559035	0	0	0
0.000577394	0	0	0
0.00058339	0	0	0
0.00058616	0	0	0
0.000590814	0	0	0
0.000592431	0	0	0
0.000595602	0	0	0
0.000602384	0	0	0
0.000610165	0	0	0
0.000612304	0	0	0
0.000613996	0	0	0
0.000614522	0	0	0
0.000616516	0	0	0
0.000624596	0	0	0
0.000625494	0	0	0
0.000625688	0	0	0
0.000628697	0	0	0
0.000629855	0	0	0
0.000636895	0	0	0
0.00063842	0	0	0
0.000664338	0	0	0
0.000670306	0	0	0
0.000671391	0	0	0
0.000672509	0	0	0
0.000673204	0	0	0
0.000677374	0	0	0
0.000685861	0	0	0
0.000688313	0	0	0
0.000703952	0	0	0
0.000729916	0	0	0
0.000753313	0	0	0
0.000754053	0	0	0
0.000757466	0	0	0
0.000760746	0	0	0
0.000767893	0	0	0
0.000776322	0	0	0
0.000780128	0	0	0
0.000795723	0	0	0
0.000806497	0	0	0
0.000830759	0	0	0
0.000836596	0	0	0
0.000848983	0	0	0
0.000853547	0	0	0
0.000862589	0	0	0
0.000868749	0	0	0
0.000876285	0	0	0
0.000893746	0	0	0
0.000901372	0	0	0
0.000908683	0	0	0
0.000911646	0	0	0
0.000926817	0	0	0
0.000927618	0	0	0
0.000945414	0	0	0
0.000977948	0	0	0
0.000978016	0	0	0
0.000984744	0	0	0
0.00104423	0	0	0
0.00105559	0	0	0
0.0010604	0	0	0
0.00107508	0	0	0
0.00107535	0	0	0
0.00115681	0	0	0
0.00120251	0	0	0
0.00122286	0	0	0
0.00128638	0	0	0
0.00133086	0	0	0
0.0013511	0	0	0
0.00137516	0	0	0
0.0013932	0	0	0
0.00141618	0	0	0
0.00142821	0	0	0
0.00143683	0	0	0
0.00143743	0	0	0
0.00148078	0	0	0
0.00149565	0	0	0
0.00156655	0	0	0
0.00164266	0	0	0
0.00164925	0	0	0
0.00170549	0	0	0
0.00171031	0	0	0
0.0018284	0	0	0
0.00193941	0	0	0
0.00198304	0	0	0
0.00199141	0	0	0
0.00224857	0	0	0
0.00279531	0	0	0
0.00281864	0	0	0
0.00307402	0	0	0
0.00323535	0	0	0
0.00359201	0	0	0
0.00428158	0	0	0
0.00433321	0	0	0
0.004559	0	0	0
0.00479765	0	0	0
0.00493456	0	0	0
0.00501053	0	0	0
0.00536844	1	1	0
0.00543932	1	1	0
0.00554351	1	1	0
0.00573157	1	1	0
0.00590501	3	0	0
0.00599476	3	0	0
0.00614717	3	0	0
0.00624136	3	0	0
0.00645864	3	0	0
0.00673875	3	0	0
0.0070021	3	1	0
0.00718819	4	2	0
0.0074793	6	1	0
0.00782808	6	1	0
0.00874515	6	1	0
0.00877573	8	0	0
0.0087897	8	0	0
0.00893985	8	0	0
0.00903727	8	0	0
0.00991391	8	0	0
0.00997812	8	1	0
0.0102607	9	2	0
0.010861	11	1	0
0.0119934	11	1	0
0.0124814	13	0	0
0.0127979	13	0	0
0.0130943	13	0	0
0.0132199	13	0	0
0.0137959	13	0	0
0.0138298	14	1	0
0.0139293	16	0	0
0.014521	16	0	0
0.0148446	16	0	0
0.014848	16	0	0
0.0149797	16	0	0
0.0149918	16	0	0
0.0151858	16	0	0
0.0157401	16	0	0
0.0157563	16	0	0
0.0163748	16	0	0
0.0163755	16	0	0
0.0170418	16	0	0
0.0177839	16	0	0
0.0186713	16	0	0
0.0194262	16	0	0
0.0195672	16	0	0
0.0195913	16	1	0
0.0199225	16	1	0
0.02003	17	2	0
0.0203688	17	3	0
0.0208024	19	2	0
0.0212092	19	2	0
0.0212617	19	2	0
0.0212716	21	1	0
0.0212762	22	2	0
0.021738	22	2	0
0.0218008	24	1	0
0.021896	26	0	0
0.0220408	26	0	0
0.0220954	26	0	0
0.0229818	26	0	0
0.0230207	26	0	0
0.0230413	26	0	0
0.0233455	26	0	0
0.0236683	27	1	0
0.0237774	27	1	0
0.0240066	29	0	0
0.0241822	30	0	0
0.0245148	30	0	0
0.0245364	30	0	0
0.0246504	30	0	0
0.0248603	30	0	0
0.0262542	30	0	0
0.0268552	30	0	0
0.0273497	30	0	0
0.0276123	30	0	0
0.0276458	30	0	0
0.0293016	30	0	0
0.0294346	30	0	0
0.0294421	30	0	0
0.0297303	30	1	0
0.0298406	30	1	0
0.0299014	31	2	0
0.0300179	33	1	0
0.0300564	35	0	0
0.0302811	36	1	0
0.030589	38	0	0
0.030608	38	0	0
0.0307393	38	0	0
0.0310104	38	0	0
0.0318284	38	0	0
0.0321281	38	0	0
0.0321601	39	1	0
0.0322261	39	1	0
0.032304	41	0	0
0.0327815	41	0	0
0.0333312	41	0	0
0.0348631	41	0	0
0.0354645	41	0	0
0.035875	41	0	0
0.0359831	41	0	0
0.0366257	41	0	0
0.0368594	41	0	0
0.03687	41	0	0
0.0372214	41	0	0
0.0374272	41	0	0
0.0375436	41	0	0
0.0378109	41	0	0
0.0381128	42	0	0
0.039075	42	0	0
0.0396908	42	0	0
0.0405186	42	0	0
0.0412108	42	0	0
0.0418512	42	0	0
0.0433198	42	0	0
0.0433824	42	0	0
0.0440287	42	0	0
0.0451124	42	0	0
0.0468187	42	0	0
0.0468574	42	0	0
0.0474278	42	0	0
0.0475017	42	0	0
0.0477957	42	0	0
0.0480683	42	0	0
0.0493976	42	0	0
0.0494899	42	0	0
0.0496387	42	0	0
0.0497637	42	0	0
0.0503886	42	0	0
0.051539	43	1	0
0.0515813	43	1	0
0.0517194	43	1	0
0.0522403	45	0	0
0.0526623	45	0	0
0.0529001	46	0	0
0.0531633	46	0	0
0.0531925	47	1	0
0.0533502	47	1	0
0.0542654	49	0	0
0.0543245	50	1	0
0.0545136	50	1	0
0.0545413	52	0	0
0.054977	52	0	0
0.0555299	52	0	0
0.0563168	52	0	0
0.0565912	52	0	0
0.057592	52	0	0
0.0578118	52	0	0
0.0584564	52	0	0
0.0585603	52	0	0
0.0589408	52	0	0
0.0594667	52	0	0
0.0598065	52	1	0
0.0599648	52	1	0
0.0601255	53	2	0
0.0605261	55	1	0
0.0606626	55	1	0
0.0606941	57	0	0
0.0610546	57	0	0
0.0621633	57	0	0
0.0623728	57	0	0
0.0634645	57	0	0
0.064917	57	0	0
0.0649497	57	0	0
0.0658543	57	0	0
0.065868	57	2	0
0.0658862	57	2	0
0.0659029	59	1	0
0.0662968	60	1	0
0.0666508	60	1	0
0.0670237	62	0	0
0.0675167	62	1	0
0.0683373	62	1	0
0.0692673	62	1	0
0.0695342	63	2	0
0.069749	63	2	0
0.0707192	63	2	0
0.0707634	63	2	0
0.0708369	63	2	0
0.0709244	65	1	0
0.0722749	65	1	0
0.0724881	65	1	0
0.0735063	65	1	0
0.0767766	65	1	0
0.0768313	65	1	0
0.0769032	65	1	0
0.0770013	65	1	0
0.0771507	65	1	0
0.0782096	65	1	0
0.0786808	65	1	0
0.078681	65	1	0
0.0793634	67	0	0
0.0794368	68	1	0
0.0796329	68	1	0
0.079936	68	1	0
0.0802565	70	0	0
0.0805942	70	0	0
0.0818645	70	0	0
0.0819258	70	0	0
0.0821146	70	0	0
0.0821575	71	1	0
0.0821951	73	0	0
0.0829641	73	0	0
0.0846976	73	0	0
0.0853566	73	0	0
0.0856365	73	0	0
0.0874847	73	0	0
0.0875072	73	0	0
0.0875153	73	0	0
0.087944	73	0	0
0.088037	73	0	0
0.0880382	74	1	0
0.08844	76	0	0
0.0891166	76	0	0
0.0894307	76	0	0
0.0894558	76	0	0
0.0894833	76	0	0
0.0905423	76	0	0
0.0905857	76	0	0
0.0906997	76	2	0
0.0907194	76	2	0
0.091001	76	2	0
0.091317	78	1	0
0.0913754	80	0	0
0.0917684	80	0	0
0.0927113	80	0	0
0.0927324	81	1	0
0.0930775	81	1	0
0.0930816	81	1	0
0.0934043	81	1	0
0.0938817	81	1	0
0.0945495	83	0	0
0.0955123	84	0	0
0.0973537	84	0	0
0.0975615	84	0	0
0.0981205	84	0	0
0.0987609	84	0	0
0.0993982	84	0	0
0.0995259	84	0	0
0.100248	84	0	0
0.100555	84	0	0
0.10136	84	0	0
0.102248	84	0	0
0.102448	85	0	0
0.10297	85	0	0
0.104182	85	0	0
0.105161	85	0	0
0.105392	85	0	0
0.105514	85	0	0
0.105935	85	0	0
0.106249	86	1	0
0.10707	88	0	0
0.107738	88	0	0
0.107959	88	0	0
0.108344	88	0	0
0.109712	88	0	0
0.109844	88	0	0
0.11017	88	0	0
0.110436	90	0	0
0.111552	90	0	0
0.11206	91	0	0
0.114076	91	0	0
0.114695	91	0	0
0.115694	91	0	0
0.116029	91	0	0
0.116102	91	0	0
0.117217	91	0	0
0.117574	91	0	0
0.118894	91	0	0
0.120059	91	0	0
0.120472	91	0	0
0.120883	91	1	0
0.121219	91	1	0
0.121433	92	2	0
0.121609	94	1	0
0.122378	96	0	0
0.1225	96	0	0
0.123902	96	0	0
0.12405	96	0	0
0.125173	96	0	0
0.125641	96	0	0
0.125978	96	1	0
0.126058	96	1	0
0.126161	97	2	0
0.126229	99	1	0
0.126836	101	0	0
0.127664	101	0	0
0.127737	101	2	0
0.128344	103	1	0
0.128968	103	1	0
0.129506	103	1	0
0.129916	105	0	0
0.130166	105	0	0
0.13024	105	0	0
0.130615	105	0	0
0.131812	105	0	0
0.132848	105	0	0
0.133454	105	0	0
0.133888	105	0	0
0.134258	106	1	0
0.134516	108	0	0
0.134573	108	0	0
0.13603	108	0	0
0.13619	108	0	0
0.137758	108	0	0
0.138338	108	0	0
0.139069	108	0	0
0.139287	108	0	0
0.139802	108	0	0
0.140453	109	1	0
0.140716	111	0	0
0.140833	111	0	0
0.142037	111	0	0
0.142467	111	0	0
0.143285	111	0	0
0.144212	111	0	0
0.144401	111	0	0
0.144802	111	0	0
0.145076	112	0	0
0.146273	112	0	0
0.146753	112	0	0
0.146917	112	1	0
0.147204	112	1	0
0.147495	113	2	0
0.14764	113	2	0
0.147719	115	1	0
0.148164	117	0	0
0.148247	117	0	0
0.149129	117	0	0
0.14964	117	0	0
0.15022	118	0	0
0.150314	118	0	0
0.150624	118	0	0
0.150784	118	0	0
0.150851	118	0	0
0.151704	118	0	0
0.151927	118	0	0
0.152945	118	0	0
0.15378	118	0	0
0.15381	118	0	0
0.154071	118	0	0
0.155828	118	0	0
0.157233	118	0	0
0.157298	118	0	0
0.157373	118	0	0
0.157708	118	2	0
0.15779	120	1	0
0.157848	122	0	0
0.158048	122	0	0
0.158076	122	0	0
0.158467	122	0	0
0.158898	122	0	0
0.159868	122	0	0
0.160193	122	0	0
0.161004	122	0	0
0.161426	122	0	0
0.161784	123	1	0
0.163508	125	0	0
0.163522	125	0	0
0.163671	125	0	0
0.165862	125	0	0
0.165984	125	0	0
0.166012	125	0	0
0.166017	126	0	0
0.16872	126	0	0
0.169133	127	0	0
0.169706	127	0	0
0.169907	127	0	0
0.172175	127	0	0
0.172485	127	0	0
0.173073	127	0	0
0.174503	127	0	0
0.174746	127	0	0
0.17479	127	0	0
0.175061	128	0	0
0.17519	128	0	0
0.175408	128	0	0
0.176105	128	0	0
0.176607	128	0	0
0.177174	128	0	0
0.177536	128	0	0
0.179212	128	0	0
0.179347	128	0	0
0.180401	128	0	0
0.180592	128	0	0
0.181789	128	0	0
0.184496	128	0	0
0.185703	128	0	0
0.186062	128	0	0
0.186221	128	0	0
0.186771	128	0	0
0.187181	128	0	0
0.18743	128	0	0
0.187915	128	0	0
0.18835	128	0	0
0.189054	128	0	0
0.189862	128	0	0
0.190625	128	0	0
0.191245	128	0	0
0.191967	128	0	0
0.192508	128	0	0
0.193163	128	0	0
0.193194	129	1	0
0.193241	129	1	0
0.193587	130	2	0
0.19384	132	1	0
0.195348	134	0	0
0.196957	134	0	0
0.197133	134	0	0
0.197262	134	0	0
0.197264	134	0	0
0.197391	134	0	0
0.197438	134	0	0
0.197527	134	0	0
0.197616	135	1	0
0.197805	135	1	0
0.197822	137	0	0
0.198344	137	0	0
0.198404	138	1	0
0.198633	138	1	0
0.199528	138	1	0
0.201431	140	0	0
0.202448	140	0	0
0.202493	140	0	0
0.202923	141	1	0
0.203579	141	1	0
0.203793	141	1	0
0.203993	143	0	0
0.204991	143	0	0
0.20508	144	0	0
0.205747	144	0	0
0.205847	144	0	0
0.205903	144	1	0
0.206781	145	2	0
0.206917	147	1	0
0.207378	149	0	0
0.207758	149	0	0
0.207847	149	0	0
0.207918	149	0	0
0.208451	149	0	0
0.209249	150	0	0
0.209861	150	0	0
0.210458	150	0	0
0.210657	150	0	0
0.21109	151	1	0
0.211202	151	1	0
0.211516	152	1	0
0.211569	152	1	0
0.213691	154	0	0
0.213922	154	0	0
0.21402	154	0	0
0.214996	154	0	0
0.217312	154	0	0
0.217603	154	0	0
0.218779	154	0	0
0.219761	154	0	0
0.220052	154	0	0
0.220111	154	0	0
0.220675	154	0	0
0.22083	154	0	0
0.220988	155	1	0
0.221505	155	1	0
0.221537	157	0	0
0.222297	157	0	0
0.223434	157	0	0
0.223818	157	0	0
0.223888	158	1	0
0.224159	158	1	0
0.225999	160	0	0
0.226139	160	0	0
0.226253	160	0	0
0.226337	160	0	0
0.226531	160	0	0
0.227043	160	0	0
0.227065	161	1	0
0.227139	163	0	0
0.228218	163	0	0
0.229743	163	0	0
0.229889	163	0	0
0.230479	163	0	0
0.230512	163	0	0
0.230525	163	0	0
0.230526	163	0	0
0.231531	163	0	0
0.231849	163	0	0
0.232043	163	0	0
0.233004	163	0	0
0.233342	163	0	0
0.235981	163	0	0
0.236827	163	0	0
0.237012	163	0	0
0.237859	163	0	0
0.238319	163	0	0
0.239332	163	0	0
0.24006	163	0	0
0.240326	163	0	0
0.240518	163	0	0
0.243989	163	0	0
0.245434	163	0	0
0.245728	163	0	0
0.245892	163	0	0
0.246435	163	0	0
0.246869	163	0	0
0.248758	164	0	0
0.249232	164	0	0
0.249322	164	2	0
0.249406	166	1	0
0.250078	168	0	0
0.250412	168	0	0
0.251049	168	0	0
0.251973	168	0	0
0.252265	169	1	0
0.252534	171	0	0
0.252666	171	0	0
0.25278	171	0	0
0.253046	171	0	0
0.253154	172	1	0
0.25349	174	0	0
0.253612	174	0	0
0.254396	174	0	0
0.255545	174	0	0
0.255571	174	0	0
0.256159	174	0	0
0.256382	174	0	0
0.256835	174	0	0
0.256854	174	0	0
0.257202	174	0	0
0.257526	174	0	0
0.257667	175	1	0
0.2584	177	0	0
0.258555	177	0	0
0.258606	177	0	0
0.258695	178	1	0
0.259853	178	1	0
0.2599	180	0	0
0.260304	180	0	0
0.261009	181	0	0
0.261884	181	0	0
0.26241	182	1	0
0.262552	184	0	0
0.262574	184	0	0
0.263663	184	0	0
0.264491	184	0	0
0.264505	184	0	0
0.264627	184	0	0
0.264923	184	0	0
0.265806	184	0	0
0.26588	184	0	0
0.266264	185	0	0
0.266326	185	0	0
0.267062	185	0	0
0.267419	186	1	0
0.268226	188	0	0
0.268805	188	0	0
0.269187	188	0	0
0.26928	188	0	0
0.269574	189	0	0
0.269725	189	0	0
0.269911	189	0	0
0.270173	189	1	0
0.270575	189	1	0
0.270655	189	1	0
0.271296	189	2	0
0.271494	189	2	0
0.271511	190	3	0
0.271585	192	2	0
0.274141	194	1	0
0.275761	195	1	0
0.277966	195	1	0
0.278307	195	1	0
0.28099	195	1	0
0.282476	195	1	0
0.282746	195	1	0
0.283959	195	1	0
0.28414	195	1	0
0.284419	195	1	0
0.284461	195	1	0
0.284721	195	1	0
0.285155	195	1	0
0.286632	195	1	0
0.287759	195	1	0
0.28881	195	1	0
0.288871	195	1	0
0.289697	195	1	0
0.29077	195	1	0
0.290847	195	1	0
0.291451	195	1	0
0.294416	195	1	0
0.294695	195	1	0
0.294866	195	1	0
0.294913	196	2	0
0.294984	196	2	0
0.296101	196	2	0
0.296165	198	1	0
0.297074	198	1	0
0.298093	199	1	0
0.298357	199	1	0
0.299247	199	1	0
0.299382	199	1	0
0.299756	199	1	0
0.301501	199	1	0
0.301925	199	1	0
0.302681	199	1	0
0.304322	199	1	0
0.305008	200	1	0
0.30561	200	1	0
0.305998	201	1	0
0.306181	201	1	0
0.307039	203	0	0
0.307554	203	0	0
0.30906	203	0	0
0.309902	203	0	0
0.31042	203	0	0
0.310837	203	0	0
0.311022	203	0	0
0.312096	203	0	0
0.312313	203	0	0
0.312369	203	0	0
0.312403	203	2	0
0.312418	205	1	0
0.312542	206	1	0
0.313142	208	0	0
0.313218	209	1	0
0.314409	211	0	0
0.314721	211	0	0
0.315545	211	0	0
0.317102	211	0	0
0.317867	211	0	0
0.318956	211	0	0
0.321105	211	0	0
0.321661	211	0	0
0.323538	211	0	0
0.32367	211	0	0
0.324006	212	0	0
0.324199	213	0	0
0.324722	214	0	0
0.32586	214	0	0
0.326155	214	0	0
0.326802	215	0	0
0.326886	215	0	0
0.327086	216	0	0
0.328811	216	0	0
0.328979	216	0	0
0.33127	216	0	0
0.331942	216	0	0
0.331949	216	0	0
0.332251	216	0	0
0.332455	216	0	0
0.333151	216	0	0
0.33333	217	0	0
0.333467	217	0	0
0.333761	217	0	0
0.333767	217	0	0
0.334221	217	0	0
0.33425	217	0	0
0.334764	217	1	0
0.334923	217	1	0
0.335014	217	1	0
0.335624	217	1	0
0.335739	218	2	0
0.335745	220	1	0
0.335844	222	0	0
0.336305	223	0	0
0.336683	223	0	0
0.33687	223	0	0
0.337281	224	1	0
0.337879	224	1	0
0.338058	224	1	0
0.340479	226	0	0
0.341895	226	0	0
0.342099	226	0	0
0.342343	226	0	0
0.342449	227	1	0
0.342461	227	1	0
0.343699	227	1	0
0.343825	229	0	0
0.344501	229	0	0
0.34453	229	0	0
0.344839	229	0	0
0.345086	229	0	0
0.345361	229	2	0
0.345394	229	2	0
0.34583	231	1	0
0.346062	231	1	0
0.346815	233	0	0
0.346986	233	0	0
0.348365	233	0	0
0.348831	233	0	0
0.34889	233	0	0
0.349391	233	0	0
0.349483	233	0	0
0.34995	233	0	0
0.350294	233	0	0
0.350537	233	0	0
0.351147	233	0	0
0.351219	233	0	0
0.35308	233	0	0
0.353224	234	1	0
0.35349	236	0	0
0.353627	236	0	0
0.353711	236	2	0
0.353823	238	1	0
0.354335	240	1	0
0.354768	242	0	0
0.355402	242	0	0
0.355441	242	0	0
0.355564	242	0	0
0.355825	242	0	0
0.356054	243	0	0
0.356285	243	0	0
0.356483	244	1	0
0.356725	244	1	0
0.357143	246	0	0
0.358809	247	0	0
0.359552	247	0	0
0.359974	247	0	0
0.360011	248	1	0
0.360376	248	1	0
0.360568	248	1	0
0.361921	250	0	0
0.36295	250	0	0
0.364461	250	0	0
0.364468	250	0	0
0.364664	250	0	0
0.366605	250	0	0
0.36786	250	0	0
0.369797	250	0	0
0.370671	250	0	0
0.372619	250	0	0
0.373278	250	0	0
0.373317	250	0	0
0.374563	251	1	0
0.375672	253	0	0
0.376408	253	0	0
0.376633	253	2	0
0.377603	255	1	0
0.377811	257	0	0
0.378779	257	0	0
0.379154	257	0	0
0.379389	257	0	0
0.38035	257	0	0
0.380712	257	0	0
0.381338	257	0	0
0.381455	257	0	0
0.382475	257	0	0
0.382845	258	1	0
0.383377	260	0	0
0.387476	260	0	0
0.387506	260	0	0
0.389455	260	0	0
0.389748	260	0	0
0.390381	260	0	0
0.390468	260	0	0
0.390676	261	1	0
0.391671	263	0	0
0.392218	263	0	0
0.39245	263	0	0
0.392702	263	0	0
0.394762	263	0	0
0.39635	263	0	0
0.399051	263	0	0
0.39931	263	0	0
0.39936	263	0	0
0.399482	263	0	0
0.399524	263	0	0
0.399998	264	1	0
0.400276	264	1	0
0.400285	264	1	0
0.400497	265	1	0
0.401141	265	1	0
0.401539	266	1	0
0.401694	266	1	0
0.402057	266	2	0
0.40249	266	2	0
0.402527	266	2	0
0.402627	267	3	0
0.402638	269	2	0
0.402774	271	1	0
0.402932	272	2	0
0.403069	274	1	0
0.403143	274	1	0
0.403663	276	0	0
0.403895	276	0	0
0.40394	276	2	0
0.404066	278	1	0
0.40412	280	0	0
0.40628	280	0	0
0.406839	280	0	0
0.408931	280	0	0
0.409254	280	0	0
0.412164	280	0	0
0.41275	280	0	0
0.413655	280	0	0
0.414342	281	0	0
0.415379	281	0	0
0.416286	281	0	0
0.417271	282	0	0
0.417338	282	0	0
0.418444	283	0	0
0.418875	283	0	0
0.420753	283	0	0
0.42145	283	0	0
0.421552	283	0	0
0.42171	284	1	0
0.422566	286	0	0
0.423178	286	0	0
0.423219	286	2	0
0.42324	288	1	0
0.424512	288	1	0
0.426042	290	0	0
0.426374	290	0	0
0.426667	291	1	0
0.427257	293	0	0
0.428882	294	0	0
0.429203	294	0	0
0.429249	295	1	0
0.429937	296	1	0
0.433242	298	0	0
0.434053	298	0	0
0.434662	298	0	0
0.435366	298	0	0
0.435519	299	1	0
0.436004	299	1	0
0.437041	301	0	0
0.43731	301	0	0
0.438182	301	0	0
0.438425	301	0	0
0.438967	301	0	0
0.439431	301	0	0
0.439436	302	0	0
0.439776	304	0	0
0.440463	304	1	0
0.440855	305	2	0
0.441026	306	2	0
0.441211	308	1	0
0.441254	310	0	0
0.442701	310	0	0
0.444828	310	0	0
0.445385	310	0	0
0.445959	310	0	0
0.44625	310	0	0
0.446908	311	0	0
0.449701	311	0	0
0.450462	312	0	0
0.452346	312	0	0
0.452442	312	0	0
0.45399	312	0	0
0.455416	313	0	0
0.456406	313	0	0
0.457412	313	0	0
0.459293	313	0	0
0.459486	313	0	0
0.459552	313	0	0
0.46164	313	0	0
0.463875	313	0	0
0.469101	313	0	0
0.46913	313	0	0
0.470666	313	0	0
0.470768	314	0	0
0.471421	314	0	0
0.473159	314	0	0
0.474121	315	0	0
0.47461	315	0	0
0.475612	315	0	0
0.476683	316	0	0
0.477387	316	0	0
0.480225	316	0	0
0.480625	317	0	0
0.481268	317	0	0
0.481975	317	0	0
0.483474	317	0	0
0.484818	317	0	0
0.484831	317	0	0
0.484986	319	0	0
0.485286	319	0	0
0.486022	319	0	0
0.487404	319	0	0
0.488869	319	0	0
0.488981	319	0	0
0.489271	319	0	0
0.490026	319	1	0
0.490183	320	2	0
0.491614	322	1	0
0.491904	322	1	0
0.496345	324	0	0
0.49659	324	0	0
0.496599	325	0	0
0.496996	325	0	0
0.497959	326	0	0
0.49798	326	0	0
0.499503	326	0	0
0.500319	326	0	0
0.500344	326	0	0
0.501007	327	0	0
0.501565	327	0	0
0.503071	327	0	0
0.505038	327	0	0
0.506146	327	0	0
0.5062	327	0	0
0.506773	327	0	0
0.507704	328	0	0
0.51088	329	0	0
0.512279	329	0	0
0.512917	330	0	0
0.513643	330	0	0
0.516377	330	0	0
0.5165	330	0	0
0.518065	331	0	0
0.518241	331	0	0
0.519354	331	0	0
0.519895	333	0	0
0.520002	334	0	0
0.520375	335	0	0
0.521589	335	0	0
0.52727	335	0	0
0.527472	335	0	0
0.529504	335	0	0
0.529818	335	0	0
0.532178	335	0	0
0.532302	335	0	0
0.532929	335	0	0
0.534034	335	0	0
0.534324	335	0	0
0.534428	335	0	0
0.53446	336	1	0
0.535049	338	0	0
0.535713	338	0	0
0.53575	338	0	0
0.535981	339	1	0
0.538874	341	0	0
0.538905	342	0	0
0.540786	342	0	0
0.541361	342	0	0
0.541362	342	0	0
0.541678	342	0	0
0.544018	342	0	0
0.544069	342	0	0
0.544335	342	0	0
0.545287	342	0	0
0.546135	342	0	0
0.547071	342	0	0
0.547189	342	0	0
0.547309	343	0	0
0.547967	343	1	0
0.548524	344	2	0
0.548558	346	1	0
0.548881	348	0	0
0.549315	348	0	0
0.549676	348	0	0
0.551243	348	0	0
0.552493	348	0	0
0.552711	349	1	0
0.554222	351	0	0
0.554587	351	0	0
0.55508	351	0	0
0.555768	351	1	0
0.557569	351	1	0
0.558052	351	1	0
0.558592	351	1	0
0.559474	352	1	0
0.560771	352	1	0
0.56393	352	1	0
0.564469	352	1	0
0.564685	352	1	0
0.566646	352	1	0
0.56693	353	2	0
0.567735	355	1	0
0.567948	355	1	0
0.56799	355	1	0
0.568476	355	1	0
0.568542	355	1	0
0.568683	356	2	0
0.568785	358	1	0
0.569166	358	1	0
0.569885	358	1	0
0.570723	358	1	0
0.571824	358	1	0
0.572636	358	1	0
0.574156	358	1	0
0.574826	358	1	0
0.575717	358	1	0
0.575989	358	1	0
0.576473	358	1	0
0.576577	359	2	0
0.576602	359	2	0
0.578561	361	1	0
0.579327	361	1	0
0.580002	361	1	0
0.580915	362	1	0
0.583428	362	1	0
0.584255	364	1	0
0.586536	366	0	0
0.586807	366	0	0
0.587792	367	0	0
0.588365	368	0	0
0.590526	368	0	0
0.591058	368	0	0
0.591215	368	0	0
0.591891	368	0	0
0.591896	368	0	0
0.592458	369	0	0
0.593141	369	0	0
0.593479	369	0	0
0.59525	369	0	0
0.595284	370	0	0
0.595351	370	0	0
0.595943	370	0	0
0.59639	370	1	0
0.596647	371	2	0
0.596737	373	1	0
0.597756	375	0	0
0.598045	375	0	0
0.598378	376	0	0
0.599187	376	0	0
0.599524	376	0	0
0.601466	376	0	0
0.601475	377	1	0
0.602349	379	0	0
0.602546	379	0	0
0.602547	379	0	0
0.603416	379	0	0
0.605095	379	0	0
0.60666	380	1	0
0.606696	382	0	0
0.60689	382	0	0
0.607	382	0	0
0.607408	382	1	0
0.607539	383	2	0
0.607576	385	1	0
0.610527	387	0	0
0.611308	389	0	0
0.611535	389	0	0
0.611802	389	0	0
0.611886	389	0	0
0.612044	389	0	0
0.612995	389	0	0
0.613399	389	0	0
0.61433	389	0	0
0.615568	389	0	0
0.615942	389	0	0
0.615949	390	0	0
0.617213	390	0	0
0.618586	390	0	0
0.618683	390	0	0
0.619148	391	1	0
0.619749	393	0	0
0.619845	393	0	0
0.622363	393	0	0
0.622854	393	0	0
0.622891	393	0	0
0.623702	393	0	0
0.62428	394	1	0
0.624317	394	1	0
0.624493	396	0	0
0.624559	396	0	0
0.625019	396	0	0
0.625142	396	0	0
0.626227	397	1	0
0.63054	399	0	0
0.633907	399	0	0
0.634853	399	0	0
0.63562	399	0	0
0.636204	399	0	0
0.636818	399	0	0
0.637709	399	0	0
0.639565	399	0	0
0.639721	401	0	0
0.64047	401	0	0
0.640591	402	0	0
0.643216	402	0	0
0.645688	403	0	0
0.650037	403	0	0
0.650401	403	0	0
0.65051	403	0	0
0.651739	403	0	0
0.652258	403	1	0
0.653395	403	1	0
0.653562	404	2	0
0.653765	406	1	0
0.653942	408	0	0
0.654592	408	0	0
0.656556	408	0	0
0.657253	408	0	0
0.657303	408	0	0
0.65731	408	0	0
0.657865	408	0	0
0.657997	408	1	0
0.657999	409	2	0
0.658185	411	1	0
0.658286	413	0	0
0.658567	413	0	0
0.659533	413	0	0
0.661122	413	0	0
0.661268	414	0	0
0.664374	414	0	0
0.667751	414	0	0
0.66804	414	0	0
0.670092	415	0	0
0.670694	415	0	0
0.672526	415	0	0
0.673708	415	0	0
0.676129	415	0	0
0.676783	415	0	0
0.677608	416	0	0
0.680185	416	0	0
0.682365	416	0	0
0.685654	416	0	0
0.685844	416	0	0
0.686639	417	0	0
0.687331	417	0	0
0.68745	418	1	0
0.687536	420	0	0
0.688701	420	0	0
0.689043	421	0	0
0.692706	421	0	0
0.692815	421	0	0
0.697139	421	0	0
0.698352	421	0	0
0.699994	421	0	0
0.700423	422	0	0
0.701253	422	0	0
0.701592	422	0	0
0.70165	422	0	0
0.701679	423	1	0
0.70295	425	0	0
0.704548	425	0	0
0.704807	425	0	0
0.704897	425	2	0
0.705172	427	1	0
0.705639	429	0	0
0.706293	429	0	0
0.706547	429	0	0
0.707749	429	0	0
0.708057	430	1	0
0.708707	430	1	0
0.711614	432	0	0
0.713237	432	0	0
0.715224	432	0	0
0.715864	432	0	0
0.717293	432	0	0
0.717441	433	1	0
0.717902	433	1	0
0.717932	433	1	0
0.718105	435	0	0
0.719428	435	0	0
0.719908	435	0	0
0.720041	436	1	0
0.720184	436	1	0
0.721658	438	0	0
0.721704	438	0	0
0.722837	438	0	0
0.722876	439	0	0
0.724828	439	0	0
0.725256	439	0	0
0.725267	440	1	0
0.725786	441	1	0
0.726755	443	0	0
0.726908	443	0	0
0.727154	443	0	0
0.727358	443	0	0
0.72741	443	0	0
0.727606	443	2	0
0.727766	445	1	0
0.730738	447	0	0
0.732465	447	0	0
0.732693	447	0	0
0.732805	447	0	0
0.732852	447	1	0
0.733545	447	1	0
0.733892	448	1	0
0.73431	448	2	0
0.734327	449	3	0
0.734394	450	4	0
0.734395	452	3	0
0.734633	454	2	0
0.735119	456	1	0
0.735654	458	0	0
0.73615	458	0	0
0.736775	458	0	0
0.73706	458	1	0
0.737162	459	2	0
0.73765	461	1	0
0.743762	463	0	0
0.74418	463	0	0
0.744912	463	0	0
0.746228	463	0	0
0.747531	463	0	0
0.74871	464	0	0
0.749452	464	0	0
0.749636	464	0	0
0.749701	464	0	0
0.751467	464	0	0
0.752232	464	0	0
0.752517	464	1	0
0.752575	465	2	0
0.75265	467	1	0
0.75268	469	0	0
0.754962	469	0	0
0.756943	469	0	0
0.757389	469	0	0
0.757734	470	0	0
0.757883	470	0	0
0.759331	470	0	0
0.759341	470	0	0
0.760558	470	0	0
0.761157	471	0	0
0.762922	471	0	0
0.763461	471	0	0
0.763809	471	0	0
0.765191	471	0	0
0.767212	471	0	0
0.76806	471	0	0
0.769989	471	0	0
0.770836	471	0	0
0.771257	471	0	0
0.771606	472	0	0
0.772501	472	0	0
0.773166	472	0	0
0.773768	472	0	0
0.774279	472	0	0
0.774506	472	0	0
0.776512	472	0	0
0.778789	472	0	0
0.779011	472	0	0
0.781473	472	0	0
0.781626	472	0	0
0.781986	474	0	0
0.782724	474	0	0
0.783	474	0	0
0.783189	474	0	0
0.783733	475	1	0
0.787297	477	0	0
0.787946	477	0	0
0.788046	477	0	0
0.7884	477	0	0
0.789345	478	1	0
0.789561	480	0	0
0.789973	480	0	0
0.790331	480	0	0
0.791136	480	0	0
0.79221	480	0	0
0.792725	480	0	0
0.793102	480	0	0
0.79472	480	0	0
0.795744	480	0	0
0.79696	480	0	0
0.800267	481	0	0
0.800981	482	0	0
0.801979	482	0	0
0.803143	483	0	0
0.803255	483	0	0
0.803461	483	2	0
0.804413	485	1	0
0.806682	487	0	0
0.807121	487	0	0
0.808766	488	1	0
0.810006	490	0	0
0.810569	490	0	0
0.811364	490	0	0
0.813268	490	0	0
0.813888	491	0	0
0.813999	491	0	0
0.814996	491	0	0
0.815294	491	0	0
0.815516	491	0	0
0.815734	491	0	0
0.817184	491	0	0
0.817883	491	0	0
0.817907	492	0	0
0.817956	492	0	0
0.81826	493	1	0
0.822829	495	0	0
0.824849	495	0	0
0.827846	495	0	0
0.82924	495	0	0
0.82926	495	0	0
0.829715	495	0	0
0.829887	496	1	0
0.830454	498	0	0
0.832913	498	0	0
0.834649	498	0	0
0.836187	498	0	0
0.836942	500	0	0
0.837808	500	0	0
0.838528	501	1	0
0.83885	501	1	0
0.840377	503	0	0
0.840485	503	0	0
0.841246	503	0	0
0.841334	503	0	0
0.841377	503	1	0
0.84147	504	2	0
0.84155	504	2	0
0.841769	506	1	0
0.843874	508	0	0
0.844648	508	0	0
0.845169	508	0	0
0.849631	508	0	0
0.852728	508	0	0
0.853113	508	0	0
0.854127	508	0	0
0.854185	509	1	0
0.854195	511	0	0
0.855534	511	0	0
0.856677	511	0	0
0.857086	511	0	0
0.857191	511	0	0
0.858877	511	0	0
0.863966	512	0	0
0.865729	512	0	0
0.868876	512	0	0
0.871105	512	0	0
0.875174	512	0	0
0.876458	512	0	0
0.876782	512	0	0
0.877205	513	1	0
0.877585	515	0	0
0.878045	515	0	0
0.879261	515	1	0
0.879343	515	2	0
0.881159	515	2	0
0.881699	515	3	0
0.881773	517	2	0
0.881892	517	4	0
0.882193	519	3	0
0.882705	521	2	0
0.882821	523	1	0
0.883051	525	0	0
0.883273	525	0	0
0.884827	525	0	0
0.886926	526	0	0
0.888211	526	0	0
0.888278	526	0	0
0.888712	526	0	0
0.892388	526	0	0
0.892904	526	0	0
0.893387	526	0	0
0.894218	526	0	0
0.895418	526	0	0
0.895927	526	0	0
0.896025	526	0	0
0.896048	527	1	0
0.896803	529	0	0
0.897018	529	0	0
0.89763	529	0	0
0.900319	529	0	0
0.901101	529	0	0
0.901957	529	0	0
0.902573	530	1	0
0.902728	530	1	0
0.903439	530	1	0
0.903448	532	0	0
0.904039	533	0	0
0.905074	533	0	0
0.905872	533	0	0
0.905936	534	0	0
0.906312	534	0	0
0.906579	535	1	0
0.908077	537	0	0
0.908589	537	0	0
0.909714	537	0	0
0.9104	537	1	0
0.910436	538	2	0
0.910574	540	1	0
0.912356	542	0	0
0.913533	542	0	0
0.916497	542	0	0
0.917622	542	0	0
0.917659	542	0	0
0.920739	542	0	0
0.922704	542	0	0
0.922755	542	0	0
0.923663	542	0	0
0.928669	542	0	0
0.928961	542	0	0
0.929791	542	0	0
0.935641	542	0	0
0.93572	543	0	0
0.935828	545	0	0
0.936566	545	0	0
0.9374	545	0	0
0.93777	545	0	0
0.938178	545	0	0
0.938474	545	0	0
0.938621	546	1	0
0.94208	548	0	0
0.943278	548	0	0
0.943509	548	0	0
0.947352	548	0	0
0.948643	548	0	0
0.957237	550	0	0
0.957835	550	0	0
0.959376	550	0	0
0.960223	551	1	0
0.961172	553	0	0
0.964008	553	0	0
0.964839	553	0	0
0.965799	554	0	0
0.96713	555	0	0
0.96739	555	0	0
0.967442	555	0	0
0.968504	555	0	0
0.96852	555	0	0
0.96862	556	1	0
0.969102	558	0	0
0.969738	558	0	0
0.969848	558	2	0
0.971045	560	1	0
0.972988	562	0	0
0.97487	562	0	0
0.975824	563	0	0
0.976155	563	0	0
0.976858	564	0	0
0.977248	565	1	0
0.97788	565	1	0
0.978	565	1	0
0.978379	567	0	0
0.97896	567	0	0
0.979042	567	0	0
0.981331	567	0	0
0.984459	568	0	0
0.98588	568	0	0
0.992253	568	0	0
0.993042	568	0	0
0.996439	568	0	0
0.996814	569	0	0
0.997815	569	0	0
0.997932	569	0	0
0.999408	569	0	0
1.0034	569	0	0
1.00657	569	0	0
1.00668	569	0	0
1.00712	569	0	0
1.00713	569	0	0
1.00745	570	1	0
1.00789	572	0	0
1.01128	572	0	0
1.01175	572	0	0
1.01179	572	1	0
1.0119	573	2	0
1.01203	575	1	0
1.01265	577	0	0
1.01482	577	0	0
1.01484	577	0	0
1.01544	577	0	0
1.01552	577	1	0
1.0258	578	1	0
1.02604	578	1	0
1.02952	578	1	0
1.02969	578	1	0
1.02993	578	1	0
1.03112	578	1	0
1.03194	579	2	0
1.03513	581	1	0
1.03534	582	1	0
1.03545	582	1	0
1.03602	582	1	0
1.03649	582	1	0
1.03656	582	1	0
1.03819	584	0	0
1.04085	584	0	0
1.0411	585	0	0
1.04364	585	0	0
1.04366	585	1	0
1.0437	586	2	0
1.04444	588	1	0
1.0459	590	0	0
1.04736	591	0	0
1.048	591	0	0
1.0518	591	0	0
1.05299	591	0	0
1.05325	592	1	0
1.05491	594	0	0
1.0553	594	0	0
1.05623	594	0	0
1.05639	594	0	0
1.05747	594	0	0
1.05841	594	1	0
1.05864	594	2	0
1.05927	594	2	0
1.05964	594	3	0
1.05999	596	2	0
1.06056	596	3	0
1.06092	598	2	0
1.06102	598	4	0
1.06116	600	3	0
1.06126	600	3	0
1.0616	602	2	0
1.06236	604	1	0
1.06325	606	0	0
1.06413	606	0	0
1.06526	606	0	0
1.06647	607	0	0
1.06692	607	0	0
1.0695	609	0	0
1.07012	609	0	0
1.07225	609	0	0
1.07324	609	0	0
1.07341	609	0	0
1.07406	610	0	0
1.07465	610	0	0
1.07667	611	0	0
1.07777	611	0	0
1.08395	612	0	0
1.08435	612	0	0
1.08475	612	0	0
1.08578	612	0	0
1.08674	612	0	0
1.08676	613	1	0
1.08831	615	0	0
1.0892	615	0	0
1.08973	615	2	0
1.09068	617	1	0
1.0929	619	0	0
1.09595	619	0	0
1.09646	619	0	0
1.09657	619	0	0
1.09664	620	1	0
1.09703	622	0	0
1.09725	622	0	0
1.09786	623	1	0
1.0981	623	1	0
1.09855	623	1	0
1.09928	625	0	0
1.09932	625	0	0
1.09973	625	1	0
1.09981	626	2	0
1.10009	628	1	0
1.10345	630	0	0
1.10536	630	0	0
1.10555	630	0	0
1.10587	631	1	0
1.10794	633	0	0
1.10905	633	0	0
1.10918	633	0	0
1.11192	633	0	0
1.1121	634	1	0
1.11222	634	1	0
1.11746	636	0	0
1.11769	636	0	0
1.11903	636	0	0
1.11999	637	0	0
1.12215	637	0	0
1.12264	637	0	0
1.12372	637	0	0
1.12387	637	2	0
1.12501	639	1	0
1.12655	639	1	0
1.12657	641	0	0
1.12668	641	0	0
1.12801	641	0	0
1.12837	642	1	0
1.1291	644	0	0
1.12947	644	0	0
1.13906	644	0	0
1.1395	644	0	0
1.13969	645	1	0
1.14282	647	0	0
1.14301	647	0	0
1.14489	649	0	0
1.14525	649	0	0
1.14639	649	0	0
1.14645	649	1	0
1.14851	649	1	0
1.1493	649	1	0
1.14933	650	2	0
1.14945	650	2	0
1.14949	650	2	0
1.14963	651	3	0
1.15002	653	2	0
1.15133	655	1	0
1.15151	655	1	0
1.15177	657	1	0
1.15759	657	1	0
1.15877	657	1	0
1.16247	658	1	0
1.16606	659	1	0
1.16738	660	1	0
1.16811	660	1	0
1.16816	660	1	0
1.16855	661	2	0
1.17078	663	1	0
1.17117	663	1	0
1.17219	663	1	0
1.17351	663	1	0
1.17648	663	1	0
1.17668	663	1	0
1.17687	663	1	0
1.17693	664	2	0
1.17717	664	2	0
1.17724	666	1	0
1.17746	666	1	0
1.17838	666	1	0
1.1784	666	1	0
1.18023	668	0	0
1.18289	668	0	0
1.18363	668	0	0
1.18365	668	0	0
1.18422	668	0	0
1.1848	668	0	0
1.18667	668	0	0
1.19126	668	0	0
1.19181	668	0	0
1.19218	669	0	0
1.19227	669	0	0
1.19632	669	0	0
1.2007	670	0	0
1.20122	670	0	0
1.2017	670	0	0
1.20177	671	1	0
1.20569	673	0	0
1.20884	673	0	0
1.2097	673	0	0
1.20991	673	1	0
1.21024	674	2	0
1.21091	676	1	0
1.21155	678	0	0
1.21619	678	0	0
1.22058	678	0	0
1.22321	678	0	0
1.22578	678	0	0
1.2275	678	0	0
1.22762	679	1	0
1.22868	681	0	0
1.23349	681	0	0
1.23401	681	0	0
1.23536	681	0	0
1.2354	682	1	0
1.24475	684	0	0
1.24584	684	0	0
1.24588	685	1	0
1.24811	687	0	0
1.249	687	0	0
1.25171	687	0	0
1.25476	687	0	0
1.25508	687	1	0
1.25522	687	1	0
1.25527	687	1	0
1.25542	687	2	0
1.25601	687	3	0
1.25601	687	4	0
1.25602	687	5	0
1.25616	689	4	0
1.25634	690	5	0
1.25643	692	4	0
1.25648	694	3	0
1.25719	694	3	0
1.25727	694	3	0
1.25791	696	3	0
1.25865	696	3	0
1.25874	696	4	0
1.26004	698	3	0
1.26008	698	4	0
1.26055	699	5	0
1.26057	701	4	0
1.26086	703	3	0
1.26088	705	2	0
1.261	707	1	0
1.26316	709	0	0
1.26349	709	0	0
1.26398	710	1	0
1.26494	712	0	0
1.2661	712	0	0
1.26723	712	0	0
1.26745	714	0	0
1.26789	714	0	0
1.26976	714	0	0
1.27086	714	0	0
1.27112	715	1	0
1.27211	715	1	0
1.27263	717	1	0
1.27994	719	0	0
1.2807	720	0	0
1.28191	720	0	0
1.28252	721	0	0
1.28555	721	0	0
1.28747	722	0	0
1.28964	722	0	0
1.29179	722	0	0
1.29281	723	0	0
1.29393	723	0	0
1.29462	724	0	0
1.29705	724	0	0
1.29808	724	0	0
1.30019	725	0	0
1.30612	725	0	0
1.30982	725	0	0
1.31125	725	0	0
1.31506	725	0	0
1.31701	725	0	0
1.31725	725	0	0
1.31908	725	0	0
1.31987	725	0	0
1.31993	725	2	0
1.32025	727	1	0
1.32064	729	0	0
1.32086	730	1	0
1.32196	732	0	0
1.32227	732	0	0
1.32229	733	1	0
1.32346	735	0	0
1.32402	735	0	0
1.32404	735	0	0
1.32422	735	2	0
1.32465	737	1	0
1.32484	737	1	0
1.32555	739	0	0
1.33014	739	0	0
1.33612	741	0	0
1.33906	741	0	0
1.34008	741	0	0
1.3403	741	0	0
1.34121	741	0	0
1.34152	741	0	0
1.34245	741	0	0
1.34321	742	1	0
1.34373	744	0	0
1.34455	744	0	0
1.34904	745	0	0
1.355	745	0	0
1.35551	745	0	0
1.35627	745	0	0
1.35805	745	0	0
1.36171	745	0	0
1.36481	746	0	0
1.37257	746	0	0
1.37611	746	0	0
1.37612	746	0	0
1.37678	747	1	0
1.37891	749	0	0
1.38092	749	0	0
1.38275	751	0	0
1.3843	751	0	0
1.38464	751	0	0
1.38493	751	2	0
1.3851	753	1	0
1.4016	755	0	0
1.40382	756	0	0
1.40703	756	0	0
1.40981	756	0	0
1.41099	756	0	0
1.41516	756	0	0
1.41635	756	0	0
1.41638	756	0	0
1.41752	756	0	0
1.4211	756	0	0
1.42228	756	0	0
1.42733	756	0	0
1.43119	756	0	0
1.43398	756	0	0
1.43547	756	0	0
1.43579	758	0	0
1.43617	758	0	0
1.43621	758	0	0
1.43657	758	2	0
1.43683	760	1	0
1.43687	761	1	0
1.43706	763	0	0
1.44094	763	0	0
1.44244	763	0	0
1.44357	765	0	0
1.4439	766	0	0
1.44418	767	1	0
1.44971	769	0	0
1.45195	769	0	0
1.45615	769	0	0
1.45642	769	0	0
1.4575	769	0	0
1.45762	769	2	0
1.45802	771	1	0
1.45831	772	1	0
1.46108	774	0	0
1.46157	774	0	0
1.46159	774	2	0
1.46283	776	1	0
1.463	776	1	0
1.46423	778	0	0
1.46551	778	0	0
1.4661	779	0	0
1.46782	779	0	0
1.46784	779	0	0
1.47094	779	0	0
1.47225	779	0	0
1.47309	779	0	0
1.47382	779	0	0
1.47535	779	0	0
1.47537	779	2	0
1.47569	781	1	0
1.47926	783	0	0
1.47974	783	0	0
1.47984	784	1	0
1.49259	786	0	0
1.49271	786	0	0
1.49383	786	0	0
1.49399	787	1	0
1.49701	789	0	0
1.49902	789	0	0
1.49963	789	0	0
1.50008	790	1	0
1.50206	792	0	0
1.50218	793	0	0
1.5031	793	0	0
1.50698	793	0	0
1.51378	793	0	0
1.51791	795	0	0
1.5183	795	0	0
1.5183	795	2	0
1.51852	797	1	0
1.5187	799	0	0
1.51907	799	0	0
1.52203	799	0	0
1.52494	799	0	0
1.52522	799	0	0
1.52661	799	0	0
1.52701	799	0	0
1.52985	799	0	0
1.52989	799	0	0
1.52995	800	1	0
1.53014	802	0	0
1.53453	802	0	0
1.53996	802	0	0
1.54625	802	0	0
1.54743	803	0	0
1.54869	803	0	0
1.55089	804	0	0
1.55417	804	0	0
1.55577	806	0	0
1.55796	806	0	0
1.56017	806	0	0
1.56046	807	1	0
1.56865	809	0	0
1.57168	809	0	0
1.57812	809	0	0
1.58137	809	0	0
1.58359	811	0	0
1.58375	811	0	0
1.58484	811	0	0
1.58618	811	0	0
1.58745	811	0	0
1.58943	811	0	0
1.59883	811	0	0
1.61027	811	0	0
1.61797	811	0	0
1.61898	811	0	0
1.62212	811	0	0
1.62222	811	0	0
1.62233	811	0	0
1.62296	812	1	0
1.62707	814	0	0
1.6274	814	0	0
1.62821	814	0	0
1.63016	814	0	0
1.63045	814	0	0
1.63109	814	0	0
1.63167	815	1	0
1.63202	817	0	0
1.63379	817	0	0
1.63516	817	0	0
1.63619	817	1	0
1.63637	818	2	0
1.63651	820	1	0
1.64315	822	0	0
1.64493	822	0	0
1.64752	823	0	0
1.64791	823	0	0
1.64798	823	0	0
1.64937	823	0	0
1.65177	823	0	0
1.65261	823	0	0
1.65486	823	0	0
1.66124	823	0	0
1.66881	823	0	0
1.66912	823	0	0
1.66945	823	0	0
1.67093	823	0	0
1.67113	824	1	0
1.67227	826	0	0
1.67272	826	0	0
1.67289	826	1	0
1.67323	827	2	0
1.67336	829	1	0
1.67548	831	0	0
1.67586	831	0	0
1.67706	831	0	0
1.67849	831	0	0
1.67918	831	0	0
1.68036	831	0	0
1.68089	832	1	0
1.68295	834	0	0
1.68714	835	0	0
1.68721	835	0	0
1.69149	835	0	0
1.69725	835	0	0
1.69763	835	0	0
1.70003	835	0	0
1.70122	836	0	0
1.70162	836	0	0
1.70235	837	1	0
1.70411	839	0	0
1.7052	839	0	0
1.70828	839	0	0
1.71016	839	0	0
1.7133	839	0	0
1.71501	839	0	0
1.71581	839	0	0
1.71635	840	1	0
1.71771	841	1	0
1.72043	843	0	0
1.72095	843	0	0
1.72245	843	0	0
1.72286	843	0	0
1.72286	844	1	0
1.7295	846	0	0
1.73184	846	0	0
1.73226	846	0	0
1.73251	846	0	0
1.7335	846	0	0
1.73357	847	1	0
1.73662	849	0	0
1.73736	849	0	0
1.73805	849	0	0
1.74267	850	0	0
1.74612	850	0	0
1.74983	851	0	0
1.75081	851	0	0
1.75133	851	1	0
1.75147	852	2	0
1.75149	854	1	0
1.7525	856	0	0
1.75257	856	0	0
1.7532	856	2	0
1.75363	856	2	0
1.7537	858	1	0
1.76113	860	0	0
1.76438	860	0	0
1.76506	860	0	0
1.76561	860	0	0
1.76606	861	1	0
1.76628	861	1	0
1.76808	863	0	0
1.76974	863	0	0
1.76981	863	0	0
1.77002	863	2	0
1.77051	863	2	0
1.77066	865	1	0
1.7707	866	2	0
1.77131	868	1	0
1.77171	870	0	0
1.77264	870	0	0
1.77281	870	0	0
1.77308	871	1	0
1.77579	873	0	0
1.77745	873	0	0
1.77895	873	0	0
1.77898	873	0	0
1.77934	873	1	0
1.77982	874	1	0
1.77985	875	2	0
1.77992	875	4	0
1.78038	877	3	0
1.78045	879	2	0
1.78082	881	1	0
1.78663	883	0	0
1.78667	883	0	0
1.78679	883	2	0
1.78701	885	1	0
1.79295	887	0	0
1.7934	887	0	0
1.79343	887	0	0
1.7944	888	1	0
1.79466	888	1	0
1.79511	890	0	0
1.7955	890	0	0
1.79614	890	2	0
1.79623	890	4	0
1.79631	892	3	0
1.79665	894	2	0
1.79764	896	1	0
1.80206	898	0	0
1.80252	898	0	0
1.80826	898	0	0
1.81518	899	0	0
1.81659	899	0	0
1.82201	899	0	0
1.82461	899	0	0
1.82611	899	0	0
1.82839	899	0	0
1.83151	899	0	0
1.83362	900	0	0
1.83425	900	0	0
1.83534	900	0	0
1.83975	900	0	0
1.84085	900	0	0
1.84087	900	0	0
1.84097	901	0	0
1.84284	902	1	0
1.84312	902	1	0
1.84416	904	0	0
1.84794	904	0	0
1.84803	904	0	0
1.85199	904	0	0
1.85677	904	0	0
1.86045	904	0	0
1.8607	904	0	0
1.86148	904	0	0
1.86255	904	0	0
1.8627	904	0	0
1.86466	904	0	0
1.86515	904	0	0
1.8663	904	0	0
1.86665	904	0	0
1.86896	904	0	0
1.87812	905	0	0
1.87964	906	0	0
1.87968	906	0	0
1.87989	907	1	0
1.88001	909	0	0
1.8815	909	0	0
1.8817	909	0	0
1.88389	910	0	0
1.88485	910	0	0
1.89011	911	0	0
1.89502	911	0	0
1.8955	911	0	0
1.89643	911	0	0
1.89748	911	0	0
1.89961	911	0	0
1.90006	911	0	0
1.90073	911	1	0
1.90082	911	1	0
1.90083	911	1	0
1.90093	912	2	0
1.90126	914	1	0
1.9018	916	0	0
1.90229	916	0	0
1.90274	917	1	0
1.90295	917	1	0
1.90419	919	0	0
1.91398	919	0	0
1.91645	919	0	0
1.92086	919	0	0
1.92121	919	0	0
1.92159	919	0	0
1.92167	919	1	0
1.92216	919	3	0
1.92245	921	2	0
1.9245	923	1	0
1.92646	923	1	0
1.93703	923	1	0
1.93734	923	1	0
1.93739	924	2	0
1.93754	926	1	0
1.94025	928	1	0
1.94094	928	1	0
1.94149	928	1	0
1.94158	928	2	0
1.94249	928	2	0
1.94293	928	2	0
1.94296	929	3	0
1.94357	931	2	0
1.94992	933	1	0
1.95009	933	1	0
1.95116	935	0	0
1.95133	935	0	0
1.95135	935	1	0
1.95141	936	2	0
1.95189	938	1	0
1.95295	940	0	0
1.9538	940	0	0
1.97327	940	1	0
1.9795	940	1	0
1.97974	940	1	0
1.98003	941	2	0
1.98653	943	1	0
1.98657	943	1	0
1.9876	945	0	0
1.98827	946	1	0
1.99973	948	0	0
2.00202	948	0	0
2.00557	948	0	0
2.01057	948	0	0
2.01197	948	0	0
2.0123	949	1	0
2.01829	951	0	0
2.01936	951	0	0
2.02696	951	0	0
2.03151	951	0	0
2.03245	951	0	0
2.0365	951	0	0
2.03919	951	0	0
2.04196	951	1	0
2.04207	951	1	0
2.04824	951	1	0
2.04839	952	2	0
2.04889	954	1	0
2.04938	954	1	0
2.04946	956	0	0
2.05018	956	1	0
2.05062	957	2	0
2.05089	959	1	0
2.05095	959	1	0
2.05686	961	0	0
2.05932	961	0	0
2.06907	962	0	0
2.0733	962	0	0
2.07509	962	0	0
2.0752	963	1	0
2.08703	965	0	0
2.09297	965	0	0
2.09298	965	0	0
2.09413	966	1	0
2.09679	968	0	0
2.09848	968	0	0
2.10488	969	0	0
2.11274	969	0	0
2.11371	969	0	0
2.11628	969	0	0
2.1183	969	0	0
2.11836	969	2	0
2.11925	971	1	0
2.12082	973	0	0
2.12388	973	0	0
2.13177	973	0	0
2.13317	973	0	0
2.13584	973	0	0
2.13664	973	0	0
2.13816	973	0	0
2.13861	973	0	0
2.13958	973	1	0
2.13965	974	2	0
2.13984	976	1	0
2.14207	978	0	0
2.14684	978	0	0
2.16439	978	0	0
2.16629	978	0	0
2.16666	978	1	0
2.1673	979	2	0
2.16848	981	1	0
2.16981	983	0	0
2.17161	983	0	0
2.17349	983	0	0
2.18033	983	0	0
2.18141	984	0	0
2.1826	984	0	0
2.18395	984	0	0
2.18421	985	1	0
2.18432	985	1	0
2.18444	987	0	0
2.18485	987	0	0
2.1849	987	2	0
2.18499	987	2	0
2.18536	988	2	0
2.18694	990	1	0
2.18808	992	0	0
2.1902	992	0	0
2.19021	992	2	0
2.19076	994	1	0
2.1952	996	0	0
2.19717	996	0	0
2.19886	996	0	0
2.19961	996	0	0
2.2043	996	0	0
2.20673	997	0	0
2.20754	997	0	0
2.21758	998	0	0
2.21894	998	0	0
2.23134	998	0	0
2.23189	999	0	0
2.23194	999	0	0
2.23407	999	0	0
2.23758	999	0	0
2.23785	999	0	0
2.23808	1000	1	0
2.23812	1000	1	0
2.23885	1002	0	0
2.23898	1003	1	0
2.25023	1005	0	0
2.25442	1005	0	0
2.25472	1005	0	0
2.25575	1005	1	0
2.2567	1006	2	0
2.25674	1008	1	0
2.25818	1010	0	0
2.26359	1010	0	0
2.26439	1010	0	0
2.27039	1010	0	0
2.27062	1010	0	0
2.27062	1011	1	0
2.27373	1013	0	0
2.27969	1013	0	0
2.28441	1013	0	0
2.28721	1013	0	0
2.28723	1013	0	0
2.28828	1013	0	0
2.28862	1013	0	0
2.28873	1014	1	0
2.29528	1016	0	0
2.29799	1016	0	0
2.29827	1016	0	0
2.29942	1016	0	0
2.29949	1017	1	0
2.30912	1019	0	0
2.30949	1019	0	0
2.3098	1019	0	0
2.31026	1020	1	0
2.3113	1022	0	0
2.31587	1022	0	0
2.32432	1022	0	0
2.34012	1022	0	0
2.34091	1022	0	0
2.341	1022	0	0
2.34164	1023	1	0
2.34186	1025	0	0
2.35438	1025	0	0
2.36465	1025	0	0
2.37408	1025	0	0
2.37446	1025	0	0
2.37522	1026	1	0
2.38199	1028	0	0
2.38327	1028	0	0
2.39231	1028	0	0
2.39341	1028	0	0
2.39353	1028	0	0
2.39615	1028	0	0
2.39731	1028	1	0
2.39847	1029	2	0
2.39866	1031	1	0
2.40835	1033	0	0
2.4154	1033	0	0
2.41928	1033	0	0
2.41932	1033	2	0
2.41956	1035	1	0
2.41974	1035	1	0
2.4202	1037	0	0
2.42023	1038	1	0
2.42591	1040	0	0
2.42942	1042	0	0
2.43745	1042	0	0
2.43811	1042	0	0
2.44638	1042	0	0
2.44869	1042	0	0
2.4487	1042	0	0
2.44882	1042	2	0
2.44935	1044	1	0
2.44965	1046	0	0
2.44977	1046	0	0
2.46534	1047	1	0
2.46653	1047	1	0
2.46693	1048	2	0
2.48236	1050	1	0
2.49028	1050	1	0
2.50624	1050	1	0
2.51069	1050	1	0
2.51245	1050	1	0
2.5135	1051	2	0
2.52315	1053	1	0
2.52439	1053	1	0
2.52446	1053	1	0
2.52448	1054	2	0
2.5302	1056	1	0
2.53121	1056	1	0
2.53288	1057	2	0
2.53393	1057	2	0
2.53891	1059	1	0
2.539	1059	1	0
2.53927	1060	2	0
2.53943	1062	1	0
2.54841	1064	1	0
2.55133	1064	1	0
2.56404	1064	1	0
2.5643	1064	1	0
2.56434	1065	2	0
2.5711	1067	1	0
2.57846	1067	1	0
2.5786	1067	1	0
2.57872	1068	2	0
2.57895	1070	1	0
2.58261	1070	1	0
2.58287	1072	1	0
2.58294	1072	1	0
2.58363	1073	2	0
2.58755	1075	1	0
2.58785	1075	1	0
2.58786	1076	2	0
2.59018	1078	1	0
2.60024	1078	1	0
2.60299	1078	1	0
2.60332	1078	2	0
2.60367	1079	3	0
2.60389	1081	2	0
2.60693	1083	1	0
2.61973	1083	1	0
2.61975	1083	1	0
2.61987	1084	2	0
2.62826	1086	1	0
2.62888	1086	1	0
2.6291	1087	2	0
2.63648	1089	1	0
2.63724	1089	1	0
2.63729	1089	1	0
2.63744	1089	1	0
2.63768	1090	2	0
2.63793	1090	2	0
2.64138	1092	1	0
2.6427	1092	2	0
2.6427	1093	3	0
2.64353	1095	2	0
2.64806	1097	1	0
2.64967	1097	1	0
2.64999	1098	2	0
2.6546	1100	1	0
2.65465	1100	1	0
2.65555	1100	2	0
2.65639	1101	3	0
2.65761	1103	2	0
2.66452	1105	1	0
2.66527	1105	1	0
2.66546	1106	2	0
2.66796	1108	1	0
2.6704	1108	1	0
2.67062	1108	1	0
2.67093	1108	1	0
2.67179	1108	2	0
2.6718	1109	3	0
2.67205	1111	2	0
2.68153	1113	1	0
2.68442	1113	1	0
2.69056	1113	1	0
2.69062	1113	1	0
2.69093	1114	2	0
2.691	1114	2	0
2.6915	1115	3	0
2.69205	1117	2	0
2.6959	1119	1	0
2.69592	1119	1	0
2.69708	1119	2	0
2.69811	1119	2	0
2.6985	1120	3	0
2.69859	1120	3	0
2.6989	1122	2	0
2.70013	1124	1	0
2.70016	1125	2	0
2.7085	1127	1	0
2.72248	1127	1	0
2.729	1127	1	0
2.73928	1127	1	0
2.73963	1127	1	0
2.73981	1127	2	0
2.74016	1128	3	0
2.74075	1130	2	0
2.75255	1132	1	0
2.75422	1132	1	0
2.75427	1133	2	0
2.76276	1135	1	0
2.76319	1135	1	0
2.76388	1135	1	0
2.76406	1136	2	0
2.77229	1138	1	0
2.77905	1138	1	0
2.77978	1138	1	0
2.78825	1138	1	0
2.78951	1138	1	0
2.7944	1138	1	0
2.79509	1138	1	0
2.79624	1138	1	0
2.79624	1138	2	0
2.79629	1139	3	0
2.79708	1141	2	0
2.7986	1143	1	0
2.8049	1143	1	0
2.805	1143	1	0
2.80528	1143	1	0
2.80556	1144	2	0
2.81061	1146	1	0
2.81097	1146	1	0
2.81185	1146	2	0
2.81192	1147	3	0
2.81223	1149	2	0
2.81331	1151	1	0
2.81353	1151	1	0
2.81627	1152	2	0
2.82945	1154	1	0
2.84004	1154	1	0
2.84016	1154	1	0
2.84168	1155	2	0
2.85003	1157	1	0
2.85172	1157	1	0
2.85183	1158	2	0
2.85282	1160	1	0
2.85439	1160	1	0
2.85463	1161	2	0
2.85713	1163	1	0
2.86429	1163	1	0
2.87007	1163	1	0
2.87092	1163	1	0
2.87095	1163	3	0
2.87172	1165	2	0
2.88613	1167	1	0
2.88718	1167	1	0
2.88741	1167	3	0
2.88828	1169	2	0
2.89686	1171	1	0
2.89819	1171	1	0
2.89896	1171	1	0
2.89934	1172	2	0
2.90052	1174	1	0
2.90823	1174	1	0
2.91967	1174	1	0
2.91978	1174	1	0
2.92036	1174	3	0
2.92039	1176	2	0
2.92901	1178	1	0
2.93886	1178	1	0
2.95057	1178	1	0
2.95097	1178	1	0
2.95941	1178	1	0
2.96071	1178	1	0
2.96137	1178	1	0
2.96718	1178	1	0
2.97551	1178	1	0
2.9758	1178	1	0
2.97631	1179	2	0
2.99776	1181	1	0
2.99843	1181	1	0
2.99897	1181	1	0
3.03582	1181	1	0
3.04043	1181	1	0
3.04098	1181	1	0
3.04141	1181	3	0
3.04184	1183	2	0
3.04422	1185	1	0
3.04722	1185	1	0
3.04873	1185	2	0
3.04993	1187	1	0
3.05051	1187	1	0
3.05056	1188	2	0
3.05268	1190	1	0
3.05273	1190	1	0
3.05403	1190	2	0
3.05429	1191	3	0
3.05445	1193	2	0
3.05813	1195	1	0
3.05951	1195	1	0
3.06006	1196	2	0
3.06337	1198	1	0
3.06951	1198	1	0
3.06957	1198	1	0
3.06958	1198	1	0
3.06991	1198	2	0
3.06998	1199	3	0
3.07012	1199	3	0
3.07109	1201	2	0
3.08338	1203	1	0
3.08351	1203	1	0
3.08384	1203	1	0
3.08389	1204	2	0
3.08805	1206	1	0
3.0886	1206	1	0
3.08983	1207	2	0
3.08988	1207	2	0
3.09648	1209	1	0
3.09685	1209	1	0
3.09739	1210	2	0
3.10117	1212	1	0
3.11801	1212	1	0
3.11817	1212	1	0
3.11903	1212	1	0
3.11973	1212	2	0
3.11997	1213	3	0
3.12	1215	2	0
3.12393	1217	1	0
3.12592	1217	1	0
3.12769	1217	1	0
3.1297	1217	1	0
3.13152	1217	1	0
3.13233	1217	1	0
3.13236	1218	2	0
3.13244	1220	1	0
3.13715	1221	1	0
3.1377	1221	1	0
3.13775	1221	1	0
3.13808	1221	3	0
3.14033	1223	2	0
3.15647	1225	1	0
3.15713	1225	1	0
3.15728	1225	1	0
3.15783	1225	2	0
3.15789	1226	3	0
3.1579	1228	2	0
3.18571	1230	1	0
3.18635	1230	1	0
3.18776	1231	2	0
3.19403	1233	1	0
3.19425	1233	1	0
3.19472	1234	2	0
3.20048	1236	1	0
3.20176	1236	1	0
3.20203	1236	1	0
3.20394	1236	2	0
3.20502	1237	3	0
3.2055	1239	2	0
3.21748	1241	1	0
3.21884	1241	1	0
3.2199	1242	2	0
3.22186	1244	1	0
3.22259	1244	1	0
3.22261	1245	2	0
3.23809	1247	1	0
3.24036	1247	1	0
3.24113	1248	2	0
3.2694	1250	1	0
3.27115	1250	1	0
3.27226	1250	3	0
3.27271	1252	2	0
3.27921	1254	1	0
3.2817	1254	1	0
3.28181	1255	2	0
3.28258	1257	1	0
3.28398	1257	1	0
3.28399	1257	3	0
3.28506	1259	2	0
3.30548	1261	1	0
3.30557	1261	1	0
3.30603	1262	2	0
3.30993	1264	1	0
3.31032	1264	1	0
3.31527	1264	2	0
3.31558	1264	2	0
3.3173	1264	3	0
3.31735	1264	4	0
3.31836	1264	5	0
3.31874	1266	4	0
3.31874	1266	5	0
3.32056	1268	4	0
3.32082	1268	5	0
3.32086	1270	4	0
3.32092	1270	5	0
3.32135	1270	6	0
3.32347	1272	5	0
3.34429	1274	4	0
3.34433	1274	4	0
3.34524	1276	3	0
3.34534	1278	2	0
3.34584	1280	1	0
3.3464	1281	2	0
3.34863	1283	1	0
3.34894	1283	1	0
3.34982	1283	2	0
3.34987	1284	3	0
3.35119	1286	2	0
3.3745	1288	1	0
3.37675	1288	1	0
3.37702	1289	2	0
3.37785	1291	1	0
3.38148	1291	1	0
3.38153	1291	2	0
3.38171	1292	3	0
3.38202	1294	2	0
3.38278	1296	1	0
3.39068	1296	1	0
3.39266	1296	1	0
3.4039	1296	1	0
3.40493	1296	1	0
3.40556	1296	2	0
3.40559	1297	3	0
3.40623	1299	2	0
3.41053	1301	1	0
3.42514	1301	1	0
3.45833	1301	1	0
3.46382	1301	1	0
3.46639	1301	1	0
3.46769	1301	1	0
3.4678	1302	2	0
3.47042	1304	1	0
3.47473	1304	1	0
3.47533	1304	1	0
3.48168	1304	1	0
3.49096	1304	1	0
3.4921	1304	1	0
3.49237	1304	2	0
3.4927	1305	3	0
3.49284	1307	2	0
3.5006	1309	1	0
3.50416	1309	1	0
3.50545	1309	1	0
3.50891	1309	2	0
3.50906	1310	3	0
3.50928	1312	2	0
3.51044	1314	1	0
3.51552	1314	1	0
3.51688	1314	1	0
3.56354	1314	2	0
3.56362	1314	2	0
3.57388	1316	1	0
3.58053	1316	1	0
3.58263	1316	1	0
3.60034	1316	2	0
3.60094	1316	2	0
3.60123	1316	2	0
3.60126	1316	4	0
3.60153	1318	3	0
3.60645	1320	2	0
3.61288	1320	2	0
3.63838	1320	2	0
3.63846	1320	2	0
3.64129	1322	1	0
3.64135	1323	2	0
3.65671	1325	1	0
3.65672	1325	1	0
3.6711	1325	2	0
3.67142	1325	2	0
3.67734	1325	2	0
3.67769	1326	3	0
3.68307	1328	2	0
3.72213	1328	2	0
3.7231	1328	2	0
3.72407	1329	3	0
3.72897	1331	2	0
3.73191	1331	2	0
3.73282	1331	2	0
3.73298	1332	3	0
3.73738	1334	2	0
3.73848	1334	2	0
3.73974	1335	2	0
3.74226	1335	2	0
3.74251	1335	2	0
3.743	1336	3	0
3.75499	1338	2	0
3.75525	1338	2	0
3.75562	1339	3	0
3.76615	1341	2	0
3.76845	1341	2	0
3.77546	1341	2	0
3.77549	1341	2	0
3.79663	1341	2	0
3.80929	1341	2	0
3.81397	1342	2	0
3.81535	1342	2	0
3.81564	1343	3	0
3.82277	1345	2	0
3.83708	1345	2	0
3.85399	1345	2	0
3.86938	1345	2	0
3.87033	1345	2	0
3.87053	1346	3	0
3.88717	1348	2	0
3.89758	1348	2	0
3.89946	1348	2	0
3.89959	1348	2	0
3.90006	1349	3	0
3.90102	1351	2	0
3.90128	1351	2	0
3.90131	1352	3	0
3.91366	1354	2	0
3.9148	1354	2	0
3.91518	1354	2	0
3.9153	1355	3	0
3.91816	1357	2	0
3.93715	1357	2	0
3.93716	1357	2	0
3.93752	1357	2	0
3.9379	1357	3	0
3.93803	1357	3	0
3.93826	1358	4	0
3.939	1360	3	0
3.94597	1362	2	0
3.95989	1362	2	0
3.95994	1362	2	0
3.96045	1363	3	0
3.97227	1365	2	0
3.97232	1365	2	0
3.97266	1366	3	0
3.98992	1368	2	0
3.9906	1368	2	0
4.00521	1368	3	0
4.01393	1368	3	0
4.01518	1368	3	0
4.01528	1369	4	0
4.04075	1371	3	0
4.04206	1371	3	0
4.04294	1372	4	0
4.04361	1374	3	0
4.05593	1376	2	0
4.07296	1376	2	0
4.07305	1376	2	0
4.07395	1376	2	0
4.07457	1376	2	0
4.07512	1377	3	0
4.07857	1379	2	0
4.07912	1380	3	0
4.0885	1382	2	0
4.08973	1382	2	0
4.09066	1384	1	0
4.09495	1384	1	0
4.0979	1384	1	0
4.09808	1384	1	0
4.10136	1384	1	0
4.10248	1384	1	0
4.10295	1384	1	0
4.10551	1385	2	0
4.12536	1387	1	0
4.12631	1387	1	0
4.12812	1389	1	0
4.13987	1389	1	0
4.15019	1389	1	0
4.16295	1389	1	0
4.20008	1389	1	0
4.2008	1389	1	0
4.20657	1389	2	0
4.20776	1389	2	0
4.20783	1390	3	0
4.22185	1392	2	0
4.22239	1392	2	0
4.25097	1394	1	0
4.26071	1394	1	0
4.26346	1394	1	0
4.28387	1394	1	0
4.29694	1394	1	0
4.29793	1394	1	0
4.29839	1394	3	0
4.29843	1396	2	0
4.3097	1398	1	0
4.31127	1398	1	0
4.3119	1399	2	0
4.34611	1401	1	0
4.34679	1401	1	0
4.35033	1401	2	0
4.35105	1402	3	0
4.35136	1404	2	0
4.36572	1406	1	0
4.366	1406	1	0
4.36703	1406	1	0
4.36731	1406	2	0
4.36736	1406	2	0
4.36745	1407	3	0
4.36782	1409	2	0
4.36806	1410	3	0
4.36848	1412	2	0
4.37012	1414	1	0
4.37118	1415	2	0
4.37978	1417	1	0
4.3801	1417	1	0
4.38077	1418	2	0
4.3808	1420	1	0
4.38151	1420	1	0
4.38188	1421	2	0
4.41269	1423	1	0
4.41544	1423	1	0
4.42997	1424	1	0
4.43882	1424	1	0
4.44215	1424	1	0
4.44383	1424	1	0
4.44615	1424	1	0
4.44979	1424	1	0
4.45776	1424	1	0
4.46358	1424	1	0
4.46467	1424	1	0
4.46468	1425	2	0
4.53164	1427	1	0
4.55003	1427	1	0
4.55221	1427	1	0
4.55242	1428	2	0
4.55424	1428	2	0
4.55464	1428	4	0
4.55476	1430	3	0
4.55491	1430	3	0
4.55504	1432	2	0
4.5553	1432	3	0
4.55549	1433	4	0
4.55554	1435	3	0
4.55572	1437	2	0
4.57577	1439	1	0
4.59057	1439	1	0
4.59284	1439	1	0
4.59286	1439	1	0
4.59365	1440	2	0
4.60305	1442	1	0
4.63176	1442	1	0
4.6376	1442	1	0
4.64536	1442	1	0
4.64737	1442	1	0
4.64847	1442	1	0
4.64858	1443	2	0
4.6835	1445	1	0
4.69107	1445	1	0
4.69645	1445	1	0
4.69677	1445	1	0
4.69708	1446	2	0
4.69827	1446	2	0
4.70296	1448	1	0
4.70359	1448	1	0
4.70399	1448	3	0
4.70418	1450	2	0
4.73988	1452	1	0
4.74058	1452	1	0
4.74233	1452	2	0
4.74247	1453	3	0
4.7431	1455	2	0
4.79569	1457	1	0
4.79687	1457	1	0
4.79693	1457	3	0
4.797	1459	2	0
4.79825	1461	1	0
4.79902	1461	1	0
4.7992	1462	2	0
4.83082	1464	1	0
4.84297	1464	1	0
4.88933	1464	1	0
4.91825	1464	1	0
4.91992	1464	1	0
4.92188	1464	1	0
4.92232	1464	3	0
4.92243	1466	2	0
4.92736	1468	1	0
4.93693	1468	1	0
4.93697	1468	1	0
4.9376	1469	2	0
4.94955	1471	1	0
4.94974	1471	1	0
4.95133	1471	2	0
4.95167	1472	3	0
4.95184	1474	2	0
4.95703	1476	1	0
4.9719	1476	1	0
4.97799	1476	1	0
4.9821	1477	1	0
5.00828	1477	1	0
5.00977	1477	1	0
5.0114	1478	2	0
5.01194	1480	1	0
5.01268	1480	1	0
5.01291	1481	2	0
5.01608	1483	1	0
5.01969	1483	1	0
5.02238	1483	1	0
5.02534	1484	2	0
5.06143	1486	1	0
5.06285	1486	1	0
5.09112	1486	1	0
5.10203	1486	1	0
5.10354	1486	1	0
5.10381	1486	3	0
5.10402	1488	2	0
5.11832	1490	1	0
5.11966	1490	1	0
5.12031	1491	2	0
5.12505	1493	1	0
5.12842	1493	1	0
5.1289	1493	2	0
5.12901	1494	3	0
5.12985	1496	2	0
5.13163	1498	1	0
5.1487	1498	1	0
5.14981	1498	1	0
5.15035	1499	2	0
5.18105	1501	1	0
5.18729	1501	1	0
5.18914	1501	1	0
5.18938	1501	3	0
5.18946	1503	2	0
5.19269	1505	1	0
5.21661	1505	1	0
5.21758	1505	1	0
5.2177	1505	3	0
5.21799	1507	2	0
5.2448	1509	1	0
5.24716	1509	1	0
5.24786	1509	1	0
5.24816	1509	3	0
5.24913	1511	2	0
5.25005	1513	1	0
5.29382	1513	1	0
5.29382	1513	1	0
5.2943	1513	2	0
5.29499	1514	3	0
5.29505	1516	2	0
5.29907	1518	1	0
5.32955	1518	1	0
5.33905	1518	1	0
5.34372	1518	1	0
5.34682	1518	1	0
5.34755	1518	1	0
5.34848	1518	3	0
5.34882	1520	2	0
5.39664	1522	1	0
5.437	1522	1	0
5.43704	1522	1	0
5.44165	1522	2	0
5.44877	1522	2	0
5.44918	1522	2	0
5.44952	1523	3	0
5.4496	1525	2	0
5.44969	1525	2	0
5.45177	1527	1	0
5.452	1527	1	0
5.45209	1527	2	0
5.45241	1528	3	0
5.45418	1530	2	0
5.45435	1532	1	0
5.45491	1532	1	0
5.45513	1532	2	0
5.46067	1534	1	0
5.50133	1534	1	0
5.50334	1534	1	0
5.50395	1535	2	0
5.536	1537	1	0
5.53743	1537	1	0
5.53763	1537	3	0
5.53822	1539	2	0
5.5423	1541	1	0
5.54489	1541	1	0
5.54502	1541	3	0
5.54615	1543	2	0
5.55641	1545	1	0
5.55919	1545	1	0
5.5601	1546	2	0
5.57838	1548	1	0
5.57897	1548	1	0
5.58126	1549	2	0
5.65338	1551	1	0
5.65348	1551	1	0
5.65395	1552	2	0
5.66479	1554	1	0
5.66512	1554	1	0
5.66546	1555	2	0
5.69039	1557	1	0
5.69142	1557	1	0
5.69211	1558	2	0
5.72482	1560	1	0
5.74072	1560	1	0
5.74107	1560	1	0
5.74119	1560	3	0
5.74215	1562	2	0
5.74363	1564	1	0
5.74633	1564	1	0
5.74644	1564	1	0
5.74676	1565	2	0
5.74736	1566	3	0
5.74766	1568	2	0
5.75801	1570	1	0
5.77642	1570	1	0
5.78836	1570	1	0
5.82082	1570	1	0
5.82226	1570	1	0
5.82364	1571	2	0
5.82831	1573	1	0
5.85008	1573	1	0
5.87497	1573	1	0
5.87574	1573	1	0
5.87577	1573	3	0
5.87676	1575	2	0
5.90353	1577	1	0
5.90495	1577	1	0
5.90506	1577	3	0
5.90573	1579	2	0
5.92492	1581	1	0
5.92683	1581	1	0
5.92708	1581	3	0
5.92795	1583	2	0
5.93114	1585	1	0
5.93409	1585	1	0
5.93429	1586	2	0
5.98784	1588	1	0
5.99357	1588	1	0
5.99386	1588	1	0
5.9942	1589	2	0
5.99563	1591	1	0
6.01035	1591	1	0
6.01333	1591	1	0
6.01635	1591	1	0
6.01636	1592	2	0
6.0252	1594	1	0
6.02812	1594	1	0
6.02911	1594	1	0
6.0292	1595	2	0
6.03311	1597	1	0
6.05895	1597	1	0
6.06125	1597	1	0
6.06152	1597	2	0
6.06153	1598	3	0
6.06184	1600	2	0
6.08868	1602	1	0
6.13601	1602	1	0
6.13608	1602	1	0
6.13904	1603	2	0
6.1444	1605	1	0
6.18413	1605	1	0
6.18677	1605	1	0
6.18709	1605	1	0
6.18967	1605	2	0
6.18994	1606	3	0
6.19073	1608	2	0
6.20781	1610	1	0
6.20803	1610	1	0
6.21069	1611	2	0
6.25114	1613	1	0
6.25204	1613	1	0
6.25334	1613	2	0
6.25354	1614	3	0
6.25426	1616	2	0
6.27377	1618	1	0
6.2738	1618	1	0
6.27387	1618	2	0
6.27418	1619	3	0
6.27554	1621	2	0
6.28288	1623	1	0
6.28693	1623	1	0
6.28703	1624	2	0
6.30463	1626	1	0
6.30625	1626	1	0
6.30672	1626	2	0
6.30693	1627	3	0
6.30736	1629	2	0
6.31362	1631	1	0
6.31469	1631	1	0
6.31504	1632	2	0
6.32083	1634	1	0
6.34059	1634	1	0
6.34108	1634	1	0
6.34115	1634	3	0
6.34127	1636	2	0
6.34272	1638	1	0
6.35565	1638	1	0
6.36548	1638	1	0
6.36612	1638	1	0
6.36669	1639	2	0
6.37037	1641	1	0
6.3724	1643	0	0
6.37675	1643	0	0
6.3769	1644	1	0
6.38603	1646	0	0
6.44145	1646	0	0
6.44166	1646	0	0
6.44239	1647	1	0
6.47118	1649	0	0
6.47147	1649	0	0
6.4724	1650	1	0
6.47267	1650	1	0
6.55557	1652	0	0
6.60111	1652	0	0
6.60983	1652	0	0
6.61067	1652	0	0
6.6107	1652	2	0
6.61076	1654	1	0
6.61364	1656	0	0
6.61455	1656	0	0
6.61511	1657	1	0
6.64294	1659	0	0
6.68481	1659	0	0
6.68524	1659	0	0
6.68605	1659	1	0
6.68623	1660	2	0
6.68824	1662	1	0
6.68889	1664	0	0
6.68967	1664	0	0
6.69207	1665	1	0
6.72207	1667	0	0
6.72233	1667	0	0
6.74498	1667	1	0
6.74518	1667	1	0
6.74522	1667	3	0
6.74549	1669	2	0
6.74833	1671	1	0
6.74844	1671	1	0
6.74891	1671	1	0
6.74895	1671	3	0
6.74904	1673	2	0
6.7492	1675	1	0
6.75014	1676	2	0
6.76147	1678	1	0
6.80402	1678	1	0
6.80544	1678	1	0
6.80546	1679	2	0
6.80549	1681	1	0
6.82727	1683	0	0
6.83009	1683	0	0
6.83108	1684	1	0
6.84134	1686	0	0
6.84212	1686	0	0
6.84247	1687	1	0
6.85863	1689	0	0
6.86161	1689	0	0
6.8632	1689	1	0
6.86339	1690	2	0
6.86359	1692	1	0
6.93452	1694	0	0
6.93473	1694	0	0
6.93507	1695	1	0
6.94944	1697	0	0
6.95049	1697	0	0
6.95165	1697	0	0
6.95168	1698	1	0
6.96026	1700	0	0
6.96076	1700	0	0
6.96084	1700	2	0
6.96162	1702	1	0
6.9881	1704	0	0
6.98834	1704	0	0
6.98841	1704	2	0
6.98909	1706	1	0
6.99122	1708	0	0
6.99211	1708	0	0
6.99268	1709	1	0
7.034	1711	0	0
7.07476	1711	0	0
7.07477	1711	0	0
7.07532	1711	2	0
7.07543	1713	1	0
7.10155	1715	0	0
7.10203	1715	0	0
7.10248	1715	1	0
7.10256	1716	2	0
7.10317	1718	1	0
7.11337	1720	0	0
7.1149	1720	0	0
7.11494	1720	1	0
7.1154	1721	2	0
7.1157	1723	1	0
7.1483	1725	0	0
7.1489	1725	0	0
7.14924	1726	1	0
7.17257	1728	0	0
7.17867	1728	0	0
7.17923	1728	0	0
7.17933	1729	1	0
7.19781	1731	0	0
7.19985	1731	0	0
7.2009	1732	1	0
7.21212	1734	0	0
7.21425	1734	0	0
7.21671	1734	0	0
7.2168	1735	1	0
7.23318	1737	0	0
7.25361	1737	0	0
7.25372	1737	0	0
7.25564	1738	1	0
7.33833	1740	0	0
7.33891	1740	0	0
7.3547	1741	1	0
7.35488	1741	1	0
7.35531	1742	2	0
7.36652	1744	1	0
7.39367	1744	1	0
7.39445	1744	1	0
7.39611	1745	2	0
7.44185	1747	1	0
7.47539	1747	1	0
7.4754	1747	1	0
7.47635	1748	2	0
7.54521	1750	1	0
7.54773	1750	1	0
7.54796	1750	1	0
7.54859	1750	2	0
7.5486	1751	3	0
7.54869	1753	2	0
7.56121	1755	1	0
7.56166	1755	1	0
7.56211	1755	1	0
7.56237	1755	3	0
7.56249	1757	2	0
7.56626	1759	1	0
7.5668	1759	1	0
7.56785	1759	2	0
7.56869	1760	3	0
7.56985	1762	2	0
7.58279	1764	1	0
7.58316	1764	1	0
7.58447	1765	2	0
7.59266	1767	1	0
7.61381	1767	1	0
7.65684	1767	1	0
7.65725	1767	1	0
7.65886	1768	2	0
7.68055	1770	1	0
7.68447	1772	0	0
7.68525	1772	0	0
7.68531	1772	2	0
7.68656	1774	1	0
7.75662	1776	0	0
7.75818	1776	0	0
7.75867	1777	1	0
7.78513	1779	0	0
7.78532	1779	0	0
7.7854	1780	1	0
7.79416	1782	0	0
7.79607	1782	0	0
7.79631	1783	1	0
7.80739	1785	0	0
7.80773	1785	0	0
7.80861	1786	1	0
7.81974	1788	0	0
7.82108	1788	0	0
7.8223	1789	1	0
7.84923	1791	0	0
7.85038	1791	0	0
7.8507	1792	1	0
7.87299	1794	0	0
7.88778	1794	0	0
7.88898	1794	0	0
7.88904	1794	2	0
7.89082	1796	1	0
7.89733	1798	0	0
7.91523	1798	0	0
7.91575	1798	0	0
7.91656	1798	2	0
7.91753	1800	1	0
7.92663	1802	0	0
7.92663	1802	0	0
7.92682	1803	1	0
8.01455	1805	0	0
8.01526	1805	0	0
8.01566	1805	2	0
8.01583	1807	1	0
8.02968	1809	0	0
8.03023	1809	0	0
8.03116	1810	1	0
8.04794	1812	0	0
8.06734	1812	0	0
8.06742	1812	0	0
8.06751	1812	2	0
8.06803	1814	1	0
8.07219	1816	0	0
8.07264	1816	0	0
8.07592	1817	1	0
8.07715	1817	1	0
8.07723	1817	3	0
8.07727	1817	3	0
8.07748	1819	2	0
8.07753	1819	2	0
8.07861	1821	1	0
8.07943	1821	1	0
8.07967	1821	3	0
8.08186	1823	2	0
8.10566	1825	1	0
8.10722	1825	1	0
8.10793	1826	2	0
8.11284	1828	1	0
8.11291	1828	1	0
8.11348	1829	2	0
8.14718	1831	1	0
8.14773	1831	1	0
8.14798	1831	3	0
8.14808	1833	2	0
8.1563	1835	1	0
8.15652	1835	1	0
8.15681	1836	2	0
8.17329	1838	1	0
8.17363	1838	1	0
8.17365	1838	3	0
8.19625	1840	2	0
8.19687	1840	2	0
8.1978	1841	3	0
8.26724	1843	2	0
8.26847	1843	2	0
8.26921	1844	3	0
8.27218	1846	2	0
8.2722	1846	2	0
8.27236	1846	3	0
8.27295	1847	4	0
8.27527	1849	3	0
8.32815	1851	2	0
8.3677	1851	2	0
8.49195	1851	2	0
8.49238	1851	2	0
8.4935	1851	4	0
8.49603	1853	3	0
8.4964	1853	3	0
8.49674	1853	5	0
8.49723	1855	4	0
8.54106	1857	3	0
8.54147	1857	3	0
8.54199	1857	5	0
8.54225	1859	4	0
8.5655	1861	3	0
8.5672	1861	3	0
8.56881	1861	5	0
8.58045	1863	4	0
8.58128	1863	4	0
8.58162	1864	5	0
8.62078	1866	4	0
8.62096	1866	4	0
8.62152	1867	5	0
8.72713	1869	4	0
8.73544	1869	4	0
8.73595	1869	4	0
8.73635	1870	5	0
8.74611	1872	4	0
8.74633	1872	4	0
8.74664	1872	5	0
8.74699	1873	6	0
8.7473	1875	5	0
8.76907	1877	4	0
8.77004	1877	4	0
8.79376	1878	5	0
8.79603	1878	5	0
8.87612	1879	6	0
8.99148	1879	6	0
9.09907	1881	5	0
9.10229	1881	5	0
9.10258	1881	7	0
9.1028	1883	6	0
9.11205	1885	5	0
9.16821	1885	5	0
9.17033	1885	5	0
9.17051	1885	6	0
9.17057	1886	7	0
9.17103	1888	6	0
9.26559	1890	5	0
9.2663	1890	5	0
9.26703	1891	6	0
9.36096	1893	5	0
9.36244	1893	5	0
9.36329	1894	6	0
9.38999	1896	5	0
9.39362	1896	5	0
9.39448	1897	6	0
9.41492	1899	5	0
9.41657	1899	5	0
9.41668	1899	7	0
9.41708	1901	6	0
9.51263	1903	5	0
9.52142	1905	4	0
9.52146	1905	4	0
9.52427	1906	5	0
9.52429	1906	5	0
9.52549	1906	5	0
9.52556	1907	6	0
9.53617	1909	5	0
9.53641	1909	5	0
9.53656	1909	6	0
9.53677	1910	7	0
9.53724	1912	6	0
9.55856	1914	5	0
9.5619	1914	5	0
9.56201	1915	6	0
9.57003	1917	5	0
9.57005	1917	5	0
9.57014	1917	7	0
9.57053	1919	6	0
9.6556	1921	5	0
9.65688	1921	5	0
9.65711	1921	7	0
9.6572	1923	6	0
9.6631	1925	5	0
9.68615	1927	4	0
9.68701	1927	4	0
9.68711	1928	5	0
9.71829	1930	4	0
9.72055	1930	4	0
9.72149	1931	5	0
9.79785	1933	4	0
9.79809	1933	4	0
9.7981	1933	6	0
9.79886	1935	5	0
9.79976	1937	4	0
9.80155	1937	4	0
9.85284	1938	5	0
9.85322	1938	5	0
9.85329	1939	6	0
9.89849	1941	5	0
9.97397	1941	5	0
9.97481	1941	5	0
9.97523	1942	6	0
10.1081	1944	5	0
10.1085	1944	5	0
10.1129	1944	6	0
10.1139	1945	7	0
10.114	1947	6	0
10.1372	1949	5	0
10.1396	1949	5	0
10.1402	1950	6	0
10.2061	1952	5	0
10.2072	1952	5	0
10.2285	1953	6	0
10.2292	1953	6	0
10.2294	1954	7	0
10.234	1956	6	0
10.2341	1956	6	0
10.2345	1956	8	0
10.2348	1958	7	0
10.2587	1960	6	0
10.4064	1960	6	0
10.407	1960	6	0
10.4072	1961	7	0
10.4251	1963	6	0
10.4289	1963	6	0
10.4348	1963	6	0
10.4353	1963	8	0
10.4355	1965	7	0
10.4445	1967	6	0
10.4452	1967	6	0
10.4454	1968	7	0
10.5538	1970	6	0
10.554	1970	6	0
10.5544	1971	7	0
10.6168	1973	6	0
10.6174	1973	6	0
10.6177	1974	7	0
10.6285	1976	6	0
10.6285	1976	6	0
10.6292	1976	8	0
10.6293	1978	7	0
10.7079	1980	6	0
10.7091	1980	6	0
10.7097	1980	7	0
10.7097	1981	8	0
10.7099	1983	7	0
10.8122	1985	6	0
10.8158	1985	6	0
10.8177	1985	6	0
10.8181	1986	7	0
10.8761	1988	6	0
10.8788	1988	6	0
10.8788	1988	8	0
10.8788	1990	7	0
10.8927	1992	6	0
10.8928	1992	6	0
10.8937	1993	7	0
11.1093	1995	6	0
11.1113	1995	6	0
11.1114	1996	7	0
11.1353	1998	6	0
11.1355	1998	6	0
11.1358	1999	7	0
11.1576	2001	6	0
11.1583	2001	6	0
11.1598	2002	7	0
11.2405	2004	6	0
11.2416	2004	6	0
11.2417	2004	8	0
11.2419	2006	7	0
11.2584	2008	6	0
11.2603	2008	6	0
11.2608	2009	7	0
11.3443	2011	6	0
11.3938	2011	6	0
11.3951	2011	6	0
11.3958	2011	8	0
11.3978	2013	7	0
11.4266	2015	6	0
11.4275	2015	6	0
11.4283	2015	8	0
11.4294	2017	7	0
11.4748	2019	6	0
11.4757	2019	6	0
11.476	2019	8	0
11.4772	2021	7	0
11.5221	2023	6	0
11.6501	2025	5	0
11.6507	2025	5	0
11.6789	2026	6	0
11.7559	2026	6	0
11.756	2026	6	0
11.756	2026	8	0
11.7563	2028	7	0
11.844	2030	6	0
11.844	2030	6	0
11.8442	2031	7	0
12.0374	2033	6	0
12.038	2033	6	0
12.0381	2033	8	0
12.0384	2035	7	0
12.3221	2037	6	0
12.3227	2037	6	0
12.3233	2037	7	0
12.3234	2038	8	0
12.3234	2040	7	0
12.329	2042	6	0
12.3331	2042	6	0
12.3333	2042	8	0
12.3334	2044	7	0
12.3544	2046	6	0
12.3566	2046	6	0
12.357	2046	8	0
12.3572	2048	7	0
12.3947	2050	6	0
12.5066	2050	6	0
12.5068	2050	6	0
12.5116	2050	7	0
12.5116	2051	8	0
12.512	2053	7	0
12.5351	2055	6	0
12.5358	2055	6	0
12.5358	2055	8	0
12.5359	2057	7	0
12.7902	2059	6	0
12.7906	2059	6	0
12.7909	2059	8	0
12.7911	2061	7	0
12.8036	2063	6	0
12.8046	2063	6	0
12.8047	2063	8	0
12.8443	2065	7	0
12.8448	2065	7	0
12.8459	2066	8	0
12.8615	2068	7	0
12.862	2068	7	0
12.8626	2068	9	0
12.8631	2070	8	0
12.8853	2072	7	0
12.8859	2072	7	0
12.8869	2072	9	0
12.8885	2074	8	0
12.9158	2076	7	0
12.9168	2076	7	0
12.917	2076	9	0
12.9174	2078	8	0
12.9352	2080	7	0
12.9364	2080	7	0
12.9367	2080	8	0
12.9371	2080	8	0
12.9371	2080	9	0
12.9373	2081	10	0
12.9374	2083	9	0
12.9403	2085	8	0
12.9405	2086	9	0
12.9412	2088	8	0
12.9691	2090	7	0
12.971	2090	7	0
12.9734	2090	7	0
12.9736	2091	8	0
13.0144	2093	7	0
13.0153	2093	7	0
13.0155	2093	9	0
13.0175	2095	8	0
13.0265	2097	7	0
13.1471	2097	7	0
13.149	2099	6	0
13.149	2099	6	0
13.15	2099	7	0
13.1503	2100	8	0
13.1507	2102	7	0
13.1669	2104	6	0
13.1675	2104	6	0
13.1682	2105	7	0
13.4306	2107	6	0
13.4866	2109	5	0
13.4888	2109	5	0
13.4892	2110	6	0
13.5374	2112	5	0
13.5375	2112	5	0
13.5381	2112	6	0
13.5383	2113	7	0
13.5384	2115	6	0
13.5493	2117	5	0
13.5503	2117	5	0
13.5505	2117	7	0
13.5513	2119	6	0
13.6169	2121	5	0
13.6175	2121	5	0
13.6177	2121	7	0
13.6178	2123	6	0
13.6485	2125	5	0
13.6502	2125	5	0
13.6503	2126	6	0
13.7322	2128	5	0
13.7327	2128	5	0
13.7331	2129	6	0
13.7954	2131	5	0
13.7959	2131	5	0
13.8659	2132	6	0
13.8665	2132	6	0
13.8666	2132	7	0
13.8673	2133	8	0
13.8684	2135	7	0
13.9737	2137	6	0
13.9745	2137	6	0
13.9746	2138	7	0
14.0084	2140	6	0
14.0111	2140	6	0
14.0123	2140	8	0
14.0127	2142	7	0
14.0136	2142	7	0
14.0137	2143	8	0
14.0142	2145	7	0
14.0734	2147	6	0
14.0745	2147	6	0
14.0753	2148	7	0
14.1946	2150	6	0
14.274	2152	5	0
14.2749	2152	5	0
14.2758	2153	6	0
14.3691	2155	5	0
14.447	2157	4	0
14.4475	2157	4	0
14.4476	2157	5	0
14.448	2158	6	0
14.4483	2160	5	0
14.5057	2162	4	0
14.5059	2162	4	0
14.5062	2163	5	0
14.6616	2165	4	0
14.6617	2165	4	0
14.7616	2166	5	0
14.7623	2166	5	0
14.7624	2167	6	0
14.7959	2169	5	0
14.7965	2169	5	0
14.7969	2170	6	0
14.8466	2172	5	0
14.8473	2172	5	0
14.848	2173	6	0
14.849	2175	5	0
14.8497	2175	5	0
14.85	2175	7	0
14.85	2177	6	0
14.9756	2179	5	0
14.976	2179	5	0
14.9762	2179	7	0
14.9768	2181	6	0
14.9828	2183	5	0
14.9833	2183	5	0
14.9842	2184	6	0
14.9858	2186	5	0
14.9859	2186	5	0
14.9861	2186	7	0
14.9866	2188	6	0
15.0956	2190	5	0
15.11	2192	4	0
15.1683	2192	4	0
15.1825	2192	4	0
15.1836	2192	4	0
15.1839	2192	5	0
15.1843	2193	6	0
15.186	2195	5	0
15.369	2197	4	0
15.3696	2197	4	0
15.3702	2198	5	0
15.4238	2200	4	0
15.4624	2202	3	0
15.4643	2202	3	0
15.4646	2203	4	0
15.4748	2205	3	0
15.4761	2205	3	0
15.4763	2205	5	0
15.477	2207	4	0
15.4823	2209	3	0
15.4825	2209	3	0
15.4839	2210	4	0
15.5432	2212	3	0
15.5433	2212	3	0
15.545	2213	4	0
15.5767	2215	3	0
15.5774	2215	3	0
15.5774	2215	5	0
15.5775	2217	4	0
15.5845	2219	3	0
15.6368	2221	2	0
15.6403	2221	2	0
15.9667	2222	3	0
15.9676	2222	3	0
15.9678	2223	4	0
15.9955	2225	3	0
15.9959	2225	3	0
15.9979	2226	4	0
16.0149	2228	3	0
16.0157	2228	3	0
16.0159	2229	4	0
16.1683	2231	3	0
16.2347	2231	3	0
16.2365	2231	3	0
16.2368	2232	4	0
16.2793	2234	3	0
16.2795	2234	3	0
16.2795	2235	4	0
16.3279	2237	3	0
16.3801	2237	3	0
16.3802	2237	3	0
16.3809	2238	4	0
16.4323	2240	3	0
16.4344	2240	3	0
16.4345	2241	4	0
16.7905	2243	3	0
16.7934	2243	3	0
16.7974	2243	4	0
16.7975	2244	5	0
16.7982	2246	4	0
16.9172	2248	3	0
16.9739	2248	3	0
16.974	2248	3	0
16.9747	2249	4	0
17.3108	2251	3	0
17.3128	2251	3	0
17.3131	2251	5	0
17.3141	2253	4	0
17.3284	2255	3	0
17.3291	2255	3	0
17.3309	2256	4	0
17.4057	2258	3	0
17.4068	2258	3	0
17.407	2258	5	0
17.4071	2260	4	0
17.4521	2262	3	0
17.4527	2262	3	0
17.4539	2262	4	0
17.4539	2263	5	0
17.4545	2265	4	0
17.6012	2267	3	0
17.6024	2267	3	0
17.6028	2267	5	0
17.6039	2269	4	0
17.7891	2271	3	0
17.7899	2271	3	0
17.7908	2272	4	0
17.7916	2274	3	0
17.9414	2276	2	0
17.9415	2276	2	0
17.9419	2277	3	0
18.1082	2279	2	0
18.7397	2281	1	0
18.7424	2281	1	0
18.7426	2281	3	0
18.743	2283	2	0
18.8072	2285	1	0
18.8079	2285	1	0
18.808	2285	3	0
18.8081	2287	2	0
18.8554	2289	1	0
18.8586	2289	1	0
18.8592	2289	2	0
18.8608	2289	2	0
18.8609	2289	4	0
18.8622	2291	3	0
19.0568	2293	2	0
19.0568	2293	2	0
19.0568	2294	3	0
19.057	2296	2	0
19.44	2298	1	0
19.4406	2298	1	0
19.4426	2299	2	0
19.6042	2301	1	0
19.6046	2301	1	0
19.605	2302	2	0
19.8345	2304	1	0
19.835	2304	1	0
19.835	2304	3	0
19.8367	2306	2	0
20.0743	2308	1	0
20.075	2308	1	0
20.0755	2309	2	0
20.4462	2311	1	0
20.4464	2311	1	0
20.4467	2311	3	0
20.4474	2313	2	0
20.7632	2315	1	0
20.7641	2315	1	0
20.765	2315	3	0
20.7654	2317	2	0
20.7742	2319	1	0
20.7854	2319	1	0
20.7855	2319	1	0
20.7967	2320	2	0
20.7979	2320	2	0
20.7984	2320	4	0
20.7984	2322	3	0
20.908	2324	2	0
20.9089	2324	2	0
20.9094	2325	3	0
21.1257	2327	2	0
21.8722	2327	2	0
21.8728	2327	2	0
21.873	2327	4	0
21.8736	2329	3	0
21.9361	2331	2	0
21.9361	2331	2	0
21.9363	2331	4	0
21.9393	2333	3	0
21.9492	2335	2	0
21.9501	2335	2	0
21.9502	2335	4	0
21.9508	2337	3	0
22.3137	2339	2	0
22.3155	2339	2	0
22.6272	2340	3	0
23.2462	2342	2	0
23.2622	2344	1	0
23.4049	2344	1	0
23.4056	2344	1	0
23.4059	2344	3	0
23.4062	2346	2	0
23.7269	2348	1	0
23.7286	2348	1	0
23.7291	2348	3	0
23.7292	2350	2	0
24.1581	2352	1	0
24.2837	2354	0	0
24.2839	2354	0	0
24.2847	2354	2	0
24.2851	2356	1	0
24.4486	2358	0	0
24.4529	2358	0	0
24.6206	2358	1	0
24.6212	2359	2	0
24.8187	2361	1	0
25.0158	2361	1	0
25.0163	2361	1	0
25.0164	2361	3	0
25.0165	2363	2	0
25.94	2365	1	0
25.9401	2365	1	0
25.9411	2366	2	0
26.3631	2368	1	0
26.3632	2368	1	0
26.3635	2368	3	0
26.364	2370	2	0
26.5664	2372	1	0
26.567	2372	1	0
26.5671	2373	2	0
27.2901	2375	1	0
27.2911	2375	1	0
27.2916	2376	2	0
27.4392	2378	1	0
27.4414	2378	1	0
27.4417	2379	2	0
27.5891	2381	1	0
27.5922	2381	1	0
27.5926	2382	2	0
27.6265	2384	1	0
28.1993	2386	0	0
28.2012	2386	0	0
28.2013	2386	2	0
28.2017	2388	1	0
28.7262	2390	0	0
28.7266	2390	0	0
28.7266	2390	2	0
28.7271	2392	1	0
29.7015	2394	0	0
29.7028	2394	0	0
29.7028	2394	2	0
29.7035	2396	1	0
29.9064	2398	0	0
29.9075	2398	0	0
29.9078	2398	2	0
29.9086	2400	1	0
