2.18561e-09	0	0	0
3.4266e-09	0	0	0
1.27235e-08	0	0	0
2.358e-08	0	0	0
3.09427e-08	0	0	0
4.29371e-08	0	0	0
1.35505e-07	0	0	0
1.40135e-07	0	0	0
3.7224e-07	0	0	0
4.57098e-07	0	0	0
8.09022e-07	0	0	0
8.96238e-07	0	0	0
9.0104e-07	0	0	0
9.8772e-07	0	0	0
1.05595e-06	0	0	0
1.85085e-06	0	0	0
2.0984e-06	0	0	0
2.19029e-06	0	0	0
2.62144e-06	0	0	0
3.91552e-06	0	0	0
4.26491e-06	0	0	0
4.26771e-06	0	0	0
4.33188e-06	0	0	0
5.02664e-06	0	0	0
5.31541e-06	0	0	0
5.69215e-06	0	0	0
6.43038e-06	0	0	0
6.43526e-06	0	0	0
7.12759e-06	0	0	0
7.12947e-06	0	0	0
7.47345e-06	0	0	0
7.77329e-06	0	0	0
7.84443e-06	0	0	0
8.02953e-06	0	0	0
8.5006e-06	0	0	0
8.90039e-06	0	0	0
8.95037e-06	0	0	0
9.16051e-06	0	0	0
9.56275e-06	0	0	0
9.8819e-06	0	0	0
1.05069e-05	0	0	0
1.08367e-05	0	0	0
1.16844e-05	0	0	0
1.22085e-05	0	0	0
1.23099e-05	0	0	0
1.23182e-05	0	0	0
1.24526e-05	0	0	0
1.26442e-05	0	0	0
1.28834e-05	0	0	0
1.37432e-05	0	0	0
1.4109e-05	0	0	0
1.41774e-05	0	0	0
1.42223e-05	0	0	0
1.43182e-05	0	0	0
1.44852e-05	0	0	0
1.4505e-05	0	0	0
1.48162e-05	0	0	0
1.48966e-05	0	0	0
1.49798e-05	0	0	0
1.52791e-05	0	0	0
1.57012e-05	0	0	0
1.61599e-05	0	0	0
1.64359e-05	0	0	0
1.66575e-05	0	0	0
1.75914e-05	0	0	0
1.80732e-05	0	0	0
1.83276e-05	0	0	0
1.87245e-05	0	0	0
1.90016e-05	0	0	0
1.9265e-05	0	0	0
1.93835e-05	0	0	0
1.98137e-05	0	0	0
1.98764e-05	0	0	0
2.07494e-05	0	0	0
2.08476e-05	0	0	0
2.09881e-05	0	0	0
2.12595e-05	0	0	0
2.13218e-05	0	0	0
2.15381e-05	0	0	0
2.16243e-05	0	0	0
2.18781e-05	0	0	0
2.22982e-05	0	0	0
2.26583e-05	0	0	0
2.41451e-05	0	0	0
2.42231e-05	0	0	0
2.44271e-05	0	0	0
2.47341e-05	0	0	0
2.50871e-05	0	0	0
2.54858e-05	0	0	0
2.62362e-05	0	0	0
2.63423e-05	0	0	0
2.6488e-05	0	0	0
2.69838e-05	0	0	0
2.81104e-05	0	0	0
2.82325e-05	0	0	0
2.83158e-05	0	0	0
2.86919e-05	0	0	0
2.87815e-05	0	0	0
2.92824e-05	0	0	0
3.10796e-05	0	0	0
3.14559e-05	0	0	0
3.1805e-05	0	0	0
3.21869e-05	0	0	0
3.22252e-05	0	0	0
3.23709e-05	0	0	0
3.32595e-05	0	0	0
3.32956e-05	0	0	0
3.34055e-05	0	0	0
3.37991e-05	0	0	0
3.42168e-05	0	0	0
3.45057e-05	0	0	0
3.45491e-05	0	0	0
3.46719e-05	0	0	0
3.49995e-05	0	0	0
3.51194e-05	0	0	0
3.52288e-05	0	0	0
3.54975e-05	0	0	0
3.58522e-05	0	0	0
3.59548e-05	0	0	0
3.6294e-05	0	0	0
3.63502e-05	0	0	0
3.66044e-05	0	0	0
3.7365e-05	0	0	0
3.77741e-05	0	0	0
3.79011e-05	0	0	0
3.79068e-05	0	0	0
3.83068e-05	0	0	0
3.84373e-05	0	0	0
3.87814e-05	0	0	0
3.88631e-05	0	0	0
3.8912e-05	0	0	0
3.97738e-05	0	0	0
4.04449e-05	0	0	0
4.13396e-05	0	0	0
4.22968e-05	0	0	0
4.2345e-05	0	0	0
4.26291e-05	0	0	0
4.3482e-05	0	0	0
4.37316e-05	0	0	0
4.56502e-05	0	0	0
4.56538e-05	0	0	0
4.64631e-05	0	0	0
4.79039e-05	0	0	0
4.84697e-05	0	0	0
4.8664e-05	0	0	0
4.94584e-05	0	0	0
4.96666e-05	0	0	0
4.97404e-05	0	0	0
5.04666e-05	0	0	0
5.17575e-05	0	0	0
5.18071e-05	0	0	0
5.19043e-05	0	0	0
5.22483e-05	0	0	0
5.26105e-05	0	0	0
5.28461e-05	0	0	0
5.33995e-05	0	0	0
5.43354e-05	0	0	0
5.54298e-05	0	0	0
5.57429e-05	0	0	0
5.61742e-05	0	0	0
5.66397e-05	0	0	0
5.73919e-05	0	0	0
5.76937e-05	0	0	0
5.77442e-05	0	0	0
5.80277e-05	0	0	0
5.87355e-05	0	0	0
5.87801e-05	0	0	0
5.92497e-05	0	0	0
5.93535e-05	0	0	0
5.98433e-05	0	0	0
6.02417e-05	0	0	0
6.36375e-05	0	0	0
6.42928e-05	0	0	0
6.57767e-05	0	0	0
6.58188e-05	0	0	0
6.59407e-05	0	0	0
6.64087e-05	0	0	0
6.69506e-05	0	0	0
6.73282e-05	0	0	0
6.77477e-05	0	0	0
6.83788e-05	0	0	0
6.86165e-05	0	0	0
6.87542e-05	0	0	0
6.89828e-05	0	0	0
6.97518e-05	0	0	0
7.00797e-05	0	0	0
7.04979e-05	0	0	0
7.06498e-05	0	0	0
7.13639e-05	0	0	0
7.27489e-05	0	0	0
7.28506e-05	0	0	0
7.30922e-05	0	0	0
7.37871e-05	0	0	0
7.41763e-05	0	0	0
7.7112e-05	0	0	0
7.74161e-05	0	0	0
7.7664e-05	0	0	0
7.76688e-05	0	0	0
7.76696e-05	0	0	0
7.78866e-05	0	0	0
7.86529e-05	0	0	0
7.90719e-05	0	0	0
7.97232e-05	0	0	0
7.97944e-05	0	0	0
8.01674e-05	0	0	0
8.08387e-05	0	0	0
8.20228e-05	0	0	0
8.2148e-05	0	0	0
8.25381e-05	0	0	0
8.28495e-05	0	0	0
8.32725e-05	0	0	0
8.38651e-05	0	0	0
8.4693e-05	0	0	0
8.49201e-05	0	0	0
8.58849e-05	0	0	0
8.62451e-05	0	0	0
8.69222e-05	0	0	0
8.7059e-05	0	0	0
8.7392e-05	0	0	0
8.84673e-05	0	0	0
9.12829e-05	0	0	0
9.16689e-05	0	0	0
9.17317e-05	0	0	0
9.22776e-05	0	0	0
9.40139e-05	0	0	0
9.43756e-05	0	0	0
9.57532e-05	0	0	0
9.78535e-05	0	0	0
9.91551e-05	0	0	0
0.000100293	0	0	0
0.000102091	0	0	0
0.000103273	0	0	0
0.000103391	0	0	0
0.000103436	0	0	0
0.000103554	0	0	0
0.000104535	0	0	0
0.000107243	0	0	0
0.000107883	0	0	0
0.000108796	0	0	0
0.000110415	0	0	0
0.000110557	0	0	0
0.00011216	0	0	0
0.000112689	0	0	0
0.000113431	0	0	0
0.000113917	0	0	0
0.000115122	0	0	0
0.000116355	0	0	0
0.000116688	0	0	0
0.000117831	0	0	0
0.000119908	0	0	0
0.000121073	0	0	0
0.000122094	0	0	0
0.000122834	0	0	0
0.000122928	0	0	0
0.000123226	0	0	0
0.000123504	0	0	0
0.000123997	0	0	0
0.000124244	0	0	0
0.000124301	0	0	0
0.000126425	0	0	0
0.000127373	0	0	0
0.000127839	0	0	0
0.000128035	0	0	0
0.000128279	0	0	0
0.000128486	0	0	0
0.000128942	0	0	0
0.000129394	0	0	0
0.000131444	0	0	0
0.000132393	0	0	0
0.000132801	0	0	0
0.000132814	0	0	0
0.000133345	0	0	0
0.000133714	0	0	0
0.000133897	0	0	0
0.000133958	0	0	0
0.000134267	0	0	0
0.000134575	0	0	0
0.000134614	0	0	0
0.0001353	0	0	0
0.000135385	0	0	0
0.000135628	0	0	0
0.000136052	0	0	0
0.000138748	0	0	0
0.000138816	0	0	0
0.000139017	0	0	0
0.000140688	0	0	0
0.000144024	0	0	0
0.000145224	0	0	0
0.000145613	0	0	0
0.000145758	0	0	0
0.000145981	0	0	0
0.000147422	0	0	0
0.00014861	0	0	0
0.000150079	0	0	0
0.000150762	0	0	0
0.000152072	0	0	0
0.000152076	0	0	0
0.000153067	0	0	0
0.000154347	0	0	0
0.00015588	0	0	0
0.000156342	0	0	0
0.000157548	0	0	0
0.000157651	0	0	0
0.00015941	0	0	0
0.000160631	0	0	0
0.000160981	0	0	0
0.000161781	0	0	0
0.000163566	0	0	0
0.000165443	0	0	0
0.000166509	0	0	0
0.000167369	0	0	0
0.000171044	0	0	0
0.000171192	0	0	0
0.000173178	0	0	0
0.000173446	0	0	0
0.000173473	0	0	0
0.00017381	0	0	0
0.000175104	0	0	0
0.000175348	0	0	0
0.000178231	0	0	0
0.000179824	0	0	0
0.000179857	0	0	0
0.00018005	0	0	0
0.000180384	0	0	0
0.000180686	0	0	0
0.000181647	0	0	0
0.000183438	0	0	0
0.00018462	0	0	0
0.000184854	0	0	0
0.000185675	0	0	0
0.000186753	0	0	0
0.000187103	0	0	0
0.000187856	0	0	0
0.000190514	0	0	0
0.000191119	0	0	0
0.000191568	0	0	0
0.000191964	0	0	0
0.000192805	0	0	0
0.000194798	0	0	0
0.000197217	0	0	0
0.000197755	0	0	0
0.000201177	0	0	0
0.00020249	0	0	0
0.000204814	0	0	0
0.000206887	0	0	0
0.000207004	0	0	0
0.000207645	0	0	0
0.000208235	0	0	0
0.000209606	0	0	0
0.000210263	0	0	0
0.000210401	0	0	0
0.000210957	0	0	0
0.000211549	0	0	0
0.000211651	0	0	0
0.000211981	0	0	0
0.000212069	0	0	0
0.000212332	0	0	0
0.000212908	0	0	0
0.00021303	0	0	0
0.000214023	0	0	0
0.000214507	0	0	0
0.000215107	0	0	0
0.000215269	0	0	0
0.000215299	0	0	0
0.000215564	0	0	0
0.000216172	0	0	0
0.000216274	0	0	0
0.000216423	0	0	0
0.00021744	0	0	0
0.000218716	0	0	0
0.000218999	0	0	0
0.000219152	0	0	0
0.000220942	0	0	0
0.000222403	0	0	0
0.000223304	0	0	0
0.00022721	0	0	0
0.000230829	0	0	0
0.00023357	0	0	0
0.00023599	0	0	0
0.000237113	0	0	0
0.000237868	0	0	0
0.000239318	0	0	0
0.000239679	0	0	0
0.000239993	0	0	0
0.000240157	0	0	0
0.000241712	0	0	0
0.000242171	0	0	0
0.000243088	0	0	0
0.000243106	0	0	0
0.00024347	0	0	0
0.000249107	0	0	0
0.000252094	0	0	0
0.000253272	0	0	0
0.000254274	0	0	0
0.000256767	0	0	0
0.00025816	0	0	0
0.000258595	0	0	0
0.000261098	0	0	0
0.000261903	0	0	0
0.000262665	0	0	0
0.000262731	0	0	0
0.000264545	0	0	0
0.000265581	0	0	0
0.000267357	0	0	0
0.000267579	0	0	0
0.000269038	0	0	0
0.000272275	0	0	0
0.000272975	0	0	0
0.000273008	0	0	0
0.000273427	0	0	0
0.000273647	0	0	0
0.000274139	0	0	0
0.000275002	0	0	0
0.000282782	0	0	0
0.000286616	0	0	0
0.000287354	0	0	0
0.000292499	0	0	0
0.000298702	0	0	0
0.000299704	0	0	0
0.000300673	0	0	0
0.00030163	0	0	0
0.000302227	0	0	0
0.000306516	0	0	0
0.0003077	0	0	0
0.000308197	0	0	0
0.00030871	0	0	0
0.000309665	0	0	0
0.000313808	0	0	0
0.000315688	0	0	0
0.000326539	0	0	0
0.000333865	0	0	0
0.000334244	0	0	0
0.000334939	0	0	0
0.000338104	0	0	0
0.00033975	0	0	0
0.000339993	0	0	0
0.000343071	0	0	0
0.000350076	0	0	0
0.000350092	0	0	0
0.000351377	0	0	0
0.000352008	0	0	0
0.000354928	0	0	0
0.000355018	0	0	0
0.000355777	0	0	0
0.000361078	0	0	0
0.000375122	0	0	0
0.000375843	0	0	0
0.000376274	0	0	0
0.000377074	0	0	0
0.000381525	0	0	0
0.000384473	0	0	0
0.000387415	0	0	0
0.000389172	0	0	0
0.000396222	0	0	0
0.000396408	0	0	0
0.000400791	0	0	0
0.000402744	0	0	0
0.000403425	0	0	0
0.00040469	0	0	0
0.000409306	0	0	0
0.000412822	0	0	0
0.000417301	0	0	0
0.0004223	0	0	0
0.000422745	0	0	0
0.000426283	0	0	0
0.000427781	0	0	0
0.000433235	0	0	0
0.000436192	0	0	0
0.000442687	0	0	0
0.000446157	0	0	0
0.000448487	0	0	0
0.000460012	0	0	0
0.000461482	0	0	0
0.000461615	0	0	0
0.000465136	0	0	0
0.000469041	0	0	0
0.000475126	0	0	0
0.000477609	0	0	0
0.000478616	0	0	0
0.000479241	0	0	0
0.000479772	0	0	0
0.000483818	0	0	0
0.000484618	0	0	0
0.00048774	0	0	0
0.000488761	0	0	0
0.000496913	0	0	0
0.000499175	0	0	0
0.000508741	0	0	0
0.000509278	0	0	0
0.000516003	0	0	0
0.000516385	0	0	0
0.000517933	0	0	0
0.000521745	0	0	0
0.000521807	0	0	0
0.000529295	0	0	0
0.000539068	0	0	0
0.000546722	0	0	0
0.0005498	0	0	0
0.000552876	0	0	0
0.000553801	0	0	0
0.000578317	0	0	0
0.000587135	0	0	0
0.000592587	0	0	0
0.000610152	0	0	0
0.000622818	0	0	0
0.000634239	0	0	0
0.000636498	0	0	0
0.000645987	0	0	0
0.000650955	0	0	0
0.000663317	0	0	0
0.000681403	0	0	0
0.000681817	0	0	0
0.000682556	0	0	0
0.000689268	0	0	0
0.000691637	0	0	0
0.000693851	0	0	0
0.000695126	0	0	0
0.000704263	0	0	0
0.000718389	0	0	0
0.00071899	0	0	0
0.000725466	0	0	0
0.000731781	0	0	0
0.000749114	0	0	0
0.000753152	0	0	0
0.000762523	0	0	0
0.000764838	0	0	0
0.000768185	0	0	0
0.000768491	0	0	0
0.000769843	0	0	0
0.000774891	0	0	0
0.000776435	0	0	0
0.000781522	0	0	0
0.000793844	0	0	0
0.000806497	0	0	0
0.000869563	0	0	0
0.000871547	0	0	0
0.000895455	0	0	0
0.000918745	0	0	0
0.00095	0	0	0
0.000953122	0	0	0
0.000976211	0	0	0
0.000981566	0	0	0
0.000982247	0	0	0
0.000982289	0	0	0
0.00107457	0	0	0
0.00108832	0	0	0
0.00109436	0	0	0
0.0011062	0	0	0
0.00110853	0	0	0
0.00112938	0	0	0
0.0011586	0	0	0
0.00117244	0	0	0
0.00118688	0	0	0
0.00121107	0	0	0
0.00123779	0	0	0
0.00128342	0	0	0
0.00130353	0	0	0
0.00131039	0	0	0
0.00133049	0	0	0
0.00135237	0	0	0
0.00140652	0	0	0
0.00144736	0	0	0
0.00155919	0	0	0
0.00157368	0	0	0
0.00166749	0	0	0
0.00177082	0	0	0
0.00187907	0	0	0
0.0019479	0	0	0
0.0019593	0	0	0
0.00225026	0	0	0
0.00226417	0	0	0
0.00242802	1	1	0
0.00262071	1	1	0
0.00264861	1	1	0
0.00268059	1	1	0
0.00303846	1	1	0
0.00329824	1	1	0
0.00348705	1	1	0
0.00363069	3	0	0
0.00370613	3	0	0
0.00391295	3	0	0
0.00472371	3	0	0
0.00580859	3	0	0
0.00597055	3	1	0
0.00605865	3	1	0
0.00618614	3	1	0
0.00639449	4	2	0
0.00663859	6	1	0
0.00704743	8	0	0
0.00721358	8	0	0
0.00729264	8	0	0
0.00740278	8	0	0
0.0074721	8	0	0
0.00749219	8	0	0
0.00755316	8	0	0
0.00824209	8	0	0
0.00824244	8	0	0
0.00871809	8	0	0
0.00872495	8	0	0
0.0091787	8	0	0
0.00991393	8	0	0
0.0102405	8	1	0
0.0102639	9	2	0
0.0104254	11	1	0
0.0104478	12	2	0
0.010862	12	2	0
0.0110916	14	1	0
0.0111171	16	0	0
0.0115405	16	0	0
0.0117562	16	0	0
0.0120215	16	0	0
0.0124323	16	0	0
0.0125244	16	0	0
0.0129899	16	0	0
0.0130565	16	0	0
0.0136944	16	0	0
0.0137087	16	0	0
0.0142002	16	0	0
0.0142639	17	1	0
0.0143368	19	0	0
0.014726	19	0	0
0.0158152	19	0	0
0.0165626	19	0	0
0.0166125	19	0	0
0.0167902	19	0	0
0.0176689	19	0	0
0.0176972	19	0	0
0.017788	19	0	0
0.018856	19	0	0
0.019317	19	0	0
0.0199601	19	0	0
0.0201939	19	0	0
0.0204278	19	0	0
0.0211189	19	0	0
0.0228207	19	0	0
0.0234933	19	0	0
0.0243811	20	0	0
0.024418	20	0	0
0.024903	20	0	0
0.0251398	20	0	0
0.0257487	20	0	0
0.0261332	20	0	0
0.0261493	20	0	0
0.0265758	20	0	0
0.0272842	20	0	0
0.0272965	21	1	0
0.0274032	23	0	0
0.0274924	23	0	0
0.0278357	23	0	0
0.0292995	23	0	0
0.0301594	23	0	0
0.0307038	23	0	0
0.0321171	23	0	0
0.0333255	23	0	0
0.0347156	23	0	0
0.0350486	23	0	0
0.0350598	24	0	0
0.0354043	24	0	0
0.0357421	24	0	0
0.0357707	24	0	0
0.0366835	24	0	0
0.0367288	24	0	0
0.0376722	24	0	0
0.0382008	24	0	0
0.0389313	24	0	0
0.0390145	24	0	0
0.0394096	24	0	0
0.0409858	24	0	0
0.0410429	24	0	0
0.0414189	24	0	0
0.0415237	24	0	0
0.0416187	24	0	0
0.0417801	24	0	0
0.0417925	24	0	0
0.0431433	24	0	0
0.0442243	24	0	0
0.0442856	24	0	0
0.0443655	24	0	0
0.0444512	24	0	0
0.044813	24	0	0
0.0449653	24	0	0
0.0451007	24	0	0
0.0455653	24	0	0
0.0456256	24	0	0
0.0456709	24	0	0
0.0493016	24	0	0
0.0499896	24	0	0
0.0502099	24	0	0
0.050392	24	0	0
0.050548	24	0	0
0.050773	24	0	0
0.050834	24	0	0
0.051055	24	0	0
0.0515215	24	0	0
0.0516003	24	0	0
0.0516267	24	0	0
0.0523277	24	0	0
0.0529318	24	0	0
0.0541086	24	0	0
0.0542345	24	0	0
0.0555613	24	0	0
0.0559574	24	0	0
0.0559946	24	0	0
0.0566076	24	0	0
0.0574534	24	0	0
0.0579915	25	0	0
0.0583621	25	0	0
0.0588039	25	0	0
0.060689	25	0	0
0.060801	25	0	0
0.0611352	26	1	0
0.0612388	26	1	0
0.0619635	28	0	0
0.0621839	28	0	0
0.062386	28	0	0
0.063118	28	0	0
0.0631315	28	0	0
0.0641231	28	1	0
0.0648846	28	1	0
0.0649501	29	2	0
0.064957	31	1	0
0.0653463	33	0	0
0.0657126	33	0	0
0.0665454	33	0	0
0.0670536	33	0	0
0.067282	33	0	0
0.0674126	34	1	0
0.0674665	34	1	0
0.0675797	34	1	0
0.0676561	36	0	0
0.069368	36	0	0
0.0719067	36	0	0
0.0721643	36	0	0
0.0761288	36	0	0
0.0763439	37	0	0
0.0765467	37	0	0
0.077139	37	0	0
0.0773331	37	0	0
0.0774547	37	0	0
0.0776856	37	0	0
0.0781088	37	0	0
0.0782106	38	1	0
0.0785508	40	0	0
0.0788159	40	0	0
0.0792994	40	0	0
0.0795939	40	0	0
0.0802062	40	0	0
0.0806306	40	0	0
0.0817672	40	0	0
0.0825357	40	0	0
0.082807	40	0	0
0.0829367	41	0	0
0.0842154	41	0	0
0.084227	41	0	0
0.0847396	41	0	0
0.0847573	41	0	0
0.085158	42	0	0
0.0859207	42	0	0
0.0869594	42	0	0
0.0870158	43	0	0
0.0870471	43	0	0
0.0873322	44	1	0
0.0873794	44	1	0
0.0883041	46	0	0
0.0886867	46	0	0
0.0897777	46	0	0
0.0898943	46	0	0
0.0905109	46	0	0
0.0909409	46	0	0
0.0911479	46	0	0
0.0912012	46	0	0
0.0912728	46	0	0
0.0914207	46	0	0
0.0921872	46	0	0
0.0936099	46	0	0
0.094644	46	0	0
0.0951557	46	0	0
0.0955226	46	0	0
0.0955242	46	2	0
0.095821	48	1	0
0.096467	50	0	0
0.0965409	50	0	0
0.0966058	51	1	0
0.0966502	53	0	0
0.0969977	54	0	0
0.0976012	54	0	0
0.0977629	55	1	0
0.0979106	57	0	0
0.0981223	57	0	0
0.098242	57	0	0
0.0985794	57	0	0
0.0986141	57	1	0
0.0988614	58	2	0
0.0989083	60	1	0
0.0989263	60	1	0
0.0992539	62	0	0
0.0994685	62	2	0
0.0995063	64	1	0
0.0997792	64	1	0
0.10024	64	1	0
0.101332	66	0	0
0.10193	66	0	0
0.102321	66	0	0
0.102447	66	0	0
0.102683	66	0	0
0.102839	66	1	0
0.103638	66	1	0
0.104588	66	1	0
0.104976	66	1	0
0.105778	66	1	0
0.1058	67	2	0
0.106032	69	1	0
0.106394	71	0	0
0.106696	71	0	0
0.106812	71	0	0
0.107816	71	0	0
0.108835	71	0	0
0.108965	71	0	0
0.10974	71	0	0
0.110098	71	0	0
0.110331	71	0	0
0.110809	72	1	0
0.110924	72	1	0
0.110959	72	1	0
0.11105	72	1	0
0.111685	74	0	0
0.112179	74	0	0
0.112686	74	0	0
0.113287	74	0	0
0.114779	74	0	0
0.115185	74	0	0
0.115508	74	0	0
0.116906	74	0	0
0.117826	74	0	0
0.119012	74	0	0
0.119476	74	0	0
0.119735	74	0	0
0.120183	74	0	0
0.120433	74	0	0
0.124853	74	0	0
0.125377	74	0	0
0.12591	74	0	0
0.126258	74	0	0
0.126634	74	0	0
0.127704	74	0	0
0.128404	74	0	0
0.1289	74	0	0
0.128943	75	0	0
0.128975	75	0	0
0.129865	75	0	0
0.129949	75	0	0
0.1311	75	0	0
0.131602	75	0	0
0.13162	75	0	0
0.132148	75	0	0
0.133094	75	0	0
0.133803	75	0	0
0.134709	76	0	0
0.135729	76	0	0
0.135834	76	0	0
0.136029	76	0	0
0.136703	76	0	0
0.138543	76	0	0
0.139803	76	0	0
0.139995	76	0	0
0.140071	77	0	0
0.140517	78	0	0
0.140893	78	0	0
0.141061	78	0	0
0.141231	78	0	0
0.141326	78	0	0
0.141769	78	0	0
0.141901	78	0	0
0.142247	78	0	0
0.142277	79	1	0
0.142604	79	1	0
0.142841	81	0	0
0.144927	81	0	0
0.145215	82	0	0
0.146404	82	0	0
0.146507	82	0	0
0.14676	82	0	0
0.147087	82	0	0
0.147591	82	0	0
0.148347	82	0	0
0.148633	82	0	0
0.148745	82	2	0
0.148979	84	1	0
0.149472	86	0	0
0.150536	86	0	0
0.150721	87	1	0
0.15259	89	0	0
0.15271	89	0	0
0.153021	89	0	0
0.153556	89	0	0
0.154613	89	0	0
0.155701	89	0	0
0.155856	89	0	0
0.158542	89	0	0
0.159695	89	0	0
0.159696	89	0	0
0.160343	89	0	0
0.160752	89	0	0
0.161068	89	0	0
0.16107	89	0	0
0.161546	89	0	0
0.16186	89	0	0
0.162054	89	0	0
0.162203	89	0	0
0.162769	89	0	0
0.162784	89	0	0
0.163835	90	0	0
0.164072	90	1	0
0.164088	91	2	0
0.164355	93	1	0
0.164558	95	0	0
0.16456	95	0	0
0.166045	95	0	0
0.167166	95	0	0
0.167476	95	0	0
0.167638	95	0	0
0.167895	95	0	0
0.168936	95	0	0
0.169032	95	0	0
0.169362	96	1	0
0.169372	96	1	0
0.170714	98	0	0
0.171144	98	0	0
0.171145	98	2	0
0.171491	100	1	0
0.171727	102	0	0
0.171907	102	0	0
0.172805	102	0	0
0.172829	102	0	0
0.172835	102	0	0
0.173042	103	0	0
0.173187	103	0	0
0.173291	103	0	0
0.17406	103	0	0
0.175696	103	0	0
0.175992	103	0	0
0.176564	103	0	0
0.178779	103	0	0
0.179233	103	0	0
0.179774	103	0	0
0.180036	104	1	0
0.18066	106	0	0
0.180748	106	0	0
0.181098	107	0	0
0.18122	108	0	0
0.181367	108	0	0
0.181641	108	0	0
0.182002	108	0	0
0.182126	108	0	0
0.182328	108	0	0
0.182527	109	1	0
0.182828	109	1	0
0.182974	109	1	0
0.183072	111	0	0
0.183984	111	0	0
0.184162	111	0	0
0.184757	111	0	0
0.185062	111	0	0
0.185133	111	0	0
0.185564	111	0	0
0.186368	111	0	0
0.186711	111	0	0
0.187869	111	0	0
0.187953	111	0	0
0.189357	112	0	0
0.189529	112	0	0
0.189611	112	0	0
0.191901	112	0	0
0.192084	112	0	0
0.192112	112	0	0
0.192221	112	0	0
0.19232	112	0	0
0.192842	112	0	0
0.193117	112	0	0
0.193457	113	1	0
0.193584	113	1	0
0.193666	113	1	0
0.194185	113	1	0
0.195019	115	0	0
0.195419	115	0	0
0.195841	115	0	0
0.196575	115	0	0
0.196671	115	0	0
0.197238	115	0	0
0.197553	115	0	0
0.198503	115	0	0
0.199838	115	0	0
0.200264	115	0	0
0.200466	115	0	0
0.201217	115	0	0
0.201382	115	0	0
0.202072	115	0	0
0.202359	116	0	0
0.203604	116	0	0
0.204662	116	0	0
0.204704	116	0	0
0.205996	116	0	0
0.206172	116	0	0
0.206879	116	0	0
0.208263	116	0	0
0.210278	116	0	0
0.210469	117	0	0
0.210612	117	0	0
0.212359	117	0	0
0.213272	117	0	0
0.215705	117	0	0
0.216122	117	0	0
0.21667	117	0	0
0.217977	119	0	0
0.218297	119	0	0
0.219514	119	0	0
0.220801	119	0	0
0.220965	121	0	0
0.221235	121	0	0
0.221259	121	0	0
0.222376	121	0	0
0.223154	121	0	0
0.223895	122	0	0
0.224134	122	0	0
0.22427	122	0	0
0.224587	122	0	0
0.225049	122	0	0
0.225293	122	0	0
0.225759	122	0	0
0.225768	122	0	0
0.225873	123	0	0
0.227969	123	0	0
0.228582	123	0	0
0.229272	123	0	0
0.229576	123	0	0
0.230566	123	0	0
0.230851	124	1	0
0.232008	126	0	0
0.232292	126	0	0
0.232471	126	0	0
0.232748	126	0	0
0.233392	126	0	0
0.234394	126	0	0
0.234733	127	0	0
0.235401	127	0	0
0.237593	129	0	0
0.237688	129	0	0
0.237895	129	0	0
0.238276	129	0	0
0.239538	129	0	0
0.239633	129	0	0
0.239791	129	0	0
0.239807	130	1	0
0.240189	132	0	0
0.240263	132	0	0
0.242761	133	0	0
0.243227	133	0	0
0.244122	133	0	0
0.244133	134	0	0
0.244432	134	0	0
0.245274	135	1	0
0.246241	137	0	0
0.24641	137	0	0
0.246569	137	0	0
0.247262	137	0	0
0.247271	137	0	0
0.247338	138	0	0
0.247818	138	0	0
0.249021	138	0	0
0.250201	138	0	0
0.251928	138	0	0
0.252072	138	0	0
0.252323	138	0	0
0.253321	138	0	0
0.253949	138	0	0
0.257705	138	0	0
0.257817	138	0	0
0.258006	138	0	0
0.258051	138	0	0
0.258516	138	0	0
0.258773	138	0	0
0.259347	138	0	0
0.259592	138	2	0
0.260318	140	1	0
0.260446	142	0	0
0.261978	142	0	0
0.263296	142	0	0
0.263402	142	0	0
0.263665	143	0	0
0.263691	143	2	0
0.264044	145	1	0
0.264445	145	1	0
0.264669	147	0	0
0.264808	147	0	0
0.266104	148	0	0
0.266214	148	0	0
0.266411	148	0	0
0.26682	148	0	0
0.266866	149	1	0
0.266915	149	1	0
0.267158	149	1	0
0.267905	149	1	0
0.2689	149	1	0
0.26908	149	1	0
0.269703	149	1	0
0.269711	151	0	0
0.270137	151	0	0
0.270611	151	0	0
0.27184	151	0	0
0.272929	151	0	0
0.273415	151	0	0
0.273527	151	0	0
0.274299	151	0	0
0.274601	151	0	0
0.274969	151	1	0
0.275114	151	1	0
0.275365	151	1	0
0.275813	151	1	0
0.276688	151	1	0
0.2768	152	2	0
0.277121	152	2	0
0.277747	152	2	0
0.277766	152	2	0
0.278089	154	1	0
0.278299	156	0	0
0.279935	156	0	0
0.279957	156	0	0
0.279995	156	0	0
0.280586	156	0	0
0.281025	157	1	0
0.281092	158	1	0
0.281406	158	1	0
0.28145	158	1	0
0.28178	160	0	0
0.281784	160	0	0
0.282379	160	0	0
0.282862	161	0	0
0.282921	161	2	0
0.282964	163	1	0
0.2834	165	0	0
0.284305	165	0	0
0.285575	165	0	0
0.286058	165	0	0
0.287274	165	0	0
0.288485	166	0	0
0.288669	166	0	0
0.289447	166	0	0
0.28977	166	0	0
0.289884	166	0	0
0.290012	166	0	0
0.290418	166	0	0
0.290688	166	2	0
0.291135	168	1	0
0.2923	170	0	0
0.292524	170	0	0
0.293156	170	0	0
0.293649	170	0	0
0.295802	170	0	0
0.296261	170	0	0
0.296512	170	0	0
0.29675	170	1	0
0.297073	170	1	0
0.297586	170	1	0
0.298686	170	1	0
0.298694	171	2	0
0.299794	173	1	0
0.300169	175	0	0
0.301072	175	0	0
0.302955	175	0	0
0.303381	175	0	0
0.303416	175	0	0
0.303656	175	0	0
0.304172	175	0	0
0.304376	175	0	0
0.304785	175	0	0
0.305116	175	0	0
0.305948	176	0	0
0.306779	177	0	0
0.308065	177	0	0
0.308577	177	0	0
0.308598	177	0	0
0.30915	177	0	0
0.309315	177	0	0
0.309395	177	0	0
0.309964	178	0	0
0.310759	178	0	0
0.311111	178	0	0
0.311467	178	0	0
0.311685	178	0	0
0.312405	178	0	0
0.314067	178	0	0
0.314541	178	0	0
0.314839	179	0	0
0.315608	179	0	0
0.318478	180	0	0
0.318857	180	0	0
0.319546	180	0	0
0.3209	180	0	0
0.320929	180	0	0
0.321235	181	0	0
0.322741	181	0	0
0.322999	181	0	0
0.32379	181	0	0
0.323793	181	0	0
0.324118	181	0	0
0.326613	181	0	0
0.326845	181	0	0
0.32856	181	0	0
0.32964	181	1	0
0.329711	182	2	0
0.330142	184	1	0
0.330214	184	1	0
0.330581	186	0	0
0.330654	186	0	0
0.331735	186	0	0
0.331897	187	1	0
0.333568	189	0	0
0.333981	189	0	0
0.334271	189	0	0
0.334658	189	0	0
0.334743	189	2	0
0.335204	191	1	0
0.336276	191	1	0
0.337522	193	0	0
0.338494	193	0	0
0.339474	193	0	0
0.340376	193	0	0
0.340576	193	0	0
0.340843	193	0	0
0.341455	193	0	0
0.34188	193	0	0
0.34229	193	0	0
0.342599	193	0	0
0.342809	194	0	0
0.34303	195	0	0
0.344786	195	0	0
0.34486	195	0	0
0.344888	195	0	0
0.345016	195	0	0
0.34525	195	0	0
0.34604	195	0	0
0.346317	195	0	0
0.347639	195	0	0
0.347976	196	0	0
0.348977	196	0	0
0.349281	196	0	0
0.352424	196	0	0
0.35246	196	0	0
0.352539	197	0	0
0.352962	197	0	0
0.353439	197	0	0
0.353791	197	0	0
0.353893	197	0	0
0.353898	197	0	0
0.353976	197	0	0
0.356992	197	0	0
0.357763	197	0	0
0.357793	198	0	0
0.358092	198	0	0
0.358182	199	0	0
0.359469	199	0	0
0.360191	199	0	0
0.360594	199	0	0
0.360705	200	0	0
0.36097	200	0	0
0.361174	200	0	0
0.361951	200	0	0
0.361957	200	0	0
0.362107	200	0	0
0.36228	201	1	0
0.363292	203	0	0
0.364066	203	0	0
0.366166	203	0	0
0.366784	203	2	0
0.366974	203	2	0
0.368036	205	1	0
0.368434	205	1	0
0.369097	205	1	0
0.369866	205	1	0
0.370058	205	1	0
0.370198	205	1	0
0.373988	205	1	0
0.377218	205	1	0
0.37731	205	1	0
0.377554	205	1	0
0.377626	205	1	0
0.377918	205	1	0
0.378071	205	1	0
0.37813	205	1	0
0.379605	205	1	0
0.380729	205	1	0
0.381106	205	1	0
0.383416	205	1	0
0.383952	205	1	0
0.388307	205	1	0
0.388734	206	1	0
0.389093	206	1	0
0.389317	206	1	0
0.38934	206	1	0
0.389815	207	1	0
0.390124	207	1	0
0.390593	208	1	0
0.390779	208	1	0
0.391357	208	1	0
0.392764	208	1	0
0.394148	208	1	0
0.394177	208	1	0
0.394281	208	1	0
0.394749	209	1	0
0.395667	209	1	0
0.396224	209	1	0
0.397271	209	1	0
0.398157	209	1	0
0.400512	209	1	0
0.401758	209	1	0
0.401908	209	1	0
0.403643	209	1	0
0.40496	209	1	0
0.405937	209	1	0
0.40653	209	1	0
0.407699	210	1	0
0.40935	210	1	0
0.410702	210	1	0
0.41103	210	1	0
0.41121	210	1	0
0.411393	210	1	0
0.412225	211	2	0
0.413089	213	1	0
0.41428	213	1	0
0.414288	213	1	0
0.41496	213	1	0
0.415406	213	1	0
0.415657	213	1	0
0.415968	214	1	0
0.415988	214	1	0
0.416081	214	1	0
0.416589	214	1	0
0.416914	214	1	0
0.419247	214	1	0
0.420333	215	1	0
0.420663	215	1	0
0.420933	215	1	0
0.423521	215	1	0
0.424218	215	1	0
0.425483	216	1	0
0.425552	216	1	0
0.425633	216	3	0
0.425672	218	2	0
0.426793	220	1	0
0.426865	220	1	0
0.427356	220	1	0
0.427458	220	1	0
0.427473	220	2	0
0.427567	220	2	0
0.427694	221	3	0
0.428012	223	2	0
0.428316	225	1	0
0.428344	226	1	0
0.428634	227	2	0
0.428925	229	1	0
0.43102	229	1	0
0.431659	229	1	0
0.432396	229	1	0
0.432862	229	1	0
0.433154	229	2	0
0.433253	230	3	0
0.433758	232	2	0
0.434273	232	2	0
0.435182	232	2	0
0.435278	232	2	0
0.43578	232	2	0
0.438384	232	2	0
0.438963	232	2	0
0.440096	232	2	0
0.440117	233	3	0
0.445381	235	2	0
0.44543	235	2	0
0.44543	235	2	0
0.446205	235	2	0
0.44788	235	2	0
0.448296	235	2	0
0.449683	235	2	0
0.450173	236	2	0
0.450851	236	2	0
0.452765	236	2	0
0.452921	236	2	0
0.453082	237	2	0
0.453348	237	2	0
0.453961	237	2	0
0.454569	237	2	0
0.455101	237	2	0
0.457338	237	2	0
0.457399	237	2	0
0.458204	237	2	0
0.458866	238	2	0
0.459567	238	2	0
0.460655	238	2	0
0.462201	238	2	0
0.466376	238	2	0
0.466445	238	2	0
0.467886	239	2	0
0.468	239	2	0
0.468401	241	1	0
0.469272	241	1	0
0.469533	241	1	0
0.469781	241	1	0
0.470356	241	1	0
0.470621	242	1	0
0.471227	242	1	0
0.472068	243	1	0
0.472316	243	1	0
0.472371	243	1	0
0.472491	243	1	0
0.472698	243	3	0
0.473121	243	3	0
0.473179	244	3	0
0.473655	244	3	0
0.474178	244	3	0
0.474709	245	3	0
0.47484	246	4	0
0.47494	248	3	0
0.475051	250	2	0
0.475488	252	1	0
0.480521	252	1	0
0.480795	252	1	0
0.48084	252	1	0
0.481609	252	1	0
0.482081	252	1	0
0.482234	252	2	0
0.482235	252	2	0
0.482398	252	2	0
0.483057	252	2	0
0.483062	252	2	0
0.483073	253	3	0
0.483342	255	2	0
0.483652	257	1	0
0.487472	259	1	0
0.48813	259	1	0
0.489784	260	1	0
0.489836	260	1	0
0.490378	260	1	0
0.49112	260	1	0
0.493394	260	1	0
0.493668	260	1	0
0.493704	261	1	0
0.494549	261	1	0
0.494602	261	1	0
0.495592	261	1	0
0.495715	261	1	0
0.49619	261	2	0
0.496457	261	2	0
0.496487	261	2	0
0.496516	262	3	0
0.496631	262	3	0
0.496712	264	2	0
0.496765	266	1	0
0.497929	266	1	0
0.49949	266	1	0
0.499667	266	1	0
0.500271	267	2	0
0.500305	267	2	0
0.501404	269	1	0
0.503074	269	1	0
0.503186	269	1	0
0.50408	269	1	0
0.50427	269	1	0
0.505222	269	1	0
0.505998	269	1	0
0.506238	269	1	0
0.506341	269	1	0
0.506588	269	1	0
0.507449	269	1	0
0.507816	269	1	0
0.5079	269	3	0
0.508258	269	3	0
0.508307	269	3	0
0.508785	271	2	0
0.5089	273	2	0
0.511101	275	1	0
0.51259	275	1	0
0.514135	275	1	0
0.516146	275	1	0
0.516558	275	1	0
0.517345	275	1	0
0.519103	275	1	0
0.519388	275	1	0
0.520296	275	1	0
0.521089	275	1	0
0.52128	275	1	0
0.521375	275	1	0
0.521998	275	1	0
0.522018	275	1	0
0.522933	275	1	0
0.5255	275	1	0
0.52846	275	1	0
0.529529	276	1	0
0.529573	276	1	0
0.530098	276	1	0
0.530747	277	1	0
0.532423	279	1	0
0.532922	280	1	0
0.534834	280	1	0
0.537908	282	1	0
0.538069	282	1	0
0.540007	282	1	0
0.540644	283	1	0
0.540954	283	1	0
0.541113	283	1	0
0.54203	283	1	0
0.542597	283	1	0
0.542667	283	1	0
0.543149	283	1	0
0.54322	283	1	0
0.544037	283	1	0
0.546253	283	1	0
0.546685	283	1	0
0.547454	284	1	0
0.548867	284	1	0
0.549754	284	1	0
0.549779	285	1	0
0.550285	285	1	0
0.550361	285	1	0
0.550767	285	1	0
0.55194	285	1	0
0.552021	285	1	0
0.552657	285	1	0
0.552833	285	1	0
0.553089	285	1	0
0.553116	285	3	0
0.553248	285	3	0
0.553313	287	3	0
0.554001	289	2	0
0.554434	289	2	0
0.555108	291	1	0
0.555368	292	1	0
0.555442	292	1	0
0.555794	293	1	0
0.557106	293	1	0
0.557312	293	1	0
0.557326	293	1	0
0.558935	293	1	0
0.559792	294	1	0
0.560499	294	1	0
0.562648	294	1	0
0.56403	294	1	0
0.567195	294	1	0
0.567314	294	1	0
0.567379	294	1	0
0.568849	294	1	0
0.569173	294	1	0
0.573411	294	1	0
0.574041	294	1	0
0.574843	294	1	0
0.576667	295	1	0
0.577004	295	1	0
0.577091	296	1	0
0.577285	296	1	0
0.577307	296	1	0
0.577474	296	1	0
0.578647	296	1	0
0.578794	296	1	0
0.579282	296	1	0
0.579668	296	1	0
0.581036	297	1	0
0.582086	297	1	0
0.585406	298	1	0
0.585435	298	1	0
0.585961	300	1	0
0.586737	300	1	0
0.58697	300	1	0
0.588121	300	1	0
0.588193	300	1	0
0.588577	301	2	0
0.588782	303	1	0
0.589382	303	1	0
0.590396	303	1	0
0.59064	303	1	0
0.590702	304	2	0
0.591212	306	1	0
0.592607	306	1	0
0.593073	307	1	0
0.595238	309	1	0
0.598048	309	1	0
0.598648	309	1	0
0.600505	309	1	0
0.600732	310	1	0
0.600979	310	1	0
0.601898	310	1	0
0.601942	311	1	0
0.6023	312	1	0
0.604245	312	1	0
0.604612	312	1	0
0.605453	313	1	0
0.605536	313	1	0
0.605588	313	1	0
0.606241	313	1	0
0.606716	313	1	0
0.607925	314	1	0
0.609132	314	1	0
0.610157	314	1	0
0.611583	314	1	0
0.612605	314	1	0
0.612623	314	1	0
0.613529	314	1	0
0.613576	314	1	0
0.61383	314	1	0
0.614496	315	1	0
0.614551	315	1	0
0.618093	315	1	0
0.619688	315	1	0
0.621707	315	1	0
0.621784	315	1	0
0.622518	315	1	0
0.622711	316	2	0
0.623661	318	1	0
0.625549	318	1	0
0.62587	318	1	0
0.627259	318	1	0
0.628588	318	1	0
0.629028	318	1	0
0.629229	318	1	0
0.629427	318	1	0
0.632553	318	1	0
0.632744	318	1	0
0.632952	318	2	0
0.633736	318	2	0
0.633786	318	2	0
0.634859	319	2	0
0.635025	320	3	0
0.635343	320	3	0
0.635749	322	2	0
0.63691	324	1	0
0.637551	325	1	0
0.637996	325	1	0
0.639862	325	1	0
0.640714	326	1	0
0.642286	326	1	0
0.644083	326	1	0
0.645104	327	1	0
0.645394	327	1	0
0.645659	327	1	0
0.646063	327	2	0
0.646305	328	3	0
0.646328	330	2	0
0.646811	332	1	0
0.647116	334	1	0
0.649616	335	1	0
0.649787	335	1	0
0.649968	336	2	0
0.650136	337	2	0
0.650782	339	1	0
0.650788	339	1	0
0.651316	339	1	0
0.651521	340	2	0
0.65176	342	1	0
0.652968	342	1	0
0.653613	342	1	0
0.655535	342	1	0
0.65556	343	1	0
0.655646	343	1	0
0.658118	344	1	0
0.658317	344	1	0
0.658825	344	1	0
0.6589	344	2	0
0.658946	345	3	0
0.659381	347	2	0
0.660023	349	1	0
0.662008	349	1	0
0.664726	349	1	0
0.668305	349	1	0
0.669637	350	1	0
0.671634	350	1	0
0.672409	350	1	0
0.672707	350	1	0
0.672998	350	3	0
0.673074	352	2	0
0.674215	354	1	0
0.676284	354	1	0
0.67719	354	1	0
0.677765	354	1	0
0.678527	354	1	0
0.681732	354	1	0
0.682008	355	1	0
0.683653	355	1	0
0.68456	355	1	0
0.687254	355	1	0
0.68884	356	1	0
0.689152	356	1	0
0.689156	357	1	0
0.689934	357	1	0
0.691885	357	1	0
0.691891	357	1	0
0.693042	357	1	0
0.694421	357	1	0
0.699445	357	1	0
0.700089	357	1	0
0.700157	357	1	0
0.701338	357	2	0
0.701698	357	2	0
0.701963	358	3	0
0.702046	360	2	0
0.70225	362	1	0
0.703687	362	1	0
0.704357	362	1	0
0.705262	362	2	0
0.706011	363	2	0
0.706105	364	3	0
0.706781	366	2	0
0.706937	366	2	0
0.707688	366	2	0
0.707861	366	2	0
0.708187	366	2	0
0.708409	366	2	0
0.708422	367	3	0
0.70879	369	2	0
0.709067	369	2	0
0.709286	371	1	0
0.709564	371	3	0
0.709762	373	2	0
0.711507	375	1	0
0.71417	375	1	0
0.714499	375	1	0
0.714626	376	2	0
0.715038	376	2	0
0.716682	378	1	0
0.717398	378	1	0
0.717954	378	1	0
0.718061	379	1	0
0.719491	379	1	0
0.723577	381	1	0
0.724651	381	1	0
0.725406	381	1	0
0.727351	381	1	0
0.72756	381	1	0
0.727899	382	2	0
0.728668	384	1	0
0.73145	384	1	0
0.735896	384	1	0
0.736122	384	1	0
0.736322	384	1	0
0.737236	384	1	0
0.737954	385	1	0
0.737967	386	2	0
0.740774	388	1	0
0.744524	388	1	0
0.744564	388	1	0
0.747676	388	1	0
0.74775	389	1	0
0.747915	389	1	0
0.748528	389	2	0
0.748743	390	3	0
0.748847	390	3	0
0.749087	392	2	0
0.75064	394	1	0
0.750791	396	1	0
0.750993	396	1	0
0.751753	396	1	0
0.75521	396	1	0
0.755356	396	1	0
0.755559	396	1	0
0.757945	397	1	0
0.757964	398	2	0
0.758131	400	1	0
0.758405	400	1	0
0.758936	400	1	0
0.759412	400	1	0
0.760663	400	1	0
0.762228	401	1	0
0.762335	402	1	0
0.762397	402	1	0
0.762562	402	1	0
0.764713	402	2	0
0.764911	402	3	0
0.765217	402	3	0
0.765319	402	3	0
0.765368	403	3	0
0.765409	404	4	0
0.765485	404	4	0
0.76572	406	3	0
0.765759	406	3	0
0.766092	408	2	0
0.766177	408	3	0
0.766573	409	4	0
0.766584	409	4	0
0.766603	409	4	0
0.766999	411	3	0
0.767204	413	2	0
0.767351	413	2	0
0.768281	415	1	0
0.769152	415	1	0
0.769169	415	3	0
0.769209	415	3	0
0.76928	417	2	0
0.769379	417	2	0
0.772019	419	1	0
0.773487	420	1	0
0.773606	420	1	0
0.777394	421	1	0
0.778748	421	1	0
0.779661	423	1	0
0.779746	423	1	0
0.783382	423	1	0
0.783509	423	1	0
0.783969	423	1	0
0.784083	423	1	0
0.784697	423	1	0
0.785876	424	1	0
0.786817	424	1	0
0.789193	424	1	0
0.793696	424	1	0
0.79561	424	1	0
0.796383	424	1	0
0.796612	424	1	0
0.796921	424	1	0
0.797708	424	1	0
0.797854	424	1	0
0.798664	424	1	0
0.800412	424	1	0
0.801361	424	1	0
0.803563	424	1	0
0.804007	424	1	0
0.804146	424	1	0
0.804545	424	2	0
0.805957	424	2	0
0.809828	424	2	0
0.810466	425	2	0
0.810661	426	2	0
0.813173	426	2	0
0.814318	426	2	0
0.814565	426	2	0
0.816436	426	2	0
0.81669	426	2	0
0.817338	426	2	0
0.819363	426	2	0
0.820339	427	2	0
0.821269	428	2	0
0.822699	428	2	0
0.823024	428	2	0
0.823399	429	3	0
0.824187	431	2	0
0.82501	431	2	0
0.826457	431	2	0
0.826469	431	2	0
0.82649	431	4	0
0.826782	433	3	0
0.828767	435	2	0
0.82894	437	2	0
0.829453	437	2	0
0.830062	438	2	0
0.830105	438	2	0
0.832079	438	2	0
0.832114	439	2	0
0.832716	441	1	0
0.833181	441	1	0
0.833769	441	1	0
0.834295	441	1	0
0.834566	443	1	0
0.835035	443	2	0
0.836358	443	2	0
0.836365	444	3	0
0.836376	446	2	0
0.838535	448	1	0
0.838757	448	1	0
0.839499	449	1	0
0.839539	449	1	0
0.839763	449	1	0
0.839906	449	1	0
0.839932	449	1	0
0.84016	449	2	0
0.840218	450	3	0
0.84023	451	4	0
0.840448	453	3	0
0.840823	455	2	0
0.841732	457	1	0
0.842513	457	1	0
0.842836	457	1	0
0.843249	457	1	0
0.843883	458	2	0
0.844038	460	1	0
0.8449	461	1	0
0.845336	461	1	0
0.845459	462	1	0
0.84644	462	1	0
0.847695	462	1	0
0.850199	462	1	0
0.850473	462	1	0
0.851326	462	1	0
0.852097	462	1	0
0.854226	462	1	0
0.857081	463	1	0
0.85716	463	1	0
0.858605	463	1	0
0.858612	463	1	0
0.858736	465	1	0
0.859451	467	1	0
0.860888	467	1	0
0.861487	467	1	0
0.861772	467	1	0
0.863538	467	1	0
0.86993	467	1	0
0.870241	467	1	0
0.870922	467	1	0
0.87114	467	1	0
0.871983	467	1	0
0.877659	467	1	0
0.878895	467	1	0
0.880495	467	1	0
0.880557	467	1	0
0.880626	467	1	0
0.881079	467	2	0
0.881211	467	2	0
0.881274	467	2	0
0.881277	468	3	0
0.881415	470	2	0
0.881567	470	3	0
0.881709	472	2	0
0.882128	473	3	0
0.882161	475	2	0
0.883131	475	2	0
0.884261	477	1	0
0.889662	477	1	0
0.890312	478	1	0
0.890426	478	1	0
0.890589	478	1	0
0.894058	478	1	0
0.894361	478	1	0
0.895353	478	1	0
0.89723	478	1	0
0.900138	478	1	0
0.900329	478	1	0
0.900548	478	1	0
0.902117	479	1	0
0.90328	479	1	0
0.904119	479	1	0
0.904386	479	1	0
0.905145	479	1	0
0.905885	480	1	0
0.905898	480	1	0
0.90633	480	1	0
0.906684	480	3	0
0.906849	480	3	0
0.906984	482	2	0
0.907285	482	3	0
0.907468	484	2	0
0.907647	485	3	0
0.907647	487	2	0
0.913882	489	1	0
0.918778	489	1	0
0.920405	490	1	0
0.921616	490	1	0
0.922666	491	1	0
0.922731	491	1	0
0.923136	491	1	0
0.923149	491	1	0
0.92519	492	1	0
0.926789	492	1	0
0.926976	492	1	0
0.927136	492	1	0
0.930312	492	1	0
0.931898	492	1	0
0.933797	492	1	0
0.935648	494	1	0
0.936311	495	1	0
0.941838	495	1	0
0.943503	495	1	0
0.946253	495	1	0
0.947232	495	1	0
0.948515	495	1	0
0.950274	496	1	0
0.95388	497	1	0
0.955144	497	1	0
0.955518	497	1	0
0.960141	498	1	0
0.960511	498	1	0
0.964185	498	1	0
0.964451	498	1	0
0.964619	498	1	0
0.964695	498	2	0
0.964738	499	3	0
0.96508	501	2	0
0.966622	503	1	0
0.966798	503	1	0
0.9671	503	1	0
0.967381	503	1	0
0.968275	503	1	0
0.969378	503	1	0
0.969913	503	1	0
0.971572	503	1	0
0.97422	503	1	0
0.97517	503	1	0
0.977367	504	1	0
0.977419	505	1	0
0.978331	505	1	0
0.978512	505	1	0
0.979156	505	2	0
0.979412	506	3	0
0.979618	508	2	0
0.97969	509	2	0
0.982017	511	1	0
0.982121	511	1	0
0.982168	511	1	0
0.983212	512	2	0
0.983914	514	1	0
0.984831	514	1	0
0.987601	514	1	0
0.989148	514	1	0
0.99263	515	1	0
0.992645	515	1	0
0.992855	516	2	0
0.993247	518	1	0
0.996226	518	1	0
0.996426	518	1	0
0.998594	518	1	0
1.00085	519	1	0
1.00209	520	1	0
1.00328	520	1	0
1.00359	520	1	0
1.00372	520	1	0
1.00386	521	2	0
1.0041	523	1	0
1.00414	523	1	0
1.0047	524	1	0
1.00687	525	1	0
1.00856	525	1	0
1.00902	525	1	0
1.00981	525	1	0
1.01211	525	1	0
1.01246	525	1	0
1.01346	526	1	0
1.01409	527	2	0
1.01464	529	1	0
1.01616	529	1	0
1.01718	529	1	0
1.01729	529	1	0
1.01734	529	1	0
1.01762	529	1	0
1.01774	529	1	0
1.01809	530	2	0
1.0185	532	1	0
1.01856	532	1	0
1.01976	532	1	0
1.02005	532	1	0
1.02059	533	2	0
1.02831	535	1	0
1.03095	535	1	0
1.03192	535	1	0
1.03222	535	1	0
1.03331	535	1	0
1.03775	535	1	0
1.0381	535	1	0
1.03933	535	1	0
1.04003	535	1	0
1.04122	535	1	0
1.04138	535	1	0
1.04204	536	2	0
1.04275	538	1	0
1.04552	538	1	0
1.04649	538	1	0
1.04694	539	1	0
1.04715	539	1	0
1.04817	539	1	0
1.04922	540	1	0
1.0506	540	1	0
1.05127	540	1	0
1.05248	540	1	0
1.05321	540	1	0
1.05346	541	1	0
1.05455	541	1	0
1.05455	541	1	0
1.05639	541	1	0
1.064	542	1	0
1.06612	542	1	0
1.06697	543	1	0
1.07071	543	1	0
1.07109	543	1	0
1.07426	545	1	0
1.07544	545	1	0
1.07559	546	2	0
1.07677	548	1	0
1.07692	548	1	0
1.07836	549	1	0
1.08318	550	1	0
1.08361	550	1	0
1.08405	550	1	0
1.08421	550	1	0
1.086	550	1	0
1.08647	550	1	0
1.08782	552	1	0
1.08826	552	1	0
1.08941	552	1	0
1.09099	552	1	0
1.09128	552	2	0
1.09226	554	1	0
1.09233	554	1	0
1.09394	554	1	0
1.09919	554	1	0
1.09929	555	1	0
1.09944	555	1	0
1.10201	555	1	0
1.10632	556	1	0
1.10659	556	1	0
1.10745	556	1	0
1.10864	556	1	0
1.10978	556	1	0
1.11468	556	1	0
1.11499	556	1	0
1.12131	556	1	0
1.12145	556	1	0
1.1215	556	1	0
1.12236	556	1	0
1.12286	557	2	0
1.12479	559	1	0
1.12617	559	1	0
1.13062	559	1	0
1.1352	559	1	0
1.1365	561	1	0
1.13657	561	1	0
1.1374	561	1	0
1.13771	562	2	0
1.13821	564	2	0
1.14287	566	1	0
1.14494	567	1	0
1.14521	567	1	0
1.1466	567	1	0
1.14792	567	1	0
1.14851	567	1	0
1.14864	567	1	0
1.14877	568	2	0
1.15444	570	1	0
1.15497	570	1	0
1.155	571	2	0
1.15531	571	2	0
1.15538	571	2	0
1.15626	573	1	0
1.15737	574	1	0
1.15782	574	1	0
1.16097	574	1	0
1.16133	574	1	0
1.16235	574	1	0
1.16363	574	1	0
1.16367	574	1	0
1.16387	575	2	0
1.16752	577	1	0
1.16888	577	1	0
1.1698	577	1	0
1.17065	577	1	0
1.17084	577	1	0
1.17163	577	1	0
1.17206	578	2	0
1.17253	580	1	0
1.17292	581	1	0
1.17629	581	1	0
1.17808	581	1	0
1.17919	581	1	0
1.17949	582	2	0
1.17974	582	2	0
1.17991	584	1	0
1.1826	585	1	0
1.18339	587	1	0
1.18505	587	1	0
1.18697	587	1	0
1.18919	587	1	0
1.19569	587	1	0
1.19804	588	1	0
1.19985	588	1	0
1.20017	588	3	0
1.20033	588	3	0
1.2004	590	2	0
1.2041	592	1	0
1.20552	592	1	0
1.20637	593	1	0
1.20788	593	1	0
1.20809	593	1	0
1.2108	593	1	0
1.21103	593	1	0
1.21105	593	3	0
1.21154	595	2	0
1.21439	597	1	0
1.2147	598	1	0
1.21718	598	1	0
1.21872	598	1	0
1.22043	598	1	0
1.22062	598	1	0
1.22117	599	2	0
1.22148	601	1	0
1.22305	601	1	0
1.22316	602	2	0
1.23219	604	1	0
1.23355	604	1	0
1.23643	604	1	0
1.23997	605	1	0
1.24174	605	1	0
1.24186	605	1	0
1.24676	605	1	0
1.2495	607	1	0
1.24964	608	1	0
1.2519	608	1	0
1.25559	609	1	0
1.25811	609	1	0
1.25833	609	1	0
1.25848	609	1	0
1.25988	610	1	0
1.26044	610	1	0
1.26056	611	2	0
1.26106	612	2	0
1.26217	614	1	0
1.26316	615	1	0
1.26469	615	1	0
1.26646	616	1	0
1.27451	616	1	0
1.2784	616	1	0
1.28057	616	1	0
1.2818	616	1	0
1.28193	617	2	0
1.2844	619	1	0
1.28583	620	1	0
1.29238	620	1	0
1.29425	620	1	0
1.29472	621	1	0
1.29707	621	1	0
1.29741	621	1	0
1.29988	622	1	0
1.302	624	1	0
1.30323	624	1	0
1.30411	624	1	0
1.30568	624	2	0
1.30586	625	3	0
1.30591	627	2	0
1.30624	627	2	0
1.30645	627	2	0
1.3069	627	2	0
1.30698	629	1	0
1.30857	629	1	0
1.31036	629	1	0
1.31095	629	1	0
1.31171	629	1	0
1.31186	630	2	0
1.32009	632	1	0
1.32014	632	1	0
1.3205	632	1	0
1.32123	632	2	0
1.32168	633	3	0
1.32199	635	2	0
1.32214	635	2	0
1.32456	637	1	0
1.32547	637	1	0
1.32599	637	1	0
1.3312	639	1	0
1.33377	639	1	0
1.33397	640	1	0
1.33544	640	1	0
1.33648	641	2	0
1.33692	641	2	0
1.33866	643	1	0
1.33933	643	1	0
1.33974	644	2	0
1.34019	646	1	0
1.34045	646	1	0
1.34268	646	1	0
1.3467	646	1	0
1.34709	646	1	0
1.34733	646	3	0
1.34759	648	2	0
1.34919	650	1	0
1.34944	650	1	0
1.34986	651	2	0
1.3504	653	1	0
1.35095	655	1	0
1.35118	655	1	0
1.3518	655	1	0
1.35659	656	1	0
1.3572	656	1	0
1.35803	656	1	0
1.35817	656	1	0
1.35839	656	1	0
1.35849	656	2	0
1.35853	656	2	0
1.35861	657	3	0
1.35877	659	2	0
1.36033	661	1	0
1.36126	661	1	0
1.36546	661	1	0
1.3672	661	1	0
1.36752	662	1	0
1.36761	662	1	0
1.36796	663	2	0
1.36833	665	1	0
1.37058	665	1	0
1.37285	665	1	0
1.37363	666	2	0
1.38109	668	1	0
1.3845	668	1	0
1.38496	668	1	0
1.38606	670	1	0
1.38746	670	1	0
1.39016	670	1	0
1.39028	670	1	0
1.39447	670	1	0
1.39454	670	1	0
1.39561	670	1	0
1.40044	670	1	0
1.40064	670	1	0
1.40239	670	1	0
1.4042	670	1	0
1.40634	672	1	0
1.40769	672	1	0
1.40837	672	1	0
1.41112	672	1	0
1.41143	672	3	0
1.41186	674	2	0
1.41241	676	1	0
1.41447	676	1	0
1.4241	677	1	0
1.42494	677	1	0
1.4276	677	1	0
1.42785	677	1	0
1.43014	677	1	0
1.44267	677	1	0
1.44273	677	1	0
1.44279	678	2	0
1.44285	680	1	0
1.44585	681	1	0
1.44648	681	1	0
1.4478	681	1	0
1.45125	681	1	0
1.45431	681	1	0
1.45619	681	1	0
1.45746	681	1	0
1.45754	681	1	0
1.459	681	2	0
1.45921	682	3	0
1.45943	682	3	0
1.45992	684	2	0
1.46236	686	1	0
1.4648	686	1	0
1.46585	687	1	0
1.46588	687	1	0
1.46657	687	1	0
1.46715	687	1	0
1.46734	687	1	0
1.46743	688	2	0
1.47473	690	1	0
1.47492	690	1	0
1.48105	690	1	0
1.48437	690	1	0
1.48516	690	1	0
1.48607	690	1	0
1.4868	690	1	0
1.48827	690	1	0
1.48974	690	1	0
1.49546	691	1	0
1.50066	691	1	0
1.50201	691	1	0
1.50236	691	1	0
1.51025	691	1	0
1.51227	691	1	0
1.51254	691	1	0
1.51424	691	1	0
1.51483	691	1	0
1.51886	691	1	0
1.52019	692	1	0
1.52493	692	1	0
1.52741	692	1	0
1.52779	692	1	0
1.5278	692	1	0
1.52844	693	2	0
1.53251	695	1	0
1.53363	695	1	0
1.53534	695	2	0
1.53537	696	3	0
1.53546	698	2	0
1.53775	700	1	0
1.53848	700	1	0
1.53872	701	2	0
1.53919	702	2	0
1.54007	704	1	0
1.54418	705	1	0
1.54688	705	1	0
1.54948	705	1	0
1.55446	705	1	0
1.55452	707	1	0
1.5559	707	1	0
1.55616	708	2	0
1.56123	710	1	0
1.5615	710	1	0
1.56218	710	3	0
1.56293	712	2	0
1.56513	714	1	0
1.56822	714	1	0
1.57059	714	1	0
1.57331	714	1	0
1.57386	715	1	0
1.57446	715	1	0
1.57483	715	1	0
1.58027	715	1	0
1.58165	715	1	0
1.58187	716	2	0
1.58215	718	1	0
1.58359	718	1	0
1.58757	719	1	0
1.58778	719	1	0
1.58792	719	1	0
1.58836	719	1	0
1.58868	720	2	0
1.58908	722	1	0
1.59114	722	1	0
1.59274	722	1	0
1.59416	722	1	0
1.59465	722	1	0
1.59546	723	2	0
1.59838	725	1	0
1.59921	725	1	0
1.60211	725	1	0
1.60266	725	1	0
1.60485	725	1	0
1.60629	725	1	0
1.60645	725	1	0
1.60686	725	1	0
1.60689	726	2	0
1.60812	728	1	0
1.61121	728	1	0
1.61275	728	1	0
1.61362	728	1	0
1.61431	728	3	0
1.6147	730	2	0
1.62203	732	1	0
1.62249	732	1	0
1.62259	732	3	0
1.62273	734	2	0
1.62665	736	1	0
1.62703	736	1	0
1.6272	736	3	0
1.62721	738	2	0
1.62809	740	1	0
1.62976	741	1	0
1.62992	741	1	0
1.63077	741	1	0
1.63132	742	2	0
1.63587	744	1	0
1.63643	744	1	0
1.63986	744	1	0
1.64019	744	1	0
1.64025	744	1	0
1.64207	744	2	0
1.64208	745	3	0
1.64232	747	2	0
1.64442	749	1	0
1.64617	749	1	0
1.64672	749	1	0
1.64706	749	1	0
1.6493	749	1	0
1.64977	749	1	0
1.65047	749	1	0
1.65051	749	1	0
1.65068	750	1	0
1.65078	751	2	0
1.65338	753	1	0
1.65404	753	1	0
1.65488	754	2	0
1.65804	756	1	0
1.65838	756	1	0
1.65979	756	1	0
1.66284	756	1	0
1.66623	756	1	0
1.66796	756	1	0
1.67418	756	1	0
1.67596	756	1	0
1.68247	756	1	0
1.69022	756	1	0
1.69744	756	1	0
1.70333	757	1	0
1.70389	757	1	0
1.70622	757	2	0
1.70658	757	2	0
1.7069	758	3	0
1.70705	760	2	0
1.70728	762	1	0
1.71059	762	1	0
1.71583	762	1	0
1.71628	762	1	0
1.71719	763	2	0
1.7211	765	1	0
1.72894	765	1	0
1.73019	765	1	0
1.73318	766	1	0
1.73842	766	1	0
1.75474	766	1	0
1.75684	766	1	0
1.76267	767	1	0
1.76422	767	1	0
1.76437	768	2	0
1.76558	770	1	0
1.77113	770	1	0
1.77189	770	1	0
1.7781	770	1	0
1.77851	771	1	0
1.78371	771	1	0
1.7919	771	1	0
1.79309	771	1	0
1.79417	771	1	0
1.79501	772	2	0
1.79857	774	1	0
1.79898	775	1	0
1.80003	775	1	0
1.80102	776	2	0
1.80186	776	2	0
1.80791	778	1	0
1.80867	778	1	0
1.80919	779	1	0
1.80955	779	1	0
1.81082	779	1	0
1.81138	779	2	0
1.81174	780	3	0
1.81188	782	2	0
1.81457	784	1	0
1.81816	784	1	0
1.82043	786	1	0
1.82072	786	1	0
1.82081	787	2	0
1.8236	789	1	0
1.82364	789	1	0
1.82524	789	1	0
1.82577	790	1	0
1.82773	790	1	0
1.82854	790	1	0
1.82951	791	2	0
1.83001	793	1	0
1.84003	793	1	0
1.84863	793	1	0
1.85086	793	1	0
1.85429	793	1	0
1.85661	793	1	0
1.86204	793	1	0
1.86243	793	1	0
1.86266	793	3	0
1.86278	795	2	0
1.86658	797	1	0
1.86884	797	1	0
1.86916	797	1	0
1.87286	798	1	0
1.87377	798	1	0
1.87386	798	1	0
1.87399	798	1	0
1.87455	798	1	0
1.87466	799	2	0
1.87478	801	1	0
1.87632	801	2	0
1.8769	801	2	0
1.87717	802	3	0
1.87723	804	2	0
1.87773	806	1	0
1.87974	807	1	0
1.88049	807	1	0
1.8806	809	1	0
1.88089	809	1	0
1.88215	810	2	0
1.88387	810	2	0
1.91131	810	2	0
1.91212	810	2	0
1.91226	811	3	0
1.9123	811	3	0
1.91318	813	2	0
1.91589	813	2	0
1.91616	813	2	0
1.92289	813	2	0
1.92579	813	2	0
1.92667	813	2	0
1.9267	813	2	0
1.92736	813	3	0
1.92823	813	3	0
1.92894	813	4	0
1.92974	813	4	0
1.93025	813	4	0
1.93053	814	5	0
1.93062	815	6	0
1.93093	817	5	0
1.93121	819	4	0
1.93283	821	3	0
1.94648	821	3	0
1.94695	821	3	0
1.94697	821	3	0
1.94721	821	3	0
1.94808	821	4	0
1.94822	821	5	0
1.94835	822	6	0
1.94845	824	5	0
1.94874	826	4	0
1.94891	827	5	0
1.9492	829	4	0
1.95024	831	3	0
1.95193	831	3	0
1.95217	832	3	0
1.95939	834	2	0
1.9631	834	2	0
1.96646	834	2	0
1.97274	834	2	0
1.97685	834	2	0
1.98177	834	2	0
1.98198	834	2	0
1.982	834	2	0
1.98209	834	2	0
1.98222	834	3	0
1.98251	835	4	0
1.98256	835	4	0
1.98283	837	3	0
1.98314	839	2	0
1.98331	839	2	0
1.98365	839	4	0
1.98369	841	3	0
1.98565	843	2	0
1.98589	843	2	0
1.98608	844	3	0
1.98832	846	2	0
2.00361	847	2	0
2.00732	847	2	0
2.01607	847	2	0
2.01731	847	2	0
2.01732	848	3	0
2.02437	850	2	0
2.03334	850	2	0
2.03733	850	2	0
2.0377	850	2	0
2.03867	851	3	0
2.04415	853	2	0
2.04706	853	2	0
2.04747	853	2	0
2.0477	854	3	0
2.04982	856	2	0
2.05096	856	2	0
2.05099	857	3	0
2.05817	859	2	0
2.05845	859	2	0
2.0618	859	2	0
2.07122	860	2	0
2.07183	860	2	0
2.07548	860	2	0
2.07623	860	2	0
2.07671	860	2	0
2.0778	860	2	0
2.08126	861	3	0
2.0825	861	3	0
2.0882	861	4	0
2.09065	861	4	0
2.09205	861	4	0
2.09635	862	4	0
2.09728	862	4	0
2.09787	862	4	0
2.0985	863	5	0
2.1049	865	4	0
2.11063	865	4	0
2.11997	865	4	0
2.12854	865	4	0
2.13636	865	4	0
2.1368	867	4	0
2.13717	869	3	0
2.13949	870	3	0
2.14791	870	3	0
2.15007	870	3	0
2.15008	871	4	0
2.157	873	3	0
2.16005	873	3	0
2.16039	873	3	0
2.1617	873	3	0
2.16205	873	3	0
2.16376	873	4	0
2.16412	874	5	0
2.16446	876	4	0
2.16756	878	3	0
2.16936	878	3	0
2.16979	880	3	0
2.17101	882	3	0
2.17367	882	3	0
2.17433	882	4	0
2.17483	882	4	0
2.17554	882	5	0
2.17558	883	6	0
2.17566	885	5	0
2.17693	887	4	0
2.17698	888	5	0
2.17758	890	4	0
2.18132	892	3	0
2.18708	892	3	0
2.18723	892	3	0
2.18726	892	5	0
2.18814	894	4	0
2.1889	896	3	0
2.19049	896	3	0
2.19366	896	3	0
2.19466	896	3	0
2.19477	896	3	0
2.19533	897	4	0
2.19738	899	3	0
2.2063	899	3	0
2.21618	899	3	0
2.22208	899	3	0
2.22209	899	3	0
2.22214	899	5	0
2.2223	901	4	0
2.22992	903	3	0
2.23124	903	3	0
2.23207	903	4	0
2.23257	903	4	0
2.23285	904	5	0
2.23295	906	4	0
2.23313	908	3	0
2.23404	909	3	0
2.23571	909	3	0
2.23702	909	3	0
2.23753	910	4	0
2.24057	912	3	0
2.24235	912	3	0
2.24383	912	3	0
2.24656	912	3	0
2.24683	912	3	0
2.24687	912	4	0
2.2481	912	5	0
2.2481	912	5	0
2.24811	913	6	0
2.24845	915	5	0
2.24879	916	6	0
2.24896	918	5	0
2.24919	918	5	0
2.24939	919	6	0
2.2494	921	5	0
2.25007	923	4	0
2.25025	925	3	0
2.25338	925	3	0
2.25622	925	3	0
2.26358	925	3	0
2.26565	925	3	0
2.26755	925	3	0
2.27266	925	3	0
2.27579	925	3	0
2.27903	925	3	0
2.28066	925	3	0
2.28089	925	3	0
2.28178	925	4	0
2.28191	926	5	0
2.28204	928	4	0
2.28264	930	3	0
2.28473	930	3	0
2.29582	931	3	0
2.29747	931	3	0
2.29778	931	3	0
2.29834	931	3	0
2.29871	932	4	0
2.2993	932	4	0
2.29942	933	5	0
2.29952	935	4	0
2.30754	937	3	0
2.30779	938	3	0
2.31443	938	3	0
2.31619	938	3	0
2.31664	938	3	0
2.31671	938	5	0
2.31749	940	4	0
2.33067	942	3	0
2.33124	942	3	0
2.33292	942	3	0
2.33422	942	3	0
2.33525	942	3	0
2.33953	942	3	0
2.33978	942	3	0
2.33995	943	4	0
2.34814	945	3	0
2.36212	945	3	0
2.36355	945	3	0
2.36359	946	3	0
2.36399	946	4	0
2.36451	947	5	0
2.36455	949	4	0
2.36862	951	3	0
2.3705	951	3	0
2.37931	951	3	0
2.37967	951	3	0
2.37976	951	5	0
2.38026	953	4	0
2.38361	955	3	0
2.38378	955	3	0
2.38388	955	5	0
2.384	955	5	0
2.3842	957	4	0
2.38432	958	5	0
2.38455	960	4	0
2.39031	962	3	0
2.39136	962	3	0
2.39141	963	4	0
2.40617	965	3	0
2.40704	965	3	0
2.40713	965	5	0
2.40739	967	4	0
2.41622	969	3	0
2.41648	969	3	0
2.41682	969	5	0
2.41699	971	4	0
2.42313	973	3	0
2.42323	973	3	0
2.42563	973	3	0
2.43236	973	3	0
2.43415	973	3	0
2.43507	973	3	0
2.43609	973	4	0
2.43623	974	5	0
2.43637	976	4	0
2.43768	978	3	0
2.4392	978	3	0
2.4481	978	3	0
2.4608	978	3	0
2.4694	978	3	0
2.48154	979	3	0
2.4871	979	3	0
2.48724	980	3	0
2.49233	982	3	0
2.49876	983	3	0
2.52839	983	3	0
2.52851	983	3	0
2.52957	983	3	0
2.52987	983	5	0
2.53024	985	4	0
2.54725	987	3	0
2.54775	989	3	0
2.55537	989	3	0
2.55756	989	3	0
2.56449	989	3	0
2.5714	989	3	0
2.57176	989	3	0
2.57283	989	3	0
2.57297	990	4	0
2.57456	992	3	0
2.58407	992	3	0
2.58874	992	3	0
2.59996	992	3	0
2.6011	992	3	0
2.60192	993	4	0
2.6112	995	3	0
2.6123	997	3	0
2.61869	997	3	0
2.62282	997	3	0
2.6244	997	3	0
2.62462	997	3	0
2.62524	998	4	0
2.62959	1000	3	0
2.63257	1000	3	0
2.6329	1000	3	0
2.63292	1001	4	0
2.63308	1001	4	0
2.64007	1003	3	0
2.64105	1003	3	0
2.65253	1003	3	0
2.65416	1004	3	0
2.65668	1004	3	0
2.6687	1005	3	0
2.66912	1005	3	0
2.66945	1005	4	0
2.66955	1006	5	0
2.67026	1008	4	0
2.67199	1010	3	0
2.67721	1010	3	0
2.67774	1010	3	0
2.6827	1010	3	0
2.69123	1010	3	0
2.69549	1010	3	0
2.70929	1010	3	0
2.71285	1010	3	0
2.72273	1010	3	0
2.73095	1010	3	0
2.73288	1010	3	0
2.73628	1010	3	0
2.73658	1010	4	0
2.73663	1011	5	0
2.73671	1013	4	0
2.74204	1015	3	0
2.74512	1015	3	0
2.75252	1015	3	0
2.75398	1015	3	0
2.75435	1015	3	0
2.75558	1015	3	0
2.75605	1016	4	0
2.76077	1018	3	0
2.76384	1018	3	0
2.77188	1018	3	0
2.77233	1018	3	0
2.77256	1018	3	0
2.77258	1018	3	0
2.7736	1018	3	0
2.7785	1018	3	0
2.78043	1018	3	0
2.78432	1018	3	0
2.79606	1018	3	0
2.79617	1018	3	0
2.79625	1018	5	0
2.79647	1020	4	0
2.79774	1022	3	0
2.79783	1022	3	0
2.79829	1022	4	0
2.79842	1023	5	0
2.79912	1025	4	0
2.81789	1027	3	0
2.8257	1027	3	0
2.82622	1027	3	0
2.82647	1027	3	0
2.82647	1028	4	0
2.82715	1030	3	0
2.82721	1030	5	0
2.82728	1032	4	0
2.8394	1034	3	0
2.8399	1034	3	0
2.84029	1035	4	0
2.8404	1035	4	0
2.84066	1037	3	0
2.86456	1037	3	0
2.88443	1037	3	0
2.88564	1037	3	0
2.8857	1037	4	0
2.8867	1037	4	0
2.88672	1038	5	0
2.88722	1039	6	0
2.88724	1041	5	0
2.88731	1043	4	0
2.90002	1045	3	0
2.90257	1045	3	0
2.90418	1045	3	0
2.90433	1046	4	0
2.91419	1048	3	0
2.91688	1048	3	0
2.93853	1049	3	0
2.9475	1049	3	0
2.94923	1049	3	0
2.94927	1049	5	0
2.94946	1051	4	0
2.95352	1053	3	0
2.954	1053	3	0
2.95436	1054	4	0
2.99299	1056	3	0
2.9949	1056	3	0
2.99689	1056	3	0
2.99761	1056	3	0
2.99763	1056	3	0
2.99798	1056	3	0
2.99816	1057	4	0
3.00013	1059	3	0
3.01123	1059	3	0
3.01202	1059	3	0
3.0123	1059	3	0
3.01285	1059	4	0
3.01295	1060	5	0
3.01325	1062	4	0
3.02126	1064	3	0
3.02183	1064	3	0
3.02201	1064	5	0
3.02278	1066	4	0
3.0383	1068	3	0
3.04344	1068	3	0
3.04684	1068	3	0
3.04773	1068	3	0
3.04832	1068	3	0
3.04852	1068	4	0
3.04882	1069	5	0
3.04893	1071	4	0
3.05003	1073	3	0
3.05021	1073	4	0
3.0503	1074	5	0
3.05103	1076	4	0
3.0512	1078	3	0
3.05155	1078	3	0
3.05255	1078	4	0
3.05266	1078	4	0
3.05362	1079	5	0
3.05372	1081	4	0
3.05376	1083	3	0
3.05586	1083	3	0
3.05618	1085	3	0
3.06004	1085	3	0
3.0705	1085	3	0
3.07195	1085	3	0
3.07227	1086	4	0
3.09038	1088	3	0
3.09076	1088	3	0
3.09078	1089	4	0
3.09117	1091	3	0
3.09891	1091	3	0
3.10104	1093	2	0
3.1125	1093	2	0
3.11335	1093	2	0
3.11337	1093	4	0
3.11784	1093	4	0
3.11806	1093	5	0
3.1181	1094	6	0
3.11812	1096	5	0
3.11815	1098	4	0
3.11841	1100	3	0
3.12802	1102	2	0
3.12933	1102	2	0
3.13097	1102	3	0
3.13133	1103	4	0
3.13169	1105	3	0
3.13414	1107	2	0
3.13468	1107	2	0
3.13487	1107	4	0
3.1352	1109	3	0
3.13553	1111	2	0
3.13557	1111	2	0
3.14482	1111	2	0
3.14548	1111	2	0
3.14688	1111	3	0
3.14772	1112	4	0
3.14826	1114	3	0
3.16069	1116	2	0
3.16181	1116	2	0
3.16202	1117	3	0
3.16353	1119	2	0
3.16883	1119	2	0
3.16905	1119	2	0
3.16976	1120	3	0
3.17226	1122	2	0
3.18253	1122	2	0
3.18849	1122	2	0
3.18907	1124	1	0
3.19034	1124	1	0
3.19087	1124	1	0
3.19377	1125	2	0
3.19572	1125	2	0
3.19984	1125	2	0
3.20028	1125	2	0
3.20091	1126	2	0
3.20516	1126	2	0
3.2057	1126	2	0
3.20578	1126	2	0
3.20686	1126	2	0
3.20698	1127	3	0
3.21023	1129	2	0
3.21026	1129	2	0
3.21038	1130	3	0
3.2146	1132	2	0
3.21557	1132	2	0
3.21603	1133	3	0
3.21957	1135	2	0
3.2247	1135	2	0
3.22498	1136	3	0
3.23052	1138	2	0
3.23256	1138	2	0
3.23744	1138	2	0
3.23821	1138	2	0
3.23822	1139	3	0
3.23924	1141	2	0
3.25028	1141	2	0
3.25147	1141	2	0
3.26271	1141	2	0
3.29508	1141	2	0
3.29549	1141	2	0
3.29555	1141	4	0
3.29572	1143	3	0
3.30786	1145	2	0
3.31605	1145	2	0
3.32386	1145	2	0
3.32668	1145	2	0
3.32873	1145	2	0
3.3289	1145	2	0
3.32891	1145	4	0
3.32916	1147	3	0
3.33986	1149	2	0
3.34088	1149	2	0
3.34208	1150	3	0
3.36785	1152	2	0
3.37098	1152	2	0
3.37237	1152	2	0
3.37246	1153	3	0
3.37902	1155	2	0
3.37912	1155	2	0
3.38096	1155	3	0
3.38125	1156	4	0
3.38132	1158	3	0
3.38205	1158	3	0
3.38206	1159	4	0
3.38221	1161	3	0
3.39098	1163	2	0
3.39172	1163	2	0
3.39194	1164	3	0
3.39895	1166	2	0
3.40232	1166	2	0
3.40566	1167	2	0
3.40857	1167	2	0
3.41407	1167	2	0
3.41616	1167	2	0
3.42475	1167	2	0
3.42497	1167	2	0
3.43279	1167	2	0
3.43383	1167	2	0
3.43682	1167	2	0
3.43692	1167	2	0
3.43751	1168	3	0
3.44373	1170	2	0
3.46685	1170	2	0
3.46894	1170	2	0
3.46899	1170	4	0
3.46899	1170	4	0
3.46933	1172	3	0
3.48786	1174	2	0
3.49007	1174	2	0
3.49578	1174	2	0
3.49983	1174	2	0
3.50593	1174	2	0
3.52146	1174	2	0
3.52301	1174	2	0
3.52359	1174	2	0
3.52448	1175	3	0
3.53129	1177	2	0
3.5456	1177	2	0
3.54626	1177	2	0
3.54627	1178	3	0
3.56722	1180	2	0
3.60935	1180	2	0
3.60974	1180	2	0
3.60988	1181	3	0
3.61108	1183	2	0
3.65075	1183	2	0
3.65561	1183	2	0
3.65981	1183	2	0
3.66033	1183	2	0
3.66116	1183	2	0
3.66162	1183	3	0
3.66202	1184	4	0
3.66226	1186	3	0
3.6716	1188	2	0
3.67553	1188	2	0
3.67566	1188	2	0
3.67579	1189	3	0
3.67674	1191	2	0
3.6775	1191	2	0
3.67844	1191	2	0
3.67866	1191	4	0
3.6789	1193	3	0
3.68533	1195	2	0
3.68845	1196	2	0
3.6922	1196	2	0
3.6926	1196	2	0
3.69402	1197	3	0
3.69935	1199	2	0
3.70865	1199	2	0
3.7128	1199	2	0
3.73202	1199	2	0
3.73377	1199	2	0
3.73389	1199	3	0
3.73398	1199	4	0
3.73424	1199	5	0
3.73437	1199	6	0
3.7344	1201	5	0
3.73466	1201	6	0
3.73578	1203	5	0
3.73695	1205	4	0
3.7527	1205	4	0
3.75292	1205	4	0
3.7538	1207	3	0
3.75737	1209	2	0
3.7893	1209	2	0
3.79402	1209	2	0
3.79414	1209	2	0
3.79465	1209	4	0
3.79466	1211	3	0
3.80265	1213	2	0
3.80412	1213	2	0
3.80525	1214	3	0
3.81025	1216	2	0
3.81287	1216	2	0
3.81295	1216	4	0
3.81476	1218	3	0
3.8375	1220	2	0
3.83863	1220	2	0
3.84031	1221	2	0
3.84096	1221	2	0
3.84115	1221	4	0
3.84147	1223	3	0
3.85193	1225	2	0
3.85561	1225	2	0
3.86433	1225	2	0
3.86722	1225	2	0
3.86777	1226	3	0
3.86973	1228	2	0
3.87148	1228	2	0
3.87192	1228	3	0
3.87226	1228	3	0
3.87243	1229	4	0
3.87247	1231	3	0
3.87283	1233	2	0
3.87509	1233	2	0
3.89249	1233	2	0
3.89331	1233	2	0
3.89595	1233	3	0
3.89605	1234	4	0
3.89669	1236	3	0
3.91736	1238	2	0
3.9176	1238	2	0
3.91763	1239	3	0
3.92272	1241	2	0
3.93821	1241	2	0
3.93836	1241	2	0
3.93873	1241	2	0
3.93971	1241	2	0
3.9402	1241	4	0
3.94362	1243	3	0
3.95765	1243	3	0
3.95782	1243	3	0
3.95806	1244	4	0
3.97249	1246	3	0
3.97818	1246	3	0
3.98493	1246	3	0
3.98519	1246	3	0
3.98523	1247	4	0
3.99849	1249	3	0
4.01348	1249	3	0
4.01474	1249	3	0
4.01483	1249	5	0
4.01557	1251	4	0
4.033	1253	3	0
4.03361	1253	3	0
4.03361	1254	4	0
4.05698	1256	3	0
4.05907	1256	3	0
4.05941	1257	4	0
4.07676	1259	3	0
4.09804	1259	3	0
4.09805	1259	3	0
4.09878	1259	4	0
4.09885	1260	5	0
4.09931	1262	4	0
4.10376	1264	3	0
4.10684	1264	3	0
4.10736	1264	3	0
4.10771	1264	3	0
4.10837	1265	4	0
4.12107	1267	3	0
4.12745	1267	3	0
4.14115	1267	3	0
4.14178	1267	3	0
4.14635	1268	4	0
4.14663	1268	4	0
4.14753	1269	5	0
4.15405	1271	4	0
4.15456	1271	4	0
4.1547	1272	5	0
4.16426	1274	4	0
4.16589	1274	4	0
4.16642	1274	4	0
4.16714	1275	5	0
4.17205	1277	4	0
4.17464	1278	4	0
4.19405	1278	4	0
4.1946	1278	4	0
4.1963	1278	5	0
4.19637	1279	6	0
4.19641	1281	5	0
4.20799	1283	4	0
4.21773	1283	4	0
4.2188	1283	4	0
4.22268	1283	4	0
4.24002	1283	4	0
4.24097	1283	4	0
4.24105	1284	5	0
4.28404	1286	4	0
4.28827	1286	4	0
4.2893	1286	4	0
4.28955	1286	6	0
4.2897	1288	5	0
4.29397	1290	4	0
4.29501	1290	4	0
4.29527	1291	5	0
4.30596	1293	4	0
4.30861	1293	4	0
4.31735	1293	4	0
4.318	1293	4	0
4.31835	1293	5	0
4.31839	1294	6	0
4.31841	1296	5	0
4.31976	1298	4	0
4.35418	1298	4	0
4.35455	1298	4	0
4.35498	1299	5	0
4.37631	1301	4	0
4.38949	1301	4	0
4.39014	1301	4	0
4.39092	1301	6	0
4.39252	1303	5	0
4.39446	1305	4	0
4.3949	1305	4	0
4.39605	1306	5	0
4.3995	1308	4	0
4.40153	1308	4	0
4.40158	1308	4	0
4.40202	1309	5	0
4.40279	1311	4	0
4.40301	1311	5	0
4.40341	1312	6	0
4.40367	1314	5	0
4.40448	1316	4	0
4.41077	1316	4	0
4.4147	1316	4	0
4.42229	1318	3	0
4.42254	1318	3	0
4.42257	1319	4	0
4.45269	1321	3	0
4.45547	1321	3	0
4.45579	1321	3	0
4.45626	1322	4	0
4.49554	1324	3	0
4.49641	1324	3	0
4.49647	1324	5	0
4.49656	1326	4	0
4.50274	1328	3	0
4.50302	1328	3	0
4.50351	1329	4	0
4.50938	1331	3	0
4.52041	1331	3	0
4.57263	1331	3	0
4.57911	1331	3	0
4.58963	1331	3	0
4.59036	1331	3	0
4.59074	1331	5	0
4.60777	1333	4	0
4.6097	1333	4	0
4.60985	1333	5	0
4.60991	1333	6	0
4.60992	1333	8	0
4.60997	1335	7	0
4.61001	1337	6	0
4.61067	1339	5	0
4.61467	1341	4	0
4.61544	1341	4	0
4.616	1342	5	0
4.61641	1344	4	0
4.62535	1344	4	0
4.64753	1344	4	0
4.64812	1344	4	0
4.6631	1344	4	0
4.66386	1344	4	0
4.66389	1345	5	0
4.67583	1347	4	0
4.67781	1347	4	0
4.67861	1347	4	0
4.68	1347	4	0
4.68007	1348	5	0
4.6857	1350	4	0
4.69803	1350	4	0
4.69854	1350	4	0
4.70793	1350	4	0
4.70902	1350	4	0
4.70932	1350	6	0
4.70982	1352	5	0
4.74058	1354	4	0
4.74349	1354	4	0
4.74361	1354	6	0
4.74362	1356	5	0
4.79635	1358	4	0
4.79642	1358	4	0
4.79667	1358	4	0
4.79738	1359	5	0
4.80119	1361	4	0
4.8128	1361	4	0
4.83379	1361	4	0
4.83883	1361	4	0
4.84041	1361	4	0
4.85168	1361	4	0
4.85305	1361	4	0
4.85327	1361	5	0
4.8535	1362	6	0
4.85351	1364	5	0
4.85941	1366	4	0
4.86018	1366	4	0
4.86075	1366	6	0
4.87501	1368	5	0
4.87508	1368	5	0
4.87515	1369	6	0
4.8917	1371	5	0
4.89186	1371	5	0
4.89221	1371	6	0
4.89232	1372	7	0
4.89236	1374	6	0
4.9257	1376	5	0
4.94443	1378	4	0
4.94482	1378	4	0
4.945	1378	6	0
4.94572	1380	5	0
4.9728	1382	4	0
4.97383	1382	4	0
4.97421	1383	5	0
4.99338	1385	4	0
4.99385	1385	4	0
4.99385	1386	5	0
4.99809	1388	4	0
5.02824	1390	3	0
5.04083	1390	3	0
5.04129	1390	3	0
5.04151	1390	5	0
5.04842	1392	4	0
5.06867	1392	4	0
5.07018	1392	4	0
5.07185	1392	4	0
5.07186	1393	5	0
5.08302	1395	4	0
5.08476	1395	4	0
5.0848	1395	6	0
5.085	1397	5	0
5.10613	1399	4	0
5.10627	1399	4	0
5.10695	1400	5	0
5.1125	1402	4	0
5.13105	1402	4	0
5.13107	1402	4	0
5.13554	1403	5	0
5.1509	1403	5	0
5.15133	1403	5	0
5.15203	1404	6	0
5.17699	1406	5	0
5.17712	1406	5	0
5.17727	1407	6	0
5.19538	1409	5	0
5.19586	1409	5	0
5.19638	1409	6	0
5.19681	1410	7	0
5.19709	1412	6	0
5.21811	1414	5	0
5.21932	1414	5	0
5.21961	1415	6	0
5.2657	1417	5	0
5.27953	1417	5	0
5.28528	1417	5	0
5.28553	1417	5	0
5.2858	1417	7	0
5.28612	1419	6	0
5.28615	1421	5	0
5.36205	1421	5	0
5.36226	1421	5	0
5.36336	1421	6	0
5.36346	1422	7	0
5.36349	1424	6	0
5.38099	1426	5	0
5.38101	1426	5	0
5.38104	1426	7	0
5.38129	1428	6	0
5.38447	1430	5	0
5.39842	1430	5	0
5.3989	1430	5	0
5.39971	1430	7	0
5.40034	1432	6	0
5.40197	1434	5	0
5.4061	1434	5	0
5.41944	1435	6	0
5.43245	1435	6	0
5.43248	1435	6	0
5.43251	1435	8	0
5.43285	1437	7	0
5.43843	1439	6	0
5.45701	1439	6	0
5.4583	1439	6	0
5.45835	1440	7	0
5.4752	1442	6	0
5.4803	1442	6	0
5.48628	1442	6	0
5.48646	1442	6	0
5.48691	1443	7	0
5.49728	1445	6	0
5.49907	1445	6	0
5.49996	1446	7	0
5.50295	1448	6	0
5.50331	1448	6	0
5.50398	1449	7	0
5.5547	1451	6	0
5.56645	1451	6	0
5.56668	1451	6	0
5.56713	1451	7	0
5.56716	1452	8	0
5.56789	1454	7	0
5.58346	1456	6	0
5.58385	1456	6	0
5.58417	1457	7	0
5.61433	1459	6	0
5.61515	1459	6	0
5.61609	1460	7	0
5.6628	1462	6	0
5.66502	1462	6	0
5.66503	1462	8	0
5.66525	1464	7	0
5.70005	1466	6	0
5.70181	1466	6	0
5.70207	1466	8	0
5.70265	1468	7	0
5.76079	1470	6	0
5.76081	1470	6	0
5.76087	1470	6	0
5.76179	1470	7	0
5.76194	1471	8	0
5.76209	1473	7	0
5.76215	1474	8	0
5.76257	1476	7	0
5.79497	1478	6	0
5.79846	1478	6	0
5.79889	1478	6	0
5.79936	1478	7	0
5.79986	1479	8	0
5.79998	1481	7	0
5.81646	1483	6	0
5.87765	1483	6	0
5.87781	1483	6	0
5.87791	1483	8	0
5.87842	1485	7	0
5.89871	1487	6	0
5.95174	1487	6	0
5.95227	1487	6	0
5.95236	1487	6	0
5.95356	1487	7	0
5.95357	1488	8	0
5.9536	1488	9	0
5.95367	1490	8	0
5.9537	1491	9	0
5.95407	1493	8	0
5.95539	1495	7	0
5.95996	1497	6	0
5.96027	1497	6	0
5.96039	1498	7	0
5.96178	1500	6	0
5.97284	1500	6	0
5.97508	1500	6	0
5.97978	1501	7	0
5.98177	1501	7	0
5.98194	1501	8	0
6.06271	1503	7	0
6.06352	1503	7	0
6.06391	1504	8	0
6.09277	1506	7	0
6.10024	1508	6	0
6.14752	1508	6	0
6.14953	1508	6	0
6.15035	1509	7	0
6.15216	1511	6	0
6.17347	1511	6	0
6.17402	1511	6	0
6.17448	1511	8	0
6.17481	1513	7	0
6.17943	1515	6	0
6.20888	1515	6	0
6.21031	1515	6	0
6.21036	1515	8	0
6.21052	1517	7	0
6.24667	1519	6	0
6.24674	1519	6	0
6.24689	1520	7	0
6.26668	1522	6	0
6.27922	1522	6	0
6.30279	1522	6	0
6.34245	1524	5	0
6.3462	1524	5	0
6.37564	1524	5	0
6.37599	1524	5	0
6.37649	1525	6	0
6.39213	1527	5	0
6.39468	1527	5	0
6.39531	1527	5	0
6.39588	1528	6	0
6.44671	1530	5	0
6.44697	1530	5	0
6.44757	1530	5	0
6.44823	1531	6	0
6.44832	1532	7	0
6.47263	1534	6	0
6.51576	1534	6	0
6.51633	1534	6	0
6.51654	1535	7	0
6.52003	1537	6	0
6.52123	1537	6	0
6.52132	1537	8	0
6.52148	1539	7	0
6.52808	1541	6	0
6.53102	1541	6	0
6.53293	1541	6	0
6.53393	1542	7	0
6.53681	1544	6	0
6.5796	1544	6	0
6.57988	1544	6	0
6.58008	1545	7	0
6.58213	1547	6	0
6.58305	1547	6	0
6.62434	1547	7	0
6.62442	1547	7	0
6.63403	1549	6	0
6.66569	1549	6	0
6.66615	1549	6	0
6.66651	1550	7	0
6.68401	1552	6	0
6.68465	1552	6	0
6.68657	1552	7	0
6.68683	1553	8	0
6.68691	1555	7	0
6.69137	1557	6	0
6.69195	1557	6	0
6.69587	1558	7	0
6.69633	1558	7	0
6.69692	1559	8	0
6.70087	1561	7	0
6.70355	1561	7	0
6.70398	1562	8	0
6.7203	1564	7	0
6.72406	1564	7	0
6.72415	1565	8	0
6.7319	1567	7	0
6.75369	1567	7	0
6.75437	1567	7	0
6.78848	1567	8	0
6.78879	1567	8	0
6.79149	1569	7	0
6.79172	1570	8	0
6.79852	1572	7	0
6.80002	1572	7	0
6.80075	1572	7	0
6.80089	1573	8	0
6.80622	1575	7	0
6.80626	1575	7	0
6.80699	1576	8	0
6.8387	1578	7	0
6.8394	1578	7	0
6.83943	1578	9	0
6.83963	1580	8	0
6.85626	1582	7	0
6.86829	1582	7	0
6.87119	1582	7	0
6.87135	1582	9	0
6.87138	1584	8	0
6.87242	1586	7	0
6.87302	1586	7	0
6.87329	1587	8	0
6.94858	1589	7	0
6.94991	1589	7	0
6.95039	1589	8	0
6.95071	1590	9	0
6.95104	1592	8	0
6.97385	1594	7	0
6.97441	1594	7	0
6.97474	1595	8	0
6.9942	1597	7	0
7.00863	1597	7	0
7.01216	1597	7	0
7.0127	1597	7	0
7.01289	1597	8	0
7.013	1598	9	0
7.01312	1600	8	0
7.05476	1602	7	0
7.06838	1602	7	0
7.06872	1602	7	0
7.06903	1603	8	0
7.08291	1605	7	0
7.08302	1605	7	0
7.08309	1606	8	0
7.10622	1608	7	0
7.10664	1608	7	0
7.1071	1609	8	0
7.11208	1611	7	0
7.16923	1613	6	0
7.17187	1613	6	0
7.1721	1614	7	0
7.17913	1616	6	0
7.1973	1616	6	0
7.19827	1616	6	0
7.19849	1617	7	0
7.19921	1619	6	0
7.19969	1619	6	0
7.1997	1620	7	0
7.19995	1620	7	0
7.20015	1620	9	0
7.20027	1622	8	0
7.20069	1624	7	0
7.21052	1626	6	0
7.21151	1626	6	0
7.21204	1627	7	0
7.29765	1629	6	0
7.30005	1629	6	0
7.33849	1629	6	0
7.36074	1629	6	0
7.37068	1631	5	0
7.37182	1631	5	0
7.37217	1632	6	0
7.38123	1634	5	0
7.38861	1634	5	0
7.42298	1634	5	0
7.4238	1634	5	0
7.4247	1635	6	0
7.4248	1635	6	0
7.43378	1637	5	0
7.43403	1637	5	0
7.47408	1637	6	0
7.47426	1637	6	0
7.47428	1639	5	0
7.47512	1640	6	0
7.49631	1642	5	0
7.50748	1642	5	0
7.5081	1642	5	0
7.50822	1642	7	0
7.50834	1644	6	0
7.54227	1646	5	0
7.54237	1646	5	0
7.54239	1647	6	0
7.54258	1649	5	0
7.54861	1649	5	0
7.54873	1650	6	0
7.56369	1652	5	0
7.5637	1652	5	0
7.56385	1653	6	0
7.58676	1655	5	0
7.58786	1655	5	0
7.58829	1655	6	0
7.58964	1655	6	0
7.58985	1656	7	0
7.63305	1658	6	0
7.63348	1658	6	0
7.67958	1660	5	0
7.68125	1660	5	0
7.68153	1661	6	0
7.68367	1663	5	0
7.69737	1663	5	0
7.69857	1663	5	0
7.69899	1664	6	0
7.7405	1666	5	0
7.74074	1666	5	0
7.74097	1666	6	0
7.74125	1666	7	0
7.74126	1666	8	0
7.74131	1668	7	0
7.74139	1670	6	0
7.76695	1672	5	0
7.76795	1672	5	0
7.76799	1672	7	0
7.76872	1674	6	0
7.77899	1676	5	0
7.78048	1676	5	0
7.78096	1677	6	0
7.79769	1679	5	0
7.79772	1679	5	0
7.79776	1679	7	0
7.79878	1681	6	0
7.81263	1683	5	0
7.83672	1685	4	0
7.84518	1685	4	0
7.87291	1687	3	0
7.87306	1687	3	0
7.87437	1688	4	0
7.88198	1690	3	0
7.88328	1690	3	0
7.88408	1691	4	0
7.88687	1693	3	0
7.88793	1693	3	0
7.88814	1694	4	0
7.88942	1696	3	0
7.8898	1696	3	0
7.8898	1697	4	0
7.94008	1699	3	0
7.94076	1699	3	0
7.94087	1699	5	0
7.94091	1701	4	0
7.95013	1703	3	0
7.9506	1703	3	0
7.95114	1703	4	0
7.95129	1703	4	0
7.95192	1704	5	0
7.95292	1706	4	0
7.95299	1707	5	0
7.95336	1709	4	0
8.00483	1711	3	0
8.00513	1711	3	0
8.00513	1712	4	0
8.01241	1714	3	0
8.0127	1714	3	0
8.01358	1714	5	0
8.01378	1716	4	0
8.06432	1718	3	0
8.06439	1718	3	0
8.06475	1719	4	0
8.07058	1721	3	0
8.07164	1721	3	0
8.07194	1721	5	0
8.07213	1723	4	0
8.13127	1725	3	0
8.13477	1725	3	0
8.13486	1725	5	0
8.13501	1727	4	0
8.15259	1729	3	0
8.1534	1729	3	0
8.15389	1730	4	0
8.15882	1732	3	0
8.16054	1732	3	0
8.16115	1732	4	0
8.16119	1733	5	0
8.16119	1735	4	0
8.24741	1737	3	0
8.24805	1737	3	0
8.24865	1738	4	0
8.30298	1740	3	0
8.31548	1742	2	0
8.31755	1742	2	0
8.33125	1743	3	0
8.33258	1743	3	0
8.33268	1744	4	0
8.34704	1746	3	0
8.34772	1746	3	0
8.34946	1747	4	0
8.35189	1749	3	0
8.35191	1749	3	0
8.35192	1749	4	0
8.35205	1750	5	0
8.35242	1752	4	0
8.35782	1754	3	0
8.38079	1754	3	0
8.38162	1754	3	0
8.38251	1755	4	0
8.40576	1757	3	0
8.40653	1757	3	0
8.40766	1758	4	0
8.41618	1760	3	0
8.41689	1760	3	0
8.4172	1760	4	0
8.41733	1761	5	0
8.41744	1763	4	0
8.4199	1765	3	0
8.42166	1765	3	0
8.42193	1765	3	0
8.4253	1765	4	0
8.42557	1766	5	0
8.42607	1768	4	0
8.43569	1770	3	0
8.43619	1770	3	0
8.43679	1771	4	0
8.52461	1773	3	0
8.52487	1773	3	0
8.52561	1774	4	0
8.55324	1776	3	0
8.55379	1776	3	0
8.55386	1776	5	0
8.55393	1778	4	0
8.59715	1780	3	0
8.6054	1780	3	0
8.60675	1780	3	0
8.60692	1781	4	0
8.64478	1783	3	0
8.6453	1783	3	0
8.6456	1784	4	0
8.68538	1786	3	0
8.68628	1786	3	0
8.68752	1786	3	0
8.68771	1787	4	0
8.7164	1789	3	0
8.71681	1789	3	0
8.71718	1790	4	0
8.74449	1792	3	0
8.74474	1792	3	0
8.74483	1792	5	0
8.74513	1794	4	0
8.7678	1796	3	0
8.76975	1796	3	0
8.76998	1796	5	0
8.77013	1798	4	0
8.79973	1800	3	0
8.8016	1800	3	0
8.80166	1800	5	0
8.8024	1802	4	0
8.81423	1804	3	0
8.81445	1804	3	0
8.81484	1805	4	0
8.82056	1807	3	0
8.84556	1807	3	0
8.86369	1807	3	0
8.86377	1807	3	0
8.87049	1808	4	0
8.90401	1808	4	0
8.92265	1808	4	0
8.96817	1810	3	0
9.04106	1810	3	0
9.06298	1810	3	0
9.08559	1810	3	0
9.08604	1810	3	0
9.08635	1810	4	0
9.08647	1811	5	0
9.08808	1813	4	0
9.12573	1815	3	0
9.12883	1815	3	0
9.14971	1816	4	0
9.14995	1816	4	0
9.15054	1817	5	0
9.19863	1819	4	0
9.20902	1819	4	0
9.20915	1819	4	0
9.20919	1819	6	0
9.20941	1821	5	0
9.2296	1823	4	0
9.22978	1823	4	0
9.26942	1823	5	0
9.26949	1823	5	0
9.31768	1825	4	0
9.38297	1827	3	0
9.41331	1827	3	0
9.41422	1827	3	0
9.41453	1828	4	0
9.45986	1830	3	0
9.51147	1830	3	0
9.5127	1830	3	0
9.51283	1830	5	0
9.5131	1832	4	0
9.55029	1834	3	0
9.57545	1834	3	0
9.57558	1834	3	0
9.57674	1834	4	0
9.57674	1835	5	0
9.57731	1837	4	0
9.62588	1839	3	0
9.6283	1839	3	0
9.62859	1840	4	0
9.65498	1842	3	0
9.67763	1842	3	0
9.67801	1842	3	0
9.70202	1843	4	0
9.75164	1843	4	0
9.75241	1843	4	0
9.75255	1843	6	0
9.75266	1845	5	0
9.75561	1847	4	0
9.78538	1847	4	0
9.80849	1847	4	0
9.80855	1847	4	0
9.80926	1848	5	0
9.81613	1850	4	0
9.93905	1850	4	0
9.93942	1850	4	0
9.93955	1851	5	0
9.97952	1853	4	0
9.97998	1853	4	0
9.98339	1854	5	0
10.0337	1856	4	0
10.0423	1856	4	0
10.0426	1856	4	0
10.0429	1856	4	0
10.0441	1857	5	0
10.0455	1859	4	0
10.0459	1860	5	0
10.0738	1862	4	0
10.0738	1862	4	0
10.0739	1863	5	0
10.12	1865	4	0
10.1208	1865	4	0
10.1208	1866	5	0
10.1316	1868	4	0
10.1317	1868	4	0
10.1322	1869	5	0
10.1592	1871	4	0
10.181	1873	3	0
10.1825	1873	3	0
10.1827	1873	4	0
10.1829	1874	5	0
10.1832	1876	4	0
10.2047	1878	3	0
10.206	1878	3	0
10.2061	1878	5	0
10.2065	1880	4	0
10.2278	1882	3	0
10.2781	1884	2	0
10.3359	1884	2	0
10.336	1884	2	0
10.3367	1885	3	0
10.3894	1887	2	0
10.397	1887	2	0
10.3978	1887	2	0
10.3987	1887	4	0
10.3993	1889	3	0
10.4491	1891	2	0
10.4495	1891	2	0
10.4496	1891	3	0
10.4503	1892	4	0
10.451	1894	3	0
10.5372	1896	2	0
10.5385	1896	2	0
10.5389	1896	4	0
10.539	1898	3	0
10.6133	1900	2	0
10.6133	1900	2	0
10.6137	1901	3	0
10.6617	1903	2	0
10.663	1903	2	0
10.6632	1904	3	0
10.6994	1906	2	0
10.6999	1906	2	0
10.7006	1907	3	0
10.7616	1909	2	0
10.7725	1909	2	0
10.7797	1909	2	0
10.78	1909	2	0
10.7803	1910	3	0
10.7848	1912	2	0
10.7856	1912	2	0
10.7858	1912	4	0
10.7863	1914	3	0
10.823	1916	2	0
10.8416	1916	2	0
10.8422	1916	2	0
10.874	1917	3	0
10.8741	1917	3	0
10.8747	1918	4	0
10.8858	1920	3	0
10.9187	1920	3	0
10.9284	1920	3	0
10.9287	1920	3	0
10.9289	1921	4	0
11.0258	1923	3	0
11.026	1923	3	0
11.0262	1923	5	0
11.027	1925	4	0
11.0277	1927	3	0
11.0278	1927	3	0
11.0281	1928	4	0
11.0385	1930	3	0
11.0403	1930	3	0
11.0403	1930	5	0
11.0408	1932	4	0
11.0763	1934	3	0
11.0862	1934	3	0
11.0873	1934	3	0
11.0877	1935	4	0
11.1604	1937	3	0
11.1738	1937	3	0
11.1743	1937	3	0
11.1745	1937	5	0
11.1749	1939	4	0
11.2026	1941	3	0
11.2053	1941	3	0
11.2055	1942	4	0
11.279	1944	3	0
11.28	1944	3	0
11.2803	1945	4	0
11.3082	1947	3	0
11.3089	1947	3	0
11.3089	1947	5	0
11.3091	1949	4	0
11.3252	1951	3	0
11.3252	1951	3	0
11.3254	1951	5	0
11.3257	1953	4	0
11.3998	1955	3	0
11.4005	1955	3	0
11.4007	1955	4	0
11.401	1956	5	0
11.4037	1958	4	0
11.4547	1960	3	0
11.4552	1960	3	0
11.4554	1960	4	0
11.4554	1961	5	0
11.4556	1963	4	0
11.5096	1965	3	0
11.6483	1967	2	0
11.6488	1967	2	0
11.6488	1968	3	0
11.6671	1970	2	0
11.7956	1970	2	0
11.8396	1972	1	0
11.8397	1972	1	0
11.8399	1973	2	0
11.945	1975	1	0
11.9521	1975	1	0
11.9533	1975	1	0
11.9533	1976	2	0
12.0038	1978	1	0
12.0044	1978	1	0
12.0045	1978	3	0
12.0057	1980	2	0
12.0187	1982	1	0
12.0198	1982	1	0
12.0198	1982	3	0
12.0199	1984	2	0
12.0725	1986	1	0
12.0728	1986	1	0
12.0735	1987	2	0
12.1038	1989	1	0
12.1075	1989	1	0
12.1077	1990	2	0
12.3046	1992	1	0
12.3057	1992	1	0
12.3062	1992	2	0
12.3064	1993	3	0
12.3064	1995	2	0
12.379	1997	1	0
12.3792	1997	1	0
12.3794	1997	3	0
12.3794	1999	2	0
12.4718	2001	1	0
12.4735	2001	1	0
12.5244	2002	2	0
12.5718	2002	2	0
12.6695	2002	2	0
12.6716	2002	2	0
12.6722	2002	4	0
12.6726	2004	3	0
12.775	2006	2	0
12.7756	2006	2	0
12.7758	2007	3	0
12.8023	2009	2	0
12.8041	2009	2	0
12.8043	2010	3	0
12.9258	2012	2	0
12.9263	2012	2	0
12.9264	2013	3	0
12.9831	2015	2	0
13.0852	2015	2	0
13.0877	2015	2	0
13.0877	2016	3	0
13.1125	2018	2	0
13.1129	2018	2	0
13.1129	2018	4	0
13.1882	2020	3	0
13.2182	2020	3	0
13.2194	2020	3	0
13.2198	2020	4	0
13.2198	2021	5	0
13.2199	2023	4	0
13.3234	2025	3	0
13.5303	2025	3	0
13.5317	2025	3	0
13.5323	2026	4	0
13.6504	2028	3	0
13.654	2030	2	0
13.7641	2032	1	0
13.7659	2032	1	0
13.7679	2032	2	0
13.7687	2033	3	0
13.769	2035	2	0
13.7825	2037	1	0
13.7834	2037	1	0
13.7836	2037	3	0
13.8578	2039	2	0
14.0215	2041	1	0
14.0218	2041	1	0
14.022	2041	3	0
14.0231	2043	2	0
14.055	2045	1	0
14.0555	2045	1	0
14.0568	2046	2	0
14.0845	2048	1	0
14.0856	2048	1	0
14.086	2048	3	0
14.0861	2050	2	0
14.0978	2052	1	0
14.0986	2052	1	0
14.0988	2053	2	0
14.2813	2055	1	0
14.2821	2055	1	0
14.2821	2055	3	0
14.2822	2057	2	0
14.3322	2059	1	0
14.3326	2059	1	0
14.3335	2060	2	0
14.3787	2062	1	0
14.381	2062	1	0
14.3815	2063	2	0
14.4553	2065	1	0
14.4569	2065	1	0
14.457	2065	3	0
14.4581	2067	2	0
14.582	2069	1	0
14.5916	2069	1	0
14.7461	2069	1	0
14.7464	2069	1	0
14.7469	2069	3	0
14.747	2071	2	0
14.8602	2073	1	0
14.8615	2073	1	0
14.8633	2073	2	0
14.8634	2074	3	0
14.8643	2076	2	0
14.8958	2078	1	0
14.897	2078	1	0
14.8971	2079	2	0
15.1749	2081	1	0
15.175	2081	1	0
15.4061	2082	2	0
15.7346	2082	2	0
15.7358	2082	2	0
15.7358	2083	3	0
15.7603	2085	2	0
15.7606	2085	2	0
15.7609	2086	3	0
15.8619	2088	2	0
15.862	2088	2	0
15.8621	2088	4	0
15.8628	2090	3	0
15.9569	2092	2	0
15.957	2092	2	0
15.957	2092	4	0
15.957	2094	3	0
16.0464	2096	2	0
16.0467	2096	2	0
16.0474	2096	3	0
16.0485	2096	3	0
16.0486	2097	4	0
16.0489	2098	5	0
16.0491	2100	4	0
16.0493	2102	3	0
16.1975	2104	2	0
16.1978	2104	2	0
16.1978	2104	4	0
16.198	2106	3	0
16.2551	2108	2	0
16.3146	2108	2	0
16.3983	2108	2	0
16.4006	2108	2	0
16.4175	2108	3	0
16.4181	2108	3	0
16.4186	2108	4	0
16.4204	2110	3	0
16.4211	2111	4	0
16.4211	2113	3	0
16.4238	2115	2	0
16.4256	2115	2	0
16.4262	2115	3	0
16.4263	2116	4	0
16.4263	2118	3	0
16.4263	2120	2	0
16.427	2120	2	0
16.4288	2120	2	0
16.4289	2121	3	0
16.5705	2123	2	0
16.5715	2123	2	0
16.5726	2124	3	0
16.6518	2126	2	0
16.6544	2126	2	0
16.6545	2126	4	0
16.6545	2128	3	0
16.6675	2130	2	0
16.6857	2130	2	0
16.6861	2130	2	0
16.6861	2131	3	0
16.711	2133	2	0
16.7138	2133	2	0
16.714	2133	4	0
16.7141	2135	3	0
16.7857	2137	2	0
16.7869	2137	2	0
16.787	2137	4	0
16.7878	2139	3	0
16.794	2141	2	0
16.796	2141	2	0
16.7969	2142	3	0
16.9195	2144	2	0
16.9198	2144	2	0
16.92	2144	4	0
16.9204	2146	3	0
16.9214	2148	2	0
17.0433	2150	1	0
17.0437	2150	1	0
17.0445	2151	2	0
17.427	2153	1	0
17.4279	2153	1	0
17.428	2153	3	0
17.4806	2155	2	0
17.4816	2155	2	0
17.4817	2155	4	0
17.4822	2157	3	0
17.4855	2159	2	0
17.5818	2159	2	0
17.5838	2159	2	0
17.5839	2159	4	0
17.5843	2161	3	0
17.6129	2163	2	0
17.6129	2163	2	0
17.6305	2164	3	0
17.634	2164	3	0
17.6469	2165	4	0
17.6498	2165	4	0
17.65	2165	6	0
17.6501	2167	5	0
17.935	2169	4	0
18.02	2169	4	0
18.0392	2171	3	0
18.041	2173	2	0
18.0645	2175	1	0
18.065	2175	1	0
18.0651	2175	3	0
18.0658	2177	2	0
18.0717	2179	1	0
18.0721	2179	1	0
18.1108	2179	2	0
18.111	2179	2	0
18.1112	2181	1	0
18.1113	2181	3	0
18.1116	2183	2	0
18.2031	2185	1	0
18.2041	2185	1	0
18.2048	2185	2	0
18.2051	2186	3	0
18.2056	2188	2	0
18.2835	2190	1	0
18.2842	2190	1	0
18.2849	2190	3	0
18.285	2192	2	0
18.4397	2194	1	0
18.4398	2194	1	0
18.4422	2194	2	0
18.4427	2195	3	0
18.4431	2197	2	0
18.4681	2199	1	0
18.4683	2199	1	0
18.5186	2200	2	0
18.5194	2200	2	0
18.6241	2201	3	0
18.6259	2201	3	0
18.6262	2201	5	0
18.627	2203	4	0
18.808	2205	3	0
18.8089	2205	3	0
18.8089	2206	4	0
18.8139	2208	3	0
18.9339	2210	2	0
18.9341	2210	2	0
18.9343	2210	4	0
18.9344	2212	3	0
19.101	2214	2	0
19.1013	2214	2	0
19.1022	2215	3	0
19.2173	2217	2	0
19.2196	2217	2	0
19.2199	2217	4	0
19.22	2219	3	0
19.3469	2221	2	0
19.3841	2221	2	0
19.595	2223	1	0
19.5959	2223	1	0
19.597	2224	2	0
19.6185	2226	1	0
19.6207	2226	1	0
19.6207	2226	3	0
19.6214	2228	2	0
19.6992	2230	1	0
19.6992	2230	1	0
19.6992	2231	2	0
19.723	2233	1	0
19.7238	2233	1	0
19.7239	2233	3	0
19.7243	2235	2	0
19.8841	2237	1	0
19.8846	2237	1	0
19.8848	2237	3	0
19.9509	2239	2	0
20.1055	2241	1	0
20.1068	2241	1	0
20.1068	2241	1	0
20.107	2242	2	0
20.108	2244	1	0
20.1085	2245	2	0
20.2197	2247	1	0
20.2204	2247	1	0
20.2207	2247	3	0
20.221	2249	2	0
20.2901	2251	1	0
20.2911	2251	1	0
20.2913	2251	3	0
20.2914	2253	2	0
20.3028	2255	1	0
20.3053	2255	1	0
20.3056	2255	3	0
20.3066	2257	2	0
20.3067	2257	2	0
20.3082	2259	1	0
20.4102	2260	2	0
20.4107	2260	2	0
20.411	2261	3	0
20.5039	2263	2	0
20.5875	2265	1	0
20.5882	2265	1	0
20.5884	2266	2	0
20.7862	2268	1	0
20.787	2268	1	0
20.7871	2268	3	0
20.7873	2270	2	0
20.8215	2272	1	0
20.8229	2272	1	0
20.8234	2272	3	0
20.8242	2274	2	0
20.9152	2276	1	0
20.9179	2276	1	0
20.9181	2276	3	0
20.9185	2278	2	0
21.1031	2280	1	0
21.1048	2280	1	0
21.1049	2280	3	0
21.1063	2282	2	0
21.2717	2284	1	0
21.2733	2284	1	0
21.2737	2284	3	0
21.274	2286	2	0
21.7335	2288	1	0
21.7356	2288	1	0
21.7356	2288	3	0
21.7362	2290	2	0
21.7482	2292	1	0
21.7505	2292	1	0
21.7512	2292	3	0
21.7521	2294	2	0
21.8423	2296	1	0
21.8423	2296	1	0
21.8429	2297	2	0
22.5579	2299	1	0
22.5585	2299	1	0
22.5586	2299	3	0
22.5588	2301	2	0
23.0011	2303	1	0
23.0025	2303	1	0
23.0025	2304	2	0
23.2714	2306	1	0
23.2715	2306	1	0
23.2716	2306	3	0
23.2717	2308	2	0
23.4551	2310	1	0
23.4564	2310	1	0
23.4566	2310	3	0
23.4567	2312	2	0
23.5668	2314	1	0
23.5668	2314	1	0
23.567	2314	3	0
23.5676	2316	2	0
23.9912	2318	1	0
23.9916	2318	1	0
23.9917	2319	2	0
24.1847	2321	1	0
24.185	2321	1	0
24.9054	2322	2	0
24.9056	2322	2	0
24.9058	2322	4	0
24.9058	2324	3	0
24.9167	2326	2	0
24.9174	2326	2	0
24.9177	2326	4	0
24.9179	2328	3	0
25.2552	2330	2	0
25.2557	2330	2	0
25.3269	2331	3	0
25.3282	2331	3	0
25.3282	2331	5	0
25.3284	2333	4	0
25.3315	2335	3	0
25.3316	2335	3	0
25.3318	2336	4	0
25.3539	2338	3	0
25.3541	2338	3	0
25.3541	2338	5	0
25.3542	2340	4	0
25.553	2342	3	0
25.5532	2342	3	0
25.5534	2342	5	0
25.5535	2344	4	0
25.5662	2346	3	0
25.5666	2346	3	0
25.5671	2346	5	0
25.5699	2348	4	0
25.7395	2350	3	0
25.7399	2350	3	0
25.7399	2351	4	0
26.3193	2353	3	0
26.3216	2353	3	0
26.3216	2353	5	0
26.3228	2355	4	0
26.6731	2357	3	0
26.6735	2357	3	0
26.6744	2358	4	0
28.1365	2360	3	0
28.138	2360	3	0
28.1402	2360	4	0
28.1404	2361	5	0
28.1404	2363	4	0
28.2571	2365	3	0
28.3275	2367	2	0
29.7475	2369	1	0
29.749	2369	1	0
29.7494	2370	2	0
