20	52	15	61	200	1	0.11159200	0.16650400	0.00000000	0.790000	0.04500000	10	5	0.60000000	


#>>init_EG >> init_CBH >> init_BGL >> init_XYL >> length_fibril >> pct_xyl >> pct_hemi >> pct_lign >> pct_acetyl_hemi >> pct_crystalline_cellu >> pct_crystalline_hemi >> Mean_size_defects >> N_defects >>r_monomer

