20	52	15	61	200	1	0.11912400	0.19662100	0.00000000	0.77000		0.6500000	10	10	0.60000000	


#>>init_EG >> init_CBH >> init_BGL >> init_XYL >> length_fibril >> pct_xyl >> pct_hemi >> pct_lign >> pct_acetyl_hemi >> pct_crystalline_cellu >> pct_crystalline_hemi >> Mean_size_defects >> N_defects >>r_monomer

