77.00000000	954.32483821	179.00000000	0.02515000	132	0.00550000	0.55291800	0.43588102	0.67993095	0.67809980	0.67988457	0.00017900	0.00173560	2.6


##>>EG rxn rate >>CBH rxn rate >>BGL rxn rate >>XYL rxn rate >>Lignin adhesion rate >>CBH attachment rate >>binding affinity of cellobiose to EG >>binding affinity of cellobiose to CBH >>binding affinity of glucose to EG >>binding affinity of glucose to CBH >>binding affinity of glucose to BGL >>digestibility ratio of "crystalline" and "amorphous" cellulose >>digestibility ratio of "crystalline" and "amorphous" hemicellulose >> Enzyme size: radius
