0.000000e-01      5.000000000000000000e+01    2.474214537538005061e+03    3.294786526609763122e-01    0.000000000000000000e+00
1.000000e-01      5.000000000000000000e+01    2.468676141088208169e+03    2.908260242710530852e-01    0.000000000000000000e+00
2.000000e-01      5.000000000000000000e+01    2.465329658245281735e+03    4.058488002084343904e-01    0.000000000000000000e+00
3.000000e-01      5.000000000000000000e+01    2.472753554419913598e+03    3.967375051614235315e-01    0.000000000000000000e+00
4.000000e-01      5.000000000000000000e+01    2.477481959027026733e+03    4.093742856198637203e-01    0.000000000000000000e+00
5.000000e-01      5.000000000000000000e+01    2.476486107419141263e+03    2.503129525879803641e-01    0.000000000000000000e+00
6.000000e-01      5.000000000000000000e+01    2.475611671162645507e+03    5.121129994358606385e-01    0.000000000000000000e+00
7.000000e-01      5.000000000000000000e+01    2.466514310254603060e+03    2.428448726984578920e-01    0.000000000000000000e+00
8.000000e-01      5.000000000000000000e+01    2.467876479973437199e+03    5.003343682959674465e-01    0.000000000000000000e+00
9.000000e-01      5.000000000000000000e+01    2.476936885219946817e+03    4.131698289670377444e-01    0.000000000000000000e+00
10.000000e-01      5.000000000000000000e+01    2.477723643822704162e+03    2.860569761468048644e-01    0.000000000000000000e+00
