0.000000e-01      5.000000000000000000e+00    2.105780336437491314e+03    3.109831781254349004e+00    0.000000000000000000e+00
1.000000e-01      5.000000000000000000e+00    2.053653531274500892e+03    3.548234362749642212e+00    0.000000000000000000e+00
2.000000e-01      5.000000000000000000e+00    1.982653362808852080e+03    2.829568595574020407e+00    0.000000000000000000e+00
3.000000e-01      5.000000000000000000e+00    1.949050150382189486e+03    2.568674808905390350e+00    0.000000000000000000e+00
4.000000e-01      5.000000000000000000e+00    1.841636002182063748e+03    2.520885442967820467e+00    0.000000000000000000e+00
5.000000e-01      5.000000000000000000e+00    1.735277682046468499e+03    2.767408976765746598e+00    0.000000000000000000e+00
6.000000e-01      5.000000000000000000e+00    1.619422380698411189e+03    2.146052206625700620e+00    0.000000000000000000e+00
7.000000e-01      5.000000000000000000e+00    1.505314352463293517e+03    1.467823768353308411e+00    0.000000000000000000e+00
8.000000e-01      5.000000000000000000e+00    1.319607231709461985e+03    1.133884145268946764e+00    0.000000000000000000e+00
9.000000e-01      5.000000000000000000e+00    1.152875158291560183e+03    5.683722242380846446e-01    0.000000000000000000e+00
10.000000e-01      5.000000000000000000e+00    9.397663015362971919e+02    3.668492318514229855e-01    0.000000000000000000e+00
