0.000000e-01      5.000000000000000000e+00    2.101164085344595605e+03    3.144334535975686240e+00    0.000000000000000000e+00
1.000000e-01      5.000000000000000000e+00    2.043863966163838768e+03    2.367496084747172436e+00    0.000000000000000000e+00
2.000000e-01      5.000000000000000000e+00    1.997865374101575071e+03    3.036062949212385842e+00    0.000000000000000000e+00
3.000000e-01      5.000000000000000000e+00    1.894095686660132287e+03    2.623912624759777046e+00    0.000000000000000000e+00
4.000000e-01      5.000000000000000000e+00    1.828102004654538860e+03    3.095855031110990474e+00    0.000000000000000000e+00
5.000000e-01      5.000000000000000000e+00    1.735810404366432977e+03    3.493643198309615894e+00    0.000000000000000000e+00
6.000000e-01      5.000000000000000000e+00    1.590268642285708893e+03    1.709428857145568248e+00    0.000000000000000000e+00
7.000000e-01      5.000000000000000000e+00    1.466355626140255481e+03    1.778325479848771984e+00    0.000000000000000000e+00
8.000000e-01      5.000000000000000000e+00    1.315575645921740033e+03    1.274677039129925804e+00    0.000000000000000000e+00
9.000000e-01      5.000000000000000000e+00    1.117534266145451284e+03    1.107866927274333335e+00    0.000000000000000000e+00
10.000000e-01      5.000000000000000000e+00    9.174345460946407229e+02    3.452269526796181154e-01    0.000000000000000000e+00
