0.000000e-01      2.500000000000000000e+01    2.466794709393393077e+03    1.133895303303505520e+00    0.000000000000000000e+00
1.000000e-01      2.500000000000000000e+01    2.461926206481699865e+03    4.075143556344995033e-01    0.000000000000000000e+00
2.000000e-01      2.500000000000000000e+01    2.461151930298214666e+03    2.052848508924910442e-01    0.000000000000000000e+00
3.000000e-01      2.500000000000000000e+01    2.465000570397666706e+03    8.448714703001527493e-01    0.000000000000000000e+00
4.000000e-01      2.500000000000000000e+01    2.472029270478076796e+03    2.960359826263616601e-01    0.000000000000000000e+00
5.000000e-01      2.500000000000000000e+01    2.469792053301554006e+03    6.048468172944436727e-01    0.000000000000000000e+00
6.000000e-01      2.500000000000000000e+01    2.468837526938064457e+03    3.937365309678894087e-01    0.000000000000000000e+00
7.000000e-01      2.500000000000000000e+01    2.459886780782318510e+03    4.049815441703642493e-01    0.000000000000000000e+00
8.000000e-01      2.500000000000000000e+01    2.459500663959792291e+03    5.621680201037766444e-01    0.000000000000000000e+00
9.000000e-01      2.500000000000000000e+01    2.470549629927395472e+03    4.080406001352118728e-01    0.000000000000000000e+00
10.000000e-01      2.500000000000000000e+01    2.472081600054949831e+03    3.214847908260680120e-01    0.000000000000000000e+00
